4:30,0,0
4:35,0,0
4:40,0,0
4:45,0,0
4:50,0,0
4:55,0,0
5:00,0,0
5:05,0,0
5:10,0,0
5:15,0,0
5:20,0,0
5:25,0,0
5:30,0,0
5:35,8,13
5:40,4,6
5:45,9,13
5:50,8,12
5:55,16,39
6:00,12,63
6:05,21,156
6:10,16,245
6:15,39,315
6:20,66,370
6:25,71,388
6:30,74,415
6:35,79,438
6:40,84,453
6:45,87,495
6:50,95,523
6:55,97,538
7:00,100,562
7:05,105,583
7:10,106,624
7:15,109,671
7:20,115,673
7:25,118,726
7:30,119,716
7:35,119,727
7:40,125,852
7:45,128,934
7:50,127,976
7:55,130,1014
8:00,133,1046
8:05,138,1075
8:10,142,1118
8:15,147,1180
8:20,155,1214
8:25,160,1299
8:30,178,1324
8:35,199,1350
8:40,222,1378
8:45,251,1404
8:50,277,1419
8:55,307,1443
9:00,335,1509
9:05,367,1542
9:10,394,1556
9:15,426,1577
9:20,461,1590
9:25,493,1602
9:30,526,1617
9:35,560,1627
9:40,594,1641
9:45,628,1659
9:50,660,1670
9:55,694,1681
10:00,724,1692
10:05,759,1704
10:10,793,1710
10:15,823,1715
10:20,854,1719
10:25,886,1721
10:30,918,1725
10:35,949,1726
10:40,978,1724
10:45,1004,1728
10:50,1034,1736
10:55,1060,1731
11:00,1091,1736
11:05,1113,1725
11:10,1140,1728
11:15,1167,1728
11:20,1195,1735
11:25,1219,1734
11:30,1246,1736
11:35,1265,1634
11:40,1285,1518
11:45,1308,1634
11:50,1335,1725
11:55,1351,1710
12:00,1374,1701
12:05,1391,1691
12:10,1408,1690
12:15,1425,1680
12:20,1449,1680
12:25,1462,1672
12:30,1473,1656
12:35,1495,1649
12:40,1512,1645
12:45,1531,1628
12:50,1549,1610
12:55,1569,1602
13:00,1594,1595
13:05,1605,1574
13:10,1615,1557
13:15,1627,1544
13:20,1631,1522
13:25,1643,1507
13:30,1647,1486
13:35,1662,1468
13:40,1671,1451
13:45,1684,1436
13:50,1685,1415
13:55,1691,1395
14:00,1697,1372
14:05,1709,1352
14:10,1717,1329
14:15,1717,1307
14:20,1725,1287
14:25,1735,1268
14:30,1728,1240
14:35,1728,1215
14:40,1712,1186
14:45,1711,1161
14:50,1703,1131
14:55,1700,1109
15:00,1696,1085
15:05,1700,1058
15:10,1684,1027
15:15,1687,1004
15:20,1688,975
15:25,1687,949
15:30,1685,920
15:35,1681,891
15:40,1662,855
15:45,1656,827
15:50,1661,802
15:55,1648,773
16:00,1643,744
16:05,1645,717
16:10,1650,696
16:15,1644,658
16:20,1514,596
16:25,322,185
16:30,598,252
16:35,1055,453
16:40,1012,492
16:45,721,416
16:50,379,298
16:55,356,294
17:00,385,311
17:05,404,343
17:10,401,355
17:15,329,306
17:20,268,242
17:25,323,264
17:30,349,306
17:35,253,248
17:40,206,218
17:45,187,214
17:50,150,181
17:55,127,146
18:00,124,124
18:05,104,97
18:10,89,82
18:15,89,80
18:20,100,90
18:25,111,97
18:30,119,90
18:35,130,92
18:40,157,104
18:45,242,150
18:50,406,237
18:55,434,269
19:00,360,234
19:05,296,200
19:10,293,188
19:15,255,178
19:20,222,162
19:25,196,152
19:30,172,138
19:35,150,119
19:40,103,86
19:45,72,62
19:50,80,69
19:55,83,79
20:00,46,53
20:05,10,11
20:10,8,11
20:15,9,10
20:20,0,0
20:25,0,0
20:30,0,0
20:35,0,0
20:40,0,0
20:45,0,0
20:50,0,0
20:55,0,0
21:00,0,0
21:05,0,0
21:10,0,0
21:15,0,0
21:20,0,0
21:25,0,0
21:30,0,0
