4:30,0,0
4:35,0,0
4:40,0,0
4:45,0,0
4:50,0,0
4:55,0,0
5:00,0,0
5:05,0,0
5:10,0,0
5:15,18,21
5:20,12,15
5:25,14,22
5:30,15,19
5:35,29,39
5:40,10,11
5:45,14,14
5:50,19,17
5:55,28,27
6:00,34,31
6:05,54,63
6:10,184,233
6:15,178,210
6:20,152,186
6:25,113,149
6:30,93,122
6:35,131,139
6:40,110,140
6:45,70,96
6:50,52,58
6:55,45,45
7:00,9,10
7:05,17,17
7:10,7,7
7:15,21,21
7:20,26,28
7:25,23,20
7:30,154,146
7:35,183,202
7:40,213,226
7:45,266,293
7:50,332,425
7:55,458,958
8:00,438,633
8:05,338,332
8:10,255,236
8:15,265,253
8:20,241,254
8:25,302,332
8:30,283,317
8:35,390,403
8:40,476,523
8:45,408,458
8:50,261,231
8:55,563,758
9:00,553,633
9:05,463,439
9:10,338,370
9:15,297,286
9:20,358,312
9:25,235,242
9:30,296,291
9:35,305,300
9:40,289,273
9:45,287,273
9:50,204,196
9:55,325,287
10:00,500,464
10:05,840,1037
10:10,1182,1956
10:15,1035,1442
10:20,739,824
10:25,577,572
10:30,596,578
10:35,450,403
10:40,569,523
10:45,738,870
10:50,881,893
10:55,606,616
11:00,601,676
11:05,415,488
11:10,506,532
11:15,533,547
11:20,967,922
11:25,725,736
11:30,669,688
11:35,615,615
11:40,817,873
11:45,970,1012
11:50,721,771
11:55,586,556
12:00,747,688
12:05,700,674
12:10,443,469
12:15,507,470
12:20,497,534
12:25,482,531
12:30,688,704
12:35,1030,1065
12:40,1107,1116
12:45,678,678
12:50,957,943
12:55,830,867
13:00,784,792
13:05,837,830
13:10,1362,1320
13:15,1201,1152
13:20,1555,1458
13:25,1128,1098
13:30,656,785
13:35,763,854
13:40,856,968
13:45,562,669
13:50,333,334
13:55,451,459
14:00,1357,1170
14:05,764,698
14:10,501,497
14:15,1523,1257
14:20,1443,1106
14:25,766,741
14:30,579,605
14:35,1514,1173
14:40,1368,1028
14:45,647,639
14:50,729,636
14:55,1158,938
15:00,1878,1341
15:05,1180,923
15:10,422,470
15:15,437,452
15:20,347,366
15:25,569,547
15:30,941,833
15:35,1049,922
15:40,613,611
15:45,491,465
15:50,824,715
15:55,795,697
16:00,827,738
16:05,810,785
16:10,458,516
16:15,322,364
16:20,617,544
16:25,678,593
16:30,1135,822
16:35,551,510
16:40,304,289
16:45,427,434
16:50,490,448
16:55,640,529
17:00,546,490
17:05,518,444
17:10,927,589
17:15,1415,615
17:20,981,510
17:25,1067,579
17:30,580,512
17:35,336,308
17:40,442,409
17:45,441,388
17:50,407,347
17:55,390,389
18:00,307,315
18:05,941,473
18:10,1063,452
18:15,752,334
18:20,396,269
18:25,496,312
18:30,556,374
18:35,415,321
18:40,473,310
18:45,490,288
18:50,528,289
18:55,593,302
19:00,372,294
19:05,373,292
19:10,373,292
19:15,317,267
19:20,305,246
19:25,297,244
19:30,257,225
19:35,220,197
19:40,228,179
19:45,237,177
19:50,233,166
19:55,235,170
20:00,257,180
20:05,245,193
20:10,139,129
20:15,119,99
20:20,104,85
20:25,101,73
20:30,115,79
20:35,112,89
20:40,81,76
20:45,53,48
20:50,27,16
20:55,9,8
21:00,11,6
21:05,6,4
21:10,7,3
21:15,12,11
21:20,0,0
21:25,0,0
