4:30,0,0
4:35,0,0
4:40,0,0
4:45,0,0
4:50,0,0
4:55,0,0
5:00,0,0
5:05,0,0
5:10,0,0
5:15,0,0
5:20,0,0
5:25,0,0
5:30,0,0
5:35,0,0
5:40,0,0
5:45,0,0
5:50,0,0
5:55,0,0
6:00,0,0
6:05,0,0
6:10,0,0
6:15,0,0
6:20,0,0
6:25,0,0
6:30,0,0
6:35,0,0
6:40,0,0
6:45,0,0
6:50,0,0
6:55,0,0
7:00,0,0
7:05,0,0
7:10,0,0
7:15,0,0
7:20,0,0
7:25,0,0
7:30,0,0
7:35,0,0
7:40,0,0
7:45,0,0
7:50,10,9
7:55,6,5
8:00,12,10
8:05,10,10
8:10,20,13
8:15,16,15
8:20,40,18
8:25,64,20
8:30,81,57
8:35,115,116
8:40,165,157
8:45,219,220
8:50,207,229
8:55,150,168
9:00,130,140
9:05,132,140
9:10,143,148
9:15,157,165
9:20,155,165
9:25,140,151
9:30,93,97
9:35,105,108
9:40,75,76
9:45,67,68
9:50,93,100
9:55,121,127
10:00,161,168
10:05,193,200
10:10,198,207
10:15,197,207
10:20,200,207
10:25,209,218
10:30,214,226
10:35,219,232
10:40,226,237
10:45,242,251
10:50,260,270
10:55,271,286
11:00,275,290
11:05,293,303
11:10,314,325
11:15,331,347
11:20,340,361
11:25,337,357
11:30,322,335
11:35,284,285
11:40,295,311
11:45,283,299
11:50,265,280
11:55,260,269
12:00,261,263
12:05,261,272
12:10,233,250
12:15,203,220
12:20,186,197
12:25,183,192
12:30,189,198
12:35,179,192
12:40,177,187
12:45,175,179
12:50,191,189
12:55,252,236
13:00,326,316
13:05,354,353
13:10,353,360
13:15,359,369
13:20,382,392
13:25,377,398
13:30,353,368
13:35,350,360
13:40,407,394
13:45,457,461
13:50,377,406
13:55,341,362
14:00,311,335
14:05,343,356
14:10,362,384
14:15,351,370
14:20,306,329
14:25,301,307
14:30,310,315
14:35,288,307
14:40,243,269
14:45,206,228
14:50,187,200
14:55,183,186
15:00,206,194
15:05,241,224
15:10,277,259
15:15,264,258
15:20,236,227
15:25,233,235
15:30,238,240
15:35,265,265
15:40,260,265
15:45,240,246
15:50,236,243
15:55,215,219
16:00,203,202
16:05,187,194
16:10,159,164
16:15,150,153
16:20,143,148
16:25,117,126
16:30,91,97
16:35,79,83
16:40,83,83
16:45,90,91
16:50,80,83
16:55,75,75
17:00,78,75
17:05,93,84
17:10,106,105
17:15,88,89
17:20,33,29
17:25,28,26
17:30,30,35
17:35,12,18
17:40,12,14
17:45,13,15
17:50,9,9
17:55,9,9
18:00,10,9
18:05,14,12
18:10,8,8
18:15,11,11
18:20,0,0
18:25,0,0
18:30,0,0
18:35,0,0
18:40,0,0
18:45,0,0
18:50,0,0
18:55,0,0
19:00,0,0
19:05,0,0
19:10,0,0
19:15,0,0
19:20,0,0
19:25,0,0
19:30,0,0
19:35,0,0
19:40,0,0
19:45,0,0
19:50,0,0
19:55,0,0
20:00,0,0
20:05,0,0
20:10,0,0
20:15,0,0
20:20,0,0
20:25,0,0
20:30,0,0
20:35,0,0
20:40,0,0
20:45,0,0
20:50,0,0
20:55,0,0
21:00,0,0
21:05,0,0
21:10,0,0
21:15,0,0
21:20,0,0
21:25,0,0
21:30,0,0
