4:30,0,0
4:35,0,0
4:40,0,0
4:45,0,0
4:50,0,0
4:55,0,0
5:00,0,0
5:05,0,0
5:10,0,0
5:15,0,0
5:20,0,0
5:25,0,0
5:30,0,0
5:35,0,0
5:40,0,0
5:45,0,0
5:50,0,0
5:55,0,0
6:00,0,0
6:05,0,0
6:10,0,0
6:15,0,0
6:20,0,0
6:25,0,0
6:30,0,0
6:35,0,0
6:40,0,0
6:45,0,0
6:50,0,0
6:55,0,0
7:00,0,0
7:05,0,0
7:10,0,0
7:15,0,0
7:20,6,12
7:25,4,8
7:30,4,7
7:35,4,8
7:40,6,20
7:45,21,92
7:50,14,115
7:55,16,85
8:00,13,242
8:05,48,374
8:10,59,440
8:15,62,508
8:20,68,542
8:25,73,575
8:30,76,611
8:35,80,637
8:40,84,666
8:45,92,696
8:50,103,724
8:55,116,748
9:00,111,754
9:05,93,313
9:10,109,593
9:15,111,728
9:20,132,864
9:25,150,870
9:30,138,915
9:35,135,914
9:40,124,847
9:45,131,858
9:50,159,919
9:55,150,741
10:00,209,780
10:05,233,707
10:10,267,433
10:15,330,737
10:20,261,488
10:25,326,854
10:30,292,725
10:35,332,792
10:40,364,820
10:45,406,863
10:50,406,810
10:55,426,790
11:00,441,755
11:05,521,835
11:10,537,820
11:15,517,739
11:20,461,624
11:25,361,473
11:30,522,618
11:35,671,811
11:40,358,400
11:45,256,257
11:50,214,206
11:55,167,165
12:00,364,330
12:05,511,453
12:10,666,538
12:15,377,316
12:20,282,249
12:25,304,277
12:30,302,247
12:35,565,401
12:40,585,394
12:45,828,517
12:50,866,527
12:55,884,487
13:00,818,426
13:05,750,368
13:10,216,182
13:15,829,340
13:20,842,355
13:25,619,253
13:30,908,270
13:35,930,256
13:40,903,215
13:45,767,160
13:50,475,153
13:55,794,122
14:00,790,116
14:05,793,123
14:10,769,110
14:15,721,98
14:20,586,99
14:25,184,113
14:30,151,125
14:35,156,135
14:40,177,140
14:45,142,134
14:50,129,120
14:55,103,97
15:00,79,75
15:05,75,67
15:10,135,77
15:15,155,87
15:20,111,80
15:25,90,67
15:30,76,57
15:35,64,51
15:40,21,12
15:45,10,7
15:50,8,6
15:55,6,4
16:00,7,4
16:05,0,0
16:10,0,0
16:15,0,0
16:20,0,0
16:25,0,0
16:30,0,0
16:35,0,0
16:40,0,0
16:45,0,0
16:50,0,0
16:55,0,0
17:00,0,0
17:05,0,0
17:10,0,0
17:15,0,0
17:20,0,0
17:25,0,0
17:30,0,0
17:35,0,0
17:40,0,0
17:45,0,0
17:50,0,0
17:55,0,0
18:00,0,0
18:05,0,0
18:10,0,0
18:15,0,0
18:20,0,0
18:25,0,0
18:30,0,0
18:35,0,0
18:40,0,0
18:45,0,0
18:50,0,0
18:55,0,0
19:00,0,0
19:05,0,0
19:10,0,0
19:15,0,0
19:20,0,0
19:25,0,0
19:30,0,0
19:35,0,0
19:40,0,0
19:45,0,0
19:50,0,0
19:55,0,0
20:00,0,0
20:05,0,0
20:10,0,0
20:15,0,0
20:20,0,0
20:25,0,0
20:30,0,0
20:35,0,0
20:40,0,0
20:45,0,0
20:50,0,0
20:55,0,0
21:00,0,0
21:05,0,0
21:10,0,0
21:15,0,0
21:20,0,0
21:25,0,0
21:30,0,0
