4:30,0,0
4:35,0,0
4:40,0,0
4:45,0,0
4:50,0,0
4:55,0,0
5:00,0,0
5:05,0,0
5:10,0,0
5:15,0,0
5:20,0,0
5:25,0,0
5:30,0,0
5:35,0,0
5:40,0,0
5:45,0,0
5:50,0,0
5:55,0,0
6:00,0,0
6:05,0,0
6:10,0,0
6:15,0,0
6:20,0,0
6:25,0,0
6:30,0,0
6:35,0,0
6:40,0,0
6:45,0,0
6:50,0,0
6:55,0,0
7:00,0,0
7:05,0,0
7:10,0,0
7:15,0,0
7:20,16,21
7:25,6,6
7:30,8,6
7:35,7,7
7:40,10,16
7:45,12,14
7:50,14,26
7:55,17,23
8:00,34,40
8:05,89,103
8:10,73,90
8:15,86,205
8:20,108,173
8:25,159,366
8:30,114,174
8:35,138,259
8:40,141,351
8:45,120,143
8:50,168,243
8:55,198,328
9:00,133,705
9:05,141,693
9:10,167,826
9:15,163,873
9:20,140,650
9:25,163,415
9:30,208,555
9:35,227,957
9:40,274,523
9:45,350,641
9:50,116,220
9:55,21,41
10:00,27,27
10:05,67,52
10:10,175,172
10:15,215,221
10:20,274,298
10:25,263,288
10:30,207,230
10:35,201,241
10:40,261,355
10:45,459,719
10:50,566,789
10:55,464,612
11:00,649,877
11:05,657,1010
11:10,746,1054
11:15,799,1055
11:20,399,482
11:25,361,362
11:30,639,786
11:35,774,906
11:40,795,874
11:45,806,848
11:50,673,676
11:55,221,209
12:00,538,496
12:05,550,479
12:10,542,460
12:15,206,196
12:20,244,215
12:25,507,403
12:30,588,432
12:35,1012,690
12:40,707,445
12:45,686,423
12:50,466,315
12:55,1020,559
13:00,869,429
13:05,904,424
13:10,1070,467
13:15,441,306
13:20,421,333
13:25,853,504
13:30,962,384
13:35,971,293
13:40,915,280
13:45,623,245
13:50,704,283
13:55,979,292
14:00,1086,344
14:05,1080,321
14:10,890,298
14:15,766,287
14:20,240,169
14:25,278,168
14:30,244,118
14:35,345,203
14:40,198,190
14:45,209,178
14:50,84,93
14:55,97,87
15:00,534,162
15:05,761,171
15:10,527,76
15:15,600,68
15:20,411,65
15:25,243,65
15:30,270,71
15:35,101,69
15:40,49,47
15:45,16,13
15:50,18,11
15:55,41,25
16:00,65,28
16:05,19,13
16:10,12,7
16:15,11,4
16:20,10,4
16:25,7,5
16:30,13,7
16:35,0,0
16:40,0,0
16:45,0,0
16:50,0,0
16:55,0,0
17:00,0,0
17:05,0,0
17:10,0,0
17:15,0,0
17:20,0,0
17:25,0,0
17:30,0,0
17:35,0,0
17:40,0,0
17:45,0,0
17:50,0,0
17:55,0,0
18:00,0,0
18:05,0,0
18:10,0,0
18:15,0,0
18:20,0,0
18:25,0,0
18:30,0,0
18:35,0,0
18:40,0,0
18:45,0,0
18:50,0,0
18:55,0,0
19:00,0,0
19:05,0,0
19:10,0,0
19:15,0,0
19:20,0,0
19:25,0,0
19:30,0,0
19:35,0,0
19:40,0,0
19:45,0,0
19:50,0,0
19:55,0,0
20:00,0,0
20:05,0,0
20:10,0,0
20:15,0,0
20:20,0,0
20:25,0,0
20:30,0,0
20:35,0,0
20:40,0,0
20:45,0,0
20:50,0,0
20:55,0,0
21:00,0,0
21:05,0,0
21:10,0,0
21:15,0,0
21:20,0,0
21:25,0,0
21:30,0,0
