4:30,0,0
4:35,0,0
4:40,0,0
4:45,0,0
4:50,0,0
4:55,11,18
5:00,4,7
5:05,9,13
5:10,8,13
5:15,14,26
5:20,13,70
5:25,22,84
5:30,65,107
5:35,75,130
5:40,85,155
5:45,99,181
5:50,112,206
5:55,128,241
6:00,139,272
6:05,152,330
6:10,165,362
6:15,187,384
6:20,218,392
6:25,235,367
6:30,244,363
6:35,252,458
6:40,244,525
6:45,202,510
6:50,213,540
6:55,201,582
7:00,206,598
7:05,227,577
7:10,291,566
7:15,286,485
7:20,269,376
7:25,279,336
7:30,402,751
7:35,393,948
7:40,415,1088
7:45,376,1117
7:50,351,1227
7:55,317,1135
8:00,277,912
8:05,260,747
8:10,320,1111
8:15,360,1192
8:20,391,1252
8:25,431,1273
8:30,482,1344
8:35,559,1401
8:40,570,1139
8:45,570,901
8:50,597,945
8:55,557,744
9:00,533,576
9:05,502,523
9:10,650,777
9:15,883,1350
9:20,908,1527
9:25,718,925
9:30,604,647
9:35,616,703
9:40,714,870
9:45,796,970
9:50,739,889
9:55,393,394
10:00,377,391
10:05,510,575
10:10,691,773
10:15,696,777
10:20,693,781
10:25,871,1063
10:30,696,901
10:35,1056,1569
10:40,1290,1961
10:45,770,950
10:50,887,1052
10:55,1325,1736
11:00,1109,1386
11:05,1139,1394
11:10,629,616
11:15,346,325
11:20,372,420
11:25,568,623
11:30,560,671
11:35,691,741
11:40,571,639
11:45,927,978
11:50,1014,1090
11:55,873,908
12:00,1152,1345
12:05,1723,2010
12:10,1006,1085
12:15,912,996
12:20,1033,1115
12:25,1103,1193
12:30,1143,1225
12:35,886,937
12:40,745,772
12:45,637,678
12:50,725,772
12:55,796,828
13:00,807,788
13:05,425,385
13:10,170,163
13:15,180,182
13:20,269,258
13:25,275,246
13:30,233,230
13:35,305,303
13:40,360,353
13:45,438,435
13:50,462,467
13:55,482,485
14:00,513,511
14:05,599,602
14:10,684,711
14:15,994,925
14:20,994,918
14:25,1233,1111
14:30,852,756
14:35,598,563
14:40,419,404
14:45,355,335
14:50,233,238
14:55,200,202
15:00,190,186
15:05,198,194
15:10,149,152
15:15,180,176
15:20,143,139
15:25,159,156
15:30,185,164
15:35,143,141
15:40,204,210
15:45,299,293
15:50,508,440
15:55,491,434
16:00,351,343
16:05,329,316
16:10,224,204
16:15,264,260
16:20,272,252
16:25,353,331
16:30,396,364
16:35,242,201
16:40,175,181
16:45,154,160
16:50,214,219
16:55,331,326
17:00,474,434
17:05,397,392
17:10,431,456
17:15,419,442
17:20,407,468
17:25,478,483
17:30,415,398
17:35,318,315
17:40,282,277
17:45,285,277
17:50,349,349
17:55,326,327
18:00,306,295
18:05,243,247
18:10,174,178
18:15,120,116
18:20,87,93
18:25,64,70
18:30,67,68
18:35,57,57
18:40,149,137
18:45,90,90
18:50,111,116
18:55,100,93
19:00,14,10
19:05,5,4
19:10,8,7
19:15,5,6
19:20,8,21
19:25,34,122
19:30,59,123
19:35,106,102
19:40,125,117
19:45,125,117
19:50,156,138
19:55,148,133
20:00,121,109
20:05,108,104
20:10,110,105
20:15,105,94
20:20,78,70
20:25,40,30
20:30,8,8
20:35,8,7
20:40,4,4
20:45,8,8
20:50,0,0
20:55,0,0
21:00,0,0
21:05,0,0
21:10,0,0
21:15,0,0
21:20,0,0
21:25,0,0
