4:30,0,0
4:35,0,0
4:40,0,0
4:45,0,0
4:50,0,0
4:55,0,0
5:00,0,0
5:05,0,0
5:10,0,0
5:15,0,0
5:20,0,0
5:25,0,0
5:30,0,0
5:35,0,0
5:40,0,0
5:45,0,0
5:50,0,0
5:55,0,0
6:00,0,0
6:05,0,0
6:10,0,0
6:15,0,0
6:20,0,0
6:25,0,0
6:30,0,0
6:35,0,0
6:40,0,0
6:45,0,0
6:50,18,16
6:55,9,8
7:00,18,16
7:05,60,58
7:10,51,59
7:15,13,16
7:20,16,12
7:25,100,27
7:30,121,34
7:35,140,129
7:40,162,166
7:45,185,210
7:50,219,286
7:55,196,297
8:00,199,297
8:05,262,358
8:10,293,548
8:15,290,877
8:20,264,1073
8:25,239,966
8:30,208,1338
8:35,157,1342
8:40,145,1370
8:45,142,1396
8:50,148,1406
8:55,154,1416
9:00,162,1443
9:05,191,1443
9:10,250,1397
9:15,311,1511
9:20,403,1486
9:25,565,1486
9:30,457,758
9:35,536,914
9:40,577,925
9:45,606,930
9:50,843,1610
9:55,1022,1917
10:00,902,1441
10:05,443,514
10:10,526,626
10:15,498,530
10:20,482,511
10:25,381,408
10:30,454,484
10:35,707,816
10:40,745,886
10:45,683,830
10:50,464,549
10:55,426,491
11:00,651,729
11:05,823,930
11:10,808,922
11:15,699,779
11:20,593,648
11:25,523,544
11:30,517,525
11:35,555,563
11:40,546,581
11:45,481,512
11:50,426,452
11:55,411,420
12:00,451,450
12:05,466,481
12:10,409,426
12:15,376,388
12:20,360,377
12:25,349,361
12:30,322,333
12:35,375,397
12:40,258,309
12:45,178,210
12:50,143,174
12:55,209,223
13:00,283,291
13:05,292,306
13:10,275,279
13:15,447,436
13:20,630,646
13:25,684,686
13:30,528,534
13:35,549,552
13:40,482,490
13:45,364,375
13:50,309,305
13:55,240,227
14:00,246,234
14:05,311,307
14:10,389,372
14:15,474,472
14:20,316,311
14:25,347,340
14:30,374,385
14:35,299,325
14:40,179,192
14:45,134,148
14:50,151,148
14:55,167,167
15:00,203,205
15:05,285,286
15:10,330,318
15:15,517,473
15:20,537,491
15:25,594,561
15:30,432,459
15:35,227,273
15:40,216,252
15:45,143,151
15:50,127,141
15:55,79,84
16:00,93,89
16:05,35,36
16:10,127,117
16:15,171,188
16:20,148,163
16:25,118,114
16:30,122,117
16:35,239,223
16:40,188,200
16:45,92,87
16:50,145,144
16:55,93,87
17:00,121,120
17:05,99,95
17:10,46,39
17:15,11,10
17:20,13,14
17:25,14,14
17:30,19,15
17:35,7,8
17:40,17,17
17:45,11,11
17:50,13,11
17:55,9,8
18:00,8,8
18:05,13,13
18:10,12,12
18:15,13,15
18:20,10,10
18:25,6,6
18:30,11,11
18:35,8,8
18:40,0,0
18:45,0,0
18:50,0,0
18:55,0,0
19:00,17,13
19:05,11,8
19:10,39,19
19:15,42,13
19:20,51,18
19:25,120,31
19:30,96,62
19:35,46,49
19:40,9,9
19:45,11,11
19:50,0,0
19:55,0,0
20:00,0,0
20:05,0,0
20:10,0,0
20:15,0,0
20:20,0,0
20:25,0,0
20:30,0,0
20:35,0,0
20:40,0,0
20:45,0,0
20:50,0,0
20:55,0,0
21:00,0,0
21:05,0,0
21:10,0,0
21:15,0,0
21:20,0,0
21:25,0,0
21:30,0,0
