4:30,0,0
4:35,0,0
4:40,0,0
4:45,0,0
4:50,0,0
4:55,0,0
5:00,0,0
5:05,0,0
5:10,0,0
5:15,12,15
5:20,6,8
5:25,12,15
5:30,10,14
5:35,26,37
5:40,59,80
5:45,72,101
5:50,77,95
5:55,41,48
6:00,13,12
6:05,25,25
6:10,25,23
6:15,43,42
6:20,115,144
6:25,120,168
6:30,125,247
6:35,120,159
6:40,123,163
6:45,99,129
6:50,68,75
6:55,60,62
7:00,99,111
7:05,153,193
7:10,160,168
7:15,144,140
7:20,147,139
7:25,166,155
7:30,210,212
7:35,305,453
7:40,313,1076
7:45,263,1173
7:50,198,761
7:55,145,456
8:00,152,339
8:05,226,692
8:10,285,1015
8:15,356,945
8:20,318,739
8:25,301,608
8:30,402,1058
8:35,300,572
8:40,232,533
8:45,337,1271
8:50,397,1532
8:55,437,1594
9:00,463,1627
9:05,460,1517
9:10,507,1596
9:15,563,1700
9:20,596,1707
9:25,643,1740
9:30,739,1807
9:35,830,1628
9:40,537,900
9:45,706,1595
9:50,827,1863
9:55,815,1777
10:00,852,1779
10:05,875,1762
10:10,908,1773
10:15,936,1778
10:20,957,1771
10:25,991,1791
10:30,1025,1805
10:35,1059,1814
10:40,1100,1840
10:45,1126,1831
10:50,1151,1832
10:55,1181,1841
11:00,1202,1831
11:05,1232,1829
11:10,1263,1835
11:15,1277,1820
11:20,1299,1817
11:25,1339,1843
11:30,1364,1840
11:35,1395,1847
11:40,1410,1831
11:45,1404,1790
11:50,1383,1736
11:55,1465,1809
12:00,1509,1833
12:05,1514,1801
12:10,1542,1801
12:15,1608,1853
12:20,1379,1540
12:25,1374,1517
12:30,1384,1514
12:35,1777,1917
12:40,1731,1830
12:45,1823,1907
12:50,1251,1305
12:55,1730,1774
13:00,1788,1807
13:05,1656,1640
13:10,1464,1405
13:15,1802,1712
13:20,1801,1669
13:25,1804,1645
13:30,1830,1636
13:35,1833,1614
13:40,1826,1586
13:45,1825,1557
13:50,1825,1527
13:55,1858,1525
14:00,1902,1532
14:05,1342,1097
14:10,1740,1368
14:15,1895,1481
14:20,1880,1426
14:25,1868,1387
14:30,1867,1359
14:35,1887,1345
14:40,1897,1319
14:45,1751,1192
14:50,1897,1261
14:55,1897,1244
15:00,1879,1208
15:05,1856,1165
15:10,1867,1146
15:15,1878,1123
15:20,1868,1089
15:25,1797,1025
15:30,1850,1027
15:35,1778,956
15:40,1779,928
15:45,1801,916
15:50,1821,906
15:55,1844,919
16:00,1794,867
16:05,1777,821
16:10,1728,779
16:15,1740,742
16:20,1517,622
16:25,1446,569
16:30,1548,597
16:35,1572,583
16:40,1603,565
16:45,1536,516
16:50,1413,470
16:55,1552,501
17:00,1582,486
17:05,1404,408
17:10,1377,395
17:15,1657,441
17:20,1551,411
17:25,1279,340
17:30,1376,319
17:35,1330,284
17:40,1354,253
17:45,1271,239
17:50,1088,232
17:55,956,231
18:00,1020,239
18:05,1048,245
18:10,995,243
18:15,940,238
18:20,843,229
18:25,828,213
18:30,802,199
18:35,611,183
18:40,591,166
18:45,503,158
18:50,413,149
18:55,294,136
19:00,257,128
19:05,214,121
19:10,196,113
19:15,183,106
19:20,168,96
19:25,157,91
19:30,140,84
19:35,123,74
19:40,115,69
19:45,107,67
19:50,102,66
19:55,102,67
20:00,99,68
20:05,94,69
20:10,79,62
20:15,52,41
20:20,12,10
20:25,7,6
20:30,6,6
20:35,11,10
20:40,0,0
20:45,0,0
20:50,0,0
20:55,0,0
21:00,0,0
21:05,0,0
21:10,0,0
21:15,0,0
21:20,0,0
21:25,0,0
21:30,0,0
