4:30,0,0
4:35,0,0
4:40,0,0
4:45,0,0
4:50,0,0
4:55,0,0
5:00,0,0
5:05,0,0
5:10,0,0
5:15,0,0
5:20,0,0
5:25,0,0
5:30,0,0
5:35,0,0
5:40,0,0
5:45,0,0
5:50,0,0
5:55,0,0
6:00,0,0
6:05,0,0
6:10,0,0
6:15,0,0
6:20,0,0
6:25,0,0
6:30,0,0
6:35,0,0
6:40,0,0
6:45,0,0
6:50,0,0
6:55,0,0
7:00,0,0
7:05,0,0
7:10,0,0
7:15,0,0
7:20,0,0
7:25,0,0
7:30,0,0
7:35,0,0
7:40,0,0
7:45,0,0
7:50,0,0
7:55,0,0
8:00,0,0
8:05,0,0
8:10,0,0
8:15,0,0
8:20,0,0
8:25,0,0
8:30,0,0
8:35,0,0
8:40,13,13
8:45,6,5
8:50,24,15
8:55,71,23
9:00,113,37
9:05,112,41
9:10,98,44
9:15,62,68
9:20,60,58
9:25,65,63
9:30,86,88
9:35,118,117
9:40,121,120
9:45,115,114
9:50,73,79
9:55,34,40
10:00,12,12
10:05,22,15
10:10,12,13
10:15,11,17
10:20,15,15
10:25,58,60
10:30,67,71
10:35,88,93
10:40,86,90
10:45,50,31
10:50,73,20
10:55,87,57
11:00,101,95
11:05,139,127
11:10,134,127
11:15,128,119
11:20,109,103
11:25,106,101
11:30,117,112
11:35,120,119
11:40,104,112
11:45,118,122
11:50,156,163
11:55,145,147
12:00,112,114
12:05,106,103
12:10,122,116
12:15,136,130
12:20,142,136
12:25,147,144
12:30,155,158
12:35,131,136
12:40,112,114
12:45,101,100
12:50,103,100
12:55,98,95
13:00,109,103
13:05,123,119
13:10,107,106
13:15,112,108
13:20,110,114
13:25,99,103
13:30,94,102
13:35,65,77
13:40,28,34
13:45,11,11
13:50,16,16
13:55,9,10
14:00,9,9
14:05,9,8
14:10,8,12
14:15,9,8
14:20,8,8
14:25,6,6
14:30,7,6
14:35,6,5
14:40,11,8
14:45,8,8
14:50,8,5
14:55,8,6
15:00,6,6
15:05,9,9
15:10,12,11
15:15,12,15
15:20,9,8
15:25,13,11
15:30,7,6
15:35,8,4
15:40,7,6
15:45,0,0
15:50,0,0
15:55,0,0
16:00,0,0
16:05,0,0
16:10,0,0
16:15,0,0
16:20,0,0
16:25,0,0
16:30,0,0
16:35,0,0
16:40,0,0
16:45,0,0
16:50,0,0
16:55,0,0
17:00,0,0
17:05,0,0
17:10,0,0
17:15,0,0
17:20,0,0
17:25,0,0
17:30,0,0
17:35,0,0
17:40,0,0
17:45,0,0
17:50,0,0
17:55,0,0
18:00,0,0
18:05,0,0
18:10,0,0
18:15,0,0
18:20,0,0
18:25,0,0
18:30,0,0
18:35,0,0
18:40,0,0
18:45,0,0
18:50,0,0
18:55,0,0
19:00,0,0
19:05,0,0
19:10,0,0
19:15,0,0
19:20,0,0
19:25,0,0
19:30,0,0
19:35,0,0
19:40,0,0
19:45,0,0
19:50,0,0
19:55,0,0
20:00,0,0
20:05,0,0
20:10,0,0
20:15,0,0
20:20,0,0
20:25,0,0
20:30,0,0
20:35,0,0
20:40,0,0
20:45,0,0
20:50,0,0
20:55,0,0
21:00,0,0
21:05,0,0
21:10,0,0
21:15,0,0
21:20,0,0
21:25,0,0
21:30,0,0
