4:30,0,0
4:35,0,0
4:40,0,0
4:45,0,0
4:50,0,0
4:55,0,0
5:00,0,0
5:05,0,0
5:10,0,0
5:15,0,0
5:20,0,0
5:25,0,0
5:30,0,0
5:35,0,0
5:40,0,0
5:45,0,0
5:50,0,0
5:55,0,0
6:00,0,0
6:05,0,0
6:10,0,0
6:15,0,0
6:20,0,0
6:25,0,0
6:30,6,19
6:35,3,18
6:40,4,29
6:45,5,41
6:50,6,12
6:55,11,126
7:00,14,262
7:05,54,358
7:10,62,465
7:15,72,518
7:20,87,575
7:25,109,623
7:30,161,774
7:35,203,786
7:40,220,918
7:45,220,802
7:50,196,386
7:55,197,246
8:00,203,238
8:05,182,217
8:10,165,188
8:15,172,183
8:20,180,194
8:25,177,204
8:30,196,240
8:35,215,277
8:40,207,263
8:45,198,235
8:50,219,238
8:55,265,270
9:00,235,248
9:05,179,188
9:10,209,185
9:15,281,239
9:20,324,290
9:25,349,361
9:30,373,440
9:35,373,438
9:40,330,326
9:45,321,275
9:50,358,319
9:55,379,372
10:00,342,361
10:05,313,331
10:10,295,300
10:15,299,293
10:20,335,345
10:25,341,376
10:30,326,367
10:35,336,392
10:40,304,389
10:45,391,616
10:50,807,1520
10:55,1002,1825
11:00,862,1467
11:05,1011,1602
11:10,1162,1732
11:15,1300,1825
11:20,797,1001
11:25,748,972
11:30,1442,1986
11:35,858,1104
11:40,976,1255
11:45,943,1165
11:50,778,929
11:55,768,936
12:00,761,911
12:05,853,956
12:10,929,996
12:15,838,897
12:20,788,844
12:25,755,832
12:30,575,634
12:35,554,575
12:40,554,572
12:45,447,477
12:50,510,528
12:55,565,600
13:00,677,699
13:05,715,733
13:10,738,748
13:15,591,600
13:20,561,563
13:25,649,640
13:30,579,594
13:35,730,679
13:40,761,721
13:45,911,848
13:50,774,756
13:55,567,597
14:00,528,563
14:05,509,523
14:10,641,650
14:15,666,670
14:20,693,658
14:25,638,619
14:30,574,539
14:35,828,684
14:40,841,757
14:45,743,697
14:50,703,674
14:55,643,592
15:00,708,662
15:05,802,692
15:10,829,690
15:15,1056,800
15:20,704,605
15:25,761,599
15:30,772,631
15:35,678,550
15:40,911,683
15:45,1033,718
15:50,650,532
15:55,607,536
16:00,574,474
16:05,548,490
16:10,533,493
16:15,552,515
16:20,555,515
16:25,500,478
16:30,370,378
16:35,300,307
16:40,318,292
16:45,341,285
16:50,296,275
16:55,273,274
17:00,273,268
17:05,325,296
17:10,333,287
17:15,270,239
17:20,229,205
17:25,199,171
17:30,223,172
17:35,196,152
17:40,160,131
17:45,134,119
17:50,105,104
17:55,79,80
18:00,91,80
18:05,105,87
18:10,94,83
18:15,62,58
18:20,84,63
18:25,75,69
18:30,52,53
18:35,20,19
18:40,12,11
18:45,18,17
18:50,13,13
18:55,28,33
19:00,11,12
19:05,12,13
19:10,5,4
19:15,6,5
19:20,0,0
19:25,0,0
19:30,0,0
19:35,0,0
19:40,0,0
19:45,0,0
19:50,0,0
19:55,0,0
20:00,0,0
20:05,0,0
20:10,0,0
20:15,0,0
20:20,0,0
20:25,0,0
20:30,0,0
20:35,0,0
20:40,0,0
20:45,0,0
20:50,0,0
20:55,0,0
21:00,0,0
21:05,0,0
21:10,0,0
21:15,0,0
21:20,0,0
21:25,0,0
21:30,0,0
