4:30,0,0
4:35,0,0
4:40,0,0
4:45,0,0
4:50,0,0
4:55,0,0
5:00,0,0
5:05,0,0
5:10,0,0
5:15,0,0
5:20,0,0
5:25,0,0
5:30,0,0
5:35,0,0
5:40,0,0
5:45,0,0
5:50,0,0
5:55,0,0
6:00,0,0
6:05,0,0
6:10,0,0
6:15,0,0
6:20,0,0
6:25,0,0
6:30,0,0
6:35,0,0
6:40,0,0
6:45,0,0
6:50,0,0
6:55,0,0
7:00,0,0
7:05,0,0
7:10,6,13
7:15,4,8
7:20,8,17
7:25,6,16
7:30,13,84
7:35,11,133
7:40,36,140
7:45,54,172
7:50,62,145
7:55,73,168
8:00,87,175
8:05,95,131
8:10,100,117
8:15,108,133
8:20,118,141
8:25,116,136
8:30,129,144
8:35,143,166
8:40,156,176
8:45,161,173
8:50,161,179
8:55,148,162
9:00,192,226
9:05,208,232
9:10,222,248
9:15,221,243
9:20,207,220
9:25,221,240
9:30,209,228
9:35,258,275
9:40,278,282
9:45,266,289
9:50,244,258
9:55,265,281
10:00,282,297
10:05,270,294
10:10,282,302
10:15,255,268
10:20,325,336
10:25,339,335
10:30,420,470
10:35,436,476
10:40,448,483
10:45,438,445
10:50,398,412
10:55,332,356
11:00,404,418
11:05,253,256
11:10,249,255
11:15,301,313
11:20,276,291
11:25,338,349
11:30,374,380
11:35,392,395
11:40,389,393
11:45,388,395
11:50,386,395
11:55,396,411
12:00,426,440
12:05,455,461
12:10,457,451
12:15,454,445
12:20,458,443
12:25,451,435
12:30,438,431
12:35,506,473
12:40,577,504
12:45,810,605
12:50,648,472
12:55,1090,648
13:00,961,574
13:05,900,515
13:10,501,313
13:15,444,280
13:20,445,251
13:25,544,260
13:30,349,170
13:35,531,165
13:40,817,184
13:45,897,162
13:50,911,156
13:55,589,136
14:00,779,123
14:05,904,136
14:10,904,136
14:15,387,94
14:20,159,77
14:25,714,83
14:30,797,80
14:35,781,83
14:40,769,85
14:45,774,88
14:50,753,82
14:55,688,72
15:00,615,67
15:05,524,67
15:10,500,62
15:15,484,58
15:20,445,56
15:25,416,25
15:30,388,14
15:35,353,14
15:40,310,13
15:45,163,16
15:50,85,10
15:55,63,13
16:00,34,7
16:05,23,9
16:10,13,4
16:15,9,5
16:20,13,7
16:25,0,0
16:30,0,0
16:35,0,0
16:40,0,0
16:45,0,0
16:50,0,0
16:55,0,0
17:00,0,0
17:05,0,0
17:10,0,0
17:15,0,0
17:20,0,0
17:25,0,0
17:30,0,0
17:35,0,0
17:40,0,0
17:45,0,0
17:50,0,0
17:55,0,0
18:00,0,0
18:05,0,0
18:10,0,0
18:15,0,0
18:20,0,0
18:25,0,0
18:30,0,0
18:35,0,0
18:40,0,0
18:45,0,0
18:50,0,0
18:55,0,0
19:00,0,0
19:05,0,0
19:10,0,0
19:15,0,0
19:20,0,0
19:25,0,0
19:30,0,0
19:35,0,0
19:40,0,0
19:45,0,0
19:50,0,0
19:55,0,0
20:00,0,0
20:05,0,0
20:10,0,0
20:15,0,0
20:20,0,0
20:25,0,0
20:30,0,0
20:35,0,0
20:40,0,0
20:45,0,0
20:50,0,0
20:55,0,0
21:00,0,0
21:05,0,0
21:10,0,0
21:15,0,0
21:20,0,0
21:25,0,0
21:30,0,0
