4:30,0,0
4:35,0,0
4:40,0,0
4:45,0,0
4:50,0,0
4:55,0,0
5:00,0,0
5:05,0,0
5:10,0,0
5:15,0,0
5:20,0,0
5:25,0,0
5:30,0,0
5:35,0,0
5:40,0,0
5:45,0,0
5:50,0,0
5:55,0,0
6:00,10,18
6:05,4,7
6:10,7,10
6:15,6,8
6:20,12,21
6:25,11,90
6:30,17,81
6:35,19,106
6:40,28,131
6:45,94,192
6:50,124,400
6:55,143,486
7:00,156,513
7:05,170,567
7:10,188,593
7:15,198,665
7:20,194,593
7:25,153,278
7:30,147,433
7:35,157,695
7:40,161,859
7:45,161,874
7:50,159,867
7:55,144,775
8:00,148,934
8:05,152,1099
8:10,152,1133
8:15,152,1158
8:20,154,1180
8:25,157,1215
8:30,158,1253
8:35,168,1310
8:40,180,1385
8:45,198,1363
8:50,213,1446
8:55,300,1515
9:00,388,1061
9:05,412,1090
9:10,550,1742
9:15,338,739
9:20,274,572
9:25,395,1224
9:30,379,1286
9:35,537,1655
9:40,628,1701
9:45,655,1638
9:50,757,1681
9:55,828,1555
10:00,344,454
10:05,298,317
10:10,392,353
10:15,558,719
10:20,734,1189
10:25,729,1229
10:30,526,785
10:35,1063,1770
10:40,799,1165
10:45,448,506
10:50,371,389
10:55,371,364
11:00,419,384
11:05,511,467
11:10,668,644
11:15,701,659
11:20,671,643
11:25,841,968
11:30,1415,1832
11:35,830,823
11:40,733,744
11:45,768,768
11:50,765,760
11:55,707,668
12:00,727,669
12:05,674,616
12:10,723,677
12:15,726,709
12:20,761,727
12:25,743,670
12:30,776,681
12:35,726,673
12:40,706,663
12:45,682,757
12:50,402,598
12:55,121,227
13:00,119,141
13:05,187,182
13:10,262,227
13:15,243,207
13:20,259,240
13:25,307,313
13:30,340,356
13:35,331,336
13:40,422,445
13:45,616,626
13:50,720,664
13:55,714,618
14:00,703,595
14:05,864,711
14:10,1397,1112
14:15,1784,1410
14:20,1766,1388
14:25,1791,1395
14:30,1008,865
14:35,1283,1022
14:40,1930,1421
14:45,2040,1470
14:50,2011,1423
14:55,1987,1370
15:00,1988,1331
15:05,1825,1199
15:10,1981,1267
15:15,1508,975
15:20,1752,1076
15:25,558,468
15:30,564,483
15:35,591,512
15:40,702,610
15:45,520,521
15:50,425,425
15:55,462,449
16:00,439,369
16:05,383,291
16:10,401,282
16:15,967,400
16:20,645,348
16:25,655,430
16:30,1256,640
16:35,667,530
16:40,401,385
16:45,305,311
16:50,221,236
16:55,195,208
17:00,236,224
17:05,445,334
17:10,515,394
17:15,482,371
17:20,405,307
17:25,409,296
17:30,469,323
17:35,573,379
17:40,614,408
17:45,600,405
17:50,611,402
17:55,508,381
18:00,405,358
18:05,325,302
18:10,251,249
18:15,218,214
18:20,182,148
18:25,183,132
18:30,159,122
18:35,197,147
18:40,127,107
18:45,129,93
18:50,128,98
18:55,111,83
19:00,100,77
19:05,69,60
19:10,68,52
19:15,68,50
19:20,71,52
19:25,61,43
19:30,53,13
19:35,23,15
19:40,12,9
19:45,12,6
19:50,8,5
19:55,8,5
20:00,5,4
20:05,14,8
20:10,0,0
20:15,0,0
20:20,0,0
20:25,0,0
20:30,0,0
20:35,0,0
20:40,0,0
20:45,0,0
20:50,0,0
20:55,0,0
21:00,0,0
21:05,0,0
21:10,0,0
21:15,0,0
21:20,0,0
21:25,0,0
21:30,0,0
