4:30,0,0
4:35,0,0
4:40,0,0
4:45,0,0
4:50,0,0
4:55,0,0
5:00,0,0
5:05,0,0
5:10,0,0
5:15,0,0
5:20,0,0
5:25,0,0
5:30,0,0
5:35,0,0
5:40,0,0
5:45,0,0
5:50,0,0
5:55,0,0
6:00,0,0
6:05,0,0
6:10,0,0
6:15,0,0
6:20,8,14
6:25,5,7
6:30,8,18
6:35,11,24
6:40,39,123
6:45,54,114
6:50,61,99
6:55,52,93
7:00,65,87
7:05,93,112
7:10,118,159
7:15,161,289
7:20,180,276
7:25,149,246
7:30,138,265
7:35,147,300
7:40,236,372
7:45,256,463
7:50,210,283
7:55,225,261
8:00,199,221
8:05,178,192
8:10,216,260
8:15,185,249
8:20,161,252
8:25,193,269
8:30,339,427
8:35,380,557
8:40,272,344
8:45,305,373
8:50,275,365
8:55,247,316
9:00,338,505
9:05,328,745
9:10,516,1683
9:15,530,1277
9:20,302,510
9:25,231,430
9:30,219,309
9:35,447,1362
9:40,661,1888
9:45,852,1916
9:50,648,1322
9:55,191,266
10:00,208,221
10:05,447,940
10:10,844,1942
10:15,915,1646
10:20,910,1631
10:25,880,1661
10:30,648,1160
10:35,356,481
10:40,775,1593
10:45,909,1857
10:50,924,1805
10:55,971,1795
11:00,1058,1830
11:05,856,1365
11:10,538,711
11:15,878,1263
11:20,919,1441
11:25,1325,2004
11:30,1345,1916
11:35,630,847
11:40,561,803
11:45,1351,1887
11:50,1296,1740
11:55,1374,1835
12:00,1389,1791
12:05,1432,1789
12:10,1481,1792
12:15,1547,1789
12:20,1500,1737
12:25,576,683
12:30,1550,1807
12:35,1563,1755
12:40,1508,1657
12:45,1610,1728
12:50,1674,1712
12:55,1542,1535
13:00,916,927
13:05,1259,1277
13:10,1815,1800
13:15,1841,1744
13:20,1486,1373
13:25,1307,1195
13:30,715,701
13:35,442,411
13:40,467,447
13:45,197,232
13:50,117,121
13:55,105,95
14:00,95,79
14:05,118,96
14:10,319,220
14:15,480,402
14:20,465,434
14:25,545,523
14:30,660,627
14:35,1138,993
14:40,903,894
14:45,755,746
14:50,567,615
14:55,457,462
15:00,588,495
15:05,852,674
15:10,868,762
15:15,802,737
15:20,544,584
15:25,350,412
15:30,289,336
15:35,312,330
15:40,367,386
15:45,385,420
15:50,379,414
15:55,377,389
16:00,393,365
16:05,420,369
16:10,368,315
16:15,515,305
16:20,669,354
16:25,688,376
16:30,584,370
16:35,511,376
16:40,299,219
16:45,213,170
16:50,310,260
16:55,353,337
17:00,234,250
17:05,153,174
17:10,142,137
17:15,170,149
17:20,173,157
17:25,163,149
17:30,176,153
17:35,197,164
17:40,251,185
17:45,303,214
17:50,348,244
17:55,448,307
18:00,478,372
18:05,424,374
18:10,297,286
18:15,150,161
18:20,116,129
18:25,112,112
18:30,86,90
18:35,16,26
18:40,7,6
18:45,8,7
18:50,27,17
18:55,30,14
19:00,24,17
19:05,20,14
19:10,17,17
19:15,11,11
19:20,8,7
19:25,9,9
19:30,0,0
19:35,0,0
19:40,0,0
19:45,0,0
19:50,0,0
19:55,0,0
20:00,0,0
20:05,0,0
20:10,0,0
20:15,0,0
20:20,0,0
20:25,0,0
20:30,0,0
20:35,0,0
20:40,0,0
20:45,0,0
20:50,0,0
20:55,0,0
21:00,0,0
21:05,0,0
21:10,0,0
21:15,0,0
21:20,0,0
21:25,0,0
21:30,0,0
