4:30,0,0
4:35,0,0
4:40,0,0
4:45,0,0
4:50,0,0
4:55,0,0
5:00,0,0
5:05,0,0
5:10,0,0
5:15,0,0
5:20,0,0
5:25,0,0
5:30,11,13
5:35,5,5
5:40,10,7
5:45,10,10
5:50,20,24
5:55,63,84
6:00,73,108
6:05,83,139
6:10,88,194
6:15,114,328
6:20,146,306
6:25,126,293
6:30,93,176
6:35,108,188
6:40,110,150
6:45,134,175
6:50,150,229
6:55,165,250
7:00,243,416
7:05,227,523
7:10,175,460
7:15,183,434
7:20,252,535
7:25,223,457
7:30,182,304
7:35,182,323
7:40,253,649
7:45,317,1052
7:50,390,885
7:55,379,771
8:00,221,477
8:05,161,225
8:10,175,224
8:15,255,384
8:20,455,1266
8:25,370,1091
8:30,263,490
8:35,279,590
8:40,357,1023
8:45,382,1067
8:50,509,1188
8:55,669,1237
9:00,549,759
9:05,597,1049
9:10,547,1031
9:15,721,1748
9:20,832,2127
9:25,732,1741
9:30,834,1880
9:35,417,668
9:40,380,526
9:45,406,486
9:50,430,523
9:55,413,501
10:00,407,516
10:05,387,489
10:10,418,590
10:15,533,897
10:20,641,1139
10:25,1127,2046
10:30,899,1567
10:35,993,1734
10:40,982,1686
10:45,1174,1973
10:50,1141,1790
10:55,1391,2083
11:00,997,1363
11:05,493,592
11:10,431,558
11:15,619,878
11:20,382,540
11:25,1005,1487
11:30,1480,2099
11:35,1471,2013
11:40,1506,2002
11:45,1549,1993
11:50,1068,1309
11:55,1068,1288
12:00,1491,1811
12:05,1617,1927
12:10,1085,1310
12:15,579,708
12:20,1165,1314
12:25,1720,1897
12:30,1883,2045
12:35,1880,2048
12:40,1725,1867
12:45,966,1017
12:50,1817,1941
12:55,1361,1467
13:00,1860,1915
13:05,1716,1700
13:10,1357,1344
13:15,1371,1361
13:20,436,450
13:25,1806,1724
13:30,1958,1792
13:35,980,866
13:40,1641,1487
13:45,1257,1127
13:50,631,572
13:55,1904,1633
14:00,1624,1375
14:05,1485,1227
14:10,892,739
14:15,1792,1453
14:20,1423,1145
14:25,1398,1105
14:30,1792,1385
14:35,1682,1252
14:40,1780,1311
14:45,1428,1038
14:50,1093,790
14:55,544,434
15:00,1710,1209
15:05,1095,779
15:10,1194,802
15:15,956,643
15:20,1915,1181
15:25,1979,1200
15:30,1690,1002
15:35,1684,981
15:40,1967,1124
15:45,824,495
15:50,1622,878
15:55,1711,886
16:00,1893,953
16:05,1845,902
16:10,1796,836
16:15,1788,800
16:20,1787,770
16:25,1790,748
16:30,1762,699
16:35,1747,660
16:40,1716,628
16:45,1473,519
16:50,1688,554
16:55,1310,422
17:00,1694,495
17:05,1637,439
17:10,1605,398
17:15,1581,362
17:20,1551,331
17:25,1537,314
17:30,1456,286
17:35,1369,248
17:40,533,149
17:45,1379,170
17:50,1312,169
17:55,1208,136
18:00,1149,137
18:05,1070,135
18:10,954,135
18:15,882,125
18:20,773,116
18:25,710,115
18:30,672,115
18:35,544,113
18:40,472,112
18:45,491,106
18:50,438,105
18:55,378,116
19:00,201,126
19:05,113,108
19:10,137,98
19:15,129,93
19:20,113,83
19:25,115,88
19:30,117,86
19:35,120,86
19:40,111,79
19:45,102,74
19:50,105,76
19:55,108,73
20:00,120,79
20:05,98,76
20:10,72,59
20:15,65,49
20:20,55,20
20:25,45,18
20:30,18,10
20:35,20,12
20:40,11,7
20:45,11,5
20:50,5,3
20:55,14,9
21:00,0,0
21:05,0,0
21:10,0,0
21:15,0,0
21:20,0,0
21:25,0,0
21:30,0,0
