4:30,0,0
4:35,0,0
4:40,0,0
4:45,0,0
4:50,0,0
4:55,0,0
5:00,0,0
5:05,0,0
5:10,0,0
5:15,0,0
5:20,0,0
5:25,0,0
5:30,0,0
5:35,0,0
5:40,0,0
5:45,0,0
5:50,0,0
5:55,0,0
6:00,0,0
6:05,0,0
6:10,0,0
6:15,0,0
6:20,0,0
6:25,0,0
6:30,0,0
6:35,0,0
6:40,0,0
6:45,0,0
6:50,0,0
6:55,0,0
7:00,0,0
7:05,0,0
7:10,0,0
7:15,0,0
7:20,0,0
7:25,0,0
7:30,0,0
7:35,0,0
7:40,0,0
7:45,0,0
7:50,0,0
7:55,0,0
8:00,0,0
8:05,0,0
8:10,9,17
8:15,4,7
8:20,8,13
8:25,6,12
8:30,10,21
8:35,7,15
8:40,12,28
8:45,10,25
8:50,18,15
8:55,25,19
9:00,44,44
9:05,182,245
9:10,233,438
9:15,305,546
9:20,392,535
9:25,430,754
9:30,338,757
9:35,149,611
9:40,89,571
9:45,92,569
9:50,89,553
9:55,95,558
10:00,98,448
10:05,116,249
10:10,122,441
10:15,143,657
10:20,132,620
10:25,128,607
10:30,136,607
10:35,140,596
10:40,146,588
10:45,158,581
10:50,170,572
10:55,182,574
11:00,199,572
11:05,209,534
11:10,234,557
11:15,248,537
11:20,271,501
11:25,277,416
11:30,198,231
11:35,166,191
11:40,147,165
11:45,139,151
11:50,153,179
11:55,401,465
12:00,389,403
12:05,439,420
12:10,504,448
12:15,374,302
12:20,576,461
12:25,528,380
12:30,538,361
12:35,573,348
12:40,645,384
12:45,680,414
12:50,584,392
12:55,224,210
13:00,131,174
13:05,88,121
13:10,64,83
13:15,30,64
13:20,51,62
13:25,302,137
13:30,455,277
13:35,182,175
13:40,157,133
13:45,389,147
13:50,568,149
13:55,528,101
14:00,499,92
14:05,478,90
14:10,458,87
14:15,455,82
14:20,407,79
14:25,184,69
14:30,313,63
14:35,332,76
14:40,326,82
14:45,326,76
14:50,237,58
14:55,114,46
15:00,125,13
15:05,64,16
15:10,86,10
15:15,105,15
15:20,59,9
15:25,22,10
15:30,11,5
15:35,11,5
15:40,9,6
15:45,11,7
15:50,0,0
15:55,0,0
16:00,0,0
16:05,0,0
16:10,0,0
16:15,0,0
16:20,0,0
16:25,0,0
16:30,0,0
16:35,0,0
16:40,0,0
16:45,0,0
16:50,0,0
16:55,0,0
17:00,0,0
17:05,0,0
17:10,0,0
17:15,0,0
17:20,0,0
17:25,0,0
17:30,0,0
17:35,0,0
17:40,0,0
17:45,0,0
17:50,0,0
17:55,0,0
18:00,0,0
18:05,0,0
18:10,0,0
18:15,0,0
18:20,0,0
18:25,0,0
18:30,0,0
18:35,0,0
18:40,0,0
18:45,0,0
18:50,0,0
18:55,0,0
19:00,0,0
19:05,0,0
19:10,0,0
19:15,0,0
19:20,0,0
19:25,0,0
19:30,0,0
19:35,0,0
19:40,0,0
19:45,0,0
19:50,0,0
19:55,0,0
20:00,0,0
20:05,0,0
20:10,0,0
20:15,0,0
20:20,0,0
20:25,0,0
20:30,0,0
20:35,0,0
20:40,0,0
20:45,0,0
20:50,0,0
20:55,0,0
21:00,0,0
21:05,0,0
21:10,0,0
21:15,0,0
21:20,0,0
21:25,0,0
21:30,0,0
