4:30,0,0
4:35,0,0
4:40,0,0
4:45,0,0
4:50,0,0
4:55,0,0
5:00,0,0
5:05,0,0
5:10,0,0
5:15,0,0
5:20,0,0
5:25,0,0
5:30,8,15
5:35,4,8
5:40,5,11
5:45,9,21
5:50,9,24
5:55,11,99
6:00,13,210
6:05,16,268
6:10,17,285
6:15,18,327
6:20,19,295
6:25,20,202
6:30,22,276
6:35,63,251
6:40,94,288
6:45,110,202
6:50,143,332
6:55,165,421
7:00,162,385
7:05,142,344
7:10,153,390
7:15,128,397
7:20,126,418
7:25,143,651
7:30,170,557
7:35,195,559
7:40,181,596
7:45,183,827
7:50,158,631
7:55,166,763
8:00,159,764
8:05,169,921
8:10,177,904
8:15,190,1026
8:20,180,1250
8:25,197,1534
8:30,216,1543
8:35,243,1628
8:40,273,1593
8:45,307,1736
8:50,341,1783
8:55,380,1778
9:00,398,1611
9:05,427,1689
9:10,460,1772
9:15,467,1746
9:20,536,1861
9:25,564,1873
9:30,604,1900
9:35,642,1931
9:40,693,1952
9:45,723,1952
9:50,759,1960
9:55,727,1782
10:00,834,1971
10:05,880,1988
10:10,924,2021
10:15,976,2044
10:20,992,2022
10:25,1086,2097
10:30,1043,1986
10:35,1194,2154
10:40,773,1282
10:45,938,1519
10:50,1181,1872
10:55,1492,2304
11:00,669,880
11:05,665,887
11:10,1348,1957
11:15,1541,2212
11:20,1615,2279
11:25,1638,2251
11:30,1661,2231
11:35,1183,1590
11:40,1566,2115
11:45,1400,1851
11:50,1574,2057
11:55,1603,2050
12:00,1624,2051
12:05,1661,2039
12:10,1670,2016
12:15,1673,1996
12:20,1689,1982
12:25,1697,1965
12:30,1725,1957
12:35,1722,1914
12:40,1747,1913
12:45,1755,1889
12:50,1768,1868
12:55,1797,1862
13:00,1810,1843
13:05,1824,1824
13:10,1834,1800
13:15,1845,1780
13:20,1861,1763
13:25,1871,1745
13:30,1879,1723
13:35,1885,1701
13:40,1900,1687
13:45,1909,1666
13:50,1920,1642
13:55,1923,1608
14:00,1938,1595
14:05,1935,1561
14:10,1945,1535
14:15,1952,1508
14:20,1955,1477
14:25,1965,1452
14:30,1955,1416
14:35,1961,1391
14:40,1964,1363
14:45,1971,1334
14:50,1971,1301
14:55,1961,1264
15:00,1952,1225
15:05,1956,1197
15:10,1956,1160
15:15,1951,1128
15:20,1949,1092
15:25,1944,1058
15:30,1932,1019
15:35,1931,986
15:40,1920,946
15:45,1909,909
15:50,1896,868
15:55,1891,833
16:00,1872,787
16:05,1869,753
16:10,1855,709
16:15,1840,670
16:20,1825,626
16:25,1818,582
16:30,1801,535
16:35,1785,489
16:40,1767,445
16:45,1750,416
16:50,1724,373
16:55,1707,335
17:00,1690,305
17:05,1670,278
17:10,1646,248
17:15,1616,222
17:20,1590,188
17:25,1563,156
17:30,1540,129
17:35,1516,116
17:40,1493,112
17:45,1465,107
17:50,1439,102
17:55,1405,100
18:00,1378,98
18:05,1341,98
18:10,1313,95
18:15,1252,95
18:20,1187,93
18:25,1149,90
18:30,1040,90
18:35,827,87
18:40,659,88
18:45,457,87
18:50,399,83
18:55,322,83
19:00,234,80
19:05,183,83
19:10,138,83
19:15,133,78
19:20,123,72
19:25,114,70
19:30,107,65
19:35,98,60
19:40,92,57
19:45,83,52
19:50,71,33
19:55,60,11
20:00,55,16
20:05,25,9
20:10,17,9
20:15,9,5
20:20,9,4
20:25,12,6
20:30,11,5
20:35,0,0
20:40,0,0
20:45,0,0
20:50,0,0
20:55,0,0
21:00,0,0
21:05,0,0
21:10,0,0
21:15,0,0
21:20,0,0
21:25,0,0
21:30,0,0
