4:30,0,0
4:35,0,0
4:40,0,0
4:45,0,0
4:50,0,0
4:55,0,0
5:00,0,0
5:05,0,0
5:10,0,0
5:15,0,0
5:20,5,10
5:25,4,8
5:30,5,16
5:35,7,12
5:40,9,29
5:45,10,69
5:50,19,208
5:55,14,293
6:00,45,357
6:05,62,408
6:10,64,457
6:15,67,494
6:20,72,531
6:25,78,575
6:30,81,618
6:35,86,647
6:40,89,682
6:45,91,647
6:50,94,714
6:55,97,767
7:00,98,774
7:05,102,846
7:10,104,902
7:15,105,936
7:20,111,969
7:25,113,1006
7:30,116,1090
7:35,119,1125
7:40,122,1247
7:45,124,1280
7:50,124,1313
7:55,131,1346
8:00,137,1365
8:05,139,1388
8:10,145,1500
8:15,152,1592
8:20,157,1623
8:25,198,1652
8:30,238,1689
8:35,232,1367
8:40,256,1303
8:45,318,1519
8:50,434,1926
8:55,449,1902
9:00,528,1985
9:05,477,1504
9:10,582,1658
9:15,595,1549
9:20,778,1911
9:25,892,2159
9:30,992,2275
9:35,976,2103
9:40,529,734
9:45,694,1029
9:50,810,1311
9:55,779,1262
10:00,542,834
10:05,342,430
10:10,369,482
10:15,485,655
10:20,424,501
10:25,552,644
10:30,635,774
10:35,864,1166
10:40,1049,1573
10:45,642,755
10:50,919,1221
10:55,857,1119
11:00,1019,1381
11:05,877,1085
11:10,931,1299
11:15,792,1048
11:20,761,938
11:25,635,742
11:30,891,1071
11:35,979,1234
11:40,762,954
11:45,890,1027
11:50,750,761
11:55,909,1056
12:00,1104,1288
12:05,1233,1471
12:10,1240,1444
12:15,1579,1863
12:20,1474,1582
12:25,1197,1250
12:30,565,580
12:35,408,463
12:40,399,428
12:45,495,528
12:50,636,600
12:55,648,623
13:00,703,700
13:05,762,781
13:10,1472,1471
13:15,635,575
13:20,563,529
13:25,646,645
13:30,769,774
13:35,768,753
13:40,884,881
13:45,884,898
13:50,1177,1120
13:55,779,710
14:00,1785,1398
14:05,1233,1031
14:10,1139,1029
14:15,866,830
14:20,627,596
14:25,583,530
14:30,604,553
14:35,710,680
14:40,813,731
14:45,1268,1060
14:50,811,738
14:55,681,640
15:00,755,702
15:05,764,690
15:10,693,599
15:15,1604,1097
15:20,1500,1108
15:25,737,638
15:30,640,607
15:35,729,635
15:40,1768,1081
15:45,1120,754
15:50,2077,1145
15:55,1715,1036
16:00,717,592
16:05,890,524
16:10,1325,586
16:15,1843,785
16:20,1645,772
16:25,1987,955
16:30,1769,823
16:35,885,469
16:40,773,342
16:45,1669,462
16:50,1922,533
16:55,1997,594
17:00,2023,547
17:05,1231,320
17:10,1663,400
17:15,2016,518
17:20,1717,350
17:25,1765,363
17:30,1828,412
17:35,1708,269
17:40,1391,210
17:45,1623,229
17:50,677,309
17:55,1361,261
18:00,1533,147
18:05,1268,159
18:10,1474,227
18:15,1107,165
18:20,1228,154
18:25,1304,194
18:30,1058,158
18:35,824,104
18:40,653,94
18:45,629,86
18:50,408,83
18:55,374,84
19:00,169,86
19:05,139,84
19:10,131,84
19:15,123,78
19:20,116,76
19:25,110,73
19:30,105,68
19:35,99,65
19:40,94,60
19:45,88,58
19:50,80,55
19:55,76,50
20:00,67,24
20:05,59,11
20:10,45,9
20:15,19,8
20:20,12,7
20:25,13,7
20:30,9,4
20:35,6,3
20:40,14,7
20:45,0,0
20:50,0,0
20:55,0,0
21:00,0,0
21:05,0,0
21:10,0,0
21:15,0,0
21:20,0,0
21:25,0,0
21:30,0,0
