4:30,0,0
4:35,0,0
4:40,0,0
4:45,0,0
4:50,0,0
4:55,0,0
5:00,0,0
5:05,0,0
5:10,0,0
5:15,0,0
5:20,0,0
5:25,0,0
5:30,0,0
5:35,0,0
5:40,0,0
5:45,0,0
5:50,0,0
5:55,0,0
6:00,0,0
6:05,0,0
6:10,0,0
6:15,0,0
6:20,0,0
6:25,0,0
6:30,0,0
6:35,0,0
6:40,0,0
6:45,0,0
6:50,0,0
6:55,0,0
7:00,0,0
7:05,0,0
7:10,0,0
7:15,17,19
7:20,5,5
7:25,7,11
7:30,11,19
7:35,25,36
7:40,65,85
7:45,54,81
7:50,28,80
7:55,24,205
8:00,84,184
8:05,60,98
8:10,103,194
8:15,143,332
8:20,151,214
8:25,70,97
8:30,30,27
8:35,25,32
8:40,31,382
8:45,44,791
8:50,125,534
8:55,248,726
9:00,210,384
9:05,189,221
9:10,202,230
9:15,285,332
9:20,226,289
9:25,105,111
9:30,83,89
9:35,73,73
9:40,108,119
9:45,68,70
9:50,294,292
9:55,303,544
10:00,196,243
10:05,224,363
10:10,420,811
10:15,365,629
10:20,408,929
10:25,474,1063
10:30,445,1036
10:35,510,1057
10:40,546,1057
10:45,596,1038
10:50,538,953
10:55,626,1019
11:00,590,892
11:05,687,1037
11:10,670,966
11:15,593,766
11:20,583,704
11:25,753,944
11:30,558,662
11:35,455,491
11:40,779,831
11:45,380,392
11:50,542,546
11:55,266,297
12:00,285,293
12:05,257,271
12:10,203,218
12:15,160,167
12:20,206,212
12:25,242,247
12:30,229,236
12:35,564,461
12:40,696,510
12:45,712,437
12:50,514,325
12:55,890,496
13:00,453,324
13:05,389,236
13:10,373,271
13:15,252,247
13:20,281,256
13:25,361,348
13:30,267,274
13:35,287,276
13:40,302,281
13:45,429,324
13:50,343,277
13:55,422,319
14:00,285,248
14:05,212,212
14:10,214,213
14:15,239,232
14:20,193,197
14:25,170,157
14:30,257,137
14:35,291,178
14:40,210,176
14:45,207,149
14:50,133,118
14:55,147,140
15:00,140,129
15:05,152,130
15:10,370,134
15:15,130,93
15:20,176,108
15:25,114,98
15:30,80,53
15:35,362,63
15:40,255,76
15:45,165,28
15:50,55,15
15:55,59,9
16:00,58,13
16:05,27,8
16:10,9,8
16:15,8,4
16:20,9,3
16:25,11,7
16:30,0,0
16:35,0,0
16:40,0,0
16:45,0,0
16:50,0,0
16:55,0,0
17:00,0,0
17:05,0,0
17:10,0,0
17:15,0,0
17:20,0,0
17:25,0,0
17:30,0,0
17:35,0,0
17:40,0,0
17:45,0,0
17:50,0,0
17:55,0,0
18:00,0,0
18:05,0,0
18:10,0,0
18:15,0,0
18:20,0,0
18:25,0,0
18:30,0,0
18:35,0,0
18:40,0,0
18:45,0,0
18:50,0,0
18:55,0,0
19:00,0,0
19:05,0,0
19:10,0,0
19:15,0,0
19:20,0,0
19:25,0,0
19:30,0,0
19:35,0,0
19:40,0,0
19:45,0,0
19:50,0,0
19:55,0,0
20:00,0,0
20:05,0,0
20:10,0,0
20:15,0,0
20:20,0,0
20:25,0,0
20:30,0,0
20:35,0,0
20:40,0,0
20:45,0,0
20:50,0,0
20:55,0,0
21:00,0,0
21:05,0,0
21:10,0,0
21:15,0,0
21:20,0,0
21:25,0,0
