4:30,0,0
4:35,0,0
4:40,0,0
4:45,0,0
4:50,0,0
4:55,0,0
5:00,0,0
5:05,0,0
5:10,0,0
5:15,0,0
5:20,0,0
5:25,0,0
5:30,0,0
5:35,0,0
5:40,0,0
5:45,0,0
5:50,0,0
5:55,8,23
6:00,4,12
6:05,9,37
6:10,10,112
6:15,17,122
6:20,14,90
6:25,23,101
6:30,67,117
6:35,76,134
6:40,82,159
6:45,81,161
6:50,79,152
6:55,79,176
7:00,79,209
7:05,90,312
7:10,102,416
7:15,107,429
7:20,96,412
7:25,105,558
7:30,114,618
7:35,117,573
7:40,122,552
7:45,120,568
7:50,122,601
7:55,132,582
8:00,139,603
8:05,149,659
8:10,154,644
8:15,157,566
8:20,161,600
8:25,167,672
8:30,173,688
8:35,180,711
8:40,200,735
8:45,229,718
8:50,269,863
8:55,303,967
9:00,341,1027
9:05,369,1024
9:10,396,1026
9:15,428,934
9:20,468,991
9:25,511,1068
9:30,524,1057
9:35,515,954
9:40,623,1166
9:45,652,1150
9:50,695,1182
9:55,719,1146
10:00,655,1030
10:05,745,1114
10:10,793,1124
10:15,867,1289
10:20,904,1282
10:25,946,1303
10:30,950,1265
10:35,832,1119
10:40,998,1372
10:45,1073,1439
10:50,1119,1454
10:55,1141,1439
11:00,1169,1434
11:05,1191,1476
11:10,1201,1472
11:15,1180,1435
11:20,1174,1428
11:25,1194,1459
11:30,1236,1481
11:35,1265,1507
11:40,1312,1566
11:45,1307,1518
11:50,1296,1457
11:55,1291,1421
12:00,1337,1440
12:05,1399,1474
12:10,1419,1457
12:15,1355,1352
12:20,1453,1408
12:25,1467,1384
12:30,1466,1356
12:35,1266,1339
12:40,1445,1364
12:45,1458,1351
12:50,1461,1328
12:55,1266,1289
13:00,1316,1232
13:05,1370,1272
13:10,1361,1232
13:15,1303,1208
13:20,1305,1167
13:25,1273,1113
13:30,1288,1098
13:35,1202,1060
13:40,1203,1023
13:45,1206,1002
13:50,1210,969
13:55,1214,937
14:00,1158,902
14:05,1027,864
14:10,1111,824
14:15,1061,766
14:20,1003,734
14:25,1091,712
14:30,1094,676
14:35,1063,608
14:40,993,544
14:45,902,521
14:50,960,505
14:55,955,461
15:00,987,422
15:05,957,380
15:10,785,354
15:15,873,323
15:20,820,290
15:25,742,253
15:30,698,231
15:35,812,199
15:40,735,160
15:45,638,153
15:50,723,165
15:55,726,160
16:00,682,148
16:05,472,130
16:10,510,134
16:15,647,133
16:20,537,113
16:25,438,108
16:30,429,100
16:35,294,90
16:40,285,85
16:45,308,93
16:50,329,93
16:55,241,79
17:00,165,72
17:05,154,64
17:10,154,64
17:15,151,64
17:20,146,67
17:25,159,72
17:30,155,70
17:35,148,64
17:40,149,64
17:45,134,59
17:50,122,53
17:55,105,50
18:00,84,16
18:05,64,10
18:10,33,8
18:15,9,3
18:20,10,4
18:25,0,0
18:30,0,0
18:35,0,0
18:40,0,0
18:45,0,0
18:50,0,0
18:55,0,0
19:00,0,0
19:05,0,0
19:10,0,0
19:15,0,0
19:20,0,0
19:25,0,0
19:30,0,0
19:35,0,0
19:40,0,0
19:45,0,0
19:50,0,0
19:55,0,0
20:00,0,0
20:05,0,0
20:10,0,0
20:15,0,0
20:20,0,0
20:25,0,0
20:30,0,0
20:35,0,0
20:40,0,0
20:45,0,0
20:50,0,0
20:55,0,0
21:00,0,0
21:05,0,0
21:10,0,0
21:15,0,0
21:20,0,0
21:25,0,0
21:30,0,0
