4:30,0,0
4:35,0,0
4:40,0,0
4:45,0,0
4:50,0,0
4:55,0,0
5:00,0,0
5:05,0,0
5:10,0,0
5:15,0,0
5:20,9,18
5:25,3,6
5:30,7,13
5:35,7,13
5:40,12,27
5:45,10,64
5:50,17,78
5:55,15,91
6:00,21,124
6:05,63,195
6:10,67,247
6:15,73,341
6:20,78,417
6:25,82,458
6:30,86,488
6:35,91,543
6:40,96,580
6:45,98,624
6:50,103,654
6:55,108,691
7:00,115,694
7:05,135,825
7:10,162,891
7:15,179,863
7:20,218,801
7:25,293,636
7:30,358,772
7:35,353,832
7:40,274,699
7:45,203,604
7:50,191,660
7:55,190,1121
8:00,200,1257
8:05,209,1096
8:10,219,1300
8:15,214,1260
8:20,216,1310
8:25,233,1366
8:30,292,1411
8:35,358,1467
8:40,396,1486
8:45,403,1512
8:50,443,1538
8:55,564,1678
9:00,620,1738
9:05,530,1464
9:10,540,1570
9:15,603,1740
9:20,601,1724
9:25,623,1653
9:30,673,1707
9:35,742,1874
9:40,682,1761
9:45,709,1797
9:50,701,1708
9:55,727,1705
10:00,727,1641
10:05,855,1854
10:10,932,1950
10:15,973,1952
10:20,976,1886
10:25,1023,1897
10:30,1059,1910
10:35,1099,1926
10:40,1130,1909
10:45,1176,1933
10:50,1208,1949
10:55,1263,1970
11:00,1019,1518
11:05,1159,1712
11:10,1409,2029
11:15,1428,1984
11:20,1310,1800
11:25,509,705
11:30,1500,2022
11:35,895,1198
11:40,1630,2088
11:45,1672,2055
11:50,1683,2025
11:55,1728,2055
12:00,1722,2034
12:05,1705,1976
12:10,1748,1970
12:15,1361,1490
12:20,851,981
12:25,922,964
12:30,1842,1954
12:35,1898,1968
12:40,1924,1966
12:45,1857,1889
12:50,1926,1904
12:55,1905,1867
13:00,1982,1943
13:05,1511,1450
13:10,1566,1490
13:15,1936,1794
13:20,1992,1806
13:25,2050,1844
13:30,1371,1228
13:35,562,489
13:40,2011,1735
13:45,1965,1673
13:50,1943,1618
13:55,1996,1634
14:00,681,567
14:05,1538,1194
14:10,1681,1300
14:15,1840,1410
14:20,945,736
14:25,2017,1483
14:30,1998,1442
14:35,1980,1415
14:40,1992,1390
14:45,2034,1389
14:50,2002,1353
14:55,1610,1066
15:00,2036,1312
15:05,2069,1305
15:10,1873,1162
15:15,400,275
15:20,450,301
15:25,2041,1147
15:30,2122,1173
15:35,2059,1133
15:40,2037,1120
15:45,2084,1141
15:50,2029,1071
15:55,1961,990
16:00,1927,923
16:05,1935,907
16:10,1917,867
16:15,1911,832
16:20,1909,810
16:25,1911,779
16:30,1909,761
16:35,1889,748
16:40,1880,714
16:45,1842,640
16:50,1809,592
16:55,1817,593
17:00,1800,551
17:05,1761,488
17:10,1732,434
17:15,1690,381
17:20,1634,323
17:25,1578,292
17:30,1551,263
17:35,1517,234
17:40,1479,214
17:45,1445,192
17:50,1384,146
17:55,1292,124
18:00,1216,108
18:05,1115,112
18:10,1030,112
18:15,710,119
18:20,862,114
18:25,770,101
18:30,511,99
18:35,419,101
18:40,575,99
18:45,470,121
18:50,466,144
18:55,360,189
19:00,271,205
19:05,202,208
19:10,264,210
19:15,245,202
19:20,213,182
19:25,179,155
19:30,154,130
19:35,125,106
19:40,104,86
19:45,96,77
19:50,94,70
19:55,90,63
20:00,84,60
20:05,76,53
20:10,68,50
20:15,61,40
20:20,51,17
20:25,24,11
20:30,21,14
20:35,12,9
20:40,14,6
20:45,8,5
20:50,8,4
20:55,10,5
21:00,0,0
21:05,0,0
21:10,0,0
21:15,0,0
21:20,0,0
21:25,0,0
21:30,0,0
