4:30,0,0
4:35,0,0
4:40,0,0
4:45,0,0
4:50,0,0
4:55,0,0
5:00,0,0
5:05,0,0
5:10,0,0
5:15,0,0
5:20,9,12
5:25,4,6
5:30,7,9
5:35,11,16
5:40,13,39
5:45,10,68
5:50,17,88
5:55,16,194
6:00,36,256
6:05,70,339
6:10,75,391
6:15,83,445
6:20,88,510
6:25,91,533
6:30,96,584
6:35,99,613
6:40,101,656
6:45,106,704
6:50,110,705
6:55,114,788
7:00,113,761
7:05,121,840
7:10,123,865
7:15,126,923
7:20,131,953
7:25,139,980
7:30,133,979
7:35,139,1106
7:40,142,1192
7:45,148,1245
7:50,163,1278
7:55,171,1264
8:00,181,1098
8:05,265,1347
8:10,267,1326
8:15,335,1256
8:20,479,1674
8:25,419,1038
8:30,450,1341
8:35,503,1420
8:40,613,1733
8:45,536,1219
8:50,531,1264
8:55,584,1059
9:00,608,1245
9:05,687,1635
9:10,616,1632
9:15,617,1590
9:20,780,1645
9:25,700,1324
9:30,680,1209
9:35,691,1238
9:40,921,1770
9:45,820,1481
9:50,1167,2173
9:55,839,1294
10:00,823,1146
10:05,527,689
10:10,723,1082
10:15,952,1579
10:20,673,1036
10:25,731,1079
10:30,955,1526
10:35,1300,1972
10:40,758,948
10:45,921,1216
10:50,960,1335
10:55,1303,1891
11:00,1292,1833
11:05,931,1274
11:10,1435,2047
11:15,1538,2108
11:20,1301,1640
11:25,1684,2204
11:30,1043,1222
11:35,958,1097
11:40,973,1098
11:45,1479,1753
11:50,778,918
11:55,1701,2040
12:00,1452,1719
12:05,1005,1063
12:10,1420,1510
12:15,935,986
12:20,1600,1578
12:25,1516,1602
12:30,1724,1648
12:35,1733,1742
12:40,1430,1378
12:45,1744,1729
12:50,1134,1063
12:55,846,854
13:00,1769,1723
13:05,1956,1925
13:10,1964,1902
13:15,1984,1848
13:20,2053,1817
13:25,678,665
13:30,256,263
13:35,2034,1792
13:40,2058,1809
13:45,631,598
13:50,407,353
13:55,1558,1248
14:00,1473,1214
14:05,439,429
14:10,319,325
14:15,1003,821
14:20,2162,1706
14:25,1914,1456
14:30,2157,1588
14:35,2125,1521
14:40,2092,1452
14:45,2113,1434
14:50,2130,1446
14:55,2172,1469
15:00,1871,1216
15:05,1932,1226
15:10,2130,1307
15:15,1814,1101
15:20,2165,1282
15:25,1497,879
15:30,2341,1339
15:35,1603,922
15:40,719,485
15:45,1463,836
15:50,634,440
15:55,1060,698
16:00,1240,751
16:05,1381,787
16:10,1207,652
16:15,1851,873
16:20,736,456
16:25,1258,683
16:30,651,472
16:35,1853,756
16:40,1445,583
16:45,815,460
16:50,1128,623
16:55,546,445
17:00,835,464
17:05,1192,519
17:10,1263,452
17:15,1875,405
17:20,1748,376
17:25,1281,287
17:30,1335,272
17:35,1582,283
17:40,1710,210
17:45,1102,167
17:50,1267,265
17:55,1312,301
18:00,1279,272
18:05,1561,170
18:10,1363,188
18:15,1430,222
18:20,832,195
18:25,746,254
18:30,998,269
18:35,913,163
18:40,812,145
18:45,429,110
18:50,354,121
18:55,350,134
19:00,198,138
19:05,183,141
19:10,251,155
19:15,176,128
19:20,150,102
19:25,141,94
19:30,135,87
19:35,124,77
19:40,114,71
19:45,126,81
19:50,114,77
19:55,116,69
20:00,103,61
20:05,92,54
20:10,74,28
20:15,65,18
20:20,39,9
20:25,14,6
20:30,8,5
20:35,11,4
20:40,6,4
20:45,9,4
20:50,0,0
20:55,0,0
21:00,0,0
21:05,0,0
21:10,0,0
21:15,0,0
21:20,0,0
21:25,0,0
