4:30,0,0
4:35,0,0
4:40,0,0
4:45,0,0
4:50,0,0
4:55,0,0
5:00,0,0
5:05,0,0
5:10,0,0
5:15,0,0
5:20,0,0
5:25,0,0
5:30,0,0
5:35,0,0
5:40,0,0
5:45,0,0
5:50,0,0
5:55,0,0
6:00,0,0
6:05,0,0
6:10,0,0
6:15,0,0
6:20,0,0
6:25,0,0
6:30,0,0
6:35,0,0
6:40,0,0
6:45,0,0
6:50,0,0
6:55,0,0
7:00,0,0
7:05,0,0
7:10,0,0
7:15,0,0
7:20,0,0
7:25,0,0
7:30,0,0
7:35,0,0
7:40,11,13
7:45,5,5
7:50,7,11
7:55,15,18
8:00,17,16
8:05,10,13
8:10,33,36
8:15,115,118
8:20,145,156
8:25,131,153
8:30,103,121
8:35,116,118
8:40,163,167
8:45,139,159
8:50,65,86
8:55,26,68
9:00,50,127
9:05,199,196
9:10,146,180
9:15,75,94
9:20,92,89
9:25,147,162
9:30,135,161
9:35,145,154
9:40,218,226
9:45,263,307
9:50,255,281
9:55,318,378
10:00,302,368
10:05,300,338
10:10,289,319
10:15,309,328
10:20,324,363
10:25,282,322
10:30,352,384
10:35,443,504
10:40,411,464
10:45,372,410
10:50,366,405
10:55,336,381
11:00,412,449
11:05,557,669
11:10,628,796
11:15,552,770
11:20,942,1515
11:25,732,1181
11:30,776,1377
11:35,846,1515
11:40,923,1558
11:45,1036,1546
11:50,534,691
11:55,688,833
12:00,837,1005
12:05,598,730
12:10,601,810
12:15,1217,1605
12:20,1235,1512
12:25,1062,1198
12:30,520,551
12:35,497,531
12:40,476,529
12:45,780,823
12:50,1348,1401
12:55,1140,1151
13:00,1027,1012
13:05,968,944
13:10,604,569
13:15,1238,1135
13:20,1377,1205
13:25,724,625
13:30,1185,978
13:35,788,650
13:40,1345,1049
13:45,993,792
13:50,1178,908
13:55,1066,795
14:00,945,696
14:05,742,584
14:10,650,538
14:15,1238,876
14:20,1729,1158
14:25,1180,806
14:30,717,519
14:35,540,444
14:40,505,433
14:45,546,415
14:50,619,415
14:55,519,374
15:00,506,363
15:05,543,397
15:10,539,427
15:15,523,433
15:20,554,480
15:25,534,479
15:30,486,438
15:35,437,395
15:40,431,371
15:45,473,378
15:50,501,383
15:55,485,376
16:00,465,368
16:05,429,350
16:10,401,330
16:15,408,311
16:20,459,319
16:25,327,300
16:30,307,281
16:35,212,227
16:40,196,199
16:45,172,182
16:50,126,145
16:55,125,129
17:00,129,135
17:05,87,97
17:10,68,71
17:15,38,52
17:20,12,12
17:25,56,47
17:30,122,132
17:35,82,95
17:40,53,61
17:45,17,50
17:50,10,11
17:55,11,13
18:00,0,0
18:05,0,0
18:10,0,0
18:15,0,0
18:20,0,0
18:25,0,0
18:30,0,0
18:35,0,0
18:40,0,0
18:45,0,0
18:50,0,0
18:55,0,0
19:00,0,0
19:05,0,0
19:10,0,0
19:15,0,0
19:20,0,0
19:25,0,0
19:30,0,0
19:35,0,0
19:40,0,0
19:45,0,0
19:50,0,0
19:55,0,0
20:00,0,0
20:05,0,0
20:10,0,0
20:15,0,0
20:20,0,0
20:25,0,0
20:30,0,0
20:35,0,0
20:40,0,0
20:45,0,0
20:50,0,0
20:55,0,0
21:00,0,0
21:05,0,0
21:10,0,0
21:15,0,0
21:20,0,0
21:25,0,0
21:30,0,0
