4:30,0,0
4:35,0,0
4:40,0,0
4:45,0,0
4:50,0,0
4:55,0,0
5:00,0,0
5:05,0,0
5:10,0,0
5:15,0,0
5:20,0,0
5:25,0,0
5:30,0,0
5:35,9,16
5:40,4,8
5:45,6,17
5:50,9,17
5:55,13,44
6:00,10,69
6:05,15,106
6:10,11,85
6:15,27,182
6:20,59,291
6:25,64,339
6:30,72,268
6:35,85,421
6:40,79,491
6:45,84,551
6:50,90,581
6:55,93,619
7:00,90,633
7:05,82,509
7:10,79,457
7:15,90,551
7:20,104,777
7:25,106,798
7:30,108,821
7:35,112,852
7:40,114,945
7:45,117,1027
7:50,119,1062
7:55,122,1096
8:00,122,1116
8:05,124,1144
8:10,126,1171
8:15,131,1238
8:20,136,1275
8:25,141,1347
8:30,156,1382
8:35,181,1418
8:40,199,1438
8:45,222,1461
8:50,254,1478
8:55,285,1523
9:00,314,1584
9:05,347,1602
9:10,379,1615
9:15,415,1638
9:20,451,1654
9:25,487,1668
9:30,526,1680
9:35,565,1696
9:40,603,1706
9:45,649,1732
9:50,705,1759
9:55,753,1797
10:00,558,1186
10:05,546,1104
10:10,756,1585
10:15,923,1842
10:20,1065,1908
10:25,560,937
10:30,1013,1769
10:35,932,1596
10:40,1196,1982
10:45,887,1335
10:50,1349,2076
10:55,1446,2000
11:00,1082,1504
11:05,826,1092
11:10,793,1030
11:15,648,851
11:20,1219,1659
11:25,919,1248
11:30,1371,1812
11:35,1109,1364
11:40,1130,1475
11:45,1397,1784
11:50,741,865
11:55,689,865
12:00,792,985
12:05,1326,1591
12:10,1446,1662
12:15,1276,1461
12:20,1239,1447
12:25,1312,1464
12:30,1714,1860
12:35,1771,1885
12:40,1710,1761
12:45,1840,1860
12:50,943,948
12:55,1816,1811
13:00,1831,1765
13:05,1528,1434
13:10,1046,985
13:15,481,445
13:20,1761,1618
13:25,1788,1588
13:30,990,873
13:35,1130,969
13:40,1963,1645
13:45,871,710
13:50,392,334
13:55,1407,1133
14:00,1180,911
14:05,1743,1344
14:10,1207,996
14:15,755,620
14:20,1874,1418
14:25,631,497
14:30,697,533
14:35,1050,761
14:40,2153,1492
14:45,2145,1471
14:50,2081,137673
14:55,1125,822
15:00,421,339
15:05,1599,1042
15:10,1360,934
15:15,1863,1253
15:20,1919,1263
15:25,1036,746
15:30,771,636
15:35,638,554
15:40,803,568
15:45,1373,839
15:50,2160,1196
15:55,2114,1123
16:00,629,480
16:05,414,375
16:10,383,343
16:15,433,370
16:20,845,498
16:25,1231,607
16:30,956,533
16:35,1423,626
16:40,1789,671
16:45,1766,628
16:50,970,396
16:55,920,320
17:00,1061,313
17:05,1307,339
17:10,648,214
17:15,620,226
17:20,596,275
17:25,690,338
17:30,558,378
17:35,564,399
17:40,538,414
17:45,556,410
17:50,824,361
17:55,428,321
18:00,381,252
18:05,339,244
18:10,241,225
18:15,228,216
18:20,239,183
18:25,368,234
18:30,439,310
18:35,345,277
18:40,247,211
18:45,208,180
18:50,209,168
18:55,207,161
19:00,204,151
19:05,194,149
19:10,154,124
19:15,144,110
19:20,136,100
19:25,126,88
19:30,122,86
19:35,116,91
19:40,102,86
19:45,87,79
19:50,70,67
19:55,60,59
20:00,40,44
20:05,9,10
20:10,6,10
20:15,5,4
20:20,7,5
20:25,5,4
20:30,5,5
20:35,10,10
20:40,0,0
20:45,0,0
20:50,0,0
20:55,0,0
21:00,0,0
21:05,0,0
21:10,0,0
21:15,0,0
21:20,0,0
21:25,0,0
21:30,0,0
