4:30,0,0
4:35,0,0
4:40,0,0
4:45,0,0
4:50,0,0
4:55,0,0
5:00,0,0
5:05,0,0
5:10,0,0
5:15,0,0
5:20,0,0
5:25,0,0
5:30,0,0
5:35,0,0
5:40,0,0
5:45,0,0
5:50,0,0
5:55,0,0
6:00,0,0
6:05,0,0
6:10,0,0
6:15,0,0
6:20,0,0
6:25,0,0
6:30,0,0
6:35,0,0
6:40,8,17
6:45,4,13
6:50,5,29
6:55,7,82
7:00,8,129
7:05,15,148
7:10,11,187
7:15,20,233
7:20,16,304
7:25,17,357
7:30,18,357
7:35,59,286
7:40,71,314
7:45,74,297
7:50,79,330
7:55,85,383
8:00,87,427
8:05,92,500
8:10,95,566
8:15,97,577
8:20,103,602
8:25,105,664
8:30,108,668
8:35,112,648
8:40,114,678
8:45,116,713
8:50,118,633
8:55,121,627
9:00,130,683
9:05,131,742
9:10,133,734
9:15,139,681
9:20,153,759
9:25,164,820
9:30,204,791
9:35,229,684
9:40,265,791
9:45,296,834
9:50,330,892
9:55,364,840
10:00,404,874
10:05,446,906
10:10,485,1004
10:15,524,1028
10:20,563,1035
10:25,601,1018
10:30,637,990
10:35,675,826
10:40,724,1040
10:45,765,1134
10:50,814,1236
10:55,861,1199
11:00,1028,1419
11:05,1119,1452
11:10,1141,1406
11:15,1166,1457
11:20,986,1208
11:25,1159,1374
11:30,1028,1248
11:35,1069,1285
11:40,987,1180
11:45,1089,1250
11:50,966,1113
11:55,1039,1158
12:00,1084,1196
12:05,1089,1185
12:10,956,1020
12:15,898,942
12:20,847,875
12:25,840,855
12:30,903,924
12:35,954,990
12:40,878,924
12:45,829,873
12:50,817,845
12:55,833,854
13:00,794,805
13:05,814,810
13:10,860,853
13:15,886,878
13:20,881,875
13:25,866,861
13:30,865,869
13:35,899,890
13:40,967,954
13:45,1000,982
13:50,961,939
13:55,956,926
14:00,936,909
14:05,801,794
14:10,682,667
14:15,667,643
14:20,647,642
14:25,568,592
14:30,456,495
14:35,386,401
14:40,365,353
14:45,391,360
14:50,421,392
14:55,419,407
15:00,403,403
15:05,350,353
15:10,360,347
15:15,378,365
15:20,384,376
15:25,372,378
15:30,314,336
15:35,264,282
15:40,224,238
15:45,197,206
15:50,187,187
15:55,213,200
16:00,264,248
16:05,278,268
16:10,253,255
16:15,216,223
16:20,170,185
16:25,132,136
16:30,128,122
16:35,131,122
16:40,147,135
16:45,170,154
16:50,181,165
16:55,195,178
17:00,202,184
17:05,213,192
17:10,224,205
17:15,233,214
17:20,235,222
17:25,215,211
17:30,179,182
17:35,152,155
17:40,122,125
17:45,98,100
17:50,79,79
17:55,63,63
18:00,32,34
18:05,9,10
18:10,9,9
18:15,8,8
18:20,8,7
18:25,8,7
18:30,5,4
18:35,5,5
18:40,11,8
18:45,0,0
18:50,0,0
18:55,0,0
19:00,0,0
19:05,0,0
19:10,0,0
19:15,0,0
19:20,0,0
19:25,0,0
19:30,0,0
19:35,0,0
19:40,0,0
19:45,0,0
19:50,0,0
19:55,0,0
20:00,0,0
20:05,0,0
20:10,0,0
20:15,0,0
20:20,0,0
20:25,0,0
20:30,0,0
20:35,0,0
20:40,0,0
20:45,0,0
20:50,0,0
20:55,0,0
21:00,0,0
21:05,0,0
21:10,0,0
21:15,0,0
21:20,0,0
21:25,0,0
21:30,0,0
