4:30,0,0
4:35,0,0
4:40,0,0
4:45,0,0
4:50,0,0
4:55,0,0
5:00,0,0
5:05,0,0
5:10,0,0
5:15,0,0
5:20,0,0
5:25,8,15
5:30,4,8
5:35,5,10
5:40,8,14
5:45,7,12
5:50,12,64
5:55,13,101
6:00,23,207
6:05,17,259
6:10,60,296
6:15,71,340
6:20,76,364
6:25,81,399
6:30,83,443
6:35,89,486
6:40,94,501
6:45,100,508
6:50,105,594
6:55,110,620
7:00,116,667
7:05,122,709
7:10,126,702
7:15,132,764
7:20,135,787
7:25,141,822
7:30,146,880
7:35,151,986
7:40,154,1023
7:45,156,1063
7:50,159,1090
7:55,164,1120
8:00,168,1161
8:05,175,1228
8:10,183,1262
8:15,192,1325
8:20,200,1370
8:25,219,1391
8:30,238,1421
8:35,271,1452
8:40,296,1483
8:45,322,1540
8:50,352,1589
8:55,380,1609
9:00,411,1645
9:05,441,1655
9:10,477,1691
9:15,509,1698
9:20,540,1716
9:25,573,1723
9:30,609,1747
9:35,644,1760
9:40,681,1779
9:45,714,1787
9:50,751,1810
9:55,786,1819
10:00,821,1832
10:05,853,1843
10:10,888,1853
10:15,919,1859
10:20,956,1875
10:25,986,1885
10:30,1019,1898
10:35,1050,1897
10:40,1077,1887
10:45,1102,1883
10:50,1131,1886
10:55,1166,1895
11:00,1201,1901
11:05,1221,1897
11:10,1247,1898
11:15,1276,1900
11:20,1296,1894
11:25,1328,1910
11:30,1358,1907
11:35,1384,1901
11:40,1370,1851
11:45,1415,1874
11:50,1473,1912
11:55,1499,1900
12:00,1511,1877
12:05,1489,1819
12:10,1459,1754
12:15,1530,1817
12:20,1556,1821
12:25,1573,1819
12:30,1622,1844
12:35,1644,1832
12:40,1670,1830
12:45,1671,1794
12:50,1659,1749
12:55,1683,1739
13:00,1675,1705
13:05,1699,1701
13:10,1705,1677
13:15,1746,1692
13:20,1759,1681
13:25,1781,1677
13:30,1767,1632
13:35,1778,1613
13:40,1829,1627
13:45,1851,1617
13:50,1795,1539
13:55,1811,1530
14:00,1875,1548
14:05,1870,1509
14:10,1871,1479
14:15,1889,1459
14:20,1899,1433
14:25,1860,1377
14:30,1917,1389
14:35,1925,1363
14:40,1925,1331
14:45,1948,1313
14:50,1974,1298
14:55,2024,1297
15:00,1920,1213
15:05,1921,1198
15:10,1255,801
15:15,1710,1057
15:20,1669,1029
15:25,1501,916
15:30,1145,728
15:35,883,593
15:40,1240,755
15:45,1413,824
15:50,1255,723
15:55,1945,981
16:00,1612,808
16:05,1808,839
16:10,1806,796
16:15,1836,754
16:20,1747,673
16:25,1778,635
16:30,1810,606
16:35,1776,556
16:40,1723,504
16:45,1719,473
16:50,1725,446
16:55,1698,420
17:00,1681,392
17:05,1671,366
17:10,1423,314
17:15,670,239
17:20,429,255
17:25,485,309
17:30,514,341
17:35,666,350
17:40,644,331
17:45,615,320
17:50,569,325
17:55,636,343
18:00,675,353
18:05,558,347
18:10,533,324
18:15,591,287
18:20,488,253
18:25,432,238
18:30,364,230
18:35,352,219
18:40,415,202
18:45,321,183
18:50,283,163
18:55,258,150
19:00,246,145
19:05,236,141
19:10,223,132
19:15,201,127
19:20,177,117
19:25,157,107
19:30,138,96
19:35,123,84
19:40,117,76
19:45,115,74
19:50,106,68
19:55,98,65
20:00,93,61
20:05,85,53
20:10,77,33
20:15,58,16
20:20,34,7
20:25,17,5
20:30,8,4
20:35,13,5
20:40,0,0
20:45,0,0
20:50,0,0
20:55,0,0
21:00,0,0
21:05,0,0
21:10,0,0
21:15,0,0
21:20,0,0
21:25,0,0
21:30,0,0
