4:30,0,0
4:35,0,0
4:40,0,0
4:45,0,0
4:50,0,0
4:55,0,0
5:00,0,0
5:05,0,0
5:10,0,0
5:15,0,0
5:20,0,0
5:25,0,0
5:30,0,0
5:35,0,0
5:40,0,0
5:45,0,0
5:50,0,0
5:55,0,0
6:00,0,0
6:05,0,0
6:10,0,0
6:15,0,0
6:20,0,0
6:25,0,0
6:30,0,0
6:35,0,0
6:40,0,0
6:45,0,0
6:50,0,0
6:55,0,0
7:00,0,0
7:05,0,0
7:10,0,0
7:15,0,0
7:20,0,0
7:25,0,0
7:30,0,0
7:35,0,0
7:40,0,0
7:45,0,0
7:50,0,0
7:55,0,0
8:00,0,0
8:05,0,0
8:10,11,12
8:15,5,6
8:20,13,9
8:25,12,13
8:30,18,34
8:35,11,21
8:40,15,11
8:45,10,11
8:50,18,17
8:55,12,12
9:00,29,33
9:05,64,78
9:10,91,108
9:15,77,83
9:20,58,64
9:25,64,72
9:30,96,105
9:35,113,113
9:40,126,130
9:45,148,149
9:50,150,157
9:55,169,171
10:00,167,162
10:05,183,189
10:10,216,211
10:15,251,255
10:20,287,297
10:25,253,246
10:30,212,212
10:35,250,244
10:40,275,293
10:45,274,278
10:50,290,309
10:55,295,303
11:00,301,308
11:05,245,258
11:10,207,240
11:15,159,155
11:20,194,189
11:25,191,194
11:30,189,189
11:35,213,211
11:40,197,200
11:45,202,191
11:50,202,189
11:55,199,186
12:00,229,208
12:05,240,211
12:10,292,255
12:15,308,268
12:20,547,428
12:25,444,424
12:30,309,300
12:35,269,261
12:40,190,202
12:45,164,161
12:50,155,153
12:55,156,147
13:00,197,189
13:05,170,156
13:10,267,183
13:15,502,247
13:20,483,224
13:25,386,244
13:30,331,231
13:35,275,221
13:40,281,240
13:45,308,251
13:50,366,275
13:55,417,304
14:00,489,254
14:05,663,240
14:10,309,188
14:15,300,202
14:20,250,191
14:25,155,148
14:30,118,118
14:35,94,90
14:40,78,74
14:45,62,58
14:50,54,52
14:55,48,46
15:00,19,16
15:05,9,9
15:10,8,10
15:15,6,6
15:20,8,7
15:25,5,5
15:30,0,0
15:35,0,0
15:40,0,0
15:45,0,0
15:50,0,0
15:55,0,0
16:00,0,0
16:05,0,0
16:10,0,0
16:15,0,0
16:20,0,0
16:25,0,0
16:30,0,0
16:35,0,0
16:40,0,0
16:45,0,0
16:50,0,0
16:55,0,0
17:00,0,0
17:05,0,0
17:10,0,0
17:15,0,0
17:20,0,0
17:25,0,0
17:30,0,0
17:35,0,0
17:40,0,0
17:45,0,0
17:50,0,0
17:55,0,0
18:00,0,0
18:05,0,0
18:10,0,0
18:15,0,0
18:20,0,0
18:25,0,0
18:30,0,0
18:35,0,0
18:40,0,0
18:45,0,0
18:50,0,0
18:55,0,0
19:00,0,0
19:05,0,0
19:10,0,0
19:15,0,0
19:20,0,0
19:25,0,0
19:30,0,0
19:35,0,0
19:40,0,0
19:45,0,0
19:50,0,0
19:55,0,0
20:00,0,0
20:05,0,0
20:10,0,0
20:15,0,0
20:20,0,0
20:25,0,0
20:30,0,0
20:35,0,0
20:40,0,0
20:45,0,0
20:50,0,0
20:55,0,0
21:00,0,0
21:05,0,0
21:10,0,0
21:15,0,0
21:20,0,0
21:25,0,0
