4:30,0,0
4:35,0,0
4:40,0,0
4:45,0,0
4:50,0,0
4:55,0,0
5:00,0,0
5:05,0,0
5:10,0,0
5:15,0,0
5:20,0,0
5:25,0,0
5:30,0,0
5:35,0,0
5:40,0,0
5:45,0,0
5:50,0,0
5:55,0,0
6:00,0,0
6:05,0,0
6:10,0,0
6:15,0,0
6:20,0,0
6:25,0,0
6:30,0,0
6:35,0,0
6:40,0,0
6:45,0,0
6:50,0,0
6:55,0,0
7:00,0,0
7:05,0,0
7:10,0,0
7:15,0,0
7:20,0,0
7:25,0,0
7:30,0,0
7:35,25,23
7:40,14,13
7:45,36,35
7:50,77,83
7:55,69,77
8:00,52,60
8:05,64,69
8:10,72,79
8:15,84,93
8:20,91,99
8:25,104,110
8:30,115,124
8:35,143,151
8:40,170,187
8:45,196,216
8:50,197,221
8:55,218,242
9:00,215,253
9:05,169,203
9:10,175,197
9:15,147,176
9:20,129,146
9:25,153,159
9:30,204,220
9:35,193,229
9:40,166,187
9:45,209,225
9:50,196,215
9:55,182,195
10:00,227,234
10:05,286,298
10:10,257,282
10:15,334,350
10:20,381,412
10:25,436,505
10:30,479,600
10:35,464,572
10:40,322,376
10:45,424,447
10:50,465,518
10:55,589,689
11:00,644,870
11:05,630,841
11:10,591,756
11:15,666,784
11:20,617,717
11:25,727,864
11:30,559,645
11:35,632,689
11:40,579,679
11:45,445,519
11:50,420,475
11:55,637,704
12:00,634,742
12:05,367,453
12:10,313,348
12:15,450,500
12:20,340,415
12:25,297,343
12:30,270,298
12:35,268,288
12:40,298,305
12:45,405,413
12:50,479,476
12:55,431,462
13:00,355,389
13:05,377,385
13:10,362,379
13:15,483,500
13:20,520,540
13:25,506,561
13:30,419,462
13:35,440,467
13:40,445,454
13:45,499,496
13:50,393,406
13:55,411,425
14:00,403,424
14:05,418,413
14:10,557,568
14:15,499,517
14:20,677,670
14:25,851,805
14:30,1071,913
14:35,1173,935
14:40,1024,856
14:45,774,734
14:50,737,704
14:55,625,651
15:00,432,475
15:05,423,458
15:10,479,493
15:15,556,544
15:20,644,589
15:25,615,560
15:30,789,604
15:35,562,530
15:40,291,340
15:45,217,238
15:50,206,217
15:55,177,204
16:00,147,166
16:05,134,148
16:10,155,175
16:15,118,129
16:20,170,180
16:25,254,274
16:30,182,202
16:35,172,189
16:40,249,253
16:45,223,238
16:50,176,189
16:55,165,181
17:00,145,159
17:05,177,186
17:10,175,187
17:15,135,148
17:20,124,135
17:25,120,126
17:30,141,145
17:35,155,162
17:40,165,170
17:45,124,138
17:50,109,113
17:55,86,91
18:00,29,46
18:05,8,9
18:10,6,7
18:15,10,9
18:20,6,5
18:25,7,7
18:30,0,0
18:35,0,0
18:40,0,0
18:45,0,0
18:50,0,0
18:55,0,0
19:00,0,0
19:05,0,0
19:10,0,0
19:15,0,0
19:20,0,0
19:25,0,0
19:30,0,0
19:35,0,0
19:40,0,0
19:45,0,0
19:50,0,0
19:55,0,0
20:00,0,0
20:05,0,0
20:10,0,0
20:15,0,0
20:20,0,0
20:25,0,0
20:30,0,0
20:35,0,0
20:40,0,0
20:45,0,0
20:50,0,0
20:55,0,0
21:00,0,0
21:05,0,0
21:10,0,0
21:15,0,0
21:20,0,0
21:25,0,0
21:30,0,0
