4:30,0,0
4:35,0,0
4:40,0,0
4:45,0,0
4:50,0,0
4:55,0,0
5:00,0,0
5:05,0,0
5:10,0,0
5:15,7,13
5:20,6,9
5:25,11,20
5:30,10,17
5:35,19,60
5:40,18,104
5:45,57,128
5:50,81,138
5:55,87,181
6:00,100,217
6:05,114,281
6:10,122,300
6:15,132,308
6:20,133,256
6:25,144,279
6:30,179,557
6:35,197,659
6:40,194,635
6:45,200,665
6:50,216,789
6:55,238,844
7:00,257,778
7:05,300,847
7:10,344,916
7:15,300,578
7:20,325,653
7:25,270,511
7:30,355,709
7:35,452,911
7:40,459,836
7:45,432,665
7:50,266,323
7:55,163,161
8:00,241,265
8:05,255,341
8:10,275,359
8:15,363,403
8:20,407,448
8:25,346,390
8:30,331,340
8:35,404,402
8:40,489,516
8:45,550,617
8:50,555,678
8:55,563,793
9:00,566,727
9:05,634,999
9:10,555,875
9:15,595,1165
9:20,677,1635
9:25,861,2150
9:30,1013,2140
9:35,767,1236
9:40,743,1182
9:45,715,996
9:50,824,1219
9:55,715,911
10:00,736,1003
10:05,679,865
10:10,889,1302
10:15,709,991
10:20,447,520
10:25,805,1061
10:30,1419,2096
10:35,1190,1729
10:40,1016,1439
10:45,591,724
10:50,343,320
10:55,474,414
11:00,1069,1362
11:05,1531,2080
11:10,1367,1906
11:15,1014,1395
11:20,1447,1931
11:25,1113,1324
11:30,1020,1151
11:35,889,993
11:40,892,939
11:45,1148,1264
11:50,906,966
11:55,815,844
12:00,845,868
12:05,1037,1107
12:10,851,903
12:15,700,736
12:20,574,602
12:25,529,536
12:30,589,587
12:35,694,687
12:40,775,794
12:45,774,804
12:50,770,782
12:55,823,819
13:00,872,875
13:05,861,897
13:10,665,734
13:15,517,548
13:20,430,458
13:25,473,459
13:30,676,651
13:35,835,812
13:40,944,932
13:45,1341,1317
13:50,2014,1889
13:55,2045,1806
14:00,1911,1607
14:05,2051,1654
14:10,1859,1520
14:15,766,691
14:20,698,657
14:25,938,828
14:30,2030,1508
14:35,1534,1214
14:40,1870,1435
14:45,1001,818
14:50,1249,957
14:55,989,793
15:00,757,657
15:05,566,548
15:10,534,544
15:15,505,508
15:20,454,475
15:25,435,454
15:30,423,438
15:35,521,488
15:40,587,562
15:45,562,563
15:50,481,516
15:55,342,386
16:00,303,301
16:05,495,439
16:10,676,609
16:15,592,577
16:20,485,488
16:25,305,345
16:30,274,319
16:35,329,361
16:40,363,373
16:45,445,421
16:50,469,437
16:55,361,323
17:00,348,320
17:05,407,407
17:10,527,518
17:15,505,499
17:20,381,407
17:25,294,306
17:30,198,218
17:35,115,120
17:40,146,139
17:45,168,164
17:50,160,150
17:55,184,182
18:00,215,232
18:05,101,118
18:10,62,66
18:15,10,9
18:20,10,10
18:25,14,11
18:30,38,34
18:35,88,80
18:40,87,88
18:45,67,70
18:50,25,36
18:55,11,10
19:00,39,31
19:05,93,83
19:10,74,75
19:15,59,59
19:20,15,18
19:25,10,10
19:30,12,13
19:35,14,13
19:40,19,18
19:45,12,15
19:50,9,10
19:55,8,11
20:00,6,5
20:05,10,6
20:10,5,5
20:15,0,0
20:20,0,0
20:25,0,0
20:30,0,0
20:35,0,0
20:40,0,0
20:45,0,0
20:50,0,0
20:55,0,0
21:00,0,0
21:05,0,0
21:10,0,0
21:15,0,0
21:20,0,0
21:25,0,0
21:30,0,0
