4:30,0,0
4:35,0,0
4:40,0,0
4:45,0,0
4:50,0,0
4:55,0,0
5:00,0,0
5:05,0,0
5:10,0,0
5:15,0,0
5:20,0,0
5:25,0,0
5:30,0,0
5:35,0,0
5:40,0,0
5:45,0,0
5:50,0,0
5:55,0,0
6:00,0,0
6:05,0,0
6:10,0,0
6:15,0,0
6:20,0,0
6:25,0,0
6:30,0,0
6:35,0,0
6:40,0,0
6:45,0,0
6:50,0,0
6:55,0,0
7:00,0,0
7:05,0,0
7:10,0,0
7:15,0,0
7:20,0,0
7:25,0,0
7:30,0,0
7:35,0,0
7:40,0,0
7:45,0,0
7:50,0,0
7:55,0,0
8:00,0,0
8:05,6,18
8:10,4,9
8:15,7,18
8:20,6,14
8:25,8,14
8:30,10,14
8:35,12,22
8:40,15,25
8:45,31,59
8:50,72,138
8:55,80,149
9:00,85,137
9:05,93,154
9:10,88,146
9:15,71,224
9:20,77,559
9:25,80,611
9:30,82,625
9:35,85,646
9:40,88,661
9:45,90,678
9:50,95,682
9:55,96,697
10:00,120,726
10:05,234,866
10:10,228,522
10:15,217,576
10:20,240,384
10:25,220,594
10:30,152,703
10:35,145,765
10:40,144,783
10:45,146,740
10:50,159,776
10:55,189,775
11:00,220,754
11:05,273,772
11:10,318,778
11:15,343,748
11:20,373,734
11:25,398,725
11:30,421,721
11:35,455,724
11:40,446,668
11:45,445,621
11:50,508,653
11:55,487,592
12:00,451,541
12:05,528,618
12:10,515,571
12:15,459,459
12:20,583,561
12:25,642,591
12:30,575,518
12:35,599,536
12:40,493,442
12:45,438,395
12:50,387,350
12:55,333,292
13:00,414,328
13:05,408,319
13:10,438,331
13:15,449,333
13:20,457,328
13:25,448,329
13:30,417,318
13:35,324,267
13:40,327,262
13:45,338,258
13:50,375,261
13:55,421,264
14:00,495,277
14:05,417,259
14:10,404,257
14:15,448,270
14:20,443,256
14:25,300,237
14:30,270,215
14:35,248,207
14:40,238,190
14:45,227,179
14:50,233,170
14:55,247,165
15:00,222,165
15:05,201,157
15:10,187,144
15:15,183,127
15:20,219,113
15:25,212,108
15:30,206,91
15:35,166,77
15:40,132,64
15:45,108,53
15:50,71,21
15:55,19,8
16:00,17,9
16:05,8,4
16:10,12,5
16:15,10,6
16:20,0,0
16:25,0,0
16:30,0,0
16:35,0,0
16:40,0,0
16:45,0,0
16:50,0,0
16:55,0,0
17:00,0,0
17:05,0,0
17:10,0,0
17:15,0,0
17:20,0,0
17:25,0,0
17:30,0,0
17:35,0,0
17:40,0,0
17:45,0,0
17:50,0,0
17:55,0,0
18:00,0,0
18:05,0,0
18:10,0,0
18:15,0,0
18:20,0,0
18:25,0,0
18:30,0,0
18:35,0,0
18:40,0,0
18:45,0,0
18:50,0,0
18:55,0,0
19:00,0,0
19:05,0,0
19:10,0,0
19:15,0,0
19:20,0,0
19:25,0,0
19:30,0,0
19:35,0,0
19:40,0,0
19:45,0,0
19:50,0,0
19:55,0,0
20:00,0,0
20:05,0,0
20:10,0,0
20:15,0,0
20:20,0,0
20:25,0,0
20:30,0,0
20:35,0,0
20:40,0,0
20:45,0,0
20:50,0,0
20:55,0,0
21:00,0,0
21:05,0,0
21:10,0,0
21:15,0,0
21:20,0,0
21:25,0,0
