4:30,0,0
4:35,0,0
4:40,0,0
4:45,0,0
4:50,0,0
4:55,0,0
5:00,0,0
5:05,0,0
5:10,0,0
5:15,0,0
5:20,0,0
5:25,0,0
5:30,0,0
5:35,0,0
5:40,0,0
5:45,0,0
5:50,0,0
5:55,0,0
6:00,0,0
6:05,0,0
6:10,0,0
6:15,0,0
6:20,0,0
6:25,0,0
6:30,0,0
6:35,0,0
6:40,0,0
6:45,0,0
6:50,0,0
6:55,0,0
7:00,0,0
7:05,0,0
7:10,0,0
7:15,3,16
7:20,7,14
7:25,3,5
7:30,3,7
7:35,4,17
7:40,10,35
7:45,8,76
7:50,13,105
7:55,12,257
8:00,18,183
8:05,17,291
8:10,28,365
8:15,72,439
8:20,81,470
8:25,94,617
8:30,108,736
8:35,119,830
8:40,120,862
8:45,120,856
8:50,126,882
8:55,128,754
9:00,122,467
9:05,142,811
9:10,167,966
9:15,177,798
9:20,196,1007
9:25,197,1002
9:30,194,1081
9:35,193,1170
9:40,214,1182
9:45,227,856
9:50,254,481
9:55,325,831
10:00,366,1206
10:05,315,650
10:10,296,609
10:15,286,544
10:20,281,515
10:25,317,708
10:30,376,859
10:35,447,1070
10:40,467,1072
10:45,496,1003
10:50,530,968
10:55,529,846
11:00,555,830
11:05,611,913
11:10,602,869
11:15,560,780
11:20,559,780
11:25,562,778
11:30,591,807
11:35,679,919
11:40,662,863
11:45,632,781
11:50,618,726
11:55,746,851
12:00,852,948
12:05,736,768
12:10,757,747
12:15,633,590
12:20,664,627
12:25,711,680
12:30,785,738
12:35,759,691
12:40,645,572
12:45,577,502
12:50,665,570
12:55,805,685
13:00,911,766
13:05,873,736
13:10,788,653
13:15,768,606
13:20,711,555
13:25,783,583
13:30,947,663
13:35,1029,683
13:40,1092,678
13:45,1186,682
13:50,1202,655
13:55,1124,598
14:00,731,446
14:05,737,430
14:10,714,417
14:15,589,391
14:20,541,380
14:25,482,375
14:30,448,370
14:35,431,356
14:40,442,350
14:45,472,343
14:50,521,332
14:55,512,315
15:00,658,300
15:05,778,312
15:10,558,343
15:15,450,341
15:20,402,328
15:25,417,339
15:30,401,340
15:35,370,303
15:40,297,243
15:45,208,193
15:50,170,158
15:55,156,139
16:00,143,131
16:05,134,122
16:10,121,111
16:15,102,96
16:20,89,85
16:25,75,71
16:30,61,58
16:35,19,25
16:40,5,5
16:45,13,11
16:50,0,0
16:55,0,0
17:00,0,0
17:05,0,0
17:10,0,0
17:15,0,0
17:20,0,0
17:25,0,0
17:30,0,0
17:35,0,0
17:40,0,0
17:45,0,0
17:50,0,0
17:55,0,0
18:00,0,0
18:05,0,0
18:10,0,0
18:15,0,0
18:20,0,0
18:25,0,0
18:30,0,0
18:35,0,0
18:40,0,0
18:45,0,0
18:50,0,0
18:55,0,0
19:00,0,0
19:05,0,0
19:10,0,0
19:15,0,0
19:20,0,0
19:25,0,0
19:30,0,0
19:35,0,0
19:40,0,0
19:45,0,0
19:50,0,0
19:55,0,0
20:00,0,0
20:05,0,0
20:10,0,0
20:15,0,0
20:20,0,0
20:25,0,0
20:30,0,0
20:35,0,0
20:40,0,0
20:45,0,0
20:50,0,0
20:55,0,0
21:00,0,0
21:05,0,0
21:10,0,0
21:15,0,0
21:20,0,0
21:25,0,0
21:30,0,0
