4:30,0,0
4:35,0,0
4:40,0,0
4:45,0,0
4:50,0,0
4:55,0,0
5:00,0,0
5:05,0,0
5:10,0,0
5:15,0,0
5:20,0,0
5:25,0,0
5:30,0,0
5:35,0,0
5:40,0,0
5:45,0,0
5:50,0,0
5:55,0,0
6:00,0,0
6:05,0,0
6:10,0,0
6:15,0,0
6:20,0,0
6:25,0,0
6:30,0,0
6:35,0,0
6:40,0,0
6:45,0,0
6:50,0,0
6:55,0,0
7:00,0,0
7:05,0,0
7:10,0,0
7:15,0,0
7:20,0,0
7:25,17,15
7:30,8,7
7:35,16,22
7:40,15,70
7:45,22,86
7:50,58,109
7:55,63,125
8:00,66,162
8:05,65,153
8:10,71,215
8:15,76,295
8:20,84,416
8:25,90,504
8:30,88,487
8:35,90,522
8:40,100,651
8:45,102,702
8:50,108,770
8:55,113,783
9:00,125,839
9:05,132,791
9:10,145,612
9:15,168,561
9:20,185,426
9:25,183,243
9:30,194,249
9:35,267,355
9:40,290,358
9:45,302,401
9:50,308,351
9:55,355,447
10:00,277,336
10:05,91,103
10:10,84,81
10:15,128,136
10:20,133,133
10:25,156,163
10:30,156,161
10:35,123,125
10:40,158,168
10:45,121,128
10:50,85,92
10:55,20,16
11:00,76,63
11:05,380,375
11:10,352,359
11:15,352,357
11:20,298,304
11:25,306,298
11:30,412,392
11:35,425,428
11:40,405,399
11:45,419,415
11:50,370,368
11:55,295,286
12:00,284,269
12:05,440,434
12:10,235,243
12:15,112,141
12:20,45,47
12:25,201,174
12:30,420,416
12:35,501,444
12:40,474,470
12:45,487,481
12:50,554,532
12:55,550,510
13:00,588,528
13:05,650,581
13:10,609,564
13:15,449,441
13:20,387,396
13:25,319,322
13:30,307,266
13:35,378,330
13:40,652,462
13:45,936,623
13:50,1288,776
13:55,1281,691
14:00,1214,537
14:05,1239,495
14:10,1129,467
14:15,1155,453
14:20,814,386
14:25,899,313
14:30,1158,382
14:35,1168,333
14:40,1133,319
14:45,1234,278
14:50,1036,231
14:55,1142,245
15:00,1135,179
15:05,1149,172
15:10,1105,164
15:15,852,128
15:20,908,171
15:25,277,157
15:30,298,121
15:35,593,113
15:40,890,98
15:45,798,88
15:50,444,84
15:55,451,100
16:00,527,98
16:05,378,81
16:10,181,70
16:15,80,65
16:20,48,53
16:25,14,11
16:30,51,12
16:35,430,52
16:40,363,131
16:45,239,56
16:50,229,17
16:55,146,11
17:00,94,7
17:05,39,8
17:10,10,4
17:15,13,8
17:20,0,0
17:25,0,0
17:30,0,0
17:35,0,0
17:40,0,0
17:45,0,0
17:50,0,0
17:55,0,0
18:00,0,0
18:05,0,0
18:10,0,0
18:15,0,0
18:20,0,0
18:25,0,0
18:30,0,0
18:35,0,0
18:40,0,0
18:45,0,0
18:50,0,0
18:55,0,0
19:00,0,0
19:05,0,0
19:10,0,0
19:15,0,0
19:20,0,0
19:25,0,0
19:30,0,0
19:35,0,0
19:40,0,0
19:45,0,0
19:50,0,0
19:55,0,0
20:00,0,0
20:05,0,0
20:10,0,0
20:15,0,0
20:20,0,0
20:25,0,0
20:30,0,0
20:35,0,0
20:40,0,0
20:45,0,0
20:50,0,0
20:55,0,0
21:00,0,0
21:05,0,0
21:10,0,0
21:15,0,0
21:20,0,0
21:25,0,0
21:30,0,0
