4:30,0,0
4:35,0,0
4:40,0,0
4:45,0,0
4:50,0,0
4:55,0,0
5:00,0,0
5:05,0,0
5:10,0,0
5:15,0,0
5:20,0,0
5:25,0,0
5:30,0,0
5:35,0,0
5:40,0,0
5:45,0,0
5:50,0,0
5:55,0,0
6:00,0,0
6:05,0,0
6:10,0,0
6:15,0,0
6:20,0,0
6:25,0,0
6:30,0,0
6:35,0,0
6:40,0,0
6:45,0,0
6:50,0,0
6:55,0,0
7:00,0,0
7:05,0,0
7:10,0,0
7:15,0,0
7:20,0,0
7:25,0,0
7:30,0,0
7:35,0,0
7:40,0,0
7:45,0,0
7:50,0,0
7:55,6,14
8:00,2,6
8:05,5,8
8:10,4,12
8:15,9,21
8:20,9,26
8:25,23,112
8:30,15,209
8:35,16,225
8:40,18,226
8:45,42,241
8:50,92,306
8:55,100,335
9:00,111,395
9:05,105,247
9:10,122,290
9:15,138,368
9:20,134,343
9:25,132,297
9:30,137,221
9:35,137,223
9:40,129,201
9:45,126,196
9:50,135,202
9:55,137,218
10:00,148,300
10:05,145,286
10:10,160,338
10:15,185,527
10:20,214,579
10:25,255,509
10:30,258,417
10:35,227,312
10:40,228,307
10:45,277,347
10:50,316,552
10:55,237,292
11:00,227,265
11:05,251,311
11:10,299,424
11:15,264,400
11:20,243,390
11:25,247,412
11:30,357,569
11:35,382,562
11:40,399,534
11:45,370,441
11:50,360,381
11:55,529,505
12:00,491,435
12:05,415,373
12:10,450,410
12:15,420,392
12:20,336,323
12:25,329,311
12:30,326,306
12:35,323,299
12:40,290,276
12:45,271,263
12:50,271,260
12:55,218,202
13:00,243,197
13:05,266,225
13:10,263,234
13:15,266,225
13:20,297,239
13:25,286,233
13:30,278,222
13:35,275,216
13:40,276,205
13:45,298,193
13:50,432,205
13:55,616,209
14:00,508,166
14:05,572,148
14:10,491,154
14:15,423,154
14:20,402,129
14:25,248,100
14:30,249,89
14:35,287,83
14:40,288,75
14:45,239,67
14:50,119,56
14:55,100,48
15:00,100,46
15:05,111,17
15:10,85,13
15:15,96,13
15:20,50,13
15:25,12,7
15:30,8,8
15:35,6,4
15:40,14,8
15:45,0,0
15:50,0,0
15:55,0,0
16:00,0,0
16:05,0,0
16:10,0,0
16:15,0,0
16:20,0,0
16:25,0,0
16:30,0,0
16:35,0,0
16:40,0,0
16:45,0,0
16:50,0,0
16:55,0,0
17:00,0,0
17:05,0,0
17:10,0,0
17:15,0,0
17:20,0,0
17:25,0,0
17:30,0,0
17:35,0,0
17:40,0,0
17:45,0,0
17:50,0,0
17:55,0,0
18:00,0,0
18:05,0,0
18:10,0,0
18:15,0,0
18:20,0,0
18:25,0,0
18:30,0,0
18:35,0,0
18:40,0,0
18:45,0,0
18:50,0,0
18:55,0,0
19:00,0,0
19:05,0,0
19:10,0,0
19:15,0,0
19:20,0,0
19:25,0,0
19:30,0,0
19:35,0,0
19:40,0,0
19:45,0,0
19:50,0,0
19:55,0,0
20:00,0,0
20:05,0,0
20:10,0,0
20:15,0,0
20:20,0,0
20:25,0,0
20:30,0,0
20:35,0,0
20:40,0,0
20:45,0,0
20:50,0,0
20:55,0,0
21:00,0,0
21:05,0,0
21:10,0,0
21:15,0,0
21:20,0,0
21:25,0,0
21:30,0,0
