4:30,0,0
4:35,0,0
4:40,0,0
4:45,0,0
4:50,0,0
4:55,0,0
5:00,0,0
5:05,0,0
5:10,0,0
5:15,0,0
5:20,0,0
5:25,0,0
5:30,0,0
5:35,13,14
5:40,5,5
5:45,8,7
5:50,6,6
5:55,7,7
6:00,6,7
6:05,6,8
6:10,7,9
6:15,7,8
6:20,8,11
6:25,12,13
6:30,63,63
6:35,56,61
6:40,35,42
6:45,13,14
6:50,48,50
6:55,64,69
7:00,75,81
7:05,77,82
7:10,81,87
7:15,73,78
7:20,74,77
7:25,71,77
7:30,69,74
7:35,79,81
7:40,84,87
7:45,97,100
7:50,108,113
7:55,119,127
8:00,135,143
8:05,154,159
8:10,156,164
8:15,172,180
8:20,175,185
8:25,202,213
8:30,231,242
8:35,211,228
8:40,193,212
8:45,198,212
8:50,243,266
8:55,316,346
9:00,388,417
9:05,347,367
9:10,238,241
9:15,239,236
9:20,238,251
9:25,255,267
9:30,240,253
9:35,224,234
9:40,234,243
9:45,242,251
9:50,245,251
9:55,187,186
10:00,195,198
10:05,269,271
10:10,325,332
10:15,358,370
10:20,270,279
10:25,274,289
10:30,294,308
10:35,171,172
10:40,151,165
10:45,189,203
10:50,245,257
10:55,264,272
11:00,319,324
11:05,353,367
11:10,462,472
11:15,557,568
11:20,528,555
11:25,544,539
11:30,357,382
11:35,492,536
11:40,392,404
11:45,354,366
11:50,430,419
11:55,369,380
12:00,470,478
12:05,365,370
12:10,337,350
12:15,448,461
12:20,481,487
12:25,546,546
12:30,458,442
12:35,542,562
12:40,405,400
12:45,637,643
12:50,623,624
12:55,407,418
13:00,400,411
13:05,284,303
13:10,215,226
13:15,236,249
13:20,225,241
13:25,315,360
13:30,450,464
13:35,427,434
13:40,514,516
13:45,449,455
13:50,451,463
13:55,676,691
14:00,608,607
14:05,582,576
14:10,489,488
14:15,443,433
14:20,374,382
14:25,378,369
14:30,354,358
14:35,433,429
14:40,419,413
14:45,391,379
14:50,399,387
14:55,378,392
15:00,336,350
15:05,376,402
15:10,379,379
15:15,364,375
15:20,366,387
15:25,459,474
15:30,433,440
15:35,329,346
15:40,391,416
15:45,415,431
15:50,370,372
15:55,346,352
16:00,388,391
16:05,361,361
16:10,382,395
16:15,416,428
16:20,428,445
16:25,351,365
16:30,293,311
16:35,252,266
16:40,256,270
16:45,185,196
16:50,219,228
16:55,228,233
17:00,256,277
17:05,279,297
17:10,261,270
17:15,214,221
17:20,183,200
17:25,156,175
17:30,175,199
17:35,246,277
17:40,365,359
17:45,267,267
17:50,193,184
17:55,169,161
18:00,118,114
18:05,92,93
18:10,170,188
18:15,206,204
18:20,217,212
18:25,215,228
18:30,252,249
18:35,202,205
18:40,189,205
18:45,210,219
18:50,201,202
18:55,180,183
19:00,158,159
19:05,125,125
19:10,103,109
19:15,107,115
19:20,107,112
19:25,97,102
19:30,73,73
19:35,61,63
19:40,38,33
19:45,7,6
19:50,8,6
19:55,15,9
20:00,0,0
20:05,0,0
20:10,0,0
20:15,0,0
20:20,0,0
20:25,0,0
20:30,0,0
20:35,0,0
20:40,0,0
20:45,0,0
20:50,0,0
20:55,0,0
21:00,0,0
21:05,0,0
21:10,0,0
21:15,0,0
21:20,0,0
21:25,0,0
21:30,0,0
