4:30,0,0
4:35,0,0
4:40,0,0
4:45,0,0
4:50,0,0
4:55,0,0
5:00,0,0
5:05,0,0
5:10,0,0
5:15,0,0
5:20,0,0
5:25,0,0
5:30,0,0
5:35,0,0
5:40,0,0
5:45,0,0
5:50,0,0
5:55,0,0
6:00,0,0
6:05,0,0
6:10,0,0
6:15,0,0
6:20,0,0
6:25,0,0
6:30,0,0
6:35,0,0
6:40,0,0
6:45,0,0
6:50,0,0
6:55,15,17
7:00,7,8
7:05,16,18
7:10,13,14
7:15,18,15
7:20,18,17
7:25,29,29
7:30,84,84
7:35,106,138
7:40,133,245
7:45,135,263
7:50,152,199
7:55,176,234
8:00,210,372
8:05,223,410
8:10,246,487
8:15,273,530
8:20,290,523
8:25,290,385
8:30,254,270
8:35,215,220
8:40,221,194
8:45,199,168
8:50,276,303
8:55,307,728
9:00,335,1099
9:05,312,1053
9:10,362,1376
9:15,551,1668
9:20,530,978
9:25,450,690
9:30,457,891
9:35,491,907
9:40,403,534
9:45,513,664
9:50,383,393
9:55,343,302
10:00,367,357
10:05,335,342
10:10,393,457
10:15,233,263
10:20,372,334
10:25,433,430
10:30,316,380
10:35,323,380
10:40,392,421
10:45,434,446
10:50,438,443
10:55,394,402
11:00,380,360
11:05,500,536
11:10,434,519
11:15,457,460
11:20,570,587
11:25,551,566
11:30,847,951
11:35,935,1122
11:40,697,763
11:45,720,722
11:50,645,698
11:55,619,682
12:00,875,1062
12:05,813,931
12:10,1071,1264
12:15,933,986
12:20,783,832
12:25,663,652
12:30,604,603
12:35,654,741
12:40,1068,1227
12:45,1369,1539
12:50,953,1028
12:55,1126,1156
13:00,921,909
13:05,856,827
13:10,794,782
13:15,1587,1567
13:20,1362,1259
13:25,529,496
13:30,886,836
13:35,1864,1655
13:40,2033,1770
13:45,1750,1528
13:50,979,838
13:55,1540,1274
14:00,1922,1529
14:05,1809,1374
14:10,1082,879
14:15,590,476
14:20,1934,1390
14:25,1900,1330
14:30,1860,1253
14:35,1850,1191
14:40,1867,1152
14:45,1191,716
14:50,1866,1056
14:55,1933,1064
15:00,1555,849
15:05,1637,851
15:10,1350,690
15:15,1281,626
15:20,1823,833
15:25,1650,739
15:30,1464,627
15:35,1283,505
15:40,1843,676
15:45,1796,630
15:50,1763,585
15:55,1757,542
16:00,1748,495
16:05,1746,451
16:10,1734,414
16:15,1715,373
16:20,1695,333
16:25,1671,292
16:30,1644,259
16:35,1567,221
16:40,1616,201
16:45,1595,166
16:50,1555,117
16:55,1528,105
17:00,1492,101
17:05,1400,98
17:10,1297,96
17:15,1227,92
17:20,1183,90
17:25,1100,85
17:30,1014,82
17:35,970,79
17:40,906,77
17:45,820,77
17:50,759,75
17:55,677,76
18:00,574,83
18:05,530,78
18:10,477,72
18:15,359,71
18:20,109,72
18:25,135,77
18:30,341,64
18:35,223,59
18:40,164,55
18:45,76,50
18:50,81,52
18:55,87,54
19:00,73,24
19:05,58,11
19:10,33,13
19:15,14,7
19:20,16,6
19:25,8,4
19:30,9,5
19:35,16,8
19:40,0,0
19:45,0,0
19:50,0,0
19:55,0,0
20:00,0,0
20:05,0,0
20:10,0,0
20:15,0,0
20:20,0,0
20:25,0,0
20:30,0,0
20:35,0,0
20:40,0,0
20:45,0,0
20:50,0,0
20:55,0,0
21:00,0,0
21:05,0,0
21:10,0,0
21:15,0,0
21:20,0,0
21:25,0,0
21:30,0,0
