4:30,0,0
4:35,0,0
4:40,0,0
4:45,0,0
4:50,0,0
4:55,0,0
5:00,0,0
5:05,0,0
5:10,0,0
5:15,0,0
5:20,0,0
5:25,0,0
5:30,0,0
5:35,0,0
5:40,0,0
5:45,0,0
5:50,0,0
5:55,0,0
6:00,0,0
6:05,0,0
6:10,0,0
6:15,0,0
6:20,0,0
6:25,0,0
6:30,0,0
6:35,0,0
6:40,0,0
6:45,0,0
6:50,0,0
6:55,0,0
7:00,0,0
7:05,0,0
7:10,0,0
7:15,0,0
7:20,0,0
7:25,0,0
7:30,0,0
7:35,0,0
7:40,0,0
7:45,0,0
7:50,0,0
7:55,9,14
8:00,4,5
8:05,7,9
8:10,5,7
8:15,6,7
8:20,8,9
8:25,18,19
8:30,71,85
8:35,73,90
8:40,103,133
8:45,103,157
8:50,108,168
8:55,119,202
9:00,113,164
9:05,125,156
9:10,114,133
9:15,132,167
9:20,121,155
9:25,123,157
9:30,129,171
9:35,148,191
9:40,172,244
9:45,170,232
9:50,194,259
9:55,189,243
10:00,208,263
10:05,224,286
10:10,224,268
10:15,243,284
10:20,243,284
10:25,238,273
10:30,224,250
10:35,221,241
10:40,213,227
10:45,216,227
10:50,215,224
10:55,218,227
11:00,206,219
11:05,205,216
11:10,213,222
11:15,224,230
11:20,240,251
11:25,265,276
11:30,255,273
11:35,237,245
11:40,259,271
11:45,239,257
11:50,231,240
11:55,236,248
12:00,234,246
12:05,228,246
12:10,200,218
12:15,187,199
12:20,193,202
12:25,179,193
12:30,180,186
12:35,185,191
12:40,160,169
12:45,157,164
12:50,155,159
12:55,152,158
13:00,144,153
13:05,141,148
13:10,139,142
13:15,125,128
13:20,111,115
13:25,108,115
13:30,95,101
13:35,87,93
13:40,79,83
13:45,76,80
13:50,77,80
13:55,68,72
14:00,71,72
14:05,68,72
14:10,58,61
14:15,32,45
14:20,16,16
14:25,12,12
14:30,15,15
14:35,8,9
14:40,7,10
14:45,5,5
14:50,10,13
14:55,8,8
15:00,8,6
15:05,11,11
15:10,0,0
15:15,0,0
15:20,0,0
15:25,0,0
15:30,0,0
15:35,0,0
15:40,0,0
15:45,0,0
15:50,0,0
15:55,0,0
16:00,0,0
16:05,0,0
16:10,0,0
16:15,0,0
16:20,0,0
16:25,0,0
16:30,0,0
16:35,0,0
16:40,0,0
16:45,0,0
16:50,0,0
16:55,0,0
17:00,0,0
17:05,0,0
17:10,0,0
17:15,0,0
17:20,0,0
17:25,0,0
17:30,0,0
17:35,0,0
17:40,0,0
17:45,0,0
17:50,0,0
17:55,0,0
18:00,0,0
18:05,0,0
18:10,0,0
18:15,0,0
18:20,0,0
18:25,0,0
18:30,0,0
18:35,0,0
18:40,0,0
18:45,0,0
18:50,0,0
18:55,0,0
19:00,0,0
19:05,0,0
19:10,0,0
19:15,0,0
19:20,0,0
19:25,0,0
19:30,0,0
19:35,0,0
19:40,0,0
19:45,0,0
19:50,0,0
19:55,0,0
20:00,0,0
20:05,0,0
20:10,0,0
20:15,0,0
20:20,0,0
20:25,0,0
20:30,0,0
20:35,0,0
20:40,0,0
20:45,0,0
20:50,0,0
20:55,0,0
21:00,0,0
21:05,0,0
21:10,0,0
21:15,0,0
21:20,0,0
21:25,0,0
21:30,0,0
