4:30,0,0
4:35,0,0
4:40,0,0
4:45,0,0
4:50,0,0
4:55,0,0
5:00,0,0
5:05,7,14
5:10,4,8
5:15,8,15
5:20,7,14
5:25,9,37
5:30,12,68
5:35,35,89
5:40,75,129
5:45,94,219
5:50,97,222
5:55,89,277
6:00,83,319
6:05,80,347
6:10,88,481
6:15,100,530
6:20,116,588
6:25,129,495
6:30,154,574
6:35,231,747
6:40,214,761
6:45,207,453
6:50,210,529
6:55,171,318
7:00,130,336
7:05,141,633
7:10,156,904
7:15,148,973
7:20,131,874
7:25,132,921
7:30,137,1087
7:35,139,1160
7:40,142,1232
7:45,152,1275
7:50,164,1310
7:55,183,1337
8:00,205,1301
8:05,240,1309
8:10,278,1348
8:15,373,1479
8:20,477,1506
8:25,550,1410
8:30,575,1207
8:35,620,1238
8:40,625,1155
8:45,681,1192
8:50,706,1214
8:55,711,1137
9:00,725,1155
9:05,605,841
9:10,579,678
9:15,596,668
9:20,678,783
9:25,680,826
9:30,652,764
9:35,627,704
9:40,613,675
9:45,628,675
9:50,761,860
9:55,795,929
10:00,792,938
10:05,804,950
10:10,855,1060
10:15,874,1151
10:20,863,1044
10:25,691,779
10:30,553,597
10:35,664,704
10:40,907,1150
10:45,1403,1959
10:50,1155,1553
10:55,1052,1348
11:00,1072,1341
11:05,1024,1245
11:10,1022,1219
11:15,974,1158
11:20,955,1053
11:25,835,930
11:30,760,757
11:35,790,832
11:40,492,499
11:45,536,551
11:50,775,809
11:55,717,727
12:00,697,675
12:05,679,612
12:10,1294,1416
12:15,833,921
12:20,1044,989
12:25,1622,1675
12:30,1343,1375
12:35,1411,1401
12:40,938,887
12:45,1367,1325
12:50,1467,1493
12:55,1115,1134
13:00,1003,1003
13:05,947,945
13:10,860,913
13:15,364,385
13:20,514,430
13:25,1510,1397
13:30,1339,1340
13:35,1023,1035
13:40,998,1016
13:45,724,785
13:50,818,836
13:55,755,810
14:00,1023,999
14:05,937,946
14:10,470,514
14:15,650,673
14:20,608,661
14:25,746,780
14:30,489,519
14:35,555,503
14:40,1294,1102
14:45,1186,1129
14:50,590,671
14:55,565,509
15:00,1007,932
15:05,909,870
15:10,1133,1015
15:15,1001,920
15:20,910,859
15:25,985,892
15:30,824,810
15:35,691,687
15:40,676,677
15:45,603,626
15:50,389,415
15:55,467,471
16:00,504,515
16:05,438,442
16:10,408,392
16:15,494,477
16:20,458,459
16:25,449,437
16:30,475,456
16:35,517,483
16:40,588,537
16:45,595,562
16:50,573,547
16:55,555,533
17:00,536,514
17:05,531,509
17:10,476,456
17:15,500,465
17:20,533,499
17:25,534,496
17:30,454,427
17:35,406,384
17:40,340,311
17:45,360,310
17:50,375,355
17:55,329,317
18:00,263,277
18:05,144,168
18:10,194,212
18:15,259,256
18:20,198,204
18:25,264,261
18:30,261,250
18:35,279,267
18:40,268,261
18:45,177,190
18:50,153,161
18:55,179,165
19:00,204,179
19:05,204,180
19:10,203,182
19:15,164,164
19:20,159,150
19:25,143,131
19:30,108,102
19:35,98,86
19:40,122,112
19:45,71,78
19:50,64,67
19:55,53,52
20:00,12,13
20:05,13,11
20:10,14,15
20:15,6,5
20:20,14,14
20:25,0,0
20:30,0,0
20:35,0,0
20:40,0,0
20:45,0,0
20:50,0,0
20:55,0,0
21:00,0,0
21:05,0,0
21:10,0,0
21:15,0,0
21:20,0,0
21:25,0,0
21:30,0,0
