4:30,0,0
4:35,0,0
4:40,0,0
4:45,0,0
4:50,0,0
4:55,0,0
5:00,0,0
5:05,0,0
5:10,0,0
5:15,0,0
5:20,0,0
5:25,0,0
5:30,0,0
5:35,0,0
5:40,0,0
5:45,0,0
5:50,0,0
5:55,0,0
6:00,0,0
6:05,5,11
6:10,4,10
6:15,10,21
6:20,9,25
6:25,11,108
6:30,13,148
6:35,48,177
6:40,65,217
6:45,73,261
6:50,81,298
6:55,89,336
7:00,95,376
7:05,102,416
7:10,111,482
7:15,116,485
7:20,130,423
7:25,146,508
7:30,155,619
7:35,156,748
7:40,171,762
7:45,175,592
7:50,204,503
7:55,231,416
8:00,233,354
8:05,257,377
8:10,277,410
8:15,326,502
8:20,339,436
8:25,343,407
8:30,399,565
8:35,381,496
8:40,375,477
8:45,445,640
8:50,457,749
8:55,438,1008
9:00,395,1243
9:05,338,1384
9:10,336,1501
9:15,355,1528
9:20,381,1556
9:25,412,1580
9:30,438,1592
9:35,467,1622
9:40,495,1623
9:45,531,1646
9:50,561,1657
9:55,598,1675
10:00,628,1667
10:05,659,1684
10:10,696,1702
10:15,724,1698
10:20,761,1708
10:25,794,1719
10:30,830,1732
10:35,861,1734
10:40,883,1714
10:45,917,1731
10:50,937,1714
10:55,978,1741
11:00,1005,1733
11:05,1037,1740
11:10,1061,1728
11:15,1095,1740
11:20,1115,1727
11:25,1150,1737
11:30,1170,1729
11:35,1194,1719
11:40,1215,1711
11:45,1232,1697
11:50,1288,1733
11:55,1298,1706
12:00,1343,1717
12:05,1350,1694
12:10,1392,1718
12:15,1418,1722
12:20,1396,1672
12:25,1457,1706
12:30,1487,1700
12:35,1501,1678
12:40,1544,1691
12:45,1548,1659
12:50,1557,1647
12:55,1557,1604
13:00,1609,1621
13:05,1639,1624
13:10,1660,1612
13:15,1654,1580
13:20,1646,1535
13:25,1625,1483
13:30,1609,1450
13:35,1501,1351
13:40,1770,1521
13:45,1786,1523
13:50,1775,1487
13:55,1614,1317
14:00,1479,1204
14:05,1375,1115
14:10,1800,1416
14:15,1477,1133
14:20,1634,1214
14:25,1463,1055
14:30,1286,905
14:35,1676,1165
14:40,1006,697
14:45,601,460
14:50,631,479
14:55,1191,810
15:00,1808,1118
15:05,1800,1108
15:10,1738,1030
15:15,1692,954
15:20,1641,893
15:25,1683,916
15:30,1380,760
15:35,550,381
15:40,627,459
15:45,1109,726
15:50,887,582
15:55,448,333
16:00,324,262
16:05,263,224
16:10,209,205
16:15,185,201
16:20,182,208
16:25,183,219
16:30,186,223
16:35,197,229
16:40,219,248
16:45,243,269
16:50,266,281
16:55,288,295
17:00,306,299
17:05,325,312
17:10,298,293
17:15,298,297
17:20,269,280
17:25,250,264
17:30,240,256
17:35,214,227
17:40,201,210
17:45,204,204
17:50,204,204
17:55,196,190
18:00,196,179
18:05,192,172
18:10,182,158
18:15,184,157
18:20,179,155
18:25,158,142
18:30,145,126
18:35,143,123
18:40,146,121
18:45,141,115
18:50,135,110
18:55,122,101
19:00,101,83
19:05,89,72
19:10,73,59
19:15,65,48
19:20,57,14
19:25,46,15
19:30,12,8
19:35,14,8
19:40,9,5
19:45,7,4
19:50,14,8
19:55,0,0
20:00,0,0
20:05,0,0
20:10,0,0
20:15,0,0
20:20,0,0
20:25,0,0
20:30,0,0
20:35,0,0
20:40,0,0
20:45,0,0
20:50,0,0
20:55,0,0
21:00,0,0
21:05,0,0
21:10,0,0
21:15,0,0
21:20,0,0
21:25,0,0
21:30,0,0
