4:30,0,0
4:35,0,0
4:40,0,0
4:45,0,0
4:50,0,0
4:55,0,0
5:00,0,0
5:05,0,0
5:10,0,0
5:15,0,0
5:20,0,0
5:25,0,0
5:30,0,0
5:35,0,0
5:40,0,0
5:45,0,0
5:50,7,15
5:55,3,6
6:00,6,10
6:05,6,18
6:10,10,15
6:15,10,35
6:20,22,222
6:25,53,328
6:30,61,377
6:35,64,378
6:40,70,465
6:45,75,487
6:50,80,488
6:55,86,595
7:00,89,628
7:05,92,645
7:10,97,697
7:15,103,736
7:20,105,799
7:25,105,885
7:30,114,933
7:35,111,934
7:40,117,989
7:45,123,1038
7:50,126,1089
7:55,131,1178
8:00,135,1233
8:05,140,1254
8:10,142,1287
8:15,145,1312
8:20,152,1359
8:25,163,1400
8:30,173,1490
8:35,195,1450
8:40,239,1578
8:45,307,1659
8:50,352,945
8:55,473,1163
9:00,451,1051
9:05,417,898
9:10,548,1665
9:15,506,1415
9:20,513,1474
9:25,521,1467
9:30,517,1336
9:35,547,1251
9:40,764,1832
9:45,700,1500
9:50,760,1620
9:55,799,1719
10:00,799,1644
10:05,941,1962
10:10,975,1999
10:15,853,1715
10:20,960,1910
10:25,1026,2020
10:30,1015,1941
10:35,1019,1916
10:40,1031,1889
10:45,1049,1891
10:50,1071,1886
10:55,1107,1900
11:00,1153,1927
11:05,1176,1917
11:10,1185,1888
11:15,1199,1867
11:20,1225,1852
11:25,1246,1840
11:30,1287,1848
11:35,1312,1840
11:40,1337,1831
11:45,1326,1780
11:50,1276,1686
11:55,1378,1799
12:00,1331,1725
12:05,1526,1948
12:10,1519,1873
12:15,1546,1819
12:20,1591,1789
12:25,1686,1820
12:30,1788,1863
12:35,1268,1266
12:40,1397,1423
12:45,1496,1548
12:50,1649,1703
12:55,1455,1494
13:00,1200,1200
13:05,1200,1162
13:10,1114,1059
13:15,1365,1262
13:20,1614,1467
13:25,1507,1351
13:30,1615,1414
13:35,1899,1633
13:40,1685,1417
13:45,2028,1695
13:50,1694,1381
13:55,1419,1138
14:00,1481,1173
14:05,1123,907
14:10,1300,1062
14:15,1119,936
14:20,1991,1515
14:25,1827,1311
14:30,1767,1201
14:35,1757,1152
14:40,1675,1082
14:45,1090,732
14:50,1340,931
14:55,2116,1409
15:00,1263,868
15:05,910,590
15:10,905,536
15:15,1990,1097
15:20,2119,1165
15:25,2148,1180
15:30,2144,1170
15:35,1904,1057
15:40,1191,754
15:45,930,651
15:50,999,677
15:55,1330,779
16:00,1475,806
16:05,2050,960
16:10,1615,790
16:15,1239,654
16:20,1956,829
16:25,1822,749
16:30,1756,715
16:35,1862,717
16:40,1761,670
16:45,1584,570
16:50,1481,489
16:55,1418,469
17:00,1425,439
17:05,1355,379
17:10,1289,332
17:15,1182,292
17:20,777,240
17:25,738,195
17:30,690,186
17:35,266,162
17:40,219,133
17:45,210,118
17:50,303,117
17:55,463,150
18:00,597,174
18:05,526,150
18:10,483,128
18:15,431,123
18:20,405,118
18:25,366,112
18:30,290,107
18:35,169,99
18:40,188,100
18:45,138,89
18:50,111,76
18:55,99,70
19:00,93,62
19:05,84,56
19:10,91,56
19:15,81,51
19:20,75,37
19:25,69,13
19:30,66,13
19:35,38,15
19:40,11,8
19:45,15,9
19:50,8,5
19:55,9,7
20:00,6,3
20:05,12,7
20:10,0,0
20:15,0,0
20:20,0,0
20:25,0,0
20:30,0,0
20:35,0,0
20:40,0,0
20:45,0,0
20:50,0,0
20:55,0,0
21:00,0,0
21:05,0,0
21:10,0,0
21:15,0,0
21:20,0,0
21:25,0,0
21:30,0,0
