4:30,0,0
4:35,0,0
4:40,0,0
4:45,0,0
4:50,0,0
4:55,0,0
5:00,0,0
5:05,0,0
5:10,0,0
5:15,0,0
5:20,0,0
5:25,0,0
5:30,0,0
5:35,0,0
5:40,0,0
5:45,0,0
5:50,0,0
5:55,0,0
6:00,0,0
6:05,0,0
6:10,0,0
6:15,0,0
6:20,0,0
6:25,0,0
6:30,0,0
6:35,0,0
6:40,0,0
6:45,0,0
6:50,0,0
6:55,0,0
7:00,0,0
7:05,0,0
7:10,0,0
7:15,0,0
7:20,0,0
7:25,0,0
7:30,10,13
7:35,6,7
7:40,16,21
7:45,14,20
7:50,44,64
7:55,73,106
8:00,84,122
8:05,84,114
8:10,95,124
8:15,116,176
8:20,140,215
8:25,161,246
8:30,178,273
8:35,194,297
8:40,215,305
8:45,274,366
8:50,320,437
8:55,311,423
9:00,288,421
9:05,255,341
9:10,207,260
9:15,185,200
9:20,195,194
9:25,174,167
9:30,201,192
9:35,137,152
9:40,110,127
9:45,113,113
9:50,113,105
9:55,124,122
10:00,148,140
10:05,197,184
10:10,209,214
10:15,236,264
10:20,212,240
10:25,172,188
10:30,169,166
10:35,166,157
10:40,145,138
10:45,140,138
10:50,201,195
10:55,218,215
11:00,177,168
11:05,209,195
11:10,304,257
11:15,403,385
11:20,399,396
11:25,399,405
11:30,347,375
11:35,294,325
11:40,345,378
11:45,358,413
11:50,312,342
11:55,291,336
12:00,328,371
12:05,371,410
12:10,360,398
12:15,333,354
12:20,325,322
12:25,332,341
12:30,295,303
12:35,336,346
12:40,303,319
12:45,221,229
12:50,133,134
12:55,110,104
13:00,69,65
13:05,58,49
13:10,25,21
13:15,13,11
13:20,18,15
13:25,15,14
13:30,46,42
13:35,72,73
13:40,64,60
13:45,78,76
13:50,74,75
13:55,90,92
14:00,95,100
14:05,59,60
14:10,72,70
14:15,106,108
14:20,128,124
14:25,165,151
14:30,241,217
14:35,281,258
14:40,303,263
14:45,246,216
14:50,205,207
14:55,275,281
15:00,393,350
15:05,281,262
15:10,182,171
15:15,150,146
15:20,92,92
15:25,49,52
15:30,11,11
15:35,62,55
15:40,110,105
15:45,135,136
15:50,113,112
15:55,92,90
16:00,95,90
16:05,87,85
16:10,98,87
16:15,106,95
16:20,77,71
16:25,53,46
16:30,13,12
16:35,6,10
16:40,6,6
16:45,8,6
16:50,5,4
16:55,6,7
17:00,9,11
17:05,0,0
17:10,0,0
17:15,0,0
17:20,0,0
17:25,0,0
17:30,0,0
17:35,0,0
17:40,0,0
17:45,0,0
17:50,0,0
17:55,0,0
18:00,0,0
18:05,0,0
18:10,0,0
18:15,0,0
18:20,0,0
18:25,0,0
18:30,0,0
18:35,0,0
18:40,0,0
18:45,0,0
18:50,0,0
18:55,0,0
19:00,0,0
19:05,0,0
19:10,0,0
19:15,0,0
19:20,0,0
19:25,0,0
19:30,0,0
19:35,0,0
19:40,0,0
19:45,0,0
19:50,0,0
19:55,0,0
20:00,0,0
20:05,0,0
20:10,0,0
20:15,0,0
20:20,0,0
20:25,0,0
20:30,0,0
20:35,0,0
20:40,0,0
20:45,0,0
20:50,0,0
20:55,0,0
21:00,0,0
21:05,0,0
21:10,0,0
21:15,0,0
21:20,0,0
21:25,0,0
21:30,0,0
