4:30,0,0
4:35,0,0
4:40,0,0
4:45,0,0
4:50,0,0
4:55,0,0
5:00,0,0
5:05,0,0
5:10,0,0
5:15,0,0
5:20,0,0
5:25,0,0
5:30,0,0
5:35,0,0
5:40,0,0
5:45,0,0
5:50,0,0
5:55,0,0
6:00,0,0
6:05,0,0
6:10,0,0
6:15,0,0
6:20,0,0
6:25,0,0
6:30,0,0
6:35,0,0
6:40,0,0
6:45,5,15
6:50,3,10
6:55,5,44
7:00,8,82
7:05,15,115
7:10,13,155
7:15,38,199
7:20,66,252
7:25,77,290
7:30,90,351
7:35,106,414
7:40,131,479
7:45,166,555
7:50,196,630
7:55,208,664
8:00,213,692
8:05,221,702
8:10,213,647
8:15,190,436
8:20,174,353
8:25,166,365
8:30,182,500
8:35,204,733
8:40,224,885
8:45,228,859
8:50,236,936
8:55,238,838
9:00,237,638
9:05,265,1028
9:10,281,1010
9:15,300,976
9:20,326,907
9:25,377,798
9:30,423,662
9:35,453,659
9:40,508,664
9:45,508,680
9:50,488,826
9:55,583,1201
10:00,605,1021
10:05,584,710
10:10,601,714
10:15,582,806
10:20,637,1065
10:25,744,1245
10:30,667,956
10:35,655,958
10:40,723,1093
10:45,771,1163
10:50,820,1277
10:55,736,1061
11:00,709,994
11:05,643,831
11:10,614,744
11:15,737,926
11:20,845,1109
11:25,740,901
11:30,686,772
11:35,762,862
11:40,929,1124
11:45,1029,1293
11:50,786,917
11:55,680,740
12:00,701,759
12:05,720,771
12:10,773,830
12:15,831,884
12:20,889,934
12:25,1061,1153
12:30,1069,1164
12:35,1073,1153
12:40,1028,1090
12:45,1032,1066
12:50,1057,1096
12:55,1015,1032
13:00,1124,1146
13:05,1123,1141
13:10,733,747
13:15,603,608
13:20,603,614
13:25,583,613
13:30,546,579
13:35,510,539
13:40,451,478
13:45,398,420
13:50,369,383
13:55,338,343
14:00,293,295
14:05,270,264
14:10,263,257
14:15,252,252
14:20,253,247
14:25,269,260
14:30,276,263
14:35,277,264
14:40,279,273
14:45,279,280
14:50,258,266
14:55,232,237
15:00,212,215
15:05,207,208
15:10,189,192
15:15,174,177
15:20,166,160
15:25,197,173
15:30,280,239
15:35,330,304
15:40,292,287
15:45,242,248
15:50,245,252
15:55,263,261
16:00,283,271
16:05,321,293
16:10,336,313
16:15,293,306
16:20,235,253
16:25,264,261
16:30,284,292
16:35,271,279
16:40,302,289
16:45,344,309
16:50,302,286
16:55,252,241
17:00,232,218
17:05,235,208
17:10,253,215
17:15,271,234
17:20,287,256
17:25,284,263
17:30,232,234
17:35,173,175
17:40,150,146
17:45,140,136
17:50,140,131
17:55,138,126
18:00,130,118
18:05,131,115
18:10,138,118
18:15,135,118
18:20,120,110
18:25,107,96
18:30,99,89
18:35,94,84
18:40,89,78
18:45,79,70
18:50,70,64
18:55,57,53
19:00,18,16
19:05,8,6
19:10,10,9
19:15,0,0
19:20,0,0
19:25,0,0
19:30,0,0
19:35,0,0
19:40,0,0
19:45,0,0
19:50,0,0
19:55,0,0
20:00,0,0
20:05,0,0
20:10,0,0
20:15,0,0
20:20,0,0
20:25,0,0
20:30,0,0
20:35,0,0
20:40,0,0
20:45,0,0
20:50,0,0
20:55,0,0
21:00,0,0
21:05,0,0
21:10,0,0
21:15,0,0
21:20,0,0
21:25,0,0
21:30,0,0
