4:30,0,0
4:35,0,0
4:40,0,0
4:45,0,0
4:50,0,0
4:55,0,0
5:00,0,0
5:05,0,0
5:10,0,0
5:15,0,0
5:20,0,0
5:25,0,0
5:30,0,0
5:35,0,0
5:40,0,0
5:45,0,0
5:50,0,0
5:55,0,0
6:00,0,0
6:05,0,0
6:10,0,0
6:15,0,0
6:20,0,0
6:25,0,0
6:30,0,0
6:35,0,0
6:40,0,0
6:45,0,0
6:50,0,0
6:55,0,0
7:00,0,0
7:05,0,0
7:10,0,0
7:15,0,0
7:20,0,0
7:25,0,0
7:30,0,0
7:35,0,0
7:40,0,0
7:45,0,0
7:50,0,0
7:55,0,0
8:00,0,0
8:05,0,0
8:10,0,0
8:15,0,0
8:20,0,0
8:25,0,0
8:30,0,0
8:35,0,0
8:40,0,0
8:45,14,14
8:50,6,7
8:55,12,12
9:00,9,10
9:05,15,16
9:10,13,14
9:15,31,32
9:20,15,23
9:25,29,15
9:30,51,18
9:35,38,37
9:40,99,98
9:45,122,123
9:50,105,104
9:55,102,103
10:00,108,109
10:05,119,123
10:10,143,148
10:15,157,165
10:20,157,168
10:25,174,190
10:30,174,185
10:35,141,140
10:40,129,131
10:45,146,154
10:50,181,196
10:55,173,184
11:00,137,144
11:05,132,136
11:10,140,144
11:15,137,142
11:20,115,122
11:25,167,167
11:30,247,251
11:35,250,261
11:40,227,239
11:45,230,228
11:50,294,304
11:55,239,269
12:00,177,204
12:05,133,141
12:10,104,105
12:15,101,97
12:20,139,139
12:25,208,206
12:30,227,228
12:35,180,186
12:40,159,158
12:45,131,130
12:50,108,110
12:55,95,97
13:00,84,86
13:05,114,114
13:10,128,128
13:15,117,114
13:20,142,148
13:25,125,125
13:30,87,83
13:35,167,167
13:40,192,192
13:45,205,197
13:50,208,209
13:55,150,158
14:00,87,91
14:05,63,70
14:10,34,47
14:15,11,11
14:20,6,6
14:25,10,7
14:30,7,7
14:35,11,16
14:40,12,13
14:45,18,17
14:50,12,13
14:55,17,17
15:00,7,8
15:05,12,13
15:10,7,7
15:15,8,8
15:20,5,6
15:25,7,4
15:30,5,4
15:35,7,8
15:40,0,0
15:45,0,0
15:50,0,0
15:55,0,0
16:00,0,0
16:05,0,0
16:10,0,0
16:15,0,0
16:20,0,0
16:25,0,0
16:30,0,0
16:35,0,0
16:40,0,0
16:45,0,0
16:50,0,0
16:55,0,0
17:00,0,0
17:05,0,0
17:10,0,0
17:15,0,0
17:20,0,0
17:25,0,0
17:30,0,0
17:35,0,0
17:40,0,0
17:45,0,0
17:50,0,0
17:55,0,0
18:00,0,0
18:05,0,0
18:10,0,0
18:15,0,0
18:20,0,0
18:25,0,0
18:30,0,0
18:35,0,0
18:40,0,0
18:45,0,0
18:50,0,0
18:55,0,0
19:00,0,0
19:05,0,0
19:10,0,0
19:15,0,0
19:20,0,0
19:25,0,0
19:30,0,0
19:35,0,0
19:40,0,0
19:45,0,0
19:50,0,0
19:55,0,0
20:00,0,0
20:05,0,0
20:10,0,0
20:15,0,0
20:20,0,0
20:25,0,0
20:30,0,0
20:35,0,0
20:40,0,0
20:45,0,0
20:50,0,0
20:55,0,0
21:00,0,0
21:05,0,0
21:10,0,0
21:15,0,0
21:20,0,0
21:25,0,0
21:30,0,0
