4:30,0,0
4:35,0,0
4:40,0,0
4:45,0,0
4:50,0,0
4:55,0,0
5:00,0,0
5:05,0,0
5:10,0,0
5:15,0,0
5:20,0,0
5:25,0,0
5:30,0,0
5:35,0,0
5:40,0,0
5:45,0,0
5:50,0,0
5:55,0,0
6:00,0,0
6:05,0,0
6:10,0,0
6:15,0,0
6:20,0,0
6:25,0,0
6:30,0,0
6:35,0,0
6:40,0,0
6:45,0,0
6:50,0,0
6:55,0,0
7:00,0,0
7:05,0,0
7:10,0,0
7:15,0,0
7:20,0,0
7:25,0,0
7:30,0,0
7:35,0,0
7:40,0,0
7:45,0,0
7:50,0,0
7:55,0,0
8:00,0,0
8:05,0,0
8:10,0,0
8:15,0,0
8:20,0,0
8:25,0,0
8:30,12,14
8:35,6,6
8:40,7,7
8:45,9,10
8:50,13,13
8:55,15,13
9:00,13,14
9:05,29,19
9:10,18,19
9:15,66,69
9:20,63,66
9:25,70,72
9:30,89,93
9:35,105,110
9:40,110,118
9:45,107,115
9:50,102,110
9:55,118,123
10:00,118,123
10:05,169,191
10:10,224,272
10:15,212,254
10:20,217,258
10:25,210,266
10:30,248,316
10:35,255,327
10:40,228,279
10:45,244,279
10:50,263,312
10:55,331,383
11:00,248,303
11:05,205,239
11:10,168,174
11:15,214,225
11:20,195,206
11:25,160,168
11:30,111,116
11:35,101,100
11:40,131,133
11:45,150,150
11:50,175,178
11:55,189,186
12:00,234,227
12:05,163,174
12:10,101,103
12:15,101,96
12:20,134,122
12:25,205,193
12:30,224,209
12:35,220,218
12:40,164,171
12:45,136,130
12:50,144,144
12:55,122,119
13:00,141,135
13:05,128,124
13:10,153,138
13:15,169,157
13:20,161,157
13:25,110,110
13:30,99,98
13:35,115,113
13:40,107,114
13:45,70,71
13:50,62,60
13:55,72,73
14:00,62,68
14:05,35,44
14:10,11,12
14:15,11,11
14:20,10,10
14:25,8,8
14:30,9,8
14:35,11,11
14:40,8,7
14:45,8,11
14:50,5,5
14:55,8,6
15:00,7,6
15:05,13,8
15:10,8,8
15:15,8,12
15:20,5,5
15:25,7,5
15:30,0,0
15:35,0,0
15:40,0,0
15:45,0,0
15:50,0,0
15:55,0,0
16:00,0,0
16:05,0,0
16:10,0,0
16:15,0,0
16:20,0,0
16:25,0,0
16:30,0,0
16:35,0,0
16:40,0,0
16:45,0,0
16:50,0,0
16:55,0,0
17:00,0,0
17:05,0,0
17:10,0,0
17:15,0,0
17:20,0,0
17:25,0,0
17:30,0,0
17:35,0,0
17:40,0,0
17:45,0,0
17:50,0,0
17:55,0,0
18:00,0,0
18:05,0,0
18:10,0,0
18:15,0,0
18:20,0,0
18:25,0,0
18:30,0,0
18:35,0,0
18:40,0,0
18:45,0,0
18:50,0,0
18:55,0,0
19:00,0,0
19:05,0,0
19:10,0,0
19:15,0,0
19:20,0,0
19:25,0,0
19:30,0,0
19:35,0,0
19:40,0,0
19:45,0,0
19:50,0,0
19:55,0,0
20:00,0,0
20:05,0,0
20:10,0,0
20:15,0,0
20:20,0,0
20:25,0,0
20:30,0,0
20:35,0,0
20:40,0,0
20:45,0,0
20:50,0,0
20:55,0,0
21:00,0,0
21:05,0,0
21:10,0,0
21:15,0,0
21:20,0,0
21:25,0,0
21:30,0,0
