4:30,0,0
4:35,0,0
4:40,0,0
4:45,0,0
4:50,0,0
4:55,0,0
5:00,0,0
5:05,0,0
5:10,0,0
5:15,0,0
5:20,0,0
5:25,0,0
5:30,0,0
5:35,0,0
5:40,0,0
5:45,0,0
5:50,0,0
5:55,0,0
6:00,0,0
6:05,0,0
6:10,0,0
6:15,0,0
6:20,16,16
6:25,6,6
6:30,11,11
6:35,13,15
6:40,19,24
6:45,66,79
6:50,74,90
6:55,93,118
7:00,116,218
7:05,119,209
7:10,125,261
7:15,119,588
7:20,111,593
7:25,92,389
7:30,107,683
7:35,112,930
7:40,121,1009
7:45,126,1018
7:50,134,1052
7:55,137,996
8:00,142,1119
8:05,150,1165
8:10,180,1214
8:15,194,1045
8:20,254,752
8:25,320,706
8:30,369,806
8:35,397,784
8:40,433,654
8:45,464,634
8:50,397,440
8:55,430,483
9:00,456,612
9:05,458,630
9:10,435,872
9:15,407,1040
9:20,377,671
9:25,797,1710
9:30,627,926
9:35,600,816
9:40,576,722
9:45,612,797
9:50,640,916
9:55,667,945
10:00,884,1484
10:05,861,1359
10:10,717,1046
10:15,508,762
10:20,498,852
10:25,760,1383
10:30,676,1200
10:35,858,1530
10:40,983,1654
10:45,1010,1619
10:50,1021,1598
10:55,1059,1605
11:00,1051,1532
11:05,800,1119
11:10,1090,1498
11:15,1174,1571
11:20,1216,1569
11:25,1212,1522
11:30,1247,1531
11:35,950,1096
11:40,1456,1677
11:45,1441,1632
11:50,1199,1306
11:55,1374,1499
12:00,1213,1248
12:05,1583,1637
12:10,880,913
12:15,1114,1073
12:20,1345,1271
12:25,1477,1386
12:30,705,664
12:35,696,623
12:40,1640,1404
12:45,987,842
12:50,1186,974
12:55,848,673
13:00,864,686
13:05,1595,1176
13:10,1619,1163
13:15,1598,1126
13:20,1567,1070
13:25,1583,1038
13:30,1599,1026
13:35,1533,942
13:40,1561,926
13:45,1551,872
13:50,1541,849
13:55,1557,827
14:00,1552,786
14:05,1535,742
14:10,1516,705
14:15,1534,681
14:20,1527,651
14:25,1516,613
14:30,1513,578
14:35,1501,540
14:40,1492,481
14:45,1449,437
14:50,1417,410
14:55,1426,381
15:00,1436,356
15:05,1419,320
15:10,1394,285
15:15,1390,254
15:20,1366,212
15:25,1351,180
15:30,1341,155
15:35,1325,134
15:40,1295,129
15:45,1273,127
15:50,1240,130
15:55,1201,130
16:00,1177,119
16:05,1132,112
16:10,1101,106
16:15,1041,106
16:20,995,104
16:25,945,102
16:30,903,96
16:35,824,95
16:40,756,91
16:45,700,89
16:50,678,86
16:55,627,86
17:00,547,83
17:05,486,78
17:10,375,72
17:15,316,69
17:20,285,62
17:25,222,37
17:30,174,19
17:35,149,11
17:40,116,16
17:45,94,11
17:50,70,11
17:55,40,8
18:00,13,8
18:05,9,5
18:10,13,6
18:15,0,0
18:20,0,0
18:25,0,0
18:30,0,0
18:35,0,0
18:40,0,0
18:45,0,0
18:50,0,0
18:55,0,0
19:00,0,0
19:05,0,0
19:10,0,0
19:15,0,0
19:20,0,0
19:25,0,0
19:30,0,0
19:35,0,0
19:40,0,0
19:45,0,0
19:50,0,0
19:55,0,0
20:00,0,0
20:05,0,0
20:10,0,0
20:15,0,0
20:20,0,0
20:25,0,0
20:30,0,0
20:35,0,0
20:40,0,0
20:45,0,0
20:50,0,0
20:55,0,0
21:00,0,0
21:05,0,0
21:10,0,0
21:15,0,0
21:20,0,0
21:25,0,0
21:30,0,0
