4:30,0,0
4:35,0,0
4:40,0,0
4:45,0,0
4:50,0,0
4:55,0,0
5:00,0,0
5:05,0,0
5:10,0,0
5:15,0,0
5:20,0,0
5:25,0,0
5:30,0,0
5:35,0,0
5:40,0,0
5:45,0,0
5:50,0,0
5:55,0,0
6:00,0,0
6:05,0,0
6:10,0,0
6:15,0,0
6:20,0,0
6:25,0,0
6:30,0,0
6:35,0,0
6:40,0,0
6:45,0,0
6:50,0,0
6:55,0,0
7:00,0,0
7:05,0,0
7:10,0,0
7:15,0,0
7:20,0,0
7:25,0,0
7:30,0,0
7:35,0,0
7:40,0,0
7:45,10,16
7:50,4,6
7:55,6,9
8:00,6,8
8:05,8,11
8:10,9,13
8:15,12,14
8:20,14,16
8:25,13,15
8:30,20,43
8:35,14,15
8:40,53,57
8:45,67,73
8:50,84,90
8:55,100,108
9:00,122,130
9:05,147,158
9:10,165,185
9:15,173,198
9:20,166,193
9:25,155,183
9:30,141,166
9:35,126,146
9:40,120,135
9:45,126,138
9:50,124,136
9:55,114,127
10:00,113,124
10:05,115,130
10:10,132,141
10:15,164,168
10:20,182,198
10:25,177,198
10:30,188,206
10:35,197,220
10:40,182,209
10:45,177,195
10:50,194,206
10:55,229,245
11:00,259,282
11:05,293,321
11:10,336,364
11:15,358,393
11:20,355,403
11:25,364,446
11:30,280,329
11:35,219,267
11:40,216,245
11:45,254,276
11:50,334,358
11:55,339,388
12:00,258,310
12:05,208,247
12:10,190,221
12:15,189,212
12:20,226,239
12:25,257,271
12:30,281,298
12:35,300,322
12:40,332,359
12:45,340,374
12:50,327,359
12:55,334,372
13:00,300,347
13:05,269,305
13:10,249,276
13:15,279,288
13:20,375,378
13:25,413,431
13:30,398,420
13:35,402,422
13:40,432,452
13:45,429,451
13:50,432,451
13:55,422,450
14:00,415,423
14:05,424,425
14:10,437,437
14:15,463,456
14:20,489,466
14:25,536,476
14:30,665,506
14:35,822,543
14:40,813,525
14:45,451,408
14:50,387,359
14:55,418,362
15:00,479,372
15:05,736,415
15:10,1127,485
15:15,523,362
15:20,422,315
15:25,310,289
15:30,309,274
15:35,282,275
15:40,270,261
15:45,223,219
15:50,194,198
15:55,205,211
16:00,234,232
16:05,212,213
16:10,150,157
16:15,126,128
16:20,142,139
16:25,155,150
16:30,157,152
16:35,145,144
16:40,138,139
16:45,127,126
16:50,122,120
16:55,110,107
17:00,96,93
17:05,89,88
17:10,83,80
17:15,82,75
17:20,79,67
17:25,72,59
17:30,73,62
17:35,56,49
17:40,12,9
17:45,12,6
17:50,7,4
17:55,10,7
18:00,0,0
18:05,0,0
18:10,0,0
18:15,0,0
18:20,0,0
18:25,0,0
18:30,0,0
18:35,0,0
18:40,0,0
18:45,0,0
18:50,0,0
18:55,0,0
19:00,0,0
19:05,0,0
19:10,0,0
19:15,0,0
19:20,0,0
19:25,0,0
19:30,0,0
19:35,0,0
19:40,0,0
19:45,0,0
19:50,0,0
19:55,0,0
20:00,0,0
20:05,0,0
20:10,0,0
20:15,0,0
20:20,0,0
20:25,0,0
20:30,0,0
20:35,0,0
20:40,0,0
20:45,0,0
20:50,0,0
20:55,0,0
21:00,0,0
21:05,0,0
21:10,0,0
21:15,0,0
21:20,0,0
21:25,0,0
