4:30,0,0
4:35,0,0
4:40,0,0
4:45,0,0
4:50,0,0
4:55,0,0
5:00,0,0
5:05,0,0
5:10,0,0
5:15,0,0
5:20,0,0
5:25,0,0
5:30,0,0
5:35,0,0
5:40,0,0
5:45,0,0
5:50,0,0
5:55,0,0
6:00,0,0
6:05,0,0
6:10,0,0
6:15,0,0
6:20,0,0
6:25,0,0
6:30,0,0
6:35,0,0
6:40,0,0
6:45,0,0
6:50,0,0
6:55,0,0
7:00,0,0
7:05,0,0
7:10,0,0
7:15,0,0
7:20,0,0
7:25,0,0
7:30,0,0
7:35,0,0
7:40,0,0
7:45,0,0
7:50,0,0
7:55,0,0
8:00,0,0
8:05,13,11
8:10,6,5
8:15,7,4
8:20,13,11
8:25,19,21
8:30,79,87
8:35,89,102
8:40,101,132
8:45,113,165
8:50,131,221
8:55,136,210
9:00,145,237
9:05,145,226
9:10,128,168
9:15,109,107
9:20,98,104
9:25,138,146
9:30,177,174
9:35,198,187
9:40,212,201
9:45,214,207
9:50,236,256
9:55,212,224
10:00,152,183
10:05,193,250
10:10,198,202
10:15,148,141
10:20,167,156
10:25,151,148
10:30,173,165
10:35,189,181
10:40,224,194
10:45,225,223
10:50,194,225
10:55,169,217
11:00,145,204
11:05,182,258
11:10,239,297
11:15,285,304
11:20,315,325
11:25,322,329
11:30,351,351
11:35,343,344
11:40,295,302
11:45,299,301
11:50,226,209
11:55,135,130
12:00,128,134
12:05,187,200
12:10,175,178
12:15,222,233
12:20,267,260
12:25,263,268
12:30,226,243
12:35,217,215
12:40,244,237
12:45,235,229
12:50,271,258
12:55,233,195
13:00,176,160
13:05,157,144
13:10,120,119
13:15,106,105
13:20,91,96
13:25,107,117
13:30,136,136
13:35,93,85
13:40,70,75
13:45,129,118
13:50,120,100
13:55,85,98
14:00,91,117
14:05,104,126
14:10,123,133
14:15,96,101
14:20,74,82
14:25,94,112
14:30,88,88
14:35,35,32
14:40,15,13
14:45,7,7
14:50,10,14
14:55,8,7
15:00,7,6
15:05,4,6
15:10,8,6
15:15,5,4
15:20,6,10
15:25,8,8
15:30,7,5
15:35,0,0
15:40,0,0
15:45,0,0
15:50,11,13
15:55,0,0
16:00,0,0
16:05,0,0
16:10,13,13
16:15,8,8
16:20,0,0
16:25,14,14
16:30,11,13
16:35,0,0
16:40,0,0
16:45,0,0
16:50,0,0
16:55,0,0
17:00,0,0
17:05,0,0
17:10,0,0
17:15,0,0
17:20,0,0
17:25,0,0
17:30,0,0
17:35,0,0
17:40,0,0
17:45,0,0
17:50,0,0
17:55,0,0
18:00,0,0
18:05,0,0
18:10,0,0
18:15,0,0
18:20,0,0
18:25,0,0
18:30,0,0
18:35,0,0
18:40,0,0
18:45,0,0
18:50,0,0
18:55,0,0
19:00,0,0
19:05,0,0
19:10,0,0
19:15,0,0
19:20,0,0
19:25,0,0
19:30,0,0
19:35,0,0
19:40,0,0
19:45,0,0
19:50,0,0
19:55,0,0
20:00,0,0
20:05,0,0
20:10,0,0
20:15,0,0
20:20,0,0
20:25,0,0
20:30,0,0
20:35,0,0
20:40,0,0
20:45,0,0
20:50,0,0
20:55,0,0
21:00,0,0
21:05,0,0
21:10,0,0
21:15,0,0
21:20,0,0
21:25,0,0
21:30,0,0
