4:30,0,0
4:35,0,0
4:40,0,0
4:45,0,0
4:50,0,0
4:55,0,0
5:00,0,0
5:05,0,0
5:10,0,0
5:15,0,0
5:20,0,0
5:25,0,0
5:30,0,0
5:35,0,0
5:40,0,0
5:45,0,0
5:50,0,0
5:55,14,13
6:00,8,7
6:05,9,12
6:10,9,8
6:15,10,12
6:20,14,12
6:25,36,33
6:30,57,59
6:35,78,90
6:40,107,127
6:45,143,168
6:50,172,192
6:55,181,192
7:00,197,211
7:05,225,255
7:10,242,296
7:15,256,318
7:20,276,341
7:25,298,406
7:30,309,566
7:35,280,354
7:40,269,320
7:45,274,339
7:50,276,367
7:55,276,373
8:00,282,359
8:05,317,386
8:10,368,499
8:15,422,725
8:20,452,930
8:25,405,604
8:30,420,668
8:35,434,746
8:40,448,634
8:45,499,635
8:50,502,682
8:55,539,835
9:00,499,797
9:05,433,577
9:10,415,486
9:15,388,449
9:20,379,433
9:25,440,500
9:30,547,662
9:35,600,749
9:40,603,725
9:45,619,738
9:50,601,687
9:55,578,643
10:00,536,595
10:05,505,577
10:10,496,572
10:15,509,586
10:20,523,614
10:25,583,685
10:30,659,777
10:35,711,842
10:40,718,853
10:45,791,960
10:50,917,1156
10:55,931,1181
11:00,1009,1307
11:05,1180,1554
11:10,1192,1560
11:15,1022,1317
11:20,1164,1524
11:25,1438,1895
11:30,1489,1947
11:35,1401,1796
11:40,1011,1270
11:45,887,1069
11:50,910,1082
11:55,1165,1379
12:00,920,993
12:05,732,730
12:10,672,702
12:15,1324,1494
12:20,1030,1151
12:25,1233,1337
12:30,1225,1321
12:35,832,911
12:40,638,663
12:45,505,476
12:50,564,539
12:55,548,555
13:00,711,717
13:05,930,967
13:10,866,965
13:15,747,890
13:20,539,691
13:25,401,499
13:30,332,432
13:35,283,342
13:40,284,324
13:45,316,363
13:50,349,400
13:55,400,456
14:00,456,514
14:05,514,562
14:10,544,590
14:15,571,609
14:20,675,677
14:25,734,729
14:30,782,778
14:35,803,813
14:40,772,800
14:45,723,746
14:50,762,738
14:55,964,866
15:00,1192,1024
15:05,1427,1179
15:10,1226,1092
15:15,857,885
15:20,785,810
15:25,1065,953
15:30,896,839
15:35,859,751
15:40,1286,933
15:45,2182,1360
15:50,1657,1107
15:55,1848,1147
16:00,1614,1028
16:05,1564,986
16:10,722,610
16:15,1045,732
16:20,1246,783
16:25,413,402
16:30,308,326
16:35,323,336
16:40,268,280
16:45,166,182
16:50,245,236
16:55,308,278
17:00,442,409
17:05,1257,685
17:10,1133,672
17:15,1052,643
17:20,926,568
17:25,467,417
17:30,285,306
17:35,280,283
17:40,319,305
17:45,349,333
17:50,329,310
17:55,300,284
18:00,267,250
18:05,308,269
18:10,354,299
18:15,357,308
18:20,234,215
18:25,211,186
18:30,201,181
18:35,143,143
18:40,107,115
18:45,103,107
18:50,121,118
18:55,112,113
19:00,67,75
19:05,59,64
19:10,60,64
19:15,64,69
19:20,73,74
19:25,86,81
19:30,108,91
19:35,112,100
19:40,109,102
19:45,105,99
19:50,83,86
19:55,60,69
20:00,22,29
20:05,11,10
20:10,20,15
20:15,13,10
20:20,16,11
20:25,10,8
20:30,12,9
20:35,7,4
20:40,8,5
20:45,0,0
20:50,0,0
20:55,0,0
21:00,0,0
21:05,0,0
21:10,0,0
21:15,0,0
21:20,0,0
21:25,0,0
21:30,0,0
