4:30,0,0
4:35,0,0
4:40,0,0
4:45,0,0
4:50,0,0
4:55,0,0
5:00,0,0
5:05,0,0
5:10,0,0
5:15,0,0
5:20,0,0
5:25,0,0
5:30,0,0
5:35,0,0
5:40,0,0
5:45,0,0
5:50,0,0
5:55,9,12
6:00,6,7
6:05,8,9
6:10,16,23
6:15,56,149
6:20,74,225
6:25,80,366
6:30,81,486
6:35,85,501
6:40,94,462
6:45,99,617
6:50,94,445
6:55,120,619
7:00,129,406
7:05,115,665
7:10,115,821
7:15,129,780
7:20,144,952
7:25,152,964
7:30,142,832
7:35,137,674
7:40,118,486
7:45,112,429
7:50,140,668
7:55,149,1241
8:00,135,1286
8:05,141,1359
8:10,154,1377
8:15,165,1410
8:20,170,1450
8:25,179,1538
8:30,208,1463
8:35,232,1591
8:40,321,1751
8:45,391,1842
8:50,494,1704
8:55,568,1940
9:00,397,1101
9:05,323,1046
9:10,564,1948
9:15,584,1761
9:20,490,1467
9:25,637,1791
9:30,781,2025
9:35,647,1357
9:40,479,1001
9:45,853,1805
9:50,874,1698
9:55,461,508
10:00,492,760
10:05,384,691
10:10,975,1997
10:15,1132,2195
10:20,1210,2093
10:25,885,1296
10:30,564,749
10:35,790,1202
10:40,1245,2023
10:45,1529,2346
10:50,868,1223
10:55,1487,2269
11:00,1324,1847
11:05,731,904
11:10,1382,1877
11:15,478,519
11:20,410,421
11:25,610,658
11:30,1766,2136
11:35,1623,2074
11:40,1426,1761
11:45,532,640
11:50,1301,1627
11:55,1768,2142
12:00,1596,1805
12:05,1067,1262
12:10,1723,2014
12:15,495,528
12:20,332,373
12:25,337,372
12:30,1410,1534
12:35,1861,2031
12:40,1134,1154
12:45,427,435
12:50,1739,1742
12:55,1947,1968
13:00,1963,1939
13:05,1720,1641
13:10,384,384
13:15,336,323
13:20,1225,1133
13:25,2020,1844
13:30,2074,1838
13:35,2079,1833
13:40,2056,1844
13:45,1962,1765
13:50,704,669
13:55,1149,981
14:00,1342,1193
14:05,2107,1705
14:10,1230,1056
14:15,725,736
14:20,489,557
14:25,337,391
14:30,362,385
14:35,321,376
14:40,198,220
14:45,305,237
14:50,548,495
14:55,543,565
15:00,445,463
15:05,1053,759
15:10,1393,1009
15:15,1231,971
15:20,691,681
15:25,491,521
15:30,370,407
15:35,190,256
15:40,80,125
15:45,20,46
15:50,9,10
15:55,20,17
16:00,35,25
16:05,510,290
16:10,1090,808
16:15,461,492
16:20,327,314
16:25,343,320
16:30,240,289
16:35,83,123
16:40,8,24
16:45,9,15
16:50,0,0
16:55,15,14
17:00,14,13
17:05,85,83
17:10,310,239
17:15,626,583
17:20,341,404
17:25,292,325
17:30,275,296
17:35,347,305
17:40,659,486
17:45,833,378
17:50,643,212
17:55,503,143
18:00,426,119
18:05,344,110
18:10,294,104
18:15,301,105
18:20,309,105
18:25,282,102
18:30,280,110
18:35,237,121
18:40,199,129
18:45,152,121
18:50,98,86
18:55,113,84
19:00,93,67
19:05,81,59
19:10,86,59
19:15,94,62
19:20,96,67
19:25,100,70
19:30,89,70
19:35,61,62
19:40,14,27
19:45,0,0
19:50,0,0
19:55,0,0
20:00,0,0
20:05,0,0
20:10,0,0
20:15,12,15
20:20,5,5
20:25,7,7
20:30,0,0
20:35,0,0
20:40,0,0
20:45,0,0
20:50,0,0
20:55,0,0
21:00,0,0
21:05,0,0
21:10,0,0
21:15,0,0
21:20,0,0
21:25,0,0
21:30,0,0
