4:30,0,0
4:35,0,0
4:40,0,0
4:45,0,0
4:50,0,0
4:55,0,0
5:00,0,0
5:05,0,0
5:10,0,0
5:15,0,0
5:20,0,0
5:25,0,0
5:30,0,0
5:35,0,0
5:40,0,0
5:45,0,0
5:50,0,0
5:55,0,0
6:00,0,0
6:05,0,0
6:10,0,0
6:15,0,0
6:20,0,0
6:25,0,0
6:30,0,0
6:35,0,0
6:40,0,0
6:45,0,0
6:50,0,0
6:55,0,0
7:00,0,0
7:05,0,0
7:10,0,0
7:15,0,0
7:20,0,0
7:25,0,0
7:30,5,15
7:35,4,15
7:40,13,70
7:45,11,109
7:50,19,154
7:55,15,184
8:00,20,234
8:05,23,235
8:10,70,291
8:15,98,351
8:20,101,375
8:25,106,350
8:30,117,414
8:35,141,467
8:40,168,527
8:45,195,611
8:50,203,619
8:55,201,531
9:00,222,591
9:05,249,652
9:10,247,543
9:15,260,743
9:20,238,594
9:25,216,485
9:30,205,441
9:35,200,435
9:40,213,565
9:45,243,772
9:50,260,807
9:55,279,739
10:00,332,719
10:05,401,1088
10:10,372,876
10:15,349,639
10:20,338,576
10:25,329,548
10:30,360,534
10:35,515,911
10:40,555,970
10:45,480,673
10:50,456,589
10:55,444,562
11:00,432,544
11:05,432,526
11:10,446,540
11:15,450,548
11:20,459,551
11:25,484,580
11:30,449,550
11:35,414,496
11:40,408,486
11:45,431,505
11:50,472,556
11:55,438,522
12:00,410,485
12:05,406,475
12:10,371,431
12:15,402,464
12:20,460,527
12:25,447,490
12:30,692,749
12:35,622,666
12:40,975,1028
12:45,731,748
12:50,949,951
12:55,934,905
13:00,908,855
13:05,940,867
13:10,880,812
13:15,998,898
13:20,905,796
13:25,1139,940
13:30,914,751
13:35,972,776
13:40,1059,811
13:45,1032,758
13:50,1176,803
13:55,1117,722
14:00,1207,740
14:05,1167,687
14:10,1234,682
14:15,1237,659
14:20,1143,584
14:25,1187,563
14:30,1215,540
14:35,1213,514
14:40,1190,478
14:45,1188,443
14:50,1164,404
14:55,1198,390
15:00,1181,350
15:05,1204,329
15:10,1178,297
15:15,982,250
15:20,1119,256
15:25,980,226
15:30,956,213
15:35,1008,201
15:40,1009,175
15:45,959,168
15:50,865,170
15:55,743,162
16:00,777,151
16:05,718,148
16:10,842,140
16:15,705,128
16:20,651,116
16:25,564,102
16:30,541,95
16:35,598,102
16:40,463,105
16:45,320,119
16:50,220,116
16:55,165,116
17:00,99,110
17:05,118,102
17:10,115,102
17:15,91,81
17:20,77,65
17:25,54,43
17:30,42,14
17:35,35,20
17:40,19,11
17:45,19,13
17:50,12,8
17:55,8,6
18:00,6,5
18:05,9,8
18:10,0,0
18:15,0,0
18:20,0,0
18:25,0,0
18:30,0,0
18:35,0,0
18:40,0,0
18:45,0,0
18:50,0,0
18:55,0,0
19:00,0,0
19:05,0,0
19:10,0,0
19:15,0,0
19:20,0,0
19:25,0,0
19:30,0,0
19:35,0,0
19:40,0,0
19:45,0,0
19:50,0,0
19:55,0,0
20:00,0,0
20:05,0,0
20:10,0,0
20:15,0,0
20:20,0,0
20:25,0,0
20:30,0,0
20:35,0,0
20:40,0,0
20:45,0,0
20:50,0,0
20:55,0,0
21:00,0,0
21:05,0,0
21:10,0,0
21:15,0,0
21:20,0,0
21:25,0,0
21:30,0,0
