4:30,0,0
4:35,0,0
4:40,0,0
4:45,0,0
4:50,0,0
4:55,0,0
5:00,0,0
5:05,0,0
5:10,0,0
5:15,0,0
5:20,0,0
5:25,0,0
5:30,0,0
5:35,0,0
5:40,0,0
5:45,0,0
5:50,0,0
5:55,0,0
6:00,0,0
6:05,0,0
6:10,0,0
6:15,0,0
6:20,0,0
6:25,0,0
6:30,0,0
6:35,0,0
6:40,0,0
6:45,0,0
6:50,0,0
6:55,0,0
7:00,0,0
7:05,0,0
7:10,0,0
7:15,0,0
7:20,0,0
7:25,0,0
7:30,0,0
7:35,0,0
7:40,0,0
7:45,0,0
7:50,18,18
7:55,6,6
8:00,10,7
8:05,10,8
8:10,11,10
8:15,14,13
8:20,13,12
8:25,16,16
8:30,12,12
8:35,22,22
8:40,22,24
8:45,80,86
8:50,103,114
8:55,114,122
9:00,117,130
9:05,133,143
9:10,150,160
9:15,179,212
9:20,203,261
9:25,191,261
9:30,170,238
9:35,143,189
9:40,139,174
9:45,166,196
9:50,176,226
9:55,181,223
10:00,202,252
10:05,257,298
10:10,249,284
10:15,252,292
10:20,268,314
10:25,288,338
10:30,291,334
10:35,298,346
10:40,281,333
10:45,291,340
10:50,265,294
10:55,201,209
11:00,170,177
11:05,144,153
11:10,157,164
11:15,166,172
11:20,89,89
11:25,102,117
11:30,191,228
11:35,201,227
11:40,221,237
11:45,171,185
11:50,188,227
11:55,234,262
12:00,260,275
12:05,208,206
12:10,176,185
12:15,172,188
12:20,162,177
12:25,183,197
12:30,210,229
12:35,218,222
12:40,173,180
12:45,224,245
12:50,263,272
12:55,219,223
13:00,190,191
13:05,160,169
13:10,162,177
13:15,173,183
13:20,199,204
13:25,202,201
13:30,185,185
13:35,182,185
13:40,181,183
13:45,157,155
13:50,144,139
13:55,117,112
14:00,83,88
14:05,72,80
14:10,61,62
14:15,22,23
14:20,11,10
14:25,25,16
14:30,12,14
14:35,56,58
14:40,60,60
14:45,52,54
14:50,36,47
14:55,18,20
15:00,11,12
15:05,16,17
15:10,11,11
15:15,10,14
15:20,9,10
15:25,10,14
15:30,8,8
15:35,8,11
15:40,6,6
15:45,6,6
15:50,5,5
15:55,0,0
16:00,0,0
16:05,0,0
16:10,0,0
16:15,0,0
16:20,0,0
16:25,0,0
16:30,0,0
16:35,0,0
16:40,0,0
16:45,0,0
16:50,0,0
16:55,0,0
17:00,0,0
17:05,0,0
17:10,0,0
17:15,0,0
17:20,0,0
17:25,0,0
17:30,0,0
17:35,0,0
17:40,0,0
17:45,0,0
17:50,0,0
17:55,0,0
18:00,0,0
18:05,0,0
18:10,0,0
18:15,0,0
18:20,0,0
18:25,0,0
18:30,0,0
18:35,0,0
18:40,0,0
18:45,0,0
18:50,0,0
18:55,0,0
19:00,0,0
19:05,0,0
19:10,0,0
19:15,0,0
19:20,0,0
19:25,0,0
19:30,0,0
19:35,0,0
19:40,0,0
19:45,0,0
19:50,0,0
19:55,0,0
20:00,0,0
20:05,0,0
20:10,0,0
20:15,0,0
20:20,0,0
20:25,0,0
20:30,0,0
20:35,0,0
20:40,0,0
20:45,0,0
20:50,0,0
20:55,0,0
21:00,0,0
21:05,0,0
21:10,0,0
21:15,0,0
21:20,0,0
21:25,0,0
21:30,0,0
