4:30,0,0
4:35,0,0
4:40,0,0
4:45,0,0
4:50,0,0
4:55,0,0
5:00,0,0
5:05,0,0
5:10,0,0
5:15,0,0
5:20,0,0
5:25,0,0
5:30,0,0
5:35,0,0
5:40,0,0
5:45,0,0
5:50,0,0
5:55,0,0
6:00,8,15
6:05,4,8
6:10,6,12
6:15,8,9
6:20,11,31
6:25,14,76
6:30,32,77
6:35,72,99
6:40,86,121
6:45,96,119
6:50,107,129
6:55,124,152
7:00,137,160
7:05,151,182
7:10,164,216
7:15,194,289
7:20,210,315
7:25,218,282
7:30,229,282
7:35,251,309
7:40,252,320
7:45,261,334
7:50,274,364
7:55,282,378
8:00,284,374
8:05,324,426
8:10,346,443
8:15,378,545
8:20,386,520
8:25,419,591
8:30,406,568
8:35,391,580
8:40,399,624
8:45,420,846
8:50,432,637
8:55,438,596
9:00,468,576
9:05,477,591
9:10,501,604
9:15,498,572
9:20,506,564
9:25,524,591
9:30,508,555
9:35,433,463
9:40,393,418
9:45,421,429
9:50,413,411
9:55,431,417
10:00,431,414
10:05,460,435
10:10,483,449
10:15,527,508
10:20,562,552
10:25,548,579
10:30,543,543
10:35,565,561
10:40,631,625
10:45,661,665
10:50,812,895
10:55,728,753
11:00,644,627
11:05,558,546
11:10,592,585
11:15,627,619
11:20,1056,1176
11:25,1047,1106
11:30,1223,1311
11:35,623,608
11:40,1329,1388
11:45,1564,1605
11:50,1197,1199
11:55,883,890
12:00,987,1016
12:05,674,703
12:10,689,699
12:15,773,787
12:20,804,804
12:25,680,674
12:30,619,615
12:35,636,636
12:40,711,690
12:45,663,664
12:50,686,685
12:55,984,889
13:00,1371,1174
13:05,678,621
13:10,740,622
13:15,935,775
13:20,1618,1200
13:25,1313,958
13:30,587,473
13:35,845,650
13:40,897,695
13:45,1741,1085
13:50,1354,840
13:55,1020,663
14:00,1313,774
14:05,1713,899
14:10,1758,868
14:15,1526,754
14:20,1331,694
14:25,867,492
14:30,880,488
14:35,1279,608
14:40,1181,508
14:45,1522,564
14:50,832,348
14:55,1308,456
15:00,1307,425
15:05,1576,429
15:10,880,268
15:15,1158,301
15:20,1534,307
15:25,1391,214
15:30,1384,177
15:35,1391,135
15:40,1351,130
15:45,1315,123
15:50,1267,118
15:55,1307,116
16:00,1285,114
16:05,1217,110
16:10,1173,104
16:15,1140,99
16:20,1105,94
16:25,1039,92
16:30,990,91
16:35,904,88
16:40,822,85
16:45,784,84
16:50,729,83
16:55,636,83
17:00,575,79
17:05,504,75
17:10,374,71
17:15,328,70
17:20,284,65
17:25,240,59
17:30,215,42
17:35,188,14
17:40,156,21
17:45,111,11
17:50,52,13
17:55,21,8
18:00,17,6
18:05,8,4
18:10,9,4
18:15,13,7
18:20,0,0
18:25,0,0
18:30,0,0
18:35,0,0
18:40,0,0
18:45,0,0
18:50,0,0
18:55,0,0
19:00,0,0
19:05,0,0
19:10,0,0
19:15,0,0
19:20,0,0
19:25,0,0
19:30,0,0
19:35,0,0
19:40,0,0
19:45,0,0
19:50,0,0
19:55,0,0
20:00,0,0
20:05,0,0
20:10,0,0
20:15,0,0
20:20,0,0
20:25,0,0
20:30,0,0
20:35,0,0
20:40,0,0
20:45,0,0
20:50,0,0
20:55,0,0
21:00,0,0
21:05,0,0
21:10,0,0
21:15,0,0
21:20,0,0
21:25,0,0
21:30,0,0
