4:30,0,0
4:35,0,0
4:40,0,0
4:45,0,0
4:50,0,0
4:55,0,0
5:00,0,0
5:05,0,0
5:10,0,0
5:15,0,0
5:20,0,0
5:25,0,0
5:30,0,0
5:35,0,0
5:40,0,0
5:45,0,0
5:50,0,0
5:55,0,0
6:00,0,0
6:05,0,0
6:10,0,0
6:15,0,0
6:20,0,0
6:25,0,0
6:30,0,0
6:35,0,0
6:40,0,0
6:45,0,0
6:50,0,0
6:55,0,0
7:00,0,0
7:05,0,0
7:10,0,0
7:15,0,0
7:20,0,0
7:25,0,0
7:30,0,0
7:35,0,0
7:40,0,0
7:45,0,0
7:50,0,0
7:55,0,0
8:00,0,0
8:05,0,0
8:10,15,15
8:15,6,6
8:20,7,11
8:25,9,9
8:30,10,14
8:35,10,11
8:40,16,12
8:45,16,16
8:50,28,29
8:55,61,71
9:00,31,51
9:05,16,15
9:10,25,24
9:15,27,28
9:20,26,28
9:25,140,156
9:30,207,223
9:35,212,278
9:40,149,211
9:45,148,160
9:50,162,169
9:55,142,146
10:00,131,137
10:05,106,114
10:10,106,106
10:15,128,116
10:20,156,150
10:25,164,164
10:30,221,217
10:35,196,208
10:40,163,166
10:45,168,164
10:50,182,181
10:55,190,192
11:00,188,186
11:05,190,186
11:10,204,194
11:15,228,219
11:20,253,227
11:25,364,366
11:30,283,301
11:35,233,241
11:40,174,174
11:45,201,189
11:50,237,231
11:55,209,214
12:00,155,149
12:05,125,116
12:10,109,108
12:15,101,95
12:20,117,108
12:25,119,106
12:30,108,102
12:35,144,130
12:40,166,147
12:45,139,132
12:50,155,149
12:55,163,163
13:00,170,171
13:05,177,168
13:10,246,229
13:15,282,260
13:20,320,289
13:25,363,331
13:30,408,400
13:35,407,395
13:40,350,342
13:45,290,299
13:50,284,291
13:55,296,294
14:00,285,294
14:05,189,198
14:10,200,193
14:15,208,204
14:20,206,205
14:25,181,186
14:30,186,169
14:35,187,165
14:40,195,168
14:45,198,180
14:50,214,182
14:55,285,243
15:00,219,207
15:05,165,151
15:10,167,134
15:15,154,126
15:20,116,113
15:25,83,83
15:30,57,58
15:35,63,58
15:40,32,18
15:45,17,15
15:50,14,13
15:55,9,13
16:00,5,5
16:05,8,6
16:10,13,13
16:15,7,7
16:20,0,0
16:25,0,0
16:30,0,0
16:35,0,0
16:40,0,0
16:45,0,0
16:50,0,0
16:55,0,0
17:00,0,0
17:05,0,0
17:10,0,0
17:15,0,0
17:20,0,0
17:25,0,0
17:30,0,0
17:35,0,0
17:40,0,0
17:45,0,0
17:50,0,0
17:55,0,0
18:00,0,0
18:05,0,0
18:10,0,0
18:15,0,0
18:20,0,0
18:25,0,0
18:30,0,0
18:35,0,0
18:40,0,0
18:45,0,0
18:50,0,0
18:55,0,0
19:00,0,0
19:05,0,0
19:10,0,0
19:15,0,0
19:20,0,0
19:25,0,0
19:30,0,0
19:35,0,0
19:40,0,0
19:45,0,0
19:50,0,0
19:55,0,0
20:00,0,0
20:05,0,0
20:10,0,0
20:15,0,0
20:20,0,0
20:25,0,0
20:30,0,0
20:35,0,0
20:40,0,0
20:45,0,0
20:50,0,0
20:55,0,0
21:00,0,0
21:05,0,0
21:10,0,0
21:15,0,0
21:20,0,0
21:25,0,0
21:30,0,0
