4:30,0,0
4:35,0,0
4:40,0,0
4:45,0,0
4:50,0,0
4:55,0,0
5:00,0,0
5:05,0,0
5:10,0,0
5:15,0,0
5:20,0,0
5:25,0,0
5:30,0,0
5:35,0,0
5:40,0,0
5:45,0,0
5:50,0,0
5:55,6,17
6:00,3,8
6:05,7,19
6:10,7,31
6:15,14,79
6:20,11,218
6:25,17,272
6:30,16,310
6:35,26,361
6:40,65,386
6:45,70,440
6:50,76,483
6:55,76,470
7:00,84,495
7:05,87,525
7:10,92,639
7:15,104,708
7:20,112,797
7:25,111,838
7:30,112,869
7:35,114,852
7:40,118,928
7:45,126,1004
7:50,128,1077
7:55,137,1112
8:00,142,1167
8:05,148,1247
8:10,150,1264
8:15,163,1323
8:20,163,1369
8:25,164,1446
8:30,157,1427
8:35,161,1520
8:40,168,1555
8:45,163,1595
8:50,187,1626
8:55,226,1648
9:00,251,1678
9:05,277,1702
9:10,310,1704
9:15,340,1740
9:20,373,1764
9:25,408,1784
9:30,445,1786
9:35,485,1815
9:40,522,1823
9:45,561,1844
9:50,599,1857
9:55,637,1882
10:00,677,1901
10:05,715,1913
10:10,755,1926
10:15,791,1922
10:20,827,1924
10:25,862,1927
10:30,901,1941
10:35,935,1944
10:40,970,1944
10:45,1000,1939
10:50,1036,1948
10:55,1070,1956
11:00,1107,1959
11:05,1137,1950
11:10,1169,1953
11:15,1196,1942
11:20,1234,1953
11:25,1262,1951
11:30,1285,1935
11:35,1312,1933
11:40,1341,1929
11:45,1372,1928
11:50,1397,1913
11:55,1416,1903
12:00,1442,1897
12:05,1462,1876
12:10,1489,1869
12:15,1511,1859
12:20,1541,1855
12:25,1560,1846
12:30,1578,1836
12:35,1597,1814
12:40,1616,1801
12:45,1625,1774
12:50,1651,1764
12:55,1665,1757
13:00,1687,1740
13:05,1701,1721
13:10,1718,1699
13:15,1734,1676
13:20,1742,1652
13:25,1760,1640
13:30,1764,1610
13:35,1775,1589
13:40,1776,1556
13:45,1795,1532
13:50,1811,1510
13:55,1821,1487
14:00,1831,1461
14:05,1837,1435
14:10,1837,1404
14:15,1853,1382
14:20,1851,1346
14:25,1860,1319
14:30,1859,1285
14:35,1862,1257
14:40,1866,1225
14:45,1873,1196
14:50,1880,1164
14:55,1893,1137
15:00,1894,1101
15:05,1883,1065
15:10,1877,1022
15:15,1876,989
15:20,1855,943
15:25,1851,907
15:30,1868,880
15:35,1843,833
15:40,1841,798
15:45,1816,752
15:50,1849,731
15:55,1756,660
16:00,1764,642
16:05,1752,612
16:10,1661,552
16:15,1697,529
16:20,1729,501
16:25,1696,449
16:30,1672,416
16:35,1713,391
16:40,1643,357
16:45,1601,316
16:50,1596,290
16:55,1532,264
17:00,1447,241
17:05,1375,209
17:10,1343,149
17:15,1221,145
17:20,1158,141
17:25,1194,139
17:30,1126,140
17:35,1031,137
17:40,964,137
17:45,869,134
17:50,762,132
17:55,691,125
18:00,662,122
18:05,569,120
18:10,491,117
18:15,502,114
18:20,469,109
18:25,342,102
18:30,393,103
18:35,383,103
18:40,324,103
18:45,257,106
18:50,229,109
18:55,212,111
19:00,193,109
19:05,167,101
19:10,143,92
19:15,121,84
19:20,104,72
19:25,82,59
19:30,66,43
19:35,55,11
19:40,30,12
19:45,11,7
19:50,10,6
19:55,8,3
20:00,10,4
20:05,0,0
20:10,0,0
20:15,0,0
20:20,0,0
20:25,0,0
20:30,0,0
20:35,0,0
20:40,0,0
20:45,0,0
20:50,0,0
20:55,0,0
21:00,0,0
21:05,0,0
21:10,0,0
21:15,0,0
21:20,0,0
21:25,0,0
21:30,0,0
