4:30,0,0
4:35,0,0
4:40,0,0
4:45,0,0
4:50,0,0
4:55,0,0
5:00,0,0
5:05,0,0
5:10,0,0
5:15,0,0
5:20,0,0
5:25,0,0
5:30,0,0
5:35,0,0
5:40,0,0
5:45,0,0
5:50,0,0
5:55,0,0
6:00,0,0
6:05,0,0
6:10,0,0
6:15,0,0
6:20,0,0
6:25,7,16
6:30,3,13
6:35,7,21
6:40,6,19
6:45,15,184
6:50,12,372
6:55,34,442
7:00,59,512
7:05,67,569
7:10,77,618
7:15,84,677
7:20,102,739
7:25,120,818
7:30,132,886
7:35,132,941
7:40,106,781
7:45,104,875
7:50,104,841
7:55,107,844
8:00,118,865
8:05,167,964
8:10,316,1342
8:15,372,561
8:20,412,559
8:25,418,652
8:30,341,586
8:35,330,503
8:40,380,601
8:45,399,683
8:50,461,836
8:55,473,844
9:00,450,858
9:05,354,448
9:10,327,438
9:15,367,694
9:20,434,1101
9:25,463,921
9:30,448,652
9:35,546,889
9:40,487,780
9:45,375,655
9:50,425,968
9:55,439,1160
10:00,646,1581
10:05,643,1588
10:10,705,1524
10:15,717,1393
10:20,880,1646
10:25,916,1511
10:30,727,1101
10:35,747,1143
10:40,935,1406
10:45,950,1361
10:50,833,1126
10:55,869,1124
11:00,925,1194
11:05,969,1239
11:10,972,1191
11:15,870,1032
11:20,880,996
11:25,1032,1180
11:30,907,1007
11:35,962,1061
11:40,798,856
11:45,832,878
11:50,809,848
11:55,756,773
12:00,767,777
12:05,790,790
12:10,739,737
12:15,661,659
12:20,613,619
12:25,593,587
12:30,594,569
12:35,637,589
12:40,708,656
12:45,638,620
12:50,625,611
12:55,611,595
13:00,680,652
13:05,665,652
13:10,663,652
13:15,663,655
13:20,615,637
13:25,430,486
13:30,432,412
13:35,505,493
13:40,448,448
13:45,422,424
13:50,401,395
13:55,408,399
14:00,426,417
14:05,493,470
14:10,560,536
14:15,581,541
14:20,621,583
14:25,560,543
14:30,470,478
14:35,380,389
14:40,353,359
14:45,394,382
14:50,416,397
14:55,410,398
15:00,388,380
15:05,346,347
15:10,300,299
15:15,286,294
15:20,239,252
15:25,203,208
15:30,205,205
15:35,144,153
15:40,115,115
15:45,104,96
15:50,129,129
15:55,140,127
16:00,169,157
16:05,199,178
16:10,193,176
16:15,182,170
16:20,147,148
16:25,128,121
16:30,126,123
16:35,134,124
16:40,139,137
16:45,83,85
16:50,78,75
16:55,68,70
17:00,65,67
17:05,60,61
17:10,65,61
17:15,30,34
17:20,9,10
17:25,10,13
17:30,5,5
17:35,10,8
17:40,0,0
17:45,0,0
17:50,0,0
17:55,0,0
18:00,0,0
18:05,0,0
18:10,0,0
18:15,0,0
18:20,0,0
18:25,0,0
18:30,0,0
18:35,0,0
18:40,0,0
18:45,0,0
18:50,0,0
18:55,0,0
19:00,0,0
19:05,0,0
19:10,0,0
19:15,0,0
19:20,0,0
19:25,0,0
19:30,0,0
19:35,0,0
19:40,0,0
19:45,0,0
19:50,0,0
19:55,0,0
20:00,0,0
20:05,0,0
20:10,0,0
20:15,0,0
20:20,0,0
20:25,0,0
20:30,0,0
20:35,0,0
20:40,0,0
20:45,0,0
20:50,0,0
20:55,0,0
21:00,0,0
21:05,0,0
21:10,0,0
21:15,0,0
21:20,0,0
21:25,0,0
21:30,0,0
