4:30,0,0
4:35,0,0
4:40,0,0
4:45,0,0
4:50,0,0
4:55,0,0
5:00,0,0
5:05,0,0
5:10,0,0
5:15,0,0
5:20,0,0
5:25,0,0
5:30,0,0
5:35,0,0
5:40,0,0
5:45,15,15
5:50,8,8
5:55,11,11
6:00,17,16
6:05,15,15
6:10,57,59
6:15,59,63
6:20,62,65
6:25,72,73
6:30,75,73
6:35,88,87
6:40,102,100
6:45,107,108
6:50,117,122
6:55,120,119
7:00,117,116
7:05,126,124
7:10,136,138
7:15,153,152
7:20,155,154
7:25,161,155
7:30,172,171
7:35,198,202
7:40,199,198
7:45,190,195
7:50,203,209
7:55,222,229
8:00,233,236
8:05,244,247
8:10,233,235
8:15,227,230
8:20,224,227
8:25,227,227
8:30,218,224
8:35,211,216
8:40,202,208
8:45,213,217
8:50,251,252
8:55,241,241
9:00,240,243
9:05,272,276
9:10,269,273
9:15,296,300
9:20,305,309
9:25,312,319
9:30,296,295
9:35,305,316
9:40,349,357
9:45,357,368
9:50,394,395
9:55,370,369
10:00,348,346
10:05,335,335
10:10,315,321
10:15,377,386
10:20,401,408
10:25,435,449
10:30,528,547
10:35,546,581
10:40,761,885
10:45,1047,1406
10:50,855,1011
10:55,1061,1357
11:00,1361,1966
11:05,1017,1313
11:10,763,930
11:15,1458,2001
11:20,1510,2136
11:25,1506,2064
11:30,1541,2074
11:35,1489,1957
11:40,1579,2025
11:45,1556,1991
11:50,1583,1991
11:55,1627,2003
12:00,1629,1982
12:05,1567,1888
12:10,1673,1978
12:15,1688,1957
12:20,1716,1945
12:25,1735,1923
12:30,1757,1926
12:35,1779,1920
12:40,1804,1934
12:45,1865,1986
12:50,1854,1953
12:55,1735,1835
13:00,886,921
13:05,1939,1943
13:10,1894,1860
13:15,1883,1822
13:20,1872,1782
13:25,1868,1743
13:30,1885,1726
13:35,1898,1713
13:40,1885,1677
13:45,1905,1666
13:50,1897,1636
13:55,1907,1616
14:00,1916,1599
14:05,1925,1580
14:10,1918,1545
14:15,1933,1528
14:20,1930,1500
14:25,1938,1483
14:30,1935,1455
14:35,1941,1428
14:40,1948,1411
14:45,1948,1385
14:50,1937,1348
14:55,1932,1311
15:00,1931,1284
15:05,1936,1258
15:10,1936,1229
15:15,1936,1196
15:20,1942,1173
15:25,1918,1130
15:30,1913,1097
15:35,1924,1072
15:40,1914,1038
15:45,1899,996
15:50,1897,968
15:55,1890,933
16:00,1879,904
16:05,1869,867
16:10,1854,830
16:15,1849,790
16:20,1842,760
16:25,1829,719
16:30,1823,687
16:35,1797,648
16:40,1733,609
16:45,1695,564
16:50,1662,527
16:55,1592,485
17:00,1570,444
17:05,1519,416
17:10,1460,376
17:15,1433,344
17:20,1338,319
17:25,1242,291
17:30,1169,266
17:35,1001,243
17:40,929,216
17:45,875,184
17:50,792,158
17:55,718,134
18:00,633,130
18:05,585,128
18:10,481,126
18:15,411,121
18:20,333,119
18:25,175,124
18:30,208,125
18:35,167,125
18:40,158,122
18:45,157,122
18:50,160,123
18:55,163,126
19:00,157,120
19:05,140,110
19:10,131,104
19:15,128,105
19:20,142,110
19:25,130,108
19:30,170,137
19:35,204,150
19:40,187,147
19:45,182,144
19:50,174,134
19:55,121,99
20:00,116,93
20:05,102,86
20:10,91,81
20:15,79,71
20:20,62,55
20:25,59,50
20:30,52,24
20:35,15,11
20:40,5,4
20:45,10,10
20:50,0,0
20:55,0,0
21:00,0,0
21:05,0,0
21:10,0,0
21:15,0,0
21:20,0,0
21:25,0,0
21:30,0,0
