4:30,0,0
4:35,0,0
4:40,0,0
4:45,0,0
4:50,0,0
4:55,0,0
5:00,0,0
5:05,0,0
5:10,0,0
5:15,0,0
5:20,0,0
5:25,0,0
5:30,0,0
5:35,0,0
5:40,0,0
5:45,0,0
5:50,0,0
5:55,0,0
6:00,0,0
6:05,0,0
6:10,0,0
6:15,14,22
6:20,6,10
6:25,5,7
6:30,4,5
6:35,11,9
6:40,15,17
6:45,10,12
6:50,11,12
6:55,21,19
7:00,24,34
7:05,28,121
7:10,32,134
7:15,110,178
7:20,111,159
7:25,105,116
7:30,107,119
7:35,115,127
7:40,124,135
7:45,127,138
7:50,130,140
7:55,130,137
8:00,136,148
8:05,158,167
8:10,176,183
8:15,187,202
8:20,224,248
8:25,214,240
8:30,245,281
8:35,279,315
8:40,280,307
8:45,268,293
8:50,238,252
8:55,217,222
9:00,208,220
9:05,258,277
9:10,201,215
9:15,265,288
9:20,242,261
9:25,303,312
9:30,333,356
9:35,383,424
9:40,266,310
9:45,263,290
9:50,335,386
9:55,429,482
10:00,383,396
10:05,385,407
10:10,378,413
10:15,495,556
10:20,499,558
10:25,439,490
10:30,482,587
10:35,629,735
10:40,569,624
10:45,411,441
10:50,500,553
10:55,718,851
11:00,704,952
11:05,794,1139
11:10,704,816
11:15,519,576
11:20,549,624
11:25,702,818
11:30,596,708
11:35,686,764
11:40,683,723
11:45,525,561
11:50,512,533
11:55,712,766
12:00,514,598
12:05,759,879
12:10,663,740
12:15,598,682
12:20,685,752
12:25,534,583
12:30,325,358
12:35,322,348
12:40,427,490
12:45,724,775
12:50,648,668
12:55,707,756
13:00,792,871
13:05,597,620
13:10,387,390
13:15,334,354
13:20,657,722
13:25,941,965
13:30,471,519
13:35,224,269
13:40,304,331
13:45,540,578
13:50,738,781
13:55,1336,1188
14:00,1241,1175
14:05,781,804
14:10,376,410
14:15,326,345
14:20,314,372
14:25,680,719
14:30,833,801
14:35,606,587
14:40,381,382
14:45,384,395
14:50,573,602
14:55,469,479
15:00,284,303
15:05,471,497
15:10,537,535
15:15,368,384
15:20,355,397
15:25,300,293
15:30,272,281
15:35,404,440
15:40,572,593
15:45,475,487
15:50,363,374
15:55,387,403
16:00,385,417
16:05,358,407
16:10,406,445
16:15,514,521
16:20,385,397
16:25,372,390
16:30,351,375
16:35,348,368
16:40,403,421
16:45,418,433
16:50,373,382
16:55,378,373
17:00,269,285
17:05,243,260
17:10,296,317
17:15,322,338
17:20,277,297
17:25,302,312
17:30,278,285
17:35,276,269
17:40,205,203
17:45,143,146
17:50,142,149
17:55,173,181
18:00,131,139
18:05,120,134
18:10,130,144
18:15,118,134
18:20,128,139
18:25,141,146
18:30,124,126
18:35,105,108
18:40,96,99
18:45,70,76
18:50,74,78
18:55,69,71
19:00,49,48
19:05,13,16
19:10,9,8
19:15,11,10
19:20,7,6
19:25,9,8
19:30,5,5
19:35,11,9
19:40,0,0
19:45,0,0
19:50,0,0
19:55,0,0
20:00,0,0
20:05,0,0
20:10,0,0
20:15,0,0
20:20,0,0
20:25,0,0
20:30,0,0
20:35,0,0
20:40,0,0
20:45,0,0
20:50,0,0
20:55,0,0
21:00,0,0
21:05,0,0
21:10,0,0
21:15,0,0
21:20,0,0
21:25,0,0
21:30,0,0
