4:30,0,0
4:35,0,0
4:40,0,0
4:45,0,0
4:50,0,0
4:55,0,0
5:00,0,0
5:05,0,0
5:10,0,0
5:15,0,0
5:20,0,0
5:25,0,0
5:30,0,0
5:35,0,0
5:40,0,0
5:45,0,0
5:50,0,0
5:55,0,0
6:00,0,0
6:05,0,0
6:10,0,0
6:15,0,0
6:20,0,0
6:25,0,0
6:30,0,0
6:35,0,0
6:40,0,0
6:45,0,0
6:50,0,0
6:55,0,0
7:00,0,0
7:05,0,0
7:10,0,0
7:15,0,0
7:20,0,0
7:25,0,0
7:30,0,0
7:35,0,0
7:40,0,0
7:45,0,0
7:50,0,0
7:55,6,17
8:00,2,8
8:05,7,48
8:10,8,175
8:15,16,236
8:20,14,293
8:25,17,242
8:30,14,254
8:35,30,316
8:40,69,473
8:45,68,428
8:50,71,417
8:55,83,493
9:00,105,452
9:05,81,358
9:10,84,299
9:15,105,466
9:20,123,774
9:25,112,727
9:30,118,857
9:35,119,866
9:40,120,866
9:45,126,885
9:50,150,938
9:55,164,935
10:00,149,430
10:05,230,389
10:10,205,410
10:15,174,461
10:20,196,522
10:25,169,457
10:30,210,586
10:35,255,987
10:40,261,1040
10:45,171,360
10:50,247,608
10:55,311,892
11:00,231,448
11:05,220,368
11:10,228,312
11:15,288,387
11:20,268,377
11:25,267,414
11:30,260,416
11:35,477,852
11:40,412,666
11:45,696,1153
11:50,749,1165
11:55,709,1073
12:00,662,970
12:05,684,980
12:10,636,851
12:15,834,1016
12:20,834,952
12:25,860,952
12:30,431,487
12:35,494,561
12:40,319,357
12:45,308,340
12:50,339,376
12:55,357,384
13:00,599,585
13:05,560,501
13:10,476,442
13:15,401,384
13:20,478,437
13:25,374,363
13:30,420,372
13:35,328,340
13:40,326,338
13:45,572,450
13:50,716,455
13:55,666,396
14:00,577,338
14:05,667,353
14:10,728,339
14:15,738,339
14:20,838,346
14:25,449,242
14:30,318,229
14:35,356,231
14:40,387,205
14:45,595,221
14:50,443,184
14:55,520,178
15:00,940,155
15:05,904,117
15:10,983,100
15:15,964,98
15:20,932,86
15:25,913,82
15:30,886,81
15:35,415,78
15:40,698,78
15:45,420,92
15:50,376,97
15:55,261,101
16:00,495,116
16:05,287,111
16:10,443,105
16:15,184,105
16:20,170,126
16:25,106,103
16:30,110,110
16:35,98,105
16:40,75,81
16:45,77,70
16:50,70,68
16:55,45,35
17:00,19,14
17:05,10,7
17:10,10,6
17:15,6,4
17:20,11,8
17:25,0,0
17:30,0,0
17:35,0,0
17:40,0,0
17:45,0,0
17:50,0,0
17:55,0,0
18:00,0,0
18:05,0,0
18:10,0,0
18:15,0,0
18:20,0,0
18:25,0,0
18:30,0,0
18:35,0,0
18:40,0,0
18:45,0,0
18:50,0,0
18:55,0,0
19:00,0,0
19:05,0,0
19:10,0,0
19:15,0,0
19:20,0,0
19:25,0,0
19:30,0,0
19:35,0,0
19:40,0,0
19:45,0,0
19:50,0,0
19:55,0,0
20:00,0,0
20:05,0,0
20:10,0,0
20:15,0,0
20:20,0,0
20:25,0,0
20:30,0,0
20:35,0,0
20:40,0,0
20:45,0,0
20:50,0,0
20:55,0,0
21:00,0,0
21:05,0,0
21:10,0,0
21:15,0,0
21:20,0,0
21:25,0,0
21:30,0,0
