4:30,0,0
4:35,0,0
4:40,0,0
4:45,0,0
4:50,0,0
4:55,10,17
5:00,4,7
5:05,6,8
5:10,7,9
5:15,7,14
5:20,9,17
5:25,12,19
5:30,17,67
5:35,14,75
5:40,56,88
5:45,59,96
5:50,67,180
5:55,69,173
6:00,75,231
6:05,80,361
6:10,82,475
6:15,85,524
6:20,89,549
6:25,93,570
6:30,95,616
6:35,98,674
6:40,98,653
6:45,104,680
6:50,106,721
6:55,107,766
7:00,111,791
7:05,112,812
7:10,113,758
7:15,117,834
7:20,121,897
7:25,124,936
7:30,126,951
7:35,130,984
7:40,137,1017
7:45,142,1085
7:50,150,1152
7:55,155,1217
8:00,167,1239
8:05,205,1263
8:10,223,1283
8:15,251,1312
8:20,274,1323
8:25,305,1380
8:30,333,1430
8:35,362,1466
8:40,396,1539
8:45,425,1555
8:50,462,1586
8:55,495,1599
9:00,535,1622
9:05,571,1637
9:10,593,1616
9:15,622,1627
9:20,646,1660
9:25,677,1681
9:30,709,1701
9:35,738,1708
9:40,783,1759
9:45,794,1730
9:50,837,1769
9:55,867,1774
10:00,908,1818
10:05,948,1836
10:10,985,1852
10:15,1022,1862
10:20,1050,1870
10:25,1074,1861
10:30,1110,1878
10:35,1141,1884
10:40,1176,1893
10:45,1199,1885
10:50,1222,1880
10:55,1247,1873
11:00,1264,1864
11:05,1310,1893
11:10,1334,1891
11:15,1360,1894
11:20,1371,1871
11:25,1388,1869
11:30,1383,1834
11:35,1461,1899
11:40,1465,1872
11:45,1475,1852
11:50,1485,1829
11:55,1515,1834
12:00,1534,1825
12:05,1536,1799
12:10,1559,1798
12:15,1575,1788
12:20,1599,1787
12:25,1617,1780
12:30,1632,1770
12:35,1640,1752
12:40,1651,1737
12:45,1643,1703
12:50,1668,1700
12:55,1678,1686
13:00,1687,1673
13:05,1691,1652
13:10,1718,1649
13:15,1723,1630
13:20,1731,1618
13:25,1726,1586
13:30,1748,1579
13:35,1775,1576
13:40,1759,1544
13:45,1608,1392
13:50,1798,1543
13:55,1799,1511
14:00,1814,1499
14:05,1817,1476
14:10,1785,1432
14:15,1564,1242
14:20,1713,1344
14:25,1910,1481
14:30,1875,1438
14:55,2013,1456
15:00,1950,1405
15:05,1952,1361
15:10,1413,1012
15:15,1312,968
15:20,1049,806
15:25,576,536
15:30,501,479
15:35,573,548
15:40,521,521
15:45,506,507
15:50,468,470
15:55,482,465
16:00,863,629
16:05,677,594
16:10,810,642
16:15,520,482
16:20,603,518
16:25,535,488
16:30,499,482
16:35,464,429
16:40,504,451
16:45,488,442
16:50,410,408
16:55,436,427
17:00,403,413
17:05,395,377
17:10,451,421
17:15,522,557
17:20,489,414
17:25,385,360
17:30,361,348
17:35,324,342
17:40,253,279
17:45,215,257
17:50,160,205
17:55,156,198
18:00,137,177
18:05,107,126
18:10,123,127
18:15,135,145
18:20,90,99
18:25,83,81
18:30,125,106
18:35,218,178
18:40,170,152
18:45,183,152
18:50,214,182
18:55,225,195
19:00,210,192
19:05,194,177
19:10,154,144
19:15,141,132
19:20,142,134
19:25,169,158
19:30,166,160
19:35,122,120
19:40,97,93
19:45,78,77
19:50,82,77
19:55,75,71
20:00,59,59
20:05,62,59
20:10,68,69
20:15,61,64
20:20,64,67
20:25,53,59
20:30,16,32
20:35,8,14
20:40,4,6
20:45,7,9
20:50,0,0
20:55,0,0
21:00,0,0
21:05,0,0
21:10,0,0
21:15,0,0
21:20,0,0
21:25,0,0
21:30,0,0
