4:30,0,0
4:35,0,0
4:40,0,0
4:45,0,0
4:50,0,0
4:55,0,0
5:00,0,0
5:05,0,0
5:10,0,0
5:15,0,0
5:20,0,0
5:25,0,0
5:30,0,0
5:35,0,0
5:40,0,0
5:45,0,0
5:50,0,0
5:55,0,0
6:00,0,0
6:05,0,0
6:10,0,0
6:15,0,0
6:20,0,0
6:25,0,0
6:30,0,0
6:35,0,0
6:40,0,0
6:45,0,0
6:50,0,0
6:55,0,0
7:00,0,0
7:05,0,0
7:10,0,0
7:15,0,0
7:20,0,0
7:25,0,0
7:30,0,0
7:35,0,0
7:40,0,0
7:45,0,0
7:50,0,0
7:55,0,0
8:00,0,0
8:05,0,0
8:10,0,0
8:15,0,0
8:20,0,0
8:25,0,0
8:30,12,12
8:35,17,17
8:40,5,5
8:45,6,4
8:50,7,7
8:55,7,9
9:00,8,10
9:05,18,16
9:10,55,64
9:15,42,46
9:20,15,16
9:25,10,10
9:30,23,13
9:35,13,14
9:40,65,65
9:45,85,92
9:50,115,125
9:55,80,86
10:00,96,100
10:05,176,195
10:10,156,183
10:15,124,127
10:20,109,120
10:25,101,114
10:30,98,114
10:35,74,81
10:40,58,61
10:45,77,78
10:50,66,51
10:55,84,24
11:00,74,46
11:05,77,81
11:10,200,203
11:15,117,127
11:20,92,94
11:25,85,86
11:30,60,64
11:35,96,103
11:40,182,187
11:45,305,301
11:50,203,204
11:55,147,150
12:00,167,169
12:05,198,194
12:10,132,137
12:15,80,80
12:20,71,72
12:25,39,41
12:30,33,33
12:35,27,78
12:40,32,110
12:45,103,116
12:50,131,133
12:55,108,108
13:00,148,144
13:05,131,135
13:10,105,102
13:15,130,130
13:20,71,77
13:25,71,80
13:30,80,86
13:35,38,40
13:40,16,15
13:45,30,29
13:50,28,27
13:55,20,19
14:00,11,12
14:05,44,42
14:10,67,75
14:15,24,24
14:20,9,9
14:25,8,7
14:30,18,19
14:35,30,26
14:40,8,8
14:45,12,11
14:50,7,6
14:55,8,8
15:00,10,15
15:05,10,9
15:10,10,8
15:15,8,7
15:20,13,8
15:25,12,9
15:30,10,8
15:35,14,10
15:40,0,0
15:45,0,0
15:50,0,0
15:55,0,0
16:00,0,0
16:05,0,0
16:10,0,0
16:15,0,0
16:20,0,0
16:25,0,0
16:30,0,0
16:35,0,0
16:40,0,0
16:45,0,0
16:50,0,0
16:55,0,0
17:00,0,0
17:05,0,0
17:10,0,0
17:15,0,0
17:20,0,0
17:25,0,0
17:30,0,0
17:35,0,0
17:40,0,0
17:45,0,0
17:50,0,0
17:55,0,0
18:00,0,0
18:05,0,0
18:10,0,0
18:15,0,0
18:20,0,0
18:25,0,0
18:30,0,0
18:35,0,0
18:40,0,0
18:45,0,0
18:50,0,0
18:55,0,0
19:00,0,0
19:05,0,0
19:10,0,0
19:15,0,0
19:20,0,0
19:25,0,0
19:30,0,0
19:35,0,0
19:40,0,0
19:45,0,0
19:50,0,0
19:55,0,0
20:00,0,0
20:05,0,0
20:10,0,0
20:15,0,0
20:20,0,0
20:25,0,0
20:30,0,0
20:35,0,0
20:40,0,0
20:45,0,0
20:50,0,0
20:55,0,0
21:00,0,0
21:05,0,0
21:10,0,0
21:15,0,0
21:20,0,0
21:25,0,0
21:30,0,0
