4:30,0,0
4:35,0,0
4:40,0,0
4:45,0,0
4:50,0,0
4:55,0,0
5:00,0,0
5:05,0,0
5:10,0,0
5:15,0,0
5:20,0,0
5:25,0,0
5:30,0,0
5:35,0,0
5:40,0,0
5:45,0,0
5:50,0,0
5:55,0,0
6:00,0,0
6:05,0,0
6:10,0,0
6:15,0,0
6:20,0,0
6:25,0,0
6:30,0,0
6:35,0,0
6:40,0,0
6:45,0,0
6:50,0,0
6:55,14,12
7:00,6,5
7:05,8,6
7:10,8,7
7:15,10,12
7:20,11,13
7:25,18,16
7:30,64,63
7:35,75,74
7:40,86,85
7:45,99,97
7:50,110,108
7:55,124,122
8:00,130,131
8:05,140,139
8:10,146,144
8:15,160,156
8:20,167,164
8:25,172,176
8:30,189,186
8:35,197,192
8:40,205,200
8:45,205,198
8:50,208,205
8:55,216,209
9:00,221,214
9:05,227,217
9:10,231,223
9:15,240,231
9:20,240,239
9:25,248,247
9:30,250,248
9:35,245,242
9:40,237,233
9:45,240,235
9:50,237,233
9:55,237,230
10:00,237,230
10:05,242,236
10:10,250,241
10:15,259,245
10:20,252,241
10:25,253,242
10:30,259,245
10:35,251,236
10:40,245,230
10:45,236,227
10:50,245,239
10:55,261,259
11:00,282,282
11:05,294,295
11:10,311,313
11:15,335,335
11:20,358,358
11:25,368,371
11:30,362,363
11:35,373,378
11:40,398,404
11:45,414,415
11:50,427,418
11:55,438,425
12:00,448,440
12:05,460,453
12:10,468,457
12:15,451,439
12:20,430,421
12:25,430,417
12:30,442,423
12:35,437,414
12:40,429,402
12:45,429,399
12:50,430,390
12:55,429,389
13:00,476,425
13:05,505,463
13:10,524,478
13:15,580,514
13:20,784,627
13:25,757,579
13:30,572,430
13:35,1353,812
13:40,1496,870
13:45,1472,831
13:50,1297,709
13:55,1081,574
14:00,1358,664
14:05,1216,575
14:10,1280,586
14:15,741,371
14:20,1339,531
14:25,1375,502
14:30,1382,481
14:35,1366,436
14:40,1287,394
14:45,1329,346
14:50,1293,339
14:55,1309,322
15:00,1272,294
15:05,1195,248
15:10,1222,222
15:15,1184,218
15:20,1173,201
15:25,1163,200
15:30,1157,208
15:35,1114,184
15:40,1040,166
15:45,922,161
15:50,960,144
15:55,949,137
16:00,880,133
16:05,840,124
16:10,805,120
16:15,748,118
16:20,661,118
16:25,626,115
16:30,511,109
16:35,472,101
16:40,493,94
16:45,461,86
16:50,422,80
16:55,377,74
17:00,312,66
17:05,277,59
17:10,226,52
17:15,184,38
17:20,140,11
17:25,102,14
17:30,66,7
17:35,35,5
17:40,9,3
17:45,10,4
17:50,0,0
17:55,0,0
18:00,0,0
18:05,0,0
18:10,0,0
18:15,0,0
18:20,0,0
18:25,0,0
18:30,0,0
18:35,0,0
18:40,0,0
18:45,0,0
18:50,0,0
18:55,0,0
19:00,0,0
19:05,0,0
19:10,0,0
19:15,0,0
19:20,0,0
19:25,0,0
19:30,0,0
19:35,0,0
19:40,0,0
19:45,0,0
19:50,0,0
19:55,0,0
20:00,0,0
20:05,0,0
20:10,0,0
20:15,0,0
20:20,0,0
20:25,0,0
20:30,0,0
20:35,0,0
20:40,0,0
20:45,0,0
20:50,0,0
20:55,0,0
21:00,0,0
21:05,0,0
21:10,0,0
21:15,0,0
21:20,0,0
21:25,0,0
21:30,0,0
