4:30,0,0
4:35,0,0
4:40,0,0
4:45,0,0
4:50,0,0
4:55,0,0
5:00,0,0
5:05,0,0
5:10,0,0
5:15,0,0
5:20,0,0
5:25,0,0
5:30,0,0
5:35,0,0
5:40,0,0
5:45,0,0
5:50,0,0
5:55,0,0
6:00,0,0
6:05,0,0
6:10,0,0
6:15,0,0
6:20,2,4
6:25,5,7
6:30,4,7
6:35,6,10
6:40,9,10
6:45,19,21
6:50,12,16
6:55,13,15
7:00,11,12
7:05,17,20
7:10,12,13
7:15,44,46
7:20,53,57
7:25,53,54
7:30,59,60
7:35,72,71
7:40,84,82
7:45,116,113
7:50,130,132
7:55,135,138
8:00,158,166
8:05,169,180
8:10,177,183
8:15,188,189
8:20,188,188
8:25,201,199
8:30,213,213
8:35,218,215
8:40,212,216
8:45,192,196
8:50,265,255
8:55,275,272
9:00,322,341
9:05,361,388
9:10,412,447
9:15,458,508
9:20,506,591
9:25,521,641
9:30,568,734
9:35,525,601
9:40,516,560
9:45,507,566
9:50,503,568
9:55,501,556
10:00,489,522
10:05,506,551
10:10,550,607
10:15,607,689
10:20,626,707
10:25,704,865
10:30,771,953
10:35,728,825
10:40,761,912
10:45,697,818
10:50,592,753
10:55,707,1147
11:00,1336,2326
11:05,982,1545
11:10,667,868
11:15,898,1259
11:20,748,933
11:25,693,790
11:30,650,734
11:35,746,848
11:40,1155,1435
11:45,1427,1717
11:50,850,956
11:55,583,620
12:00,460,469
12:05,399,380
12:10,370,333
12:15,399,351
12:20,463,434
12:25,1077,1144
12:30,808,868
12:35,673,733
12:40,653,718
12:45,741,839
12:50,1143,1245
12:55,1701,1757
13:00,1733,1691
13:05,1726,1625
13:10,1844,1717
13:15,1061,985
13:20,1711,1574
13:25,529,489
13:30,851,817
13:35,1798,1643
13:40,1913,1715
13:45,2045,1791
13:50,1856,1595
13:55,717,665
14:00,891,736
14:05,651,546
14:10,694,591
14:15,2063,1572
14:20,2017,1496
14:25,1523,1150
14:30,1326,1046
14:35,2058,1463
14:40,2017,1391
14:45,2075,1422
14:50,2145,1430
14:55,1358,931
15:00,432,360
15:05,391,330
15:10,425,361
15:15,453,374
15:20,372,309
15:25,283,216
15:30,970,472
15:35,1491,698
15:40,285,217
15:45,249,197
15:50,368,263
15:55,404,321
16:00,387,341
16:05,402,350
16:10,373,329
16:15,395,338
16:20,1002,427
16:25,1688,483
16:30,1675,399
16:35,1686,351
16:40,1680,337
16:45,1633,300
16:50,1390,278
16:55,1148,253
17:00,653,212
17:05,362,167
17:10,405,137
17:15,398,129
17:20,791,137
17:25,635,141
17:30,1054,163
17:35,972,176
17:40,937,201
17:45,902,197
17:50,554,185
17:55,335,196
18:00,340,194
18:05,269,179
18:10,237,157
18:15,231,152
18:20,232,139
18:25,366,109
18:30,267,95
18:35,172,87
18:40,179,90
18:45,205,95
18:50,161,93
18:55,127,82
19:00,104,71
19:05,84,57
19:10,67,31
19:15,59,10
19:20,35,9
19:25,20,7
19:30,11,6
19:35,9,7
19:40,7,3
19:45,12,6
19:50,14,8
19:55,0,0
20:00,0,0
20:05,0,0
20:10,0,0
20:15,0,0
20:20,0,0
20:25,0,0
20:30,0,0
20:35,0,0
20:40,0,0
20:45,0,0
20:50,0,0
20:55,0,0
21:00,0,0
21:05,0,0
21:10,0,0
21:15,0,0
21:20,0,0
21:25,0,0
21:30,0,0
