4:30,0,0
4:35,0,0
4:40,0,0
4:45,0,0
4:50,0,0
4:55,0,0
5:00,0,0
5:05,0,0
5:10,0,0
5:15,0,0
5:20,0,0
5:25,0,0
5:30,0,0
5:35,0,0
5:40,0,0
5:45,0,0
5:50,0,0
5:55,0,0
6:00,0,0
6:05,0,0
6:10,0,0
6:15,0,0
6:20,0,0
6:25,0,0
6:30,0,0
6:35,0,0
6:40,0,0
6:45,0,0
6:50,0,0
6:55,0,0
7:00,0,0
7:05,0,0
7:10,0,0
7:15,0,0
7:20,0,0
7:25,0,0
7:30,0,0
7:35,0,0
7:40,0,0
7:45,0,0
7:50,0,0
7:55,0,0
8:00,0,0
8:05,0,0
8:10,0,0
8:15,14,15
8:20,6,6
8:25,7,6
8:30,8,6
8:35,6,6
8:40,8,8
8:45,9,10
8:50,11,17
8:55,12,12
9:00,18,18
9:05,14,14
9:10,46,46
9:15,25,26
9:20,15,15
9:25,9,10
9:30,15,14
9:35,8,8
9:40,12,8
9:45,11,10
9:50,39,36
9:55,60,58
10:00,54,55
10:05,22,47
10:10,44,42
10:15,78,79
10:20,91,92
10:25,97,106
10:30,91,101
10:35,94,98
10:40,107,109
10:45,118,119
10:50,118,125
10:55,110,114
11:00,96,103
11:05,72,79
11:10,66,68
11:15,77,78
11:20,105,105
11:25,96,103
11:30,86,89
11:35,86,87
11:40,89,95
11:45,77,87
11:50,75,76
11:55,73,73
12:00,94,87
12:05,115,109
12:10,137,122
12:15,213,202
12:20,211,198
12:25,279,254
12:30,328,318
12:35,366,358
12:40,405,393
12:45,496,461
12:50,531,497
12:55,518,485
13:00,435,418
13:05,410,390
13:10,398,373
13:15,358,350
13:20,356,336
13:25,377,344
13:30,387,346
13:35,393,357
13:40,248,269
13:45,108,126
13:50,138,118
13:55,250,202
14:00,296,250
14:05,491,357
14:10,427,355
14:15,340,281
14:20,248,227
14:25,189,167
14:30,132,122
14:35,117,92
14:40,175,116
14:45,219,124
14:50,278,151
14:55,223,162
15:00,217,168
15:05,268,214
15:10,306,244
15:15,311,258
15:20,281,247
15:25,250,214
15:30,181,143
15:35,82,79
15:40,62,36
15:45,35,11
15:50,18,20
15:55,9,8
16:00,11,9
16:05,5,4
16:10,11,5
16:15,13,9
16:20,15,13
16:25,8,7
16:30,7,8
16:35,9,8
16:40,0,0
16:45,0,0
16:50,0,0
16:55,0,0
17:00,0,0
17:05,0,0
17:10,0,0
17:15,0,0
17:20,0,0
17:25,0,0
17:30,0,0
17:35,0,0
17:40,0,0
17:45,0,0
17:50,0,0
17:55,0,0
18:00,0,0
18:05,0,0
18:10,0,0
18:15,0,0
18:20,0,0
18:25,0,0
18:30,0,0
18:35,0,0
18:40,0,0
18:45,0,0
18:50,0,0
18:55,0,0
19:00,0,0
19:05,0,0
19:10,0,0
19:15,0,0
19:20,0,0
19:25,0,0
19:30,0,0
19:35,0,0
19:40,0,0
19:45,0,0
19:50,0,0
19:55,0,0
20:00,0,0
20:05,0,0
20:10,0,0
20:15,0,0
20:20,0,0
20:25,0,0
20:30,0,0
20:35,0,0
20:40,0,0
20:45,0,0
20:50,0,0
20:55,0,0
21:00,0,0
21:05,0,0
21:10,0,0
21:15,0,0
21:20,0,0
21:25,0,0
21:30,0,0
