4:30,0,0
4:35,0,0
4:40,0,0
4:45,0,0
4:50,0,0
4:55,0,0
5:00,0,0
5:05,0,0
5:10,0,0
5:15,0,0
5:20,0,0
5:25,0,0
5:30,0,0
5:35,0,0
5:40,0,0
5:45,0,0
5:50,0,0
5:55,0,0
6:00,0,0
6:05,0,0
6:10,0,0
6:15,0,0
6:20,0,0
6:25,0,0
6:30,0,0
6:35,0,0
6:40,0,0
6:45,0,0
6:50,0,0
6:55,0,0
7:00,0,0
7:05,0,0
7:10,0,0
7:15,4,8
7:20,3,5
7:25,4,8
7:30,6,12
7:35,12,51
7:40,13,75
7:45,43,83
7:50,66,102
7:55,80,129
8:00,90,149
8:05,95,166
8:10,104,173
8:15,117,196
8:20,127,221
8:25,138,251
8:30,151,332
8:35,154,285
8:40,164,322
8:45,170,320
8:50,176,326
8:55,183,372
9:00,201,513
9:05,189,335
9:10,184,291
9:15,184,299
9:20,194,305
9:25,210,307
9:30,207,307
9:35,203,320
9:40,198,322
9:45,198,346
9:50,197,394
9:55,228,605
10:00,227,614
10:05,216,553
10:10,228,641
10:15,214,540
10:20,266,713
10:25,226,548
10:30,250,601
10:35,279,639
10:40,283,601
10:45,357,702
10:50,306,538
10:55,298,522
11:00,479,804
11:05,501,792
11:10,537,784
11:15,558,774
11:20,572,756
11:25,588,749
11:30,604,727
11:35,624,714
11:40,551,599
11:45,647,664
11:50,717,690
11:55,722,670
12:00,686,606
12:05,691,580
12:10,717,568
12:15,748,557
12:20,699,496
12:25,766,513
12:30,772,491
12:35,716,422
12:40,780,426
12:45,809,415
12:50,783,394
12:55,730,369
13:00,846,430
13:05,687,398
13:10,441,326
13:15,365,309
13:20,365,318
13:25,320,299
13:30,278,272
13:35,266,262
13:40,245,241
13:45,216,217
13:50,197,204
13:55,200,207
14:00,202,210
14:05,198,202
14:10,190,194
14:15,196,194
14:20,180,178
14:25,158,159
14:30,129,133
14:35,109,114
14:40,102,107
14:45,101,106
14:50,102,104
14:55,99,98
15:00,87,85
15:05,89,88
15:10,94,90
15:15,99,89
15:20,87,78
15:25,73,67
15:30,72,65
15:35,62,57
15:40,33,26
15:45,9,9
15:50,6,8
15:55,10,10
16:00,0,0
16:05,0,0
16:10,0,0
16:15,0,0
16:20,0,0
16:25,0,0
16:30,0,0
16:35,0,0
16:40,0,0
16:45,0,0
16:50,0,0
16:55,0,0
17:00,0,0
17:05,0,0
17:10,0,0
17:15,0,0
17:20,0,0
17:25,0,0
17:30,0,0
17:35,0,0
17:40,0,0
17:45,0,0
17:50,0,0
17:55,0,0
18:00,0,0
18:05,0,0
18:10,0,0
18:15,0,0
18:20,0,0
18:25,0,0
18:30,0,0
18:35,0,0
18:40,0,0
18:45,0,0
18:50,0,0
18:55,0,0
19:00,0,0
19:05,0,0
19:10,0,0
19:15,0,0
19:20,0,0
19:25,0,0
19:30,0,0
19:35,0,0
19:40,0,0
19:45,0,0
19:50,0,0
19:55,0,0
20:00,0,0
20:05,0,0
20:10,0,0
20:15,0,0
20:20,0,0
20:25,0,0
20:30,0,0
20:35,0,0
20:40,0,0
20:45,0,0
20:50,0,0
20:55,0,0
21:00,0,0
21:05,0,0
21:10,0,0
21:15,0,0
21:20,0,0
21:25,0,0
21:30,0,0
