4:30,0,0
4:35,0,0
4:40,0,0
4:45,0,0
4:50,0,0
4:55,0,0
5:00,0,0
5:05,0,0
5:10,0,0
5:15,0,0
5:20,0,0
5:25,0,0
5:30,0,0
5:35,0,0
5:40,0,0
5:45,0,0
5:50,0,0
5:55,0,0
6:00,0,0
6:05,0,0
6:10,0,0
6:15,0,0
6:20,0,0
6:25,0,0
6:30,0,0
6:35,0,0
6:40,0,0
6:45,0,0
6:50,0,0
6:55,0,0
7:00,0,0
7:05,0,0
7:10,0,0
7:15,0,0
7:20,0,0
7:25,0,0
7:30,0,0
7:35,0,0
7:40,0,0
7:45,0,0
7:50,0,0
7:55,14,16
8:00,6,6
8:05,15,15
8:10,9,11
8:15,9,12
8:20,19,17
8:25,12,12
8:30,37,41
8:35,34,58
8:40,17,69
8:45,22,83
8:50,48,107
8:55,94,113
9:00,93,108
9:05,88,100
9:10,127,138
9:15,156,205
9:20,144,208
9:25,180,247
9:30,180,288
9:35,77,107
9:40,92,113
9:45,167,186
9:50,225,338
9:55,150,257
10:00,175,224
10:05,172,196
10:10,177,213
10:15,127,171
10:20,123,142
10:25,115,133
10:30,112,108
10:35,172,155
10:40,227,219
10:45,249,345
10:50,222,438
10:55,278,652
11:00,342,687
11:05,414,691
11:10,357,585
11:15,350,467
11:20,247,291
11:25,229,262
11:30,234,248
11:35,313,337
11:40,219,242
11:45,335,338
11:50,306,316
11:55,161,190
12:00,224,202
12:05,403,390
12:10,683,594
12:15,474,450
12:20,315,319
12:25,317,304
12:30,205,216
12:35,199,194
12:40,191,167
12:45,336,227
12:50,663,305
12:55,671,273
13:00,672,250
13:05,465,208
13:10,230,199
13:15,182,188
13:20,220,235
13:25,200,235
13:30,145,162
13:35,198,177
13:40,271,217
13:45,173,179
13:50,162,159
13:55,149,133
14:00,95,111
14:05,69,81
14:10,72,79
14:15,79,96
14:20,60,78
14:25,53,53
14:30,30,40
14:35,16,16
14:40,41,28
14:45,24,19
14:50,6,7
14:55,7,6
15:00,15,14
15:05,11,13
15:10,10,13
15:15,10,14
15:20,9,8
15:25,8,6
15:30,5,4
15:35,6,6
15:40,9,8
15:45,0,0
15:50,0,0
15:55,0,0
16:00,0,0
16:05,0,0
16:10,0,0
16:15,0,0
16:20,0,0
16:25,0,0
16:30,0,0
16:35,0,0
16:40,0,0
16:45,0,0
16:50,0,0
16:55,0,0
17:00,0,0
17:05,0,0
17:10,0,0
17:15,0,0
17:20,0,0
17:25,0,0
17:30,0,0
17:35,0,0
17:40,0,0
17:45,0,0
17:50,0,0
17:55,0,0
18:00,0,0
18:05,0,0
18:10,0,0
18:15,0,0
18:20,0,0
18:25,0,0
18:30,0,0
18:35,0,0
18:40,0,0
18:45,0,0
18:50,0,0
18:55,0,0
19:00,0,0
19:05,0,0
19:10,0,0
19:15,0,0
19:20,0,0
19:25,0,0
19:30,0,0
19:35,0,0
19:40,0,0
19:45,0,0
19:50,0,0
19:55,0,0
20:00,0,0
20:05,0,0
20:10,0,0
20:15,0,0
20:20,0,0
20:25,0,0
20:30,0,0
20:35,0,0
20:40,0,0
20:45,0,0
20:50,0,0
20:55,0,0
21:00,0,0
21:05,0,0
21:10,0,0
21:15,0,0
21:20,0,0
21:25,0,0
21:30,0,0
