4:30,0,0
4:35,0,0
4:40,0,0
4:45,0,0
4:50,0,0
4:55,0,0
5:00,0,0
5:05,12,14
5:10,7,7
5:15,14,16
5:20,15,17
5:25,39,46
5:30,62,78
5:35,69,89
5:40,77,94
5:45,82,99
5:50,90,93
5:55,82,79
6:00,82,85
6:05,77,82
6:10,77,77
6:15,82,80
6:20,61,61
6:25,55,55
6:30,21,18
6:35,30,26
6:40,140,136
6:45,166,176
6:50,157,173
6:55,170,184
7:00,210,233
7:05,255,313
7:10,236,295
7:15,249,306
7:20,326,437
7:25,338,558
7:30,409,752
7:35,413,701
7:40,455,684
7:45,476,723
7:50,439,562
7:55,526,629
8:00,461,535
8:05,448,585
8:10,402,525
8:15,419,615
8:20,344,542
8:25,283,475
8:30,294,567
8:35,242,499
8:40,385,1076
8:45,473,1242
8:50,421,1072
8:55,675,1769
9:00,682,1773
9:05,418,857
9:10,902,2040
9:15,889,2020
9:20,893,1883
9:25,386,708
9:30,541,1282
9:35,817,1937
9:40,854,1970
9:45,889,1985
9:50,936,1998
9:55,1015,2023
10:00,1086,2089
10:05,1152,2077
10:10,898,1546
10:15,624,1061
10:20,944,1701
10:25,1154,2019
10:30,1189,2005
10:35,1067,1760
10:40,1215,1965
10:45,1242,1944
10:50,1316,1990
10:55,1343,1996
11:00,1269,1830
11:05,1387,1986
11:10,913,1316
11:15,1402,1979
11:20,1440,1973
11:25,1462,1955
11:30,1495,1957
11:35,1501,1928
11:40,1566,1962
11:45,1354,1654
11:50,1639,1996
11:55,1173,1419
12:00,1673,1980
12:05,1735,1972
12:10,1485,1675
12:15,1689,1901
12:20,1460,1615
12:25,1188,1302
12:30,1901,1970
12:35,817,867
12:40,986,981
12:45,1937,1934
12:50,1238,1245
12:55,664,708
13:00,1365,1300
13:05,1938,1987
13:10,1758,1755
13:15,504,515
13:20,528,500
13:25,1785,1592
13:30,1902,1740
13:35,1997,1792
13:40,1955,1715
13:45,1966,1698
13:50,1538,1313
13:55,1512,1287
14:00,1510,1269
14:05,2065,1692
14:10,2058,1673
14:15,1471,1221
14:20,1844,1456
14:25,1528,1219
14:30,1358,1075
14:35,1097,899
14:40,1865,1417
14:45,1289,979
14:50,1055,792
14:55,867,669
15:00,969,733
15:05,1050,765
15:10,1181,850
15:15,367,331
15:20,503,398
15:25,1566,1005
15:30,761,584
15:35,1137,795
15:40,469,442
15:45,420,395
15:50,1459,856
15:55,2069,1154
16:00,1781,974
16:05,1076,617
16:10,524,361
16:15,306,257
16:20,964,508
16:25,1863,845
16:30,1123,573
16:35,1833,853
16:40,1765,790
16:45,1678,700
16:50,1491,658
16:55,1527,620
17:00,1279,487
17:05,698,342
17:10,366,266
17:15,370,287
17:20,1164,445
17:25,953,389
17:30,1089,327
17:35,806,290
17:40,842,254
17:45,717,224
17:50,676,188
17:55,665,149
18:00,603,148
18:05,537,155
18:10,482,162
18:15,300,171
18:20,328,171
18:25,177,167
18:30,170,157
18:35,172,152
18:40,162,142
18:45,160,139
18:50,181,149
18:55,205,168
19:00,207,174
19:05,195,172
19:10,189,171
19:15,178,161
19:20,164,150
19:25,148,140
19:30,127,124
19:35,111,110
19:40,99,98
19:45,98,91
19:50,91,80
19:55,95,77
20:00,100,82
20:05,76,70
20:10,56,57
20:15,18,24
20:20,9,9
20:25,11,11
20:30,6,6
20:35,6,5
20:40,5,4
20:45,6,5
20:50,14,10
20:55,0,0
21:00,0,0
21:05,0,0
21:10,0,0
21:15,0,0
21:20,0,0
21:25,0,0
