4:30,0,0
4:35,0,0
4:40,0,0
4:45,0,0
4:50,0,0
4:55,6,13
5:00,4,8
5:05,4,8
5:10,6,15
5:15,7,12
5:20,9,22
5:25,8,11
5:30,13,13
5:35,15,26
5:40,55,94
5:45,65,111
5:50,70,124
5:55,75,133
6:00,80,191
6:05,86,315
6:10,90,438
6:15,97,503
6:20,102,538
6:25,105,548
6:30,108,603
6:35,110,661
6:40,113,658
6:45,118,692
6:50,119,728
6:55,123,767
7:00,120,713
7:05,132,810
7:10,133,805
7:15,139,873
7:20,148,935
7:25,128,762
7:30,144,884
7:35,151,988
7:40,155,1016
7:45,163,1075
7:50,168,1143
7:55,175,1213
8:00,182,1240
8:05,219,1259
8:10,236,1280
8:15,262,1301
8:20,284,1322
8:25,312,1357
8:30,338,1419
8:35,368,1466
8:40,397,1542
8:45,426,1557
8:50,458,1576
8:55,493,1596
9:00,521,1578
9:05,554,1599
9:10,588,1636
9:15,614,1639
9:20,663,1762
9:25,696,1779
9:30,734,1796
9:35,760,1784
9:40,790,1788
9:45,822,1813
9:50,862,1838
9:55,904,1858
10:00,938,1864
10:05,960,1850
10:10,991,1857
10:15,1021,1860
10:20,1059,1884
10:25,1096,1902
10:30,1128,1908
10:35,1151,1897
10:40,1178,1900
10:45,1200,1889
10:50,1227,1889
10:55,1252,1889
11:00,1269,1869
11:05,1294,1868
11:10,1319,1870
11:15,1347,1874
11:20,1368,1866
11:25,1395,1870
11:30,1410,1859
11:35,1439,1863
11:40,1461,1857
11:45,1477,1849
11:50,1494,1837
11:55,1506,1825
12:00,1520,1807
12:05,1535,1799
12:10,1564,1803
12:15,1583,1796
12:20,1471,1643
12:25,1172,1295
12:30,1689,1825
12:35,1702,1810
12:40,1675,1769
12:45,1692,1752
12:50,1701,1737
12:55,1406,1413
13:00,1811,1798
13:05,1596,1544
13:10,1234,1149
13:15,1883,1788
13:20,832,776
13:25,1089,984
13:30,1257,1215
13:35,921,894
13:40,795,767
13:45,1136,1046
13:50,1059,939
13:55,2084,1730
14:00,994,857
14:05,1209,1028
14:10,727,677
14:15,1198,1014
14:20,1975,1578
14:25,1798,1399
14:30,1132,883
14:35,1468,1126
14:40,693,580
14:45,1500,1100
14:50,990,747
14:55,1617,1172
15:00,1038,793
15:05,778,606
15:10,964,729
15:15,1347,956
15:20,1660,1143
15:25,980,709
15:30,2020,1211
15:35,895,586
15:40,1754,1026
15:45,1392,823
15:50,1965,1084
15:55,1870,1007
16:00,1822,934
16:05,1820,917
16:10,1792,882
16:15,1784,851
16:20,1794,828
16:25,506,318
16:30,1467,684
16:35,1709,752
16:40,1360,582
16:45,1585,645
16:50,1565,638
16:55,1449,562
17:00,1419,516
17:05,1372,508
17:10,1295,477
17:15,1141,415
17:20,1024,355
17:25,1000,347
17:30,937,306
17:35,926,290
17:40,823,269
17:45,705,251
17:50,349,218
17:55,307,249
18:00,302,252
18:05,296,253
18:10,250,223
18:15,179,158
18:20,185,158
18:25,217,192
18:30,247,225
18:35,258,253
18:40,215,221
18:45,200,205
18:50,202,208
18:55,204,218
19:00,159,175
19:05,127,131
19:10,118,116
19:15,110,111
19:20,110,108
19:25,95,98
19:30,76,77
19:35,72,70
19:40,73,73
19:45,72,73
19:50,63,66
19:55,49,53
20:00,12,18
20:05,6,7
20:10,6,4
20:15,5,5
20:20,0,0
20:25,0,0
20:30,0,0
20:35,0,0
20:40,0,0
20:45,0,0
20:50,0,0
20:55,0,0
21:00,0,0
21:05,0,0
21:10,0,0
21:15,0,0
21:20,0,0
21:25,0,0
21:30,0,0
