4:30,0,0
4:35,0,0
4:40,0,0
4:45,0,0
4:50,0,0
4:55,0,0
5:00,0,0
5:05,0,0
5:10,0,0
5:15,0,0
5:20,0,0
5:25,0,0
5:30,0,0
5:35,0,0
5:40,0,0
5:45,0,0
5:50,0,0
5:55,0,0
6:00,0,0
6:05,0,0
6:10,0,0
6:15,0,0
6:20,0,0
6:25,0,0
6:30,0,0
6:35,0,0
6:40,0,0
6:45,0,0
6:50,0,0
6:55,0,0
7:00,0,0
7:05,0,0
7:10,0,0
7:15,0,0
7:20,0,0
7:25,0,0
7:30,0,0
7:35,8,9
7:40,6,7
7:45,7,11
7:50,8,9
7:55,9,14
8:00,11,12
8:05,17,19
8:10,14,16
8:15,57,65
8:20,78,97
8:25,103,126
8:30,125,161
8:35,128,179
8:40,146,223
8:45,154,240
8:50,170,488
8:55,149,462
9:00,185,804
9:05,203,811
9:10,238,815
9:15,268,747
9:20,265,508
9:25,198,455
9:30,263,1257
9:35,355,1450
9:40,188,1231
9:45,166,1211
9:50,236,1260
9:55,390,1068
10:00,301,1047
10:05,279,1249
10:10,477,1156
10:15,309,432
10:20,314,424
10:25,378,541
10:30,365,515
10:35,401,594
10:40,400,613
10:45,382,523
10:50,393,552
10:55,430,609
11:00,491,692
11:05,479,689
11:10,510,706
11:15,459,634
11:20,437,580
11:25,457,585
11:30,408,511
11:35,267,325
11:40,273,317
11:45,180,219
11:50,141,163
11:55,169,190
12:00,255,285
12:05,316,369
12:10,405,479
12:15,465,557
12:20,467,546
12:25,513,591
12:30,717,832
12:35,550,667
12:40,332,414
12:45,363,425
12:50,529,596
12:55,604,675
13:00,455,535
13:05,384,455
13:10,492,559
13:15,529,593
13:20,427,511
13:25,452,536
13:30,456,525
13:35,348,406
13:40,293,339
13:45,258,293
13:50,242,280
13:55,234,266
14:00,195,232
14:05,190,224
14:10,311,347
14:15,488,519
14:20,427,446
14:25,521,481
14:30,380,431
14:35,329,373
14:40,447,464
14:45,247,297
14:50,238,282
14:55,313,355
15:00,132,161
15:05,94,106
15:10,203,224
15:15,161,191
15:20,132,153
15:25,153,173
15:30,227,256
15:35,219,252
15:40,250,278
15:45,285,314
15:50,295,319
15:55,274,297
16:00,269,296
16:05,319,337
16:10,246,271
16:15,221,249
16:20,199,224
16:25,192,220
16:30,169,192
16:35,108,128
16:40,136,152
16:45,124,149
16:50,39,62
16:55,6,7
17:00,13,12
17:05,27,27
17:10,24,66
17:15,23,75
17:20,56,78
17:25,58,69
17:30,54,70
17:35,75,78
17:40,55,60
17:45,32,36
17:50,24,31
17:55,18,33
18:00,20,17
18:05,8,8
18:10,7,5
18:15,8,8
18:20,0,0
18:25,0,0
18:30,0,0
18:35,0,0
18:40,0,0
18:45,0,0
18:50,0,0
18:55,0,0
19:00,0,0
19:05,0,0
19:10,0,0
19:15,0,0
19:20,0,0
19:25,0,0
19:30,0,0
19:35,0,0
19:40,0,0
19:45,0,0
19:50,0,0
19:55,0,0
20:00,0,0
20:05,0,0
20:10,0,0
20:15,0,0
20:20,0,0
20:25,0,0
20:30,0,0
20:35,0,0
20:40,0,0
20:45,0,0
20:50,0,0
20:55,0,0
21:00,0,0
21:05,0,0
21:10,0,0
21:15,0,0
21:20,0,0
21:25,0,0
21:30,0,0
