4:30,0,0
4:35,0,0
4:40,0,0
4:45,0,0
4:50,0,0
4:55,0,0
5:00,0,0
5:05,0,0
5:10,0,0
5:15,0,0
5:20,0,0
5:25,0,0
5:30,0,0
5:35,0,0
5:40,0,0
5:45,0,0
5:50,0,0
5:55,0,0
6:00,0,0
6:05,0,0
6:10,0,0
6:15,0,0
6:20,0,0
6:25,0,0
6:30,0,0
6:35,0,0
6:40,0,0
6:45,0,0
6:50,0,0
6:55,0,0
7:00,0,0
7:05,0,0
7:10,11,23
7:15,5,12
7:20,21,46
7:25,16,128
7:30,7,82
7:35,16,84
7:40,21,140
7:45,16,125
7:50,20,213
7:55,82,256
8:00,79,172
8:05,106,320
8:10,144,485
8:15,68,151
8:20,96,544
8:25,117,628
8:30,118,715
8:35,134,718
8:40,136,763
8:45,191,895
8:50,187,465
8:55,119,511
9:00,215,970
9:05,272,697
9:10,222,308
9:15,197,268
9:20,301,541
9:25,265,684
9:30,293,434
9:35,213,356
9:40,343,830
9:45,335,622
9:50,429,786
9:55,332,554
10:00,390,703
10:05,400,593
10:10,364,457
10:15,353,424
10:20,421,609
10:25,328,370
10:30,349,436
10:35,184,196
10:40,217,235
10:45,244,254
10:50,200,205
10:55,212,217
11:00,291,302
11:05,397,424
11:10,438,446
11:15,314,317
11:20,203,201
11:25,255,244
11:30,225,216
11:35,201,205
11:40,228,224
11:45,241,243
11:50,280,268
11:55,247,246
12:00,320,329
12:05,332,321
12:10,312,301
12:15,257,265
12:20,225,229
12:25,257,257
12:30,230,244
12:35,445,430
12:40,356,392
12:45,357,364
12:50,721,648
12:55,544,514
13:00,573,554
13:05,291,299
13:10,250,282
13:15,781,652
13:20,289,293
13:25,583,390
13:30,355,343
13:35,363,350
13:40,480,428
13:45,518,441
13:50,220,236
13:55,242,218
14:00,233,216
14:05,337,270
14:10,1121,483
14:15,1204,446
14:20,842,374
14:25,561,353
14:30,372,320
14:35,1261,466
14:40,1075,498
14:45,255,197
14:50,244,207
14:55,172,185
15:00,101,106
15:05,104,109
15:10,128,117
15:15,120,109
15:20,202,178
15:25,235,194
15:30,163,145
15:35,129,114
15:40,109,106
15:45,88,87
15:50,86,82
15:55,85,87
16:00,59,60
16:05,67,68
16:10,70,68
16:15,62,60
16:20,60,58
16:25,73,66
16:30,59,58
16:35,57,58
16:40,28,28
16:45,12,12
16:50,16,14
16:55,11,9
17:00,8,11
17:05,5,4
17:10,9,8
17:15,0,0
17:20,0,0
17:25,0,0
17:30,0,0
17:35,0,0
17:40,0,0
17:45,0,0
17:50,0,0
17:55,0,0
18:00,0,0
18:05,0,0
18:10,0,0
18:15,0,0
18:20,0,0
18:25,0,0
18:30,0,0
18:35,0,0
18:40,0,0
18:45,0,0
18:50,0,0
18:55,0,0
19:00,0,0
19:05,0,0
19:10,0,0
19:15,0,0
19:20,0,0
19:25,0,0
19:30,0,0
19:35,0,0
19:40,0,0
19:45,0,0
19:50,0,0
19:55,0,0
20:00,0,0
20:05,0,0
20:10,0,0
20:15,0,0
20:20,0,0
20:25,0,0
20:30,0,0
20:35,0,0
20:40,0,0
20:45,0,0
20:50,0,0
20:55,0,0
21:00,0,0
21:05,0,0
21:10,0,0
21:15,0,0
21:20,0,0
21:25,0,0
21:30,0,0
