4:30,0,0
4:35,0,0
4:40,0,0
4:45,0,0
4:50,0,0
4:55,0,0
5:00,0,0
5:05,0,0
5:10,0,0
5:15,0,0
5:20,0,0
5:25,0,0
5:30,0,0
5:35,0,0
5:40,0,0
5:45,0,0
5:50,0,0
5:55,0,0
6:00,0,0
6:05,0,0
6:10,0,0
6:15,0,0
6:20,0,0
6:25,0,0
6:30,0,0
6:35,0,0
6:40,0,0
6:45,0,0
6:50,0,0
6:55,0,0
7:00,0,0
7:05,7,18
7:10,4,19
7:15,10,32
7:20,8,14
7:25,20,41
7:30,17,292
7:35,20,448
7:40,22,508
7:45,40,567
7:50,83,620
7:55,84,662
8:00,91,715
8:05,97,760
8:10,103,806
8:15,105,850
8:20,111,893
8:25,113,924
8:30,116,959
8:35,119,991
8:40,122,1021
8:45,125,1056
8:50,124,1078
8:55,127,1111
9:00,134,1136
9:05,139,1154
9:10,142,1163
9:15,145,1190
9:20,150,1203
9:25,148,1205
9:30,158,1250
9:35,164,1276
9:40,169,1290
9:45,198,1322
9:50,245,1232
9:55,292,1397
10:00,311,1187
10:05,442,1376
10:10,562,1526
10:15,505,1225
10:20,522,1153
10:25,595,1127
10:30,619,982
10:35,517,695
10:40,468,605
10:45,472,639
10:50,518,772
10:55,526,844
11:00,569,892
11:05,796,1291
11:10,665,1012
11:15,837,1331
11:20,666,999
11:25,633,908
11:30,715,990
11:35,689,935
11:40,581,729
11:45,507,624
11:50,533,616
11:55,860,1142
12:00,393,509
12:05,368,486
12:10,561,648
12:15,592,714
12:20,1202,1357
12:25,1053,1192
12:30,581,731
12:35,349,463
12:40,338,403
12:45,485,528
12:50,401,464
12:55,295,361
13:00,179,250
13:05,280,364
13:10,410,495
13:15,354,417
13:20,299,357
13:25,371,418
13:30,439,494
13:35,424,494
13:40,451,502
13:45,693,657
13:50,840,767
13:55,623,646
14:00,581,610
14:05,490,531
14:10,454,507
14:15,392,462
14:20,371,428
14:25,537,533
14:30,491,478
14:35,372,409
14:40,368,424
14:45,336,398
14:50,311,380
14:55,304,375
15:00,336,394
15:05,359,411
15:10,405,442
15:15,495,479
15:20,434,453
15:25,410,435
15:30,368,403
15:35,326,370
15:40,319,355
15:45,336,371
15:50,325,336
15:55,255,263
16:00,328,237
16:05,214,199
16:10,402,131
16:15,914,113
16:20,737,101
16:25,814,89
16:30,710,89
16:35,608,102
16:40,438,124
16:45,382,118
16:50,266,99
16:55,130,97
17:00,73,91
17:05,57,86
17:10,32,78
17:15,57,78
17:20,54,75
17:25,53,71
17:30,53,68
17:35,51,66
17:40,50,65
17:45,48,64
17:50,40,61
17:55,29,60
18:00,15,54
18:05,19,26
18:10,11,11
18:15,13,14
18:20,9,10
18:25,9,8
18:30,8,7
18:35,8,7
18:40,9,8
18:45,0,0
18:50,0,0
18:55,0,0
19:00,0,0
19:05,0,0
19:10,0,0
19:15,0,0
19:20,0,0
19:25,0,0
19:30,0,0
19:35,0,0
19:40,0,0
19:45,0,0
19:50,0,0
19:55,0,0
20:00,0,0
20:05,0,0
20:10,0,0
20:15,0,0
20:20,0,0
20:25,0,0
20:30,0,0
20:35,0,0
20:40,0,0
20:45,0,0
20:50,0,0
20:55,0,0
21:00,0,0
21:05,0,0
21:10,0,0
21:15,0,0
21:20,0,0
21:25,0,0
21:30,0,0
