4:30,0,0
4:35,0,0
4:40,0,0
4:45,0,0
4:50,0,0
4:55,0,0
5:00,0,0
5:05,0,0
5:10,0,0
5:15,0,0
5:20,0,0
5:25,0,0
5:30,12,13
5:35,9,10
5:40,9,14
5:45,11,12
5:50,19,43
5:55,14,19
6:00,18,17
6:05,12,12
6:10,20,21
6:15,21,22
6:20,30,75
6:25,32,117
6:30,66,106
6:35,77,87
6:40,67,79
6:45,72,79
6:50,77,87
6:55,94,107
7:00,99,109
7:05,104,117
7:10,95,106
7:15,88,101
7:20,88,98
7:25,25,29
7:30,28,27
7:35,68,79
7:40,89,98
7:45,131,145
7:50,126,142
7:55,149,164
8:00,158,175
8:05,120,136
8:10,74,85
8:15,60,68
8:20,58,63
8:25,55,60
8:30,64,71
8:35,68,74
8:40,83,93
8:45,99,113
8:50,126,142
8:55,164,181
9:00,146,169
9:05,120,130
9:10,136,147
9:15,124,136
9:20,188,209
9:25,156,180
9:30,188,209
9:35,246,276
9:40,206,233
9:45,144,169
9:50,150,177
9:55,217,248
10:00,262,298
10:05,445,502
10:10,578,671
10:15,427,488
10:20,390,426
10:25,343,395
10:30,298,339
10:35,295,343
10:40,248,277
10:45,254,282
10:50,267,299
10:55,255,289
11:00,275,304
11:05,389,428
11:10,443,487
11:15,517,573
11:20,489,547
11:25,440,498
11:30,391,438
11:35,380,426
11:40,339,370
11:45,416,460
11:50,397,452
11:55,287,329
12:00,315,350
12:05,342,381
12:10,367,406
12:15,430,488
12:20,437,475
12:25,391,443
12:30,474,527
12:35,534,607
12:40,497,568
12:45,427,489
12:50,415,455
12:55,424,480
13:00,511,581
13:05,547,601
13:10,603,677
13:15,549,636
13:20,494,566
13:25,576,631
13:30,474,538
13:35,621,675
13:40,687,771
13:45,649,746
13:50,490,555
13:55,482,548
14:00,520,561
14:05,635,686
14:10,601,670
14:15,608,674
14:20,595,660
14:25,668,755
14:30,723,782
14:35,719,791
14:40,589,659
14:45,442,506
14:50,473,520
14:55,437,483
15:00,578,622
15:05,555,603
15:10,711,737
15:15,687,735
15:20,703,756
15:25,847,859
15:30,834,882
15:35,679,714
15:40,575,621
15:45,689,736
15:50,662,699
15:55,531,579
16:00,591,635
16:05,979,884
16:10,811,723
16:15,573,619
16:20,478,653
16:25,463,518
16:30,492,536
16:35,321,372
16:40,316,336
16:45,385,392
16:50,369,415
16:55,452,486
17:00,491,581
17:05,409,450
17:10,356,402
17:15,383,417
17:20,404,424
17:25,466,482
17:30,443,493
17:35,414,440
17:40,303,344
17:45,220,262
17:50,176,199
17:55,227,240
18:00,290,298
18:05,286,318
18:10,243,281
18:15,178,214
18:20,178,199
18:25,186,205
18:30,185,202
18:35,189,202
18:40,173,189
18:45,172,184
18:50,157,175
18:55,126,146
19:00,129,141
19:05,130,144
19:10,122,136
19:15,108,122
19:20,83,95
19:25,67,78
19:30,53,64
19:35,53,59
19:40,59,64
19:45,62,70
19:50,61,67
19:55,53,56
20:00,49,54
20:05,20,24
20:10,10,10
20:15,9,8
20:20,9,8
20:25,8,13
20:30,6,6
20:35,7,5
20:40,5,4
20:45,9,11
20:50,0,0
20:55,0,0
21:00,0,0
21:05,0,0
21:10,0,0
21:15,0,0
21:20,0,0
21:25,0,0
21:30,0,0
