4:30,0,0
4:35,0,0
4:40,0,0
4:45,0,0
4:50,0,0
4:55,0,0
5:00,0,0
5:05,0,0
5:10,0,0
5:15,0,0
5:20,0,0
5:25,0,0
5:30,0,0
5:35,0,0
5:40,12,15
5:45,4,6
5:50,6,10
5:55,7,10
6:00,11,22
6:05,10,18
6:10,19,34
6:15,16,79
6:20,30,98
6:25,73,145
6:30,83,160
6:35,93,182
6:40,103,214
6:45,98,192
6:50,101,205
6:55,111,260
7:00,125,383
7:05,147,524
7:10,166,574
7:15,168,533
7:20,173,458
7:25,187,409
7:30,218,418
7:35,254,494
7:40,279,600
7:45,303,685
7:50,357,899
7:55,336,748
8:00,326,628
8:05,337,642
8:10,349,654
8:15,396,927
8:20,414,859
8:25,386,731
8:30,329,624
8:35,334,688
8:40,362,809
8:45,409,928
8:50,424,970
8:55,444,986
9:00,530,1291
9:05,519,1205
9:10,494,1019
9:15,587,1323
9:20,556,1138
9:25,533,1021
9:30,575,1121
9:35,688,1425
9:40,730,1509
9:45,656,1251
9:50,749,1470
9:55,804,1589
10:00,663,1246
10:05,743,1441
10:10,725,1371
10:15,787,1472
10:20,956,1764
10:25,898,1561
10:30,803,1311
10:35,866,1351
10:40,964,1440
10:45,886,1238
10:50,845,1141
10:55,729,938
11:00,632,780
11:05,579,700
11:10,606,737
11:15,678,836
11:20,718,895
11:25,676,856
11:30,735,916
11:35,677,840
11:40,742,910
11:45,1090,1360
11:50,1115,1412
11:55,1092,1392
12:00,1028,1285
12:05,763,956
12:10,691,855
12:15,811,976
12:20,995,1171
12:25,1208,1401
12:30,1212,1415
12:35,983,1158
12:40,887,1036
12:45,939,1070
12:50,1007,1118
12:55,961,1055
13:00,1114,1197
13:05,1088,1173
13:10,1072,1150
13:15,1017,1095
13:20,1117,1179
13:25,1134,1176
13:30,1264,1294
13:35,1421,1415
13:40,1271,1284
13:45,1309,1300
13:50,1357,1322
13:55,1477,1387
14:00,1547,1426
14:05,1494,1369
14:10,1582,1417
14:15,1294,1184
14:20,1207,1116
14:25,975,942
14:30,1070,999
14:35,1085,1008
14:40,1097,1005
14:45,920,875
14:50,927,877
14:55,1378,1142
15:00,978,918
15:05,1259,1045
15:10,1119,940
15:15,1129,923
15:20,1104,909
15:25,1090,902
15:30,1847,1308
15:35,1767,1273
15:40,1696,1206
15:45,1746,1196
15:50,1741,1179
15:55,1532,1060
16:00,1669,1099
16:05,1576,1053
16:10,1478,970
16:15,954,718
16:20,682,572
16:25,501,469
16:30,421,421
16:35,435,432
16:40,462,472
16:45,496,524
16:50,481,531
16:55,465,485
17:00,446,449
17:05,475,620
17:10,485,625
17:15,460,485
17:20,480,579
17:25,453,485
17:30,421,449
17:35,379,428
17:40,342,391
17:45,317,389
17:50,302,376
17:55,262,327
18:00,214,277
18:05,190,249
18:10,178,231
18:15,162,215
18:20,149,196
18:25,131,177
18:30,131,175
18:35,138,183
18:40,149,191
18:45,162,202
18:50,171,213
18:55,159,199
19:00,114,160
19:05,96,132
19:10,91,121
19:15,86,113
19:20,81,105
19:25,80,100
19:30,76,97
19:35,69,87
19:40,62,81
19:45,54,72
19:50,39,61
19:55,24,56
20:00,16,28
20:05,20,20
20:10,11,12
20:15,11,15
20:20,10,9
20:25,8,11
20:30,6,6
20:35,7,6
20:40,11,11
20:45,0,0
20:50,0,0
20:55,0,0
21:00,0,0
21:05,0,0
21:10,0,0
21:15,0,0
21:20,0,0
21:25,0,0
21:30,0,0
