4:30,0,0
4:35,0,0
4:40,0,0
4:45,0,0
4:50,0,0
4:55,0,0
5:00,0,0
5:05,0,0
5:10,0,0
5:15,0,0
5:20,6,13
5:25,4,8
5:30,9,16
5:35,8,14
5:40,15,18
5:45,15,25
5:50,49,76
5:55,84,135
6:00,111,234
6:05,130,373
6:10,141,424
6:15,157,460
6:20,160,493
6:25,163,541
6:30,174,587
6:35,191,654
6:40,190,650
6:45,207,684
6:50,212,627
6:55,192,366
7:00,233,552
7:05,247,583
7:10,221,360
7:15,224,359
7:20,238,401
7:25,225,438
7:30,193,442
7:35,183,382
7:40,203,419
7:45,259,882
7:50,249,715
7:55,270,445
8:00,325,527
8:05,310,576
8:10,268,511
8:15,297,694
8:20,344,655
8:25,452,753
8:30,399,538
8:35,376,453
8:40,402,476
8:45,464,688
8:50,634,1539
8:55,557,1352
9:00,574,1607
9:05,626,1834
9:10,660,1806
9:15,606,1575
9:20,721,1909
9:25,708,1862
9:30,672,1720
9:35,513,1231
9:40,417,816
9:45,428,749
9:50,365,662
9:55,415,884
10:00,919,2031
10:05,932,1937
10:10,964,1910
10:15,1021,1944
10:20,1058,1944
10:25,1092,1934
10:30,1110,1898
10:35,1134,1878
10:40,1191,1900
10:45,1249,1930
10:50,1266,1912
10:55,1276,1910
11:00,1283,1893
11:05,1274,1866
11:10,1276,1837
11:15,1288,1821
11:20,1058,1437
11:25,1461,1937
11:30,1384,1809
11:35,1503,1909
11:40,1485,1853
11:45,1162,1434
11:50,1292,1566
11:55,1213,1453
12:00,1540,1839
12:05,1515,1781
12:10,1518,1751
12:15,1529,1740
12:20,1552,1729
12:25,1577,1715
12:30,1588,1698
12:35,1602,1683
12:40,1607,1657
12:45,1627,1659
12:50,1651,1654
12:55,1653,1624
13:00,1676,1628
13:05,1705,1622
13:10,1707,1609
13:15,1704,1563
13:20,1715,1555
13:25,1744,1549
13:30,1771,1538
13:35,1747,1492
13:40,1703,1427
13:45,1629,1333
13:50,974,770
13:55,1156,907
14:00,1132,914
14:05,1074,891
14:10,1526,1244
14:15,1246,1042
14:20,1036,885
14:25,1078,915
14:30,1399,1142
14:35,1080,938
14:40,1153,975
14:45,1252,1029
14:50,1620,1246
14:55,1740,1283
15:00,1184,898
15:05,891,665
15:10,1921,1145
15:15,1796,1061
15:20,1770,1034
15:25,1705,998
15:30,1757,978
15:35,1665,912
15:40,1684,926
15:45,1485,824
15:50,1449,806
15:55,1605,894
16:00,1523,815
16:05,1494,743
16:10,1482,681
16:15,1420,635
16:20,1381,594
16:25,1192,520
16:30,1268,545
16:35,745,393
16:40,994,543
16:45,1052,578
16:50,959,462
16:55,884,375
17:00,707,355
17:05,599,311
17:10,589,272
17:15,271,253
17:20,232,221
17:25,221,197
17:30,153,175
17:35,67,149
17:40,50,127
17:45,43,106
17:50,71,102
17:55,93,104
18:00,92,98
18:05,89,95
18:10,87,92
18:15,88,92
18:20,90,94
18:25,108,109
18:30,104,109
18:35,89,101
18:40,91,96
18:45,149,133
18:50,143,136
18:55,160,151
19:00,111,119
19:05,120,126
19:10,115,128
19:15,74,91
19:20,26,49
19:25,19,35
19:30,14,14
19:35,20,15
19:40,8,7
19:45,21,16
19:50,24,19
19:55,25,47
20:00,12,28
20:05,6,8
20:10,8,11
20:15,0,0
20:20,0,0
20:25,0,0
20:30,0,0
20:35,0,0
20:40,0,0
20:45,0,0
20:50,0,0
20:55,0,0
21:00,0,0
21:05,0,0
21:10,0,0
21:15,0,0
21:20,0,0
21:25,0,0
