4:30,0,0
4:35,0,0
4:40,0,0
4:45,0,0
4:50,8,16
4:55,3,6
5:00,6,11
5:05,5,10
5:10,11,18
5:15,9,14
5:20,13,15
5:25,15,20
5:30,36,45
5:35,69,88
5:40,72,93
5:45,85,107
5:50,101,130
5:55,119,151
6:00,138,180
6:05,145,215
6:10,158,283
6:15,176,474
6:20,194,628
6:25,211,661
6:30,223,695
6:35,230,776
6:40,212,795
6:45,181,778
6:50,140,686
6:55,82,275
7:00,71,210
7:05,74,237
7:10,104,452
7:15,145,851
7:20,141,814
7:25,138,756
7:30,161,978
7:35,164,929
7:40,161,858
7:45,168,938
7:50,176,1097
7:55,172,1152
8:00,179,1181
8:05,208,1224
8:10,230,1223
8:15,257,1263
8:20,286,1280
8:25,314,1322
8:30,342,1374
8:35,370,1429
8:40,400,1510
8:45,424,1516
8:50,451,1522
8:55,482,1541
9:00,517,1566
9:05,548,1575
9:10,583,1588
9:15,613,1603
9:20,647,1671
9:25,683,1703
9:30,709,1697
9:35,748,1731
9:40,777,1727
9:45,813,1756
9:50,843,1756
9:55,873,1775
10:00,902,1774
10:05,924,1767
10:10,962,1779
10:15,994,1782
10:20,1043,1801
10:25,1103,1825
10:30,1124,1772
10:35,1086,1654
10:40,1010,1501
10:45,1174,1721
10:50,1102,1580
10:55,1136,1605
11:00,1098,1528
11:05,1176,1616
11:10,1228,1662
11:15,1195,1585
11:20,1174,1549
11:25,1195,1554
11:30,1245,1597
11:35,1319,1660
11:40,1239,1536
11:45,1432,1749
11:50,1475,1764
11:55,1349,1586
12:00,1334,1553
12:05,1435,1660
12:10,1297,1497
12:15,1517,1725
12:20,1379,1554
12:25,1359,1514
12:30,1580,1713
12:35,1489,1585
12:40,1522,1604
12:45,1574,1647
12:50,1676,1734
12:55,1748,1777
13:00,1685,1681
13:05,1640,1604
13:10,1546,1477
13:15,1389,1305
13:20,1380,1303
13:25,973,962
13:30,964,963
13:35,1159,1126
13:40,1329,1247
13:45,1324,1229
13:50,1409,1294
13:55,1332,1228
14:00,1787,1548
14:05,1848,1537
14:10,1799,1444
14:15,1788,1394
14:20,1441,1131
14:25,1638,1286
14:30,1815,1383
14:35,1838,1354
14:40,1566,1131
14:45,1575,1135
14:50,1669,1182
14:55,1755,1201
15:00,1761,1170
15:05,1692,1105
15:10,1762,1127
15:15,1483,995
15:20,1035,762
15:25,809,694
15:30,1168,919
15:35,1773,1221
15:40,1658,1082
15:45,1603,969
15:50,1558,911
15:55,1494,869
16:00,1385,799
16:05,1119,668
16:10,1112,723
16:15,1118,712
16:20,1375,848
16:25,1072,710
16:30,1018,685
16:35,709,612
16:40,740,562
16:45,685,527
16:50,676,532
16:55,680,519
17:00,455,439
17:05,550,493
17:10,475,462
17:15,422,418
17:20,330,386
17:25,197,348
17:30,206,335
17:35,235,335
17:40,227,305
17:45,241,268
17:50,251,278
17:55,261,301
18:00,199,252
18:05,206,245
18:10,234,257
18:15,208,233
18:20,194,218
18:25,204,219
18:30,220,246
18:35,216,250
18:40,179,213
18:45,172,198
18:50,171,198
18:55,186,208
19:00,215,240
19:05,227,253
19:10,204,232
19:15,188,207
19:20,168,187
19:25,131,163
19:30,131,156
19:35,129,151
19:40,99,123
19:45,100,112
19:50,125,125
19:55,114,125
20:00,95,107
20:05,106,110
20:10,116,118
20:15,116,118
20:20,106,113
20:25,87,96
20:30,63,73
20:35,23,38
20:40,9,13
20:45,4,6
20:50,0,0
20:55,0,0
21:00,0,0
21:05,0,0
21:10,0,0
21:15,0,0
21:20,0,0
21:25,0,0
21:30,0,0
