4:30,0,0
4:35,0,0
4:40,0,0
4:45,0,0
4:50,0,0
4:55,0,0
5:00,0,0
5:05,0,0
5:10,0,0
5:15,0,0
5:20,0,0
5:25,0,0
5:30,0,0
5:35,0,0
5:40,0,0
5:45,0,0
5:50,0,0
5:55,0,0
6:00,0,0
6:05,0,0
6:10,0,0
6:15,0,0
6:20,0,0
6:25,0,0
6:30,0,0
6:35,0,0
6:40,0,0
6:45,0,0
6:50,0,0
6:55,0,0
7:00,0,0
7:05,0,0
7:10,0,0
7:15,0,0
7:20,0,0
7:25,9,10
7:30,11,12
7:35,8,6
7:40,12,15
7:45,8,9
7:50,5,5
7:55,18,25
8:00,10,11
8:05,8,6
8:10,11,11
8:15,35,34
8:20,37,39
8:25,95,115
8:30,97,123
8:35,83,101
8:40,79,98
8:45,118,139
8:50,165,257
8:55,250,921
9:00,318,896
9:05,102,231
9:10,228,1114
9:15,213,1206
9:20,239,1123
9:25,221,1117
9:30,242,1103
9:35,183,694
9:40,217,696
9:45,300,1198
9:50,357,1187
9:55,383,1011
10:00,413,749
10:05,450,635
10:10,366,461
10:15,428,568
10:20,352,505
10:25,385,547
10:30,511,756
10:35,562,865
10:40,435,586
10:45,557,800
10:50,678,974
10:55,400,482
11:00,407,472
11:05,408,469
11:10,360,515
11:15,780,1385
11:20,894,1492
11:25,1064,1629
11:30,357,512
11:35,472,637
11:40,566,711
11:45,557,758
11:50,124,191
11:55,168,199
12:00,1189,1611
12:05,1288,1616
12:10,771,957
12:15,227,311
12:20,201,263
12:25,280,342
12:30,387,430
12:35,859,967
12:40,318,420
12:45,625,718
12:50,1549,1622
12:55,363,426
13:00,549,539
13:05,981,906
13:10,449,494
13:15,320,363
13:20,492,545
13:25,465,532
13:30,372,423
13:35,356,419
13:40,340,384
13:45,395,447
13:50,362,441
13:55,345,424
14:00,443,512
14:05,608,587
14:10,711,634
14:15,710,695
14:20,587,627
14:25,456,496
14:30,413,415
14:35,156,140
14:40,122,143
14:45,120,164
14:50,166,201
14:55,270,319
15:00,330,373
15:05,396,433
15:10,369,412
15:15,419,454
15:20,429,476
15:25,370,424
15:30,348,406
15:35,320,376
15:40,326,375
15:45,290,334
15:50,244,293
15:55,255,308
16:00,298,337
16:05,312,358
16:10,263,308
16:15,138,190
16:20,118,147
16:25,209,213
16:30,327,321
16:35,270,284
16:40,225,248
16:45,181,213
16:50,131,155
16:55,108,134
17:00,92,120
17:05,61,88
17:10,88,108
17:15,91,117
17:20,73,95
17:25,52,70
17:30,12,33
17:35,7,7
17:40,9,14
17:45,12,15
17:50,7,9
17:55,4,4
18:00,16,16
18:05,8,7
18:10,12,8
18:15,11,9
18:20,9,9
18:25,6,7
18:30,7,7
18:35,0,0
18:40,0,0
18:45,0,0
18:50,0,0
18:55,0,0
19:00,0,0
19:05,0,0
19:10,0,0
19:15,0,0
19:20,0,0
19:25,0,0
19:30,0,0
19:35,0,0
19:40,0,0
19:45,0,0
19:50,0,0
19:55,0,0
20:00,0,0
20:05,0,0
20:10,0,0
20:15,0,0
20:20,0,0
20:25,0,0
20:30,0,0
20:35,0,0
20:40,0,0
20:45,0,0
20:50,0,0
20:55,0,0
21:00,0,0
21:05,0,0
21:10,0,0
21:15,0,0
21:20,0,0
21:25,0,0
21:30,0,0
