4:30,0,0
4:35,0,0
4:40,0,0
4:45,0,0
4:50,0,0
4:55,0,0
5:00,0,0
5:05,0,0
5:10,0,0
5:15,0,0
5:20,0,0
5:25,0,0
5:30,0,0
5:35,0,0
5:40,0,0
5:45,0,0
5:50,0,0
5:55,0,0
6:00,0,0
6:05,0,0
6:10,0,0
6:15,0,0
6:20,0,0
6:25,0,0
6:30,0,0
6:35,0,0
6:40,0,0
6:45,0,0
6:50,0,0
6:55,0,0
7:00,0,0
7:05,0,0
7:10,0,0
7:15,0,0
7:20,0,0
7:25,0,0
7:30,0,0
7:35,0,0
7:40,0,0
7:45,0,0
7:50,5,20
7:55,3,11
8:00,6,29
8:05,8,88
8:10,13,124
8:15,16,139
8:20,19,140
8:25,58,85
8:30,68,117
8:35,88,227
8:40,72,161
8:45,74,116
8:50,85,122
8:55,86,128
9:00,86,133
9:05,76,109
9:10,75,129
9:15,91,373
9:20,99,396
9:25,116,581
9:30,99,386
9:35,99,347
9:40,118,492
9:45,125,433
9:50,134,392
9:55,173,658
10:00,183,736
10:05,165,633
10:10,176,951
10:15,177,1035
10:20,183,966
10:25,188,973
10:30,193,992
10:35,208,971
10:40,241,978
10:45,268,935
10:50,259,765
10:55,312,862
11:00,322,793
11:05,382,914
11:10,441,877
11:15,592,1011
11:20,526,819
11:25,540,927
11:30,530,927
11:35,371,506
11:40,234,294
11:45,224,288
11:50,341,485
11:55,222,297
12:00,250,344
12:05,276,371
12:10,157,194
12:15,169,202
12:20,144,163
12:25,120,144
12:30,202,251
12:35,286,336
12:40,360,381
12:45,445,463
12:50,448,492
12:55,298,352
13:00,261,294
13:05,276,307
13:10,324,369
13:15,332,379
13:20,487,497
13:25,445,452
13:30,424,443
13:35,314,367
13:40,268,319
13:45,312,348
13:50,366,414
13:55,228,273
14:00,247,270
14:05,257,258
14:10,336,321
14:15,590,456
14:20,919,583
14:25,1066,469
14:30,1023,380
14:35,868,302
14:40,684,268
14:45,765,238
14:50,590,212
14:55,351,209
15:00,293,217
15:05,597,212
15:10,624,205
15:15,775,222
15:20,685,240
15:25,444,225
15:30,548,210
15:35,501,220
15:40,558,203
15:45,423,186
15:50,287,151
15:55,298,163
16:00,309,130
16:05,349,133
16:10,177,122
16:15,139,108
16:20,145,92
16:25,124,87
16:30,109,79
16:35,107,79
16:40,112,90
16:45,114,98
16:50,93,89
16:55,73,71
17:00,58,55
17:05,50,31
17:10,23,15
17:15,13,9
17:20,12,12
17:25,10,7
17:30,7,5
17:35,5,3
17:40,10,7
17:45,0,0
17:50,0,0
17:55,0,0
18:00,0,0
18:05,0,0
18:10,0,0
18:15,0,0
18:20,0,0
18:25,0,0
18:30,0,0
18:35,0,0
18:40,0,0
18:45,0,0
18:50,0,0
18:55,0,0
19:00,0,0
19:05,0,0
19:10,0,0
19:15,0,0
19:20,0,0
19:25,0,0
19:30,0,0
19:35,0,0
19:40,0,0
19:45,0,0
19:50,0,0
19:55,0,0
20:00,0,0
20:05,0,0
20:10,0,0
20:15,0,0
20:20,0,0
20:25,0,0
20:30,0,0
20:35,0,0
20:40,0,0
20:45,0,0
20:50,0,0
20:55,0,0
21:00,0,0
21:05,0,0
21:10,0,0
21:15,0,0
21:20,0,0
21:25,0,0
21:30,0,0
