4:30,0,0
4:35,0,0
4:40,0,0
4:45,0,0
4:50,0,0
4:55,0,0
5:00,0,0
5:05,0,0
5:10,0,0
5:15,0,0
5:20,6,13
5:25,4,9
5:30,10,19
5:35,10,21
5:40,42,74
5:45,69,115
5:50,74,124
5:55,80,150
6:00,73,134
6:05,69,98
6:10,75,100
6:15,83,105
6:20,94,116
6:25,102,125
6:30,110,134
6:35,117,141
6:40,125,147
6:45,136,157
6:50,150,168
6:55,166,190
7:00,193,220
7:05,207,250
7:10,191,247
7:15,206,261
7:20,237,311
7:25,245,351
7:30,238,373
7:35,236,393
7:40,246,448
7:45,273,533
7:50,327,671
7:55,369,705
8:00,389,687
8:05,399,724
8:10,406,696
8:15,402,731
8:20,393,651
8:25,393,661
8:30,446,1031
8:35,457,1217
8:40,477,1480
8:45,435,1454
8:50,393,1303
8:55,399,1303
9:00,370,1138
9:05,326,937
9:10,517,1643
9:15,583,1782
9:20,601,1749
9:25,580,1608
9:30,659,1765
9:35,687,1754
9:40,720,1767
9:45,751,1762
9:50,785,1775
9:55,815,1770
10:00,859,1798
10:05,886,1799
10:10,922,1817
10:15,947,1809
10:20,985,1817
10:25,1015,1817
10:30,1044,1814
10:35,1074,1830
10:40,1107,1837
10:45,1135,1836
10:50,1158,1819
10:55,1186,1825
11:00,1213,1818
11:05,1247,1828
11:10,1271,1825
11:15,1293,1821
11:20,1318,1815
11:25,1349,1822
11:30,1370,1813
11:35,1388,1801
11:40,1399,1779
11:45,1425,1781
11:50,1456,1783
11:55,1477,1779
12:00,1484,1756
12:05,1509,1750
12:10,1527,1736
12:15,1537,1719
12:20,1541,1695
12:25,1579,1706
12:30,1596,1698
12:35,1601,1671
12:40,1627,1670
12:45,1648,1664
12:50,1648,1639
12:55,1661,1625
13:00,1667,1608
13:05,1691,1608
13:10,1709,1599
13:15,1711,1571
13:20,1726,1559
13:25,1741,1544
13:30,1748,1524
13:35,1757,1505
13:40,1760,1482
13:45,1767,1464
13:50,1787,1452
13:55,1781,1422
14:00,1777,1399
14:05,1786,1379
14:10,1797,1357
14:15,1796,1330
14:20,1796,1303
14:25,1793,1274
14:30,1782,1242
14:35,1787,1215
14:40,1791,1191
14:45,1785,1163
14:50,1787,1137
14:55,1769,1101
15:00,1774,1080
15:05,1768,1050
15:10,1743,1015
15:15,1705,991
15:20,1697,959
15:25,1647,932
15:30,1614,901
15:35,1599,869
15:40,1524,839
15:45,1510,803
15:50,1498,773
15:55,1479,737
16:00,1451,703
16:05,1412,672
16:10,1360,638
16:15,1360,610
16:20,1311,577
16:25,1247,548
16:30,1134,508
16:35,1038,472
16:40,1015,447
16:45,890,409
16:50,821,376
16:55,743,343
17:00,655,312
17:05,586,283
17:10,492,255
17:15,391,228
17:20,294,206
17:25,164,189
17:30,161,168
17:35,128,144
17:40,126,133
17:45,122,127
17:50,118,121
17:55,114,115
18:00,109,110
18:05,104,108
18:10,104,104
18:15,100,105
18:20,103,103
18:25,98,102
18:30,100,102
18:35,98,103
18:40,97,102
18:45,98,100
18:50,93,97
18:55,87,92
19:00,84,92
19:05,82,88
19:10,76,84
19:15,72,80
19:20,69,76
19:25,64,70
19:30,59,68
19:35,54,59
19:40,48,54
19:45,37,42
19:50,18,15
19:55,24,20
20:00,15,13
20:05,17,15
20:10,10,8
20:15,13,7
20:20,8,6
20:25,10,7
20:30,5,4
20:35,12,10
20:40,0,0
20:45,0,0
20:50,0,0
20:55,0,0
21:00,0,0
21:05,0,0
21:10,0,0
21:15,0,0
21:20,0,0
21:25,0,0
21:30,0,0
