4:30,0,0
4:35,0,0
4:40,0,0
4:45,0,0
4:50,0,0
4:55,0,0
5:00,0,0
5:05,0,0
5:10,0,0
5:15,0,0
5:20,0,0
5:25,0,0
5:30,0,0
5:35,0,0
5:40,0,0
5:45,0,0
5:50,0,0
5:55,0,0
6:00,0,0
6:05,0,0
6:10,0,0
6:15,0,0
6:20,0,0
6:25,0,0
6:30,0,0
6:35,0,0
6:40,7,15
6:45,4,10
6:50,10,64
6:55,9,145
7:00,18,207
7:05,14,270
7:10,40,320
7:15,65,366
7:20,69,411
7:25,76,457
7:30,81,508
7:35,88,566
7:40,96,620
7:45,99,677
7:50,107,715
7:55,111,757
8:00,115,789
8:05,120,828
8:10,127,863
8:15,133,902
8:20,136,938
8:25,139,977
8:30,144,1013
8:35,146,1043
8:40,149,1074
8:45,153,1103
8:50,158,1134
8:55,162,1146
9:00,166,1170
9:05,171,1196
9:10,177,1226
9:15,185,1243
9:20,208,1270
9:25,234,1283
9:30,263,1293
9:35,286,1304
9:40,319,1320
9:45,348,1327
9:50,378,1340
9:55,409,1340
10:00,443,1348
10:05,477,1346
10:10,508,1351
10:15,539,1354
10:20,574,1364
10:25,604,1364
10:30,636,1362
10:35,666,1360
10:40,695,1359
10:45,726,1355
10:50,757,1356
10:55,787,1354
11:00,818,1348
11:05,842,1332
11:10,871,1326
11:15,897,1315
11:20,920,1309
11:25,944,1303
11:30,970,1289
11:35,995,1285
11:40,1011,1268
11:45,1034,1255
11:50,1055,1231
11:55,1075,1221
12:00,1098,1196
12:05,1113,1187
12:10,1134,1161
12:15,1160,1161
12:20,1172,1117
12:25,1187,1099
12:30,1196,1082
12:35,1210,1058
12:40,1228,1027
12:45,1239,1010
12:50,1251,981
12:55,1264,966
13:00,1268,933
13:05,1280,901
13:10,1278,867
13:15,1283,842
13:20,1292,815
13:25,1298,789
13:30,1302,758
13:35,1298,727
13:40,1292,694
13:45,1296,666
13:50,1282,630
13:55,1290,605
14:00,1277,573
14:05,1265,536
14:10,1256,507
14:15,1263,483
14:20,1257,457
14:25,1249,427
14:30,1237,397
14:35,1221,364
14:40,1207,334
14:45,1197,298
14:50,1195,269
14:55,1184,244
15:00,1162,218
15:05,1146,189
15:10,1137,155
15:15,1118,143
15:20,1109,138
15:25,1070,129
15:30,1037,124
15:35,1035,120
15:40,1021,116
15:45,981,109
15:50,926,109
15:55,889,104
16:00,849,98
16:05,763,98
16:10,589,95
16:15,446,90
16:20,466,90
16:25,304,84
16:30,169,76
16:35,162,79
16:40,105,65
16:45,88,56
16:50,81,17
16:55,74,17
17:00,80,51
17:05,79,60
17:10,51,47
17:15,11,10
17:20,6,6
17:25,6,6
17:30,0,0
17:35,0,0
17:40,0,0
17:45,0,0
17:50,0,0
17:55,0,0
18:00,0,0
18:05,0,0
18:10,0,0
18:15,0,0
18:20,0,0
18:25,0,0
18:30,0,0
18:35,0,0
18:40,0,0
18:45,0,0
18:50,0,0
18:55,0,0
19:00,0,0
19:05,0,0
19:10,0,0
19:15,0,0
19:20,0,0
19:25,0,0
19:30,0,0
19:35,0,0
19:40,0,0
19:45,0,0
19:50,0,0
19:55,0,0
20:00,0,0
20:05,0,0
20:10,0,0
20:15,0,0
20:20,0,0
20:25,0,0
20:30,0,0
20:35,0,0
20:40,0,0
20:45,0,0
20:50,0,0
20:55,0,0
21:00,0,0
21:05,0,0
21:10,0,0
21:15,0,0
21:20,0,0
21:25,0,0
21:30,0,0
