4:30,0,0
4:35,0,0
4:40,0,0
4:45,0,0
4:50,0,0
4:55,0,0
5:00,0,0
5:05,0,0
5:10,0,0
5:15,0,0
5:20,0,0
5:25,12,15
5:30,6,7
5:35,8,14
5:40,11,12
5:45,17,20
5:50,13,16
5:55,19,30
6:00,15,30
6:05,36,43
6:10,71,88
6:15,98,115
6:20,124,151
6:25,126,161
6:30,134,182
6:35,129,179
6:40,119,190
6:45,118,168
6:50,121,173
6:55,118,158
7:00,129,155
7:05,161,198
7:10,153,195
7:15,140,181
7:20,153,210
7:25,129,178
7:30,105,141
7:35,111,169
7:40,116,173
7:45,125,160
7:50,190,222
7:55,216,274
8:00,229,303
8:05,283,393
8:10,296,447
8:15,248,352
8:20,220,270
8:25,239,305
8:30,265,392
8:35,277,509
8:40,299,478
8:45,431,868
8:50,554,1187
8:55,444,865
9:00,391,726
9:05,492,826
9:10,683,1001
9:15,932,1563
9:20,697,1005
9:25,420,569
9:30,365,443
9:35,369,457
9:40,368,470
9:45,528,694
9:50,655,897
9:55,780,1265
10:00,476,761
10:05,488,657
10:10,593,809
10:15,579,837
10:20,643,971
10:25,1013,1592
10:30,926,1451
10:35,822,1230
10:40,1088,1713
10:45,679,962
10:50,925,1444
10:55,856,1334
11:00,1033,1475
11:05,688,890
11:10,1046,1441
11:15,1165,1655
11:20,1223,1674
11:25,1213,1658
11:30,1401,1956
11:35,1501,2037
11:40,1406,1811
11:45,1311,1677
11:50,1269,1634
11:55,1512,1934
12:00,1374,1692
12:05,1384,1687
12:10,1501,1757
12:15,1397,1621
12:20,685,832
12:25,370,463
12:30,287,349
12:35,287,329
12:40,328,359
12:45,391,419
12:50,445,488
12:55,390,454
13:00,348,419
13:05,339,399
13:10,354,432
13:15,346,432
13:20,357,457
13:25,337,437
13:30,357,432
13:35,352,416
13:40,356,404
13:45,351,397
13:50,309,354
13:55,248,283
14:00,220,248
14:05,265,286
14:10,243,280
14:15,255,300
14:20,324,370
14:25,273,331
14:30,231,275
14:35,331,350
14:40,498,510
14:45,668,656
14:50,836,770
14:55,796,745
15:00,926,818
15:05,1869,1419
15:10,1237,1093
15:15,1360,1125
15:20,983,864
15:25,888,799
15:30,1033,892
15:35,1112,943
15:40,1106,927
15:45,543,587
15:50,549,578
15:55,564,600
16:00,504,548
16:05,549,578
16:10,658,670
16:15,753,677
16:20,578,581
16:25,600,618
16:30,610,622
16:35,503,565
16:40,463,475
16:45,435,444
16:50,406,407
16:55,408,405
17:00,418,414
17:05,395,392
17:10,410,405
17:15,404,425
17:20,381,422
17:25,302,324
17:30,253,268
17:35,297,307
17:40,346,365
17:45,311,359
17:50,204,257
17:55,140,179
18:00,127,155
18:05,120,146
18:10,114,141
18:15,170,189
18:20,175,199
18:25,129,153
18:30,95,108
18:35,123,125
18:40,196,189
18:45,223,217
18:50,236,236
18:55,230,236
19:00,221,236
19:05,255,266
19:10,251,263
19:15,204,220
19:20,148,171
19:25,124,140
19:30,103,121
19:35,99,111
19:40,95,111
19:45,79,92
19:50,72,81
19:55,67,73
20:00,62,71
20:05,65,73
20:10,44,59
20:15,12,17
20:20,8,13
20:25,6,6
20:30,7,5
20:35,6,7
20:40,0,0
20:45,0,0
20:50,0,0
20:55,0,0
21:00,0,0
21:05,0,0
21:10,0,0
21:15,0,0
21:20,0,0
21:25,0,0
21:30,0,0
