4:30,0,0
4:35,0,0
4:40,0,0
4:45,0,0
4:50,0,0
4:55,0,0
5:00,0,0
5:05,0,0
5:10,0,0
5:15,0,0
5:20,0,0
5:25,0,0
5:30,0,0
5:35,0,0
5:40,0,0
5:45,0,0
5:50,0,0
5:55,0,0
6:00,0,0
6:05,0,0
6:10,0,0
6:15,0,0
6:20,0,0
6:25,0,0
6:30,0,0
6:35,0,0
6:40,0,0
6:45,0,0
6:50,0,0
6:55,0,0
7:00,0,0
7:05,0,0
7:10,0,0
7:15,0,0
7:20,15,15
7:25,6,6
7:30,12,10
7:35,11,11
7:40,24,24
7:45,52,53
7:50,55,59
7:55,65,70
8:00,65,70
8:05,65,73
8:10,73,84
8:15,76,87
8:20,78,92
8:25,91,106
8:30,98,109
8:35,100,108
8:40,103,112
8:45,100,107
8:50,117,126
8:55,147,156
9:00,177,190
9:05,204,218
9:10,218,235
9:15,215,234
9:20,212,229
9:25,218,232
9:30,229,243
9:35,239,251
9:40,245,254
9:45,233,249
9:50,211,226
9:55,189,207
10:00,181,198
10:05,178,190
10:10,174,182
10:15,171,176
10:20,174,179
10:25,176,185
10:30,182,188
10:35,187,190
10:40,196,196
10:45,207,207
10:50,215,216
10:55,217,224
11:00,212,219
11:05,203,213
11:10,201,205
11:15,215,216
11:20,251,249
11:25,265,269
11:30,270,270
11:35,270,270
11:40,292,280
11:45,317,304
11:50,325,317
11:55,354,348
12:00,370,370
12:05,374,379
12:10,359,368
12:15,336,343
12:20,336,334
12:25,347,340
12:30,371,362
12:35,399,399
12:40,381,393
12:45,357,371
12:50,364,359
12:55,439,405
13:00,535,486
13:05,614,559
13:10,639,595
13:15,644,609
13:20,623,588
13:25,701,646
13:30,572,538
13:35,424,388
13:40,412,376
13:45,420,383
13:50,409,385
13:55,418,420
14:00,437,440
14:05,429,423
14:10,378,375
14:15,338,326
14:20,332,328
14:25,351,345
14:30,345,322
14:35,401,377
14:40,363,352
14:45,335,332
14:50,281,282
14:55,235,233
15:00,199,191
15:05,161,151
15:10,159,157
15:15,131,132
15:20,129,129
15:25,132,132
15:30,153,149
15:35,188,188
15:40,191,193
15:45,150,157
15:50,118,121
15:55,80,83
16:00,70,67
16:05,79,67
16:10,92,81
16:15,103,89
16:20,103,92
16:25,103,96
16:30,100,100
16:35,100,100
16:40,103,101
16:45,94,92
16:50,71,70
16:55,36,40
17:00,7,10
17:05,5,5
17:10,11,11
17:15,0,0
17:20,0,0
17:25,0,0
17:30,0,0
17:35,0,0
17:40,0,0
17:45,0,0
17:50,0,0
17:55,0,0
18:00,0,0
18:05,0,0
18:10,0,0
18:15,0,0
18:20,0,0
18:25,0,0
18:30,0,0
18:35,0,0
18:40,0,0
18:45,0,0
18:50,0,0
18:55,0,0
19:00,0,0
19:05,0,0
19:10,0,0
19:15,0,0
19:20,0,0
19:25,0,0
19:30,0,0
19:35,0,0
19:40,0,0
19:45,0,0
19:50,0,0
19:55,0,0
20:00,0,0
20:05,0,0
20:10,0,0
20:15,0,0
20:20,0,0
20:25,0,0
20:30,0,0
20:35,0,0
20:40,0,0
20:45,0,0
20:50,0,0
20:55,0,0
21:00,0,0
21:05,0,0
21:10,0,0
21:15,0,0
21:20,0,0
21:25,0,0
21:30,0,0
