4:30,0,0
4:35,0,0
4:40,0,0
4:45,0,0
4:50,0,0
4:55,0,0
5:00,0,0
5:05,0,0
5:10,0,0
5:15,0,0
5:20,0,0
5:25,0,0
5:30,0,0
5:35,0,0
5:40,0,0
5:45,0,0
5:50,0,0
5:55,0,0
6:00,0,0
6:05,0,0
6:10,0,0
6:15,0,0
6:20,0,0
6:25,0,0
6:30,0,0
6:35,7,20
6:40,5,22
6:45,9,18
6:50,6,11
6:55,10,19
7:00,13,17
7:05,23,55
7:10,16,76
7:15,21,100
7:20,22,107
7:25,67,129
7:30,112,177
7:35,147,245
7:40,206,359
7:45,239,433
7:50,238,476
7:55,209,381
8:00,216,433
8:05,219,587
8:10,217,787
8:15,222,1022
8:20,217,1025
8:25,219,1034
8:30,218,776
8:35,217,432
8:40,258,455
8:45,315,678
8:50,367,1028
8:55,351,898
9:00,333,696
9:05,317,503
9:10,327,490
9:15,351,545
9:20,354,515
9:25,374,567
9:30,411,690
9:35,434,732
9:40,459,758
9:45,505,849
9:50,530,856
9:55,508,742
10:00,481,665
10:05,486,695
10:10,484,689
10:15,495,711
10:20,511,716
10:25,522,704
10:30,526,693
10:35,549,745
10:40,575,796
10:45,659,962
10:50,727,1097
10:55,902,1437
11:00,894,1419
11:05,737,1132
11:10,616,885
11:15,557,740
11:20,590,745
11:25,546,671
11:30,506,619
11:35,489,606
11:40,524,640
11:45,571,683
11:50,640,767
11:55,761,946
12:00,968,1192
12:05,1211,1439
12:10,1535,1819
12:15,1493,1781
12:20,1588,1887
12:25,977,1132
12:30,889,1029
12:35,788,915
12:40,1208,1357
12:45,1211,1310
12:50,1366,1415
12:55,1361,1378
13:00,595,623
13:05,498,548
13:10,614,665
13:15,865,907
13:20,738,800
13:25,633,705
13:30,645,721
13:35,808,874
13:40,870,910
13:45,1098,1065
13:50,1454,1327
13:55,1010,927
14:00,695,664
14:05,523,528
14:10,463,490
14:15,470,513
14:20,463,508
14:25,402,443
14:30,364,399
14:35,374,410
14:40,388,427
14:45,390,433
14:50,403,439
14:55,440,465
15:00,439,475
15:05,442,482
15:10,413,447
15:15,356,401
15:20,341,381
15:25,354,387
15:30,338,365
15:35,241,266
15:40,154,177
15:45,118,141
15:50,110,138
15:55,123,149
16:00,152,182
16:05,163,197
16:10,158,191
16:15,160,197
16:20,191,237
16:25,243,279
16:30,212,238
16:35,160,191
16:40,144,185
16:45,144,190
16:50,172,216
16:55,201,235
17:00,211,234
17:05,205,218
17:10,175,192
17:15,193,203
17:20,203,208
17:25,215,212
17:30,213,206
17:35,185,193
17:40,182,188
17:45,214,209
17:50,195,199
17:55,147,159
18:00,106,127
18:05,96,116
18:10,93,106
18:15,78,90
18:20,41,56
18:25,21,27
18:30,19,14
18:35,30,16
18:40,17,13
18:45,19,15
18:50,13,10
18:55,18,15
19:00,11,9
19:05,17,14
19:10,15,12
19:15,18,17
19:20,11,8
19:25,7,4
19:30,13,11
19:35,0,0
19:40,0,0
19:45,0,0
19:50,0,0
19:55,0,0
20:00,0,0
20:05,0,0
20:10,0,0
20:15,0,0
20:20,0,0
20:25,0,0
20:30,0,0
20:35,0,0
20:40,0,0
20:45,0,0
20:50,0,0
20:55,0,0
21:00,0,0
21:05,0,0
21:10,0,0
21:15,0,0
21:20,0,0
21:25,0,0
21:30,0,0
