4:30,0,0
4:35,0,0
4:40,0,0
4:45,0,0
4:50,0,0
4:55,0,0
5:00,0,0
5:05,0,0
5:10,0,0
5:15,0,0
5:20,0,0
5:25,0,0
5:30,0,0
5:35,0,0
5:40,0,0
5:45,0,0
5:50,0,0
5:55,0,0
6:00,0,0
6:05,0,0
6:10,0,0
6:15,0,0
6:20,0,0
6:25,0,0
6:30,0,0
6:35,0,0
6:40,0,0
6:45,0,0
6:50,0,0
6:55,0,0
7:00,6,15
7:05,4,10
7:10,6,19
7:15,10,53
7:20,6,12
7:25,14,19
7:30,11,18
7:35,18,55
7:40,15,71
7:45,62,96
7:50,64,94
7:55,71,96
8:00,65,83
8:05,102,123
8:10,113,151
8:15,103,129
8:20,104,126
8:25,117,143
8:30,136,170
8:35,156,203
8:40,199,278
8:45,195,306
8:50,272,462
8:55,256,474
9:00,286,453
9:05,307,432
9:10,267,402
9:15,437,692
9:20,577,1142
9:25,439,869
9:30,370,653
9:35,387,621
9:40,391,803
9:45,415,904
9:50,432,725
9:55,390,541
10:00,373,491
10:05,372,489
10:10,451,632
10:15,457,680
10:20,676,1233
10:25,549,774
10:30,422,572
10:35,452,534
10:40,400,502
10:45,317,376
10:50,342,422
10:55,481,580
11:00,624,780
11:05,548,672
11:10,594,754
11:15,743,1027
11:20,614,811
11:25,866,1292
11:30,926,1336
11:35,615,836
11:40,1123,1584
11:45,999,1349
11:50,950,1221
11:55,944,1209
12:00,1090,1420
12:05,1017,1299
12:10,446,552
12:15,248,325
12:20,224,276
12:25,1205,1409
12:30,1227,1375
12:35,1258,1343
12:40,1347,1334
12:45,605,655
12:50,324,389
12:55,344,391
13:00,620,629
13:05,1202,1082
13:10,737,686
13:15,640,602
13:20,1377,1135
13:25,1014,861
13:30,764,753
13:35,522,577
13:40,1256,1035
13:45,1512,1144
13:50,1488,1049
13:55,1648,1132
14:00,481,470
14:05,65,85
14:10,14,15
14:15,61,48
14:20,237,197
14:25,374,419
14:30,400,447
14:35,1224,842
14:40,845,665
14:45,347,431
14:50,270,317
14:55,322,339
15:00,267,266
15:05,255,291
15:10,264,317
15:15,273,318
15:20,354,380
15:25,1136,552
15:30,849,337
15:35,424,277
15:40,206,220
15:45,267,268
15:50,364,310
15:55,985,434
16:00,1194,425
16:05,348,245
16:10,149,156
16:15,110,130
16:20,84,104
16:25,16,29
16:30,7,6
16:35,9,9
16:40,22,24
16:45,73,48
16:50,211,171
16:55,109,116
17:00,103,97
17:05,115,111
17:10,137,136
17:15,97,116
17:20,35,58
17:25,14,24
17:30,17,13
17:35,23,19
17:40,119,46
17:45,63,20
17:50,61,29
17:55,50,56
18:00,10,15
18:05,8,10
18:10,0,0
18:15,0,0
18:20,0,0
18:25,0,0
18:30,0,0
18:35,0,0
18:40,0,0
18:45,0,0
18:50,0,0
18:55,0,0
19:00,0,0
19:05,0,0
19:10,0,0
19:15,0,0
19:20,0,0
19:25,0,0
19:30,0,0
19:35,0,0
19:40,0,0
19:45,0,0
19:50,0,0
19:55,0,0
20:00,0,0
20:05,0,0
20:10,0,0
20:15,0,0
20:20,0,0
20:25,0,0
20:30,0,0
20:35,0,0
20:40,0,0
20:45,0,0
20:50,0,0
20:55,0,0
21:00,0,0
21:05,0,0
21:10,0,0
21:15,0,0
21:20,0,0
21:25,0,0
21:30,0,0
