4:30,0,0
4:35,0,0
4:40,0,0
4:45,0,0
4:50,0,0
4:55,0,0
5:00,0,0
5:05,0,0
5:10,0,0
5:15,0,0
5:20,0,0
5:25,0,0
5:30,0,0
5:35,0,0
5:40,0,0
5:45,0,0
5:50,0,0
5:55,0,0
6:00,0,0
6:05,7,16
6:10,4,10
6:15,9,30
6:20,9,45
6:25,17,151
6:30,13,231
6:35,16,264
6:40,18,311
6:45,21,337
6:50,23,384
6:55,25,431
7:00,26,477
7:05,51,500
7:10,95,548
7:15,100,588
7:20,103,535
7:25,106,562
7:30,110,700
7:35,116,797
7:40,119,791
7:45,122,798
7:50,127,923
7:55,132,991
8:00,137,1032
8:05,142,1058
8:10,147,1122
8:15,150,1163
8:20,152,1193
8:25,150,1235
8:30,150,1274
8:35,157,1326
8:40,161,1369
8:45,157,1298
8:50,165,1370
8:55,170,1385
9:00,199,1436
9:05,234,1444
9:10,265,1491
9:15,293,1506
9:20,317,1480
9:25,349,1482
9:30,384,1493
9:35,350,1273
9:40,481,1641
9:45,329,992
9:50,397,1210
9:55,577,1703
10:00,512,1423
10:05,652,1712
10:10,630,1539
10:15,782,1775
10:20,815,1785
10:25,947,1866
10:30,1042,1928
10:35,987,1758
10:40,1062,1779
10:45,571,789
10:50,643,922
10:55,455,530
11:00,525,625
11:05,645,818
11:10,1110,1506
11:15,891,1219
11:20,422,544
11:25,550,680
11:30,596,748
11:35,506,622
11:40,598,675
11:45,788,943
11:50,691,821
11:55,973,1147
12:00,519,693
12:05,346,430
12:10,439,496
12:15,603,657
12:20,753,871
12:25,589,713
12:30,872,939
12:35,921,992
12:40,717,789
12:45,852,922
12:50,897,970
12:55,922,1008
13:00,979,1014
13:05,773,835
13:10,1147,1139
13:15,1374,1291
13:20,813,823
13:25,804,851
13:30,654,735
13:35,1000,989
13:40,402,490
13:45,406,486
13:50,543,576
13:55,656,688
14:00,797,784
14:05,627,679
14:10,625,689
14:15,593,669
14:20,497,567
14:25,462,536
14:30,316,409
14:35,321,378
14:40,413,440
14:45,613,626
14:50,756,755
14:55,704,719
15:00,1125,891
15:05,1491,1058
15:10,916,714
15:15,1620,1083
15:20,800,643
15:25,1159,795
15:30,1688,984
15:35,1557,824
15:40,1259,636
15:45,1426,686
15:50,1339,632
15:55,1425,683
16:00,975,504
16:05,796,482
16:10,941,517
16:15,1344,716
16:20,507,408
16:25,897,528
16:30,460,401
16:35,222,279
16:40,239,298
16:45,551,415
16:50,265,248
16:55,153,173
17:00,212,228
17:05,273,295
17:10,233,248
17:15,218,243
17:20,228,262
17:25,145,193
17:30,112,149
17:35,100,136
17:40,138,151
17:45,160,171
17:50,186,190
17:55,166,189
18:00,165,186
18:05,134,157
18:10,190,205
18:15,118,142
18:20,102,119
18:25,75,94
18:30,65,82
18:35,95,106
18:40,131,150
18:45,138,163
18:50,73,105
18:55,56,79
19:00,50,74
19:05,22,59
19:10,23,46
19:15,14,14
19:20,17,18
19:25,11,11
19:30,17,17
19:35,11,11
19:40,16,16
19:45,10,10
19:50,11,12
19:55,5,5
20:00,7,6
20:05,0,0
20:10,0,0
20:15,0,0
20:20,0,0
20:25,0,0
20:30,0,0
20:35,0,0
20:40,0,0
20:45,0,0
20:50,0,0
20:55,0,0
21:00,0,0
21:05,0,0
21:10,0,0
21:15,0,0
21:20,0,0
21:25,0,0
21:30,0,0
