4:30,0,0
4:35,0,0
4:40,0,0
4:45,0,0
4:50,0,0
4:55,0,0
5:00,0,0
5:05,0,0
5:10,0,0
5:15,0,0
5:20,0,0
5:25,0,0
5:30,0,0
5:35,0,0
5:40,0,0
5:45,0,0
5:50,0,0
5:55,0,0
6:00,0,0
6:05,0,0
6:10,0,0
6:15,0,0
6:20,6,15
6:25,6,16
6:30,14,110
6:35,12,189
6:40,21,224
6:45,17,263
6:50,52,290
6:55,72,325
7:00,77,350
7:05,83,372
7:10,88,401
7:15,94,438
7:20,105,528
7:25,110,589
7:30,115,649
7:35,119,687
7:40,126,731
7:45,132,806
7:50,134,877
7:55,140,916
8:00,143,960
8:05,148,1001
8:10,151,1032
8:15,154,1102
8:20,157,1146
8:25,159,1172
8:30,162,1192
8:35,166,1230
8:40,167,1257
8:45,174,1296
8:50,177,1325
8:55,182,1348
9:00,186,1377
9:05,210,1383
9:10,238,1407
9:15,267,1414
9:20,297,1451
9:25,321,1450
9:30,352,1482
9:35,386,1504
9:40,414,1512
9:45,447,1519
9:50,482,1542
9:55,514,1553
10:00,534,1562
10:05,581,1566
10:10,618,1578
10:15,651,1586
10:20,687,1602
10:25,714,1593
10:30,751,1611
10:35,784,1610
10:40,820,1629
10:45,850,1625
10:50,881,1634
10:55,908,1629
11:00,938,1631
11:05,966,1634
11:10,995,1635
11:15,1025,1631
11:20,1054,1633
11:25,1078,1620
11:30,1116,1633
11:35,1141,1632
11:40,1169,1632
11:45,1198,1625
11:50,1219,1609
11:55,1254,1617
12:00,1279,1612
12:05,1294,1593
12:10,1323,1592
12:15,1354,1590
12:20,1397,1603
12:25,1385,1568
12:30,1410,1576
12:35,1377,1509
12:40,1468,1574
12:45,1446,1502
12:50,1485,1544
12:55,1403,1453
13:00,1500,1493
13:05,1525,1490
13:10,1526,1459
13:15,1551,1459
13:20,1573,1453
13:25,1603,1457
13:30,1604,1433
13:35,1615,1416
13:40,1665,1434
13:45,1698,1442
13:50,1168,1003
13:55,1744,1427
14:00,1559,1260
14:05,888,750
14:10,771,656
14:15,1869,1387
14:20,385,393
14:25,353,361
14:30,321,344
14:35,294,330
14:40,497,427
14:45,1585,1055
14:50,1491,983
14:55,1660,1049
15:00,1712,1072
15:05,1647,1039
15:10,946,656
15:15,1450,891
15:20,1543,928
15:25,1542,931
15:30,1001,670
15:35,1073,681
15:40,1480,845
15:45,1482,828
15:50,1239,780
15:55,1324,711
16:00,1012,557
16:05,1096,637
16:10,936,561
16:15,267,310
16:20,264,297
16:25,273,305
16:30,292,328
16:35,297,331
16:40,297,335
16:45,269,307
16:50,276,309
16:55,263,295
17:00,229,261
17:05,213,240
17:10,207,233
17:15,201,227
17:20,191,218
17:25,174,202
17:30,156,181
17:35,143,166
17:40,127,148
17:45,105,123
17:50,94,110
17:55,89,103
18:00,82,94
18:05,77,88
18:10,73,82
18:15,70,79
18:20,65,75
18:25,58,70
18:30,52,62
18:35,51,59
18:40,28,36
18:45,10,11
18:50,7,12
18:55,6,6
19:00,8,6
19:05,7,7
19:10,0,0
19:15,0,0
19:20,0,0
19:25,0,0
19:30,0,0
19:35,0,0
19:40,0,0
19:45,0,0
19:50,0,0
19:55,0,0
20:00,0,0
20:05,0,0
20:10,0,0
20:15,0,0
20:20,0,0
20:25,0,0
20:30,0,0
20:35,0,0
20:40,0,0
20:45,0,0
20:50,0,0
20:55,0,0
21:00,0,0
21:05,0,0
21:10,0,0
21:15,0,0
21:20,0,0
21:25,0,0
21:30,0,0
