4:30,0,0
4:35,0,0
4:40,0,0
4:45,0,0
4:50,0,0
4:55,0,0
5:00,0,0
5:05,0,0
5:10,0,0
5:15,0,0
5:20,0,0
5:25,0,0
5:30,0,0
5:35,0,0
5:40,0,0
5:45,0,0
5:50,0,0
5:55,0,0
6:00,0,0
6:05,0,0
6:10,0,0
6:15,0,0
6:20,0,0
6:25,0,0
6:30,0,0
6:35,0,0
6:40,0,0
6:45,0,0
6:50,8,19
6:55,3,8
7:00,9,49
7:05,11,196
7:10,13,255
7:15,16,317
7:20,18,370
7:25,20,423
7:30,22,442
7:35,22,436
7:40,23,467
7:45,82,570
7:50,103,711
7:55,109,757
8:00,117,791
8:05,119,815
8:10,125,850
8:15,122,813
8:20,124,797
8:25,141,912
8:30,154,996
8:35,165,1041
8:40,176,1071
8:45,147,642
8:50,171,798
8:55,211,1165
9:00,222,1246
9:05,208,949
9:10,244,1163
9:15,305,1267
9:20,352,1179
9:25,417,1270
9:30,522,1523
9:35,541,1495
9:40,531,1238
9:45,477,942
9:50,468,974
9:55,461,1170
10:00,421,1037
10:05,481,1087
10:10,598,1300
10:15,641,1264
10:20,628,1026
10:25,616,975
10:30,553,814
10:35,463,642
10:40,367,515
10:45,424,554
10:50,534,778
10:55,607,840
11:00,634,789
11:05,598,701
11:10,570,683
11:15,584,767
11:20,691,894
11:25,705,914
11:30,730,944
11:35,687,892
11:40,678,871
11:45,820,1069
11:50,769,977
11:55,894,1131
12:00,828,1020
12:05,732,876
12:10,606,736
12:15,686,797
12:20,709,796
12:25,674,764
12:30,669,762
12:35,722,825
12:40,734,832
12:45,721,821
12:50,885,965
12:55,813,900
13:00,752,829
13:05,796,840
13:10,901,916
13:15,889,899
13:20,762,804
13:25,764,807
13:30,567,639
13:35,541,617
13:40,558,626
13:45,569,628
13:50,503,578
13:55,480,544
14:00,518,562
14:05,684,701
14:10,906,889
14:15,848,864
14:20,620,678
14:25,677,701
14:30,834,859
14:35,800,833
14:40,896,828
14:45,795,756
14:50,894,785
14:55,776,718
15:00,690,674
15:05,630,620
15:10,552,547
15:15,589,576
15:20,578,543
15:25,441,431
15:30,399,409
15:35,491,445
15:40,673,515
15:45,759,518
15:50,468,432
15:55,401,407
16:00,421,426
16:05,436,409
16:10,859,368
16:15,683,342
16:20,335,321
16:25,272,295
16:30,219,254
16:35,182,220
16:40,169,207
16:45,172,208
16:50,176,211
16:55,172,203
17:00,163,191
17:05,162,184
17:10,146,165
17:15,121,134
17:20,103,116
17:25,81,90
17:30,75,78
17:35,67,71
17:40,53,56
17:45,20,26
17:50,16,15
17:55,11,12
18:00,18,17
18:05,12,12
18:10,10,15
18:15,11,11
18:20,17,18
18:25,15,15
18:30,17,13
18:35,12,10
18:40,7,8
18:45,5,5
18:50,4,3
18:55,10,9
19:00,0,0
19:05,0,0
19:10,0,0
19:15,0,0
19:20,0,0
19:25,0,0
19:30,0,0
19:35,0,0
19:40,0,0
19:45,0,0
19:50,0,0
19:55,0,0
20:00,0,0
20:05,0,0
20:10,0,0
20:15,0,0
20:20,0,0
20:25,0,0
20:30,0,0
20:35,0,0
20:40,0,0
20:45,0,0
20:50,0,0
20:55,0,0
21:00,0,0
21:05,0,0
21:10,0,0
21:15,0,0
21:20,0,0
21:25,0,0
21:30,0,0
