4:30,0,0
4:35,0,0
4:40,0,0
4:45,0,0
4:50,0,0
4:55,0,0
5:00,0,0
5:05,0,0
5:10,0,0
5:15,0,0
5:20,0,0
5:25,0,0
5:30,0,0
5:35,0,0
5:40,0,0
5:45,0,0
5:50,0,0
5:55,0,0
6:00,0,0
6:05,8,19
6:10,3,9
6:15,7,18
6:20,10,66
6:25,15,93
6:30,19,140
6:35,18,157
6:40,67,167
6:45,80,228
6:50,88,260
6:55,94,260
7:00,105,298
7:05,110,317
7:10,115,291
7:15,121,318
7:20,127,337
7:25,135,354
7:30,142,380
7:35,153,449
7:40,167,531
7:45,175,591
7:50,188,645
7:55,202,708
8:00,213,772
8:05,224,797
8:10,237,872
8:15,251,983
8:20,262,1019
8:25,270,984
8:30,277,973
8:35,289,986
8:40,301,1022
8:45,312,1011
8:50,330,1103
8:55,343,1189
9:00,342,1023
9:05,360,1058
9:10,381,1122
9:15,397,1128
9:20,426,1207
9:25,434,1165
9:30,460,1232
9:35,482,1261
9:40,498,1274
9:45,490,1177
9:50,499,1154
9:55,532,1221
10:00,590,1355
10:05,623,1386
10:10,695,1533
10:15,715,1521
10:20,752,1552
10:25,760,1509
10:30,794,1529
10:35,814,1502
10:40,805,1438
10:45,791,1360
10:50,756,1252
10:55,794,1283
11:00,834,1318
11:05,940,1472
11:10,944,1442
11:15,951,1420
11:20,931,1348
11:25,1011,1439
11:30,1091,1524
11:35,1080,1471
11:40,1087,1449
11:45,1141,1498
11:50,1174,1509
11:55,1138,1432
12:00,1090,1342
12:05,1194,1452
12:10,1310,1574
12:15,1292,1527
12:20,1288,1493
12:25,1336,1526
12:30,1422,1589
12:35,1412,1549
12:40,1395,1505
12:45,1269,1345
12:50,1237,1283
12:55,1267,1296
13:00,1308,1309
13:05,1292,1276
13:10,1251,1216
13:15,1326,1266
13:20,1426,1342
13:25,1525,1413
13:30,1645,1492
13:35,1458,1311
13:40,1338,1188
13:45,1413,1224
13:50,1427,1214
13:55,1316,1104
14:00,1275,1052
14:05,1327,1072
14:10,1336,1064
14:15,1338,1054
14:20,1313,1020
14:25,1496,1125
14:30,1624,1186
14:35,1630,1169
14:40,1648,1155
14:45,1547,1070
14:50,1436,975
14:55,1309,877
15:00,1305,855
15:05,1257,812
15:10,1283,811
15:15,1286,802
15:20,1333,816
15:25,1375,826
15:30,1338,800
15:35,1263,756
15:40,1325,761
15:45,1308,735
15:50,1241,697
15:55,1153,656
16:00,1175,646
16:05,1017,589
16:10,940,555
16:15,990,556
16:20,1008,552
16:25,920,523
16:30,708,478
16:35,626,455
16:40,664,458
16:45,561,432
16:50,530,419
16:55,510,405
17:00,493,388
17:05,477,376
17:10,483,370
17:15,494,359
17:20,510,350
17:25,498,338
17:30,491,325
17:35,476,314
17:40,498,304
17:45,479,290
17:50,403,277
17:55,375,264
18:00,372,255
18:05,366,244
18:10,352,234
18:15,321,219
18:20,295,203
18:25,291,196
18:30,278,183
18:35,272,174
18:40,258,169
18:45,237,158
18:50,223,150
18:55,202,139
19:00,181,123
19:05,164,110
19:10,141,96
19:15,122,83
19:20,102,69
19:25,85,58
19:30,69,38
19:35,54,11
19:40,24,8
19:45,9,5
19:50,9,5
19:55,16,8
20:00,0,0
20:05,0,0
20:10,0,0
20:15,0,0
20:20,0,0
20:25,0,0
20:30,0,0
20:35,0,0
20:40,0,0
20:45,0,0
20:50,0,0
20:55,0,0
21:00,0,0
21:05,0,0
21:10,0,0
21:15,0,0
21:20,0,0
21:25,0,0
21:30,0,0
