4:30,0,0
4:35,0,0
4:40,0,0
4:45,0,0
4:50,0,0
4:55,0,0
5:00,0,0
5:05,0,0
5:10,0,0
5:15,0,0
5:20,0,0
5:25,0,0
5:30,0,0
5:35,8,9
5:40,6,6
5:45,10,6
5:50,6,6
5:55,6,10
6:00,5,5
6:05,9,13
6:10,11,11
6:15,17,17
6:20,13,12
6:25,20,19
6:30,14,15
6:35,20,37
6:40,13,18
6:45,20,16
6:50,22,22
6:55,25,28
7:00,27,29
7:05,30,65
7:10,32,114
7:15,53,98
7:20,60,67
7:25,74,80
7:30,75,83
7:35,95,101
7:40,100,107
7:45,113,120
7:50,142,156
7:55,203,237
8:00,267,313
8:05,312,377
8:10,331,400
8:15,343,398
8:20,351,402
8:25,308,356
8:30,289,335
8:35,301,343
8:40,327,385
8:45,376,441
8:50,414,498
8:55,427,493
9:00,351,414
9:05,293,349
9:10,336,399
9:15,332,421
9:20,326,415
9:25,340,433
9:30,385,476
9:35,413,498
9:40,325,387
9:45,289,318
9:50,285,300
9:55,382,431
10:00,396,471
10:05,422,475
10:10,466,514
10:15,540,610
10:20,423,477
10:25,299,354
10:30,284,352
10:35,291,348
10:40,420,485
10:45,625,711
10:50,602,709
10:55,644,763
11:00,623,712
11:05,440,501
11:10,431,474
11:15,509,568
11:20,645,707
11:25,485,546
11:30,405,459
11:35,499,570
11:40,561,623
11:45,422,474
11:50,461,520
11:55,444,510
12:00,452,508
12:05,440,491
12:10,355,409
12:15,422,485
12:20,510,576
12:25,549,604
12:30,547,610
12:35,449,519
12:40,399,470
12:45,423,489
12:50,407,467
12:55,394,456
13:00,386,437
13:05,316,358
13:10,366,415
13:15,351,404
13:20,418,484
13:25,497,565
13:30,450,511
13:35,518,559
13:40,640,700
13:45,765,849
13:50,784,878
13:55,1043,1077
14:00,993,1004
14:05,1512,1353
14:10,1202,1145
14:15,1392,1254
14:20,1548,1335
14:25,1167,1040
14:30,1107,969
14:35,1274,1062
14:40,1119,948
14:45,955,866
14:50,2000,1531
14:55,1396,1097
15:00,862,736
15:05,1163,849
15:10,1780,1192
15:15,1881,1240
15:20,1877,1215
15:25,1950,1281
15:30,1758,1100
15:35,1770,1054
15:40,1711,1019
15:45,1678,983
15:50,1424,870
15:55,1550,906
16:00,1541,890
16:05,1491,852
16:10,1471,827
16:15,1346,802
16:20,1239,801
16:25,1162,754
16:30,814,549
16:35,978,602
16:40,907,610
16:45,800,572
16:50,783,541
16:55,703,500
17:00,600,465
17:05,495,424
17:10,415,386
17:15,359,358
17:20,295,316
17:25,180,295
17:30,97,266
17:35,63,247
17:40,91,224
17:45,89,201
17:50,87,182
17:55,83,156
18:00,82,112
18:05,79,106
18:10,79,103
18:15,76,96
18:20,76,92
18:25,74,91
18:30,71,90
18:35,71,88
18:40,68,86
18:45,66,83
18:50,66,83
18:55,63,80
19:00,61,81
19:05,58,78
19:10,56,75
19:15,56,72
19:20,53,69
19:25,50,68
19:30,41,65
19:35,18,61
19:40,24,60
19:45,16,56
19:50,23,52
19:55,15,17
20:00,20,16
20:05,14,16
20:10,17,14
20:15,12,13
20:20,16,17
20:25,10,12
20:30,9,11
20:35,8,9
20:40,8,8
20:45,6,7
20:50,6,9
20:55,5,5
21:00,6,6
21:05,14,14
21:10,0,0
21:15,0,0
21:20,0,0
21:25,0,0
21:30,0,0
