4:30,0,0
4:35,0,0
4:40,0,0
4:45,0,0
4:50,0,0
4:55,0,0
5:00,0,0
5:05,0,0
5:10,0,0
5:15,0,0
5:20,0,0
5:25,0,0
5:30,0,0
5:35,0,0
5:40,0,0
5:45,0,0
5:50,0,0
5:55,0,0
6:00,0,0
6:05,0,0
6:10,0,0
6:15,0,0
6:20,0,0
6:25,0,0
6:30,0,0
6:35,0,0
6:40,0,0
6:45,0,0
6:50,0,0
6:55,0,0
7:00,0,0
7:05,0,0
7:10,0,0
7:15,0,0
7:20,0,0
7:25,0,0
7:30,0,0
7:35,0,0
7:40,0,0
7:45,0,0
7:50,0,0
7:55,0,0
8:00,0,0
8:05,0,0
8:10,0,0
8:15,0,0
8:20,9,9
8:25,6,6
8:30,11,9
8:35,9,9
8:40,18,15
8:45,14,13
8:50,50,50
8:55,66,67
9:00,76,78
9:05,93,95
9:10,106,114
9:15,117,125
9:20,122,130
9:25,130,138
9:30,133,141
9:35,142,146
9:40,158,166
9:45,166,182
9:50,171,188
9:55,185,213
10:00,193,223
10:05,206,246
10:10,231,293
10:15,242,299
10:20,241,282
10:25,258,300
10:30,265,295
10:35,236,247
10:40,224,230
10:45,233,239
10:50,260,266
10:55,254,266
11:00,150,163
11:05,124,123
11:10,220,214
11:15,225,225
11:20,219,219
11:25,202,202
11:30,224,225
11:35,221,227
11:40,226,236
11:45,215,224
11:50,180,186
11:55,189,184
12:00,203,200
12:05,188,189
12:10,181,178
12:15,197,194
12:20,217,205
12:25,271,261
12:30,313,293
12:35,388,377
12:40,314,312
12:45,325,326
12:50,345,333
12:55,348,328
13:00,381,325
13:05,484,335
13:10,557,322
13:15,583,310
13:20,573,296
13:25,690,315
13:30,568,268
13:35,603,276
13:40,740,280
13:45,758,271
13:50,720,250
13:55,649,205
14:00,679,178
14:05,715,149
14:10,707,132
14:15,680,126
14:20,677,121
14:25,673,115
14:30,656,110
14:35,645,112
14:40,636,101
14:45,618,93
14:50,576,90
14:55,529,87
15:00,456,87
15:05,409,81
15:10,365,79
15:15,303,76
15:20,278,73
15:25,246,68
15:30,220,68
15:35,197,62
15:40,144,59
15:45,104,57
15:50,88,46
15:55,51,13
16:00,13,13
16:05,11,11
16:10,11,8
16:15,7,6
16:20,5,4
16:25,12,10
16:30,0,0
16:35,0,0
16:40,0,0
16:45,0,0
16:50,0,0
16:55,0,0
17:00,0,0
17:05,0,0
17:10,0,0
17:15,0,0
17:20,0,0
17:25,0,0
17:30,0,0
17:35,0,0
17:40,0,0
17:45,0,0
17:50,0,0
17:55,0,0
18:00,0,0
18:05,0,0
18:10,0,0
18:15,0,0
18:20,0,0
18:25,0,0
18:30,0,0
18:35,0,0
18:40,0,0
18:45,0,0
18:50,0,0
18:55,0,0
19:00,0,0
19:05,0,0
19:10,0,0
19:15,0,0
19:20,0,0
19:25,0,0
19:30,0,0
19:35,0,0
19:40,0,0
19:45,0,0
19:50,0,0
19:55,0,0
20:00,0,0
20:05,0,0
20:10,0,0
20:15,0,0
20:20,0,0
20:25,0,0
20:30,0,0
20:35,0,0
20:40,0,0
20:45,0,0
20:50,0,0
20:55,0,0
21:00,0,0
21:05,0,0
21:10,0,0
21:15,0,0
21:20,0,0
21:25,0,0
21:30,0,0
