4:30,0,0
4:35,0,0
4:40,0,0
4:45,0,0
4:50,0,0
4:55,0,0
5:00,0,0
5:05,0,0
5:10,0,0
5:15,0,0
5:20,0,0
5:25,0,0
5:30,0,0
5:35,0,0
5:40,0,0
5:45,0,0
5:50,0,0
5:55,0,0
6:00,0,0
6:05,0,0
6:10,0,0
6:15,0,0
6:20,5,20
6:25,3,9
6:30,7,16
6:35,7,23
6:40,15,90
6:45,14,255
6:50,22,308
6:55,59,313
7:00,57,229
7:05,66,278
7:10,77,406
7:15,87,477
7:20,97,542
7:25,104,523
7:30,117,629
7:35,128,756
7:40,136,815
7:45,147,893
7:50,155,887
7:55,155,890
8:00,158,923
8:05,157,916
8:10,160,1020
8:15,159,1007
8:20,165,1094
8:25,162,1040
8:30,165,1037
8:35,170,1068
8:40,182,1250
8:45,179,1209
8:50,177,1203
8:55,179,1234
9:00,184,1305
9:05,189,1384
9:10,195,1418
9:15,220,1521
9:20,249,1489
9:25,277,1505
9:30,318,1570
9:35,369,1628
9:40,403,1598
9:45,422,1537
9:50,445,1544
9:55,505,1649
10:00,509,1561
10:05,552,1608
10:10,602,1651
10:15,641,1656
10:20,698,1678
10:25,759,1650
10:30,838,1733
10:35,737,1524
10:40,772,1559
10:45,837,1642
10:50,871,1669
10:55,914,1692
11:00,924,1633
11:05,1008,1709
11:10,996,1628
11:15,915,1456
11:20,1062,1655
11:25,1121,1675
11:30,1151,1657
11:35,1074,1511
11:40,1175,1624
11:45,1096,1455
11:50,1165,1506
11:55,1241,1558
12:00,1126,1378
12:05,1162,1395
12:10,1262,1483
12:15,1178,1342
12:20,1195,1334
12:25,1324,1468
12:30,1333,1457
12:35,1260,1353
12:40,1215,1279
12:45,1332,1382
12:50,1377,1411
12:55,1363,1376
13:00,1429,1429
13:05,1367,1351
13:10,1476,1432
13:15,1483,1399
13:20,1449,1337
13:25,1358,1238
13:30,1500,1346
13:35,1360,1209
13:40,1376,1198
13:45,1361,1165
13:50,1524,1269
13:55,1488,1210
14:00,1563,1233
14:05,1621,1248
14:10,1474,1113
14:15,1673,1213
14:20,1615,1141
14:25,1262,891
14:30,784,599
14:35,839,657
14:40,1427,1026
14:45,944,762
14:50,1159,839
14:55,834,655
15:00,702,578
15:05,1058,763
15:10,938,713
15:15,741,616
15:20,992,734
15:25,1067,749
15:30,932,676
15:35,1002,712
15:40,898,682
15:45,686,595
15:50,763,617
15:55,1235,728
16:00,1022,645
16:05,1299,680
16:10,629,496
16:15,767,517
16:20,821,507
16:25,808,477
16:30,768,439
16:35,639,397
16:40,633,395
16:45,638,410
16:50,737,438
16:55,750,443
17:00,716,414
17:05,666,377
17:10,600,348
17:15,567,329
17:20,567,318
17:25,506,313
17:30,454,297
17:35,403,278
17:40,363,264
17:45,336,256
17:50,318,245
17:55,306,240
18:00,299,240
18:05,279,237
18:10,255,217
18:15,237,201
18:20,222,187
18:25,213,178
18:30,200,172
18:35,174,157
18:40,143,132
18:45,114,106
18:50,97,88
18:55,89,80
19:00,76,72
19:05,65,58
19:10,54,46
19:15,23,15
19:20,9,8
19:25,11,8
19:30,5,4
19:35,13,11
19:40,0,0
19:45,0,0
19:50,0,0
19:55,0,0
20:00,0,0
20:05,0,0
20:10,0,0
20:15,0,0
20:20,0,0
20:25,0,0
20:30,0,0
20:35,0,0
20:40,0,0
20:45,0,0
20:50,0,0
20:55,0,0
21:00,0,0
21:05,0,0
21:10,0,0
21:15,0,0
21:20,0,0
21:25,0,0
21:30,0,0
