4:30,0,0
4:35,0,0
4:40,0,0
4:45,0,0
4:50,0,0
4:55,0,0
5:00,0,0
5:05,0,0
5:10,0,0
5:15,0,0
5:20,0,0
5:25,0,0
5:30,0,0
5:35,0,0
5:40,0,0
5:45,0,0
5:50,0,0
5:55,0,0
6:00,0,0
6:05,0,0
6:10,0,0
6:15,0,0
6:20,0,0
6:25,0,0
6:30,0,0
6:35,0,0
6:40,0,0
6:45,0,0
6:50,0,0
6:55,0,0
7:00,0,0
7:05,0,0
7:10,0,0
7:15,0,0
7:20,0,0
7:25,0,0
7:30,0,0
7:35,0,0
7:40,0,0
7:45,0,0
7:50,0,0
7:55,0,0
8:00,0,0
8:05,0,0
8:10,0,0
8:15,0,0
8:20,0,0
8:25,0,0
8:30,0,0
8:35,0,0
8:40,0,0
8:45,0,0
8:50,11,13
8:55,4,4
9:00,6,7
9:05,6,6
9:10,8,10
9:15,8,9
9:20,21,22
9:25,77,82
9:30,99,112
9:35,109,134
9:40,104,126
9:45,88,99
9:50,80,91
9:55,72,78
10:00,65,66
10:05,67,69
10:10,69,74
10:15,64,69
10:20,75,74
10:25,98,98
10:30,117,120
10:35,111,120
10:40,83,88
10:45,80,79
10:50,93,93
10:55,64,66
11:00,75,74
11:05,76,76
11:10,85,85
11:15,96,98
11:20,83,85
11:25,106,104
11:30,114,115
11:35,85,85
11:40,75,74
11:45,71,71
11:50,77,74
11:55,77,77
12:00,67,69
12:05,54,55
12:10,62,60
12:15,46,50
12:20,15,15
12:25,11,11
12:30,11,14
12:35,10,11
12:40,14,17
12:45,8,9
12:50,7,8
12:55,8,8
13:00,8,12
13:05,9,9
13:10,46,46
13:15,13,13
13:20,9,14
13:25,9,10
13:30,16,16
13:35,10,10
13:40,13,9
13:45,6,6
13:50,9,8
13:55,9,8
14:00,17,12
14:05,8,8
14:10,8,11
14:15,8,8
14:20,6,6
14:25,10,10
14:30,16,15
14:35,8,8
14:40,8,6
14:45,12,14
14:50,12,12
14:55,9,9
15:00,0,0
15:05,12,12
15:10,6,6
15:15,0,0
15:20,11,10
15:25,5,4
15:30,13,11
15:35,0,0
15:40,0,0
15:45,0,0
15:50,0,0
15:55,0,0
16:00,0,0
16:05,0,0
16:10,0,0
16:15,0,0
16:20,0,0
16:25,0,0
16:30,0,0
16:35,0,0
16:40,0,0
16:45,0,0
16:50,0,0
16:55,0,0
17:00,0,0
17:05,0,0
17:10,0,0
17:15,0,0
17:20,0,0
17:25,0,0
17:30,0,0
17:35,0,0
17:40,0,0
17:45,0,0
17:50,0,0
17:55,0,0
18:00,0,0
18:05,0,0
18:10,0,0
18:15,0,0
18:20,0,0
18:25,0,0
18:30,0,0
18:35,0,0
18:40,0,0
18:45,0,0
18:50,0,0
18:55,0,0
19:00,0,0
19:05,0,0
19:10,0,0
19:15,0,0
19:20,0,0
19:25,0,0
19:30,0,0
19:35,0,0
19:40,0,0
19:45,0,0
19:50,0,0
19:55,0,0
20:00,0,0
20:05,0,0
20:10,0,0
20:15,0,0
20:20,0,0
20:25,0,0
20:30,0,0
20:35,0,0
20:40,0,0
20:45,0,0
20:50,0,0
20:55,0,0
21:00,0,0
21:05,0,0
21:10,0,0
21:15,0,0
21:20,0,0
21:25,0,0
21:30,0,0
