4:30,0,0
4:35,0,0
4:40,0,0
4:45,0,0
4:50,0,0
4:55,0,0
5:00,0,0
5:05,8,19
5:10,4,9
5:15,9,16
5:20,7,13
5:25,9,18
5:30,10,14
5:35,18,29
5:40,14,41
5:45,27,34
5:50,65,85
5:55,46,76
6:00,74,96
6:05,82,115
6:10,80,119
6:15,108,157
6:20,135,191
6:25,141,275
6:30,191,286
6:35,182,427
6:40,102,206
6:45,126,206
6:50,186,284
6:55,212,543
7:00,239,805
7:05,257,891
7:10,289,938
7:15,232,977
7:20,185,754
7:25,202,853
7:30,208,828
7:35,171,540
7:40,235,760
7:45,277,911
7:50,359,1305
7:55,281,829
8:00,273,773
8:05,288,1035
8:10,302,896
8:15,437,1354
8:20,435,1218
8:25,312,955
8:30,340,1047
8:35,471,1541
8:40,530,1747
8:45,455,1472
8:50,593,1677
8:55,575,1089
9:00,407,625
9:05,467,652
9:10,579,994
9:15,418,738
9:20,411,841
9:25,733,1660
9:30,950,1980
9:35,766,1524
9:40,747,1565
9:45,961,1981
9:50,994,1947
9:55,872,1705
10:00,1066,2057
10:05,1066,2011
10:10,969,1795
10:15,1037,1865
10:20,1156,2004
10:25,1096,1860
10:30,1209,2027
10:35,1201,1965
10:40,1222,1977
10:45,1236,1943
10:50,1238,1906
10:55,1291,1947
11:00,1350,1970
11:05,1357,1940
11:10,1381,1955
11:15,1411,1956
11:20,1447,1961
11:25,1447,1920
11:30,1463,1908
11:35,1490,1904
11:40,1517,1906
11:45,1537,1897
11:50,1577,1913
11:55,1585,1890
12:00,1591,1865
12:05,1624,1876
12:10,1641,1865
12:15,1648,1836
12:20,1690,1843
12:25,1691,1823
12:30,1694,1796
12:35,1719,1797
12:40,1743,1795
12:45,1750,1776
12:50,1777,1768
12:55,1792,1756
13:00,1780,1718
13:05,1803,1713
13:10,1802,1680
13:15,1822,1674
13:20,1833,1661
13:25,1851,1647
13:30,1839,1610
13:35,1872,1614
13:40,1874,1590
13:45,1904,1592
13:50,1897,1556
13:55,1909,1538
14:00,1902,1507
14:05,1912,1490
14:10,1927,1475
14:15,1940,1453
14:20,1931,1418
14:25,1943,1404
14:30,1935,1365
14:35,1943,1345
14:40,1942,1316
14:45,1937,1289
14:50,1939,1263
14:55,1935,1233
15:00,1915,1197
15:05,1837,1165
15:10,1840,1145
15:15,1825,1109
15:20,1811,1079
15:25,1730,1043
15:30,1720,1012
15:35,1696,973
15:40,1705,953
15:45,1435,817
15:50,1488,827
15:55,1634,884
16:00,1578,815
16:05,1275,664
16:10,1548,788
16:15,1311,669
16:20,1358,718
16:25,1274,643
16:30,1152,606
16:35,1054,571
16:40,1037,539
16:45,920,506
16:50,877,470
16:55,668,429
17:00,622,396
17:05,459,363
17:10,464,334
17:15,365,301
17:20,280,282
17:25,99,264
17:30,75,238
17:35,97,210
17:40,113,188
17:45,115,157
17:50,111,135
17:55,109,132
18:00,101,120
18:05,98,114
18:10,93,107
18:15,88,103
18:20,87,102
18:25,88,103
18:30,87,103
18:35,91,103
18:40,92,109
18:45,86,106
18:50,85,100
18:55,78,92
19:00,69,84
19:05,65,82
19:10,65,79
19:15,65,79
19:20,62,77
19:25,62,74
19:30,57,70
19:35,54,70
19:40,51,65
19:45,41,60
19:50,23,33
19:55,16,15
20:00,19,17
20:05,13,12
20:10,18,15
20:15,13,13
20:20,14,13
20:25,12,12
20:30,11,10
20:35,9,8
20:40,8,6
20:45,6,6
20:50,9,8
20:55,0,0
21:00,0,0
21:05,0,0
21:10,0,0
21:15,0,0
21:20,0,0
21:25,0,0
21:30,0,0
