4:30,0,0
4:35,0,0
4:40,0,0
4:45,0,0
4:50,0,0
4:55,0,0
5:00,0,0
5:05,0,0
5:10,0,0
5:15,0,0
5:20,0,0
5:25,0,0
5:30,0,0
5:35,0,0
5:40,0,0
5:45,0,0
5:50,0,0
5:55,0,0
6:00,0,0
6:05,0,0
6:10,0,0
6:15,0,0
6:20,0,0
6:25,0,0
6:30,0,0
6:35,0,0
6:40,0,0
6:45,0,0
6:50,0,0
6:55,0,0
7:00,0,0
7:05,12,10
7:10,9,9
7:15,14,14
7:20,7,8
7:25,27,28
7:30,63,62
7:35,37,33
7:40,16,19
7:45,21,23
7:50,30,58
7:55,14,74
8:00,24,65
8:05,17,73
8:10,65,80
8:15,27,33
8:20,16,16
8:25,10,8
8:30,23,17
8:35,43,33
8:40,178,159
8:45,177,172
8:50,173,155
8:55,198,173
9:00,218,198
9:05,167,178
9:10,206,461
9:15,342,763
9:20,388,480
9:25,441,763
9:30,361,562
9:35,291,394
9:40,324,583
9:45,577,1145
9:50,464,646
9:55,216,216
10:00,211,183
10:05,247,212
10:10,302,267
10:15,339,290
10:20,420,440
10:25,518,726
10:30,363,440
10:35,460,651
10:40,422,493
10:45,287,359
10:50,430,503
10:55,466,593
11:00,384,436
11:05,547,564
11:10,677,786
11:15,713,801
11:20,717,719
11:25,522,496
11:30,386,350
11:35,216,207
11:40,188,203
11:45,138,143
11:50,110,93
11:55,174,156
12:00,164,146
12:05,206,179
12:10,381,349
12:15,292,275
12:20,186,174
12:25,149,129
12:30,157,141
12:35,208,197
12:40,274,262
12:45,217,244
12:50,103,113
12:55,147,130
13:00,212,200
13:05,222,220
13:10,244,250
13:15,291,277
13:20,299,276
13:25,318,303
13:30,337,320
13:35,314,306
13:40,309,294
13:45,348,322
13:50,392,351
13:55,447,408
14:00,500,477
14:05,489,464
14:10,415,409
14:15,376,380
14:20,348,349
14:25,320,318
14:30,355,334
14:35,427,397
14:40,386,358
14:45,365,328
14:50,507,411
14:55,538,447
15:00,514,418
15:05,546,432
15:10,586,384
15:15,597,382
15:20,636,410
15:25,540,401
15:30,432,365
15:35,419,350
15:40,354,305
15:45,300,259
15:50,274,240
15:55,269,241
16:00,275,244
16:05,265,239
16:10,242,219
16:15,206,192
16:20,165,158
16:25,158,150
16:30,142,129
16:35,142,123
16:40,153,134
16:45,140,126
16:50,132,118
16:55,123,112
17:00,96,93
17:05,59,61
17:10,21,18
17:15,15,15
17:20,10,9
17:25,14,13
17:30,9,6
17:35,19,7
17:40,9,4
17:45,5,5
17:50,13,11
17:55,14,9
18:00,0,0
18:05,0,0
18:10,0,0
18:15,0,0
18:20,0,0
18:25,0,0
18:30,0,0
18:35,0,0
18:40,0,0
18:45,0,0
18:50,0,0
18:55,0,0
19:00,0,0
19:05,0,0
19:10,0,0
19:15,0,0
19:20,0,0
19:25,0,0
19:30,0,0
19:35,0,0
19:40,0,0
19:45,0,0
19:50,0,0
19:55,0,0
20:00,0,0
20:05,0,0
20:10,0,0
20:15,0,0
20:20,0,0
20:25,0,0
20:30,0,0
20:35,0,0
20:40,0,0
20:45,0,0
20:50,0,0
20:55,0,0
21:00,0,0
21:05,0,0
21:10,0,0
21:15,0,0
21:20,0,0
21:25,0,0
21:30,0,0
