4:30,0,0
4:35,0,0
4:40,0,0
4:45,0,0
4:50,0,0
4:55,0,0
5:00,0,0
5:05,0,0
5:10,0,0
5:15,0,0
5:20,0,0
5:25,0,0
5:30,0,0
5:35,0,0
5:40,0,0
5:45,0,0
5:50,0,0
5:55,0,0
6:00,0,0
6:05,0,0
6:10,0,0
6:15,0,0
6:20,0,0
6:25,0,0
6:30,0,0
6:35,0,0
6:40,0,0
6:45,0,0
6:50,0,0
6:55,0,0
7:00,0,0
7:05,0,0
7:10,6,18
7:15,2,8
7:20,7,21
7:25,7,33
7:30,10,50
7:35,13,103
7:40,27,298
7:45,63,367
7:50,69,427
7:55,75,487
8:00,80,539
8:05,88,574
8:10,96,628
8:15,99,667
8:20,104,712
8:25,110,753
8:30,113,795
8:35,118,839
8:40,122,885
8:45,127,913
8:50,130,953
8:55,132,975
9:00,138,1010
9:05,140,1043
9:10,143,1074
9:15,146,1093
9:20,160,1160
9:25,148,1092
9:30,174,1201
9:35,201,1100
9:40,211,1106
9:45,227,1329
9:50,213,1166
9:55,262,1261
10:00,235,719
10:05,253,935
10:10,321,1273
10:15,322,1048
10:20,293,917
10:25,392,1006
10:30,455,1352
10:35,516,1445
10:40,540,1446
10:45,503,1233
10:50,498,1137
10:55,583,1289
11:00,533,1065
11:05,520,1008
11:10,767,1420
11:15,824,1511
11:20,786,1442
11:25,798,1383
11:30,511,847
11:35,827,1347
11:40,1029,1502
11:45,928,1381
11:50,954,1379
11:55,1011,1384
12:00,1017,1353
12:05,1058,1370
12:10,1044,1300
12:15,1071,1283
12:20,1163,1344
12:25,697,774
12:30,1157,1295
12:35,1040,1131
12:40,576,638
12:45,210,235
12:50,648,647
12:55,562,570
13:00,472,497
13:05,837,799
13:10,907,853
13:15,1174,1044
13:20,1087,1010
13:25,1279,1111
13:30,1034,851
13:35,645,549
13:40,388,398
13:45,1030,863
13:50,1151,947
13:55,1426,1051
14:00,953,769
14:05,712,596
14:10,1710,1204
14:15,726,675
14:20,962,764
14:25,1166,802
14:30,1227,729
14:35,983,618
14:40,588,459
14:45,927,591
14:50,1503,803
14:55,812,557
15:00,946,583
15:05,748,499
15:10,561,421
15:15,452,370
15:20,638,402
15:25,1398,483
15:30,1229,304
15:35,1166,253
15:40,1176,259
15:45,1133,256
15:50,1038,238
15:55,758,219
16:00,129,158
16:05,106,126
16:10,126,137
16:15,574,188
16:20,583,267
16:25,578,239
16:30,466,274
16:35,469,230
16:40,360,181
16:45,152,119
16:50,253,123
16:55,148,124
17:00,102,111
17:05,54,99
17:10,69,84
17:15,62,62
17:20,73,76
17:25,77,89
17:30,56,71
17:35,56,67
17:40,33,54
17:45,17,18
17:50,16,12
17:55,9,9
18:00,8,10
18:05,8,6
18:10,6,6
18:15,5,4
18:20,8,5
18:25,0,0
18:30,0,0
18:35,0,0
18:40,0,0
18:45,0,0
18:50,0,0
18:55,0,0
19:00,0,0
19:05,0,0
19:10,0,0
19:15,0,0
19:20,0,0
19:25,0,0
19:30,0,0
19:35,0,0
19:40,0,0
19:45,0,0
19:50,0,0
19:55,0,0
20:00,0,0
20:05,0,0
20:10,0,0
20:15,0,0
20:20,0,0
20:25,0,0
20:30,0,0
20:35,0,0
20:40,0,0
20:45,0,0
20:50,0,0
20:55,0,0
21:00,0,0
21:05,0,0
21:10,0,0
21:15,0,0
21:20,0,0
21:25,0,0
21:30,0,0
