4:30,0,0
4:35,0,0
4:40,0,0
4:45,0,0
4:50,0,0
4:55,0,0
5:00,0,0
5:05,0,0
5:10,17,18
5:15,21,20
5:20,23,30
5:25,9,17
5:30,4,8
5:35,7,16
5:40,0,0
5:45,0,0
5:50,19,19
5:55,10,10
6:00,20,15
6:05,14,16
6:10,26,28
6:15,85,97
6:20,104,132
6:25,92,127
6:30,101,127
6:35,147,174
6:40,148,193
6:45,106,148
6:50,103,129
6:55,159,212
7:00,149,204
7:05,244,367
7:10,335,650
7:15,347,662
7:20,263,457
7:25,211,355
7:30,242,427
7:35,241,443
7:40,413,883
7:45,410,1057
7:50,320,433
7:55,472,576
8:00,377,573
8:05,259,429
8:10,269,374
8:15,353,446
8:20,442,623
8:25,376,532
8:30,301,428
8:35,230,301
8:40,262,325
8:45,295,348
8:50,480,663
8:55,281,361
9:00,253,309
9:05,305,347
9:10,518,585
9:15,728,1068
9:20,381,532
9:25,355,453
9:30,537,718
9:35,944,1764
9:40,476,708
9:45,974,1492
9:50,677,899
9:55,567,706
10:00,735,928
10:05,1092,1547
10:10,963,1319
10:15,1132,1654
10:20,806,1018
10:25,960,1267
10:30,815,1027
10:35,984,1260
10:40,750,995
10:45,661,844
10:50,1169,1655
10:55,546,754
11:00,309,421
11:05,828,1272
11:10,1457,2116
11:15,1417,1948
11:20,1543,2070
11:25,1491,1803
11:30,1305,1441
11:35,676,778
11:40,1076,1283
11:45,1236,1528
11:50,1354,1673
11:55,1461,1740
12:00,1807,2116
12:05,1834,2087
12:10,1775,1906
12:15,1750,1775
12:20,380,513
12:25,109,156
12:30,125,132
12:35,394,356
12:40,598,609
12:45,568,637
12:50,490,581
12:55,497,539
13:00,943,921
13:05,295,330
13:10,156,174
13:15,120,146
13:20,102,127
13:25,120,147
13:30,134,162
13:35,228,238
13:40,379,399
13:45,1224,1103
13:50,2103,1798
13:55,2086,1725
14:00,2071,1660
14:05,2090,1636
14:10,2111,1630
14:15,1304,1016
14:20,458,441
14:25,350,382
14:30,249,283
14:35,259,282
14:40,402,415
14:45,635,629
14:50,1845,1374
14:55,2290,1564
15:00,1079,917
15:05,429,502
15:10,634,575
15:15,1678,1091
15:20,2027,1228
15:25,1926,1152
15:30,800,610
15:35,422,489
15:40,99,169
15:45,15,47
15:50,33,28
15:55,471,212
16:00,2005,1131
16:05,604,500
16:10,841,583
16:15,1329,749
16:20,1506,811
16:25,1397,710
16:30,1057,605
16:35,1041,579
16:40,910,508
16:45,605,557
16:50,443,586
16:55,452,462
17:00,525,545
17:05,536,433
17:10,415,519
17:15,169,237
17:20,267,312
17:25,428,549
17:30,294,338
17:35,383,405
17:40,348,392
17:45,213,278
17:50,191,239
17:55,225,259
18:00,289,304
18:05,360,379
18:10,194,235
18:15,158,187
18:20,120,147
18:25,88,123
18:30,58,88
18:35,18,40
18:40,8,9
18:45,19,18
18:50,28,25
18:55,85,78
19:00,221,216
19:05,246,257
19:10,173,203
19:15,92,120
19:20,81,96
19:25,86,99
19:30,29,63
19:35,12,31
19:40,10,11
19:45,8,9
19:50,8,8
19:55,13,9
20:00,44,28
20:05,131,75
20:10,136,174
20:15,55,98
20:20,18,61
20:25,10,18
20:30,7,13
20:35,5,6
20:40,6,4
20:45,11,9
20:50,0,0
20:55,0,0
21:00,0,0
21:05,0,0
21:10,0,0
21:15,0,0
21:20,0,0
21:25,0,0
21:30,0,0
