4:30,0,0
4:35,0,0
4:40,0,0
4:45,0,0
4:50,0,0
4:55,0,0
5:00,0,0
5:05,0,0
5:10,4,9
5:15,4,8
5:20,7,14
5:25,6,11
5:30,8,17
5:35,10,12
5:40,17,21
5:45,15,19
5:50,52,64
5:55,58,76
6:00,67,183
6:05,73,211
6:10,75,224
6:15,78,251
6:20,82,360
6:25,91,499
6:30,97,553
6:35,94,545
6:40,74,334
6:45,96,542
6:50,107,679
6:55,108,668
7:00,114,711
7:05,116,741
7:10,116,728
7:15,118,787
7:20,119,842
7:25,124,845
7:30,127,853
7:35,130,893
7:40,135,952
7:45,140,1029
7:50,141,1094
7:55,150,1148
8:00,160,1168
8:05,161,1151
8:10,166,1135
8:15,198,1243
8:20,217,1280
8:25,237,1314
8:30,257,1366
8:35,287,1392
8:40,317,1394
8:45,352,1432
8:50,389,1475
8:55,432,1546
9:00,465,1526
9:05,446,1342
9:10,486,1436
9:15,521,1512
9:20,593,1661
9:25,642,1705
9:30,641,1613
9:35,719,1785
9:40,730,1769
9:45,723,1687
9:50,753,1704
9:55,790,1732
10:00,839,1788
10:05,851,1760
10:10,893,1784
10:15,921,1782
10:20,952,1790
10:25,977,1785
10:30,1008,1793
10:35,1037,1793
10:40,1070,1802
10:45,1099,1804
10:50,1118,1794
10:55,1144,1796
11:00,1177,1802
11:05,1205,1811
11:10,1227,1802
11:15,1251,1801
11:20,1274,1795
11:25,1303,1795
11:30,1326,1792
11:35,1349,1790
11:40,1373,1784
11:45,1407,1796
11:50,1425,1785
11:55,1444,1777
12:00,1457,1766
12:05,1485,1765
12:10,1507,1761
12:15,1518,1745
12:20,1535,1731
12:25,1556,1729
12:30,1568,1718
12:35,1588,1713
12:40,1614,1707
12:45,1664,1718
12:50,796,831
12:55,1473,1493
13:00,1688,1692
13:05,1713,1688
13:10,1716,1661
13:15,1733,1647
13:20,1629,1525
13:25,1731,1591
13:30,1441,1308
13:35,1407,1264
13:40,1797,1582
13:45,1848,1591
13:50,1878,1620
13:55,1859,1581
14:00,1900,1573
14:05,1469,1223
14:10,1724,1379
14:15,1896,1506
14:20,1802,1402
14:25,1822,1393
14:30,1803,1361
14:35,1864,1381
14:40,1787,1308
14:45,1909,1392
14:50,1958,1417
14:55,1636,1206
15:00,406,448
15:05,1696,1195
15:10,1919,1386
15:15,594,600
15:20,564,551
15:25,772,664
15:30,568,579
15:35,447,483
15:40,1457,974
15:45,563,540
15:50,870,688
15:55,905,723
16:00,724,616
16:05,601,589
16:10,564,605
16:15,494,522
16:20,391,444
16:25,389,429
16:30,409,526
16:35,406,457
16:40,400,432
16:45,328,374
16:50,350,389
16:55,440,450
17:00,376,406
17:05,333,368
17:10,397,518
17:15,454,485
17:20,426,467
17:25,382,421
17:30,291,324
17:35,254,286
17:40,291,332
17:45,278,297
17:50,237,250
17:55,275,302
18:00,285,321
18:05,166,222
18:10,126,158
18:15,107,127
18:20,114,126
18:25,118,129
18:30,89,105
18:35,87,98
18:40,97,109
18:45,137,143
18:50,187,195
18:55,154,181
19:00,136,159
19:05,123,141
19:10,122,141
19:15,89,116
19:20,67,92
19:25,59,77
19:30,59,69
19:35,53,69
19:40,50,66
19:45,46,61
19:50,19,54
19:55,25,46
20:00,16,17
20:05,22,16
20:10,17,16
20:15,21,21
20:20,13,13
20:25,17,17
20:30,10,10
20:35,9,12
20:40,8,8
20:45,6,8
20:50,5,4
20:55,11,11
21:00,0,0
21:05,0,0
21:10,0,0
21:15,0,0
21:20,0,0
21:25,0,0
21:30,0,0
