4:30,0,0
4:35,0,0
4:40,0,0
4:45,0,0
4:50,0,0
4:55,0,0
5:00,0,0
5:05,0,0
5:10,0,0
5:15,0,0
5:20,0,0
5:25,0,0
5:30,0,0
5:35,0,0
5:40,0,0
5:45,0,0
5:50,0,0
5:55,0,0
6:00,0,0
6:05,0,0
6:10,0,0
6:15,0,0
6:20,0,0
6:25,0,0
6:30,0,0
6:35,0,0
6:40,0,0
6:45,0,0
6:50,0,0
6:55,0,0
7:00,0,0
7:05,0,0
7:10,0,0
7:15,0,0
7:20,0,0
7:25,0,0
7:30,0,0
7:35,0,0
7:40,6,17
7:45,3,8
7:50,4,10
7:55,6,17
8:00,13,26
8:05,25,114
8:10,18,146
8:15,25,139
8:20,19,167
8:25,118,345
8:30,112,365
8:35,101,286
8:40,112,270
8:45,104,169
8:50,109,164
8:55,125,194
9:00,119,186
9:05,125,180
9:10,150,228
9:15,149,216
9:20,155,185
9:25,174,207
9:30,174,244
9:35,193,295
9:40,215,351
9:45,217,304
9:50,216,350
9:55,195,259
10:00,192,237
10:05,164,193
10:10,166,171
10:15,204,210
10:20,264,331
10:25,365,685
10:30,331,563
10:35,262,430
10:40,198,364
10:45,192,351
10:50,175,276
10:55,196,289
11:00,223,307
11:05,221,299
11:10,297,431
11:15,357,502
11:20,326,419
11:25,286,334
11:30,246,268
11:35,160,163
11:40,183,180
11:45,209,219
11:50,165,185
11:55,190,208
12:00,205,199
12:05,265,239
12:10,488,433
12:15,641,554
12:20,374,364
12:25,327,306
12:30,334,298
12:35,249,226
12:40,227,215
12:45,229,237
12:50,319,269
12:55,279,261
13:00,231,233
13:05,246,222
13:10,315,254
13:15,318,273
13:20,290,264
13:25,242,245
13:30,236,214
13:35,273,245
13:40,262,255
13:45,192,187
13:50,155,154
13:55,143,149
14:00,117,113
14:05,114,111
14:10,149,155
14:15,188,198
14:20,150,152
14:25,95,112
14:30,80,82
14:35,65,69
14:40,78,85
14:45,79,79
14:50,84,82
14:55,30,30
15:00,7,7
15:05,10,8
15:10,5,4
15:15,9,9
15:20,0,0
15:25,14,12
15:30,0,0
15:35,0,0
15:40,0,0
15:45,0,0
15:50,0,0
15:55,0,0
16:00,0,0
16:05,0,0
16:10,0,0
16:15,0,0
16:20,0,0
16:25,0,0
16:30,0,0
16:35,0,0
16:40,0,0
16:45,0,0
16:50,0,0
16:55,0,0
17:00,0,0
17:05,0,0
17:10,0,0
17:15,0,0
17:20,0,0
17:25,0,0
17:30,0,0
17:35,0,0
17:40,0,0
17:45,0,0
17:50,0,0
17:55,0,0
18:00,0,0
18:05,0,0
18:10,0,0
18:15,0,0
18:20,0,0
18:25,0,0
18:30,0,0
18:35,0,0
18:40,0,0
18:45,0,0
18:50,0,0
18:55,0,0
19:00,0,0
19:05,0,0
19:10,0,0
19:15,0,0
19:20,0,0
19:25,0,0
19:30,0,0
19:35,0,0
19:40,0,0
19:45,0,0
19:50,0,0
19:55,0,0
20:00,0,0
20:05,0,0
20:10,0,0
20:15,0,0
20:20,0,0
20:25,0,0
20:30,0,0
20:35,0,0
20:40,0,0
20:45,0,0
20:50,0,0
20:55,0,0
21:00,0,0
21:05,0,0
21:10,0,0
21:15,0,0
21:20,0,0
21:25,0,0
21:30,0,0
