4:30,0,0
4:35,0,0
4:40,0,0
4:45,0,0
4:50,0,0
4:55,0,0
5:00,0,0
5:05,0,0
5:10,0,0
5:15,0,0
5:20,0,0
5:25,0,0
5:30,0,0
5:35,0,0
5:40,0,0
5:45,0,0
5:50,0,0
5:55,5,13
6:00,4,9
6:05,9,25
6:10,8,32
6:15,16,134
6:20,13,195
6:25,46,249
6:30,60,275
6:35,69,349
6:40,75,372
6:45,75,409
6:50,83,441
6:55,91,497
7:00,98,530
7:05,100,545
7:10,106,634
7:15,112,641
7:20,115,761
7:25,116,830
7:30,121,887
7:35,125,881
7:40,128,916
7:45,134,967
7:50,137,1072
7:55,140,1127
8:00,142,1197
8:05,148,1244
8:10,151,1280
8:15,153,1314
8:20,152,1268
8:25,157,1385
8:30,161,1457
8:35,166,1497
8:40,168,1513
8:45,177,1555
8:50,211,1579
8:55,236,1608
9:00,265,1620
9:05,296,1654
9:10,330,1674
9:15,363,1694
9:20,398,1695
9:25,433,1723
9:30,468,1727
9:35,506,1747
9:40,545,1763
9:45,585,1774
9:50,645,1811
9:55,673,1816
10:00,697,1769
10:05,596,1413
10:10,821,1912
10:15,849,1891
10:20,797,1695
10:25,838,1680
10:30,1037,1992
10:35,998,1884
10:40,1040,1951
10:45,1101,1972
10:50,615,992
10:55,1101,1828
11:00,1046,1667
11:05,1317,2045
11:10,1419,2099
11:15,1273,1803
11:20,1454,2011
11:25,1642,2194
11:30,1376,1821
11:35,1183,1540
11:40,784,943
11:45,650,748
11:50,1092,1338
11:55,961,1130
12:00,521,575
12:05,466,516
12:10,1024,1222
12:15,1615,1852
12:20,483,532
12:25,530,583
12:30,839,871
12:35,1392,1481
12:40,1793,1949
12:45,1804,1929
12:50,791,804
12:55,989,944
13:00,1620,1634
13:05,549,555
13:10,441,467
13:15,427,481
13:20,895,891
13:25,755,759
13:30,694,678
13:35,748,727
13:40,1356,1273
13:45,1481,1362
13:50,725,739
13:55,702,715
14:00,1020,934
14:05,635,652
14:10,535,552
14:15,531,552
14:20,616,606
14:25,861,734
14:30,840,749
14:35,1077,896
14:40,1352,1031
14:45,1002,808
14:50,1007,813
14:55,1317,966
15:00,927,798
15:05,630,634
15:10,554,568
15:15,542,553
15:20,532,541
15:25,544,553
15:30,551,558
15:35,589,582
15:40,600,581
15:45,572,549
15:50,514,492
15:55,457,432
16:00,467,422
16:05,489,431
16:10,565,466
16:15,577,471
16:20,571,463
16:25,619,481
16:30,678,513
16:35,670,524
16:40,728,553
16:45,720,556
16:50,608,495
16:55,472,418
17:00,420,376
17:05,386,346
17:10,368,330
17:15,347,311
17:20,337,292
17:25,319,264
17:30,302,237
17:35,291,229
17:40,323,235
17:45,410,240
17:50,409,244
17:55,367,239
18:00,360,235
18:05,330,225
18:10,295,223
18:15,272,207
18:20,259,198
18:25,249,189
18:30,250,193
18:35,243,189
18:40,209,164
18:45,190,153
18:50,165,136
18:55,159,131
19:00,138,117
19:05,114,89
19:10,132,98
19:15,130,98
19:20,112,87
19:25,95,78
19:30,82,65
19:35,73,59
19:40,63,50
19:45,29,12
19:50,10,7
19:55,7,4
20:00,8,5
20:05,0,0
20:10,0,0
20:15,0,0
20:20,0,0
20:25,0,0
20:30,0,0
20:35,0,0
20:40,0,0
20:45,0,0
20:50,0,0
20:55,0,0
21:00,0,0
21:05,0,0
21:10,0,0
21:15,0,0
21:20,0,0
21:25,0,0
21:30,0,0
