4:30,0,0
4:35,0,0
4:40,0,0
4:45,0,0
4:50,0,0
4:55,0,0
5:00,0,0
5:05,0,0
5:10,0,0
5:15,0,0
5:20,0,0
5:25,0,0
5:30,0,0
5:35,0,0
5:40,0,0
5:45,0,0
5:50,0,0
5:55,0,0
6:00,0,0
6:05,0,0
6:10,0,0
6:15,0,0
6:20,0,0
6:25,0,0
6:30,0,0
6:35,0,0
6:40,17,17
6:45,7,7
6:50,6,7
6:55,7,8
7:00,11,11
7:05,12,13
7:10,17,19
7:15,54,61
7:20,62,69
7:25,75,83
7:30,78,86
7:35,97,99
7:40,111,115
7:45,91,99
7:50,81,88
7:55,65,66
8:00,78,74
8:05,105,99
8:10,100,97
8:15,110,113
8:20,111,113
8:25,113,118
8:30,105,107
8:35,113,118
8:40,126,129
8:45,156,159
8:50,159,164
8:55,154,153
9:00,181,178
9:05,221,228
9:10,193,205
9:15,212,219
9:20,234,241
9:25,237,241
9:30,258,271
9:35,287,318
9:40,315,346
9:45,330,356
9:50,363,378
9:55,419,472
10:00,427,468
10:05,434,467
10:10,577,624
10:15,480,558
10:20,477,570
10:25,375,449
10:30,451,541
10:35,695,940
10:40,891,1360
10:45,709,945
10:50,688,953
10:55,529,610
11:00,660,926
11:05,899,1200
11:10,1107,1459
11:15,1023,1301
11:20,916,1099
11:25,696,812
11:30,977,1175
11:35,1219,1444
11:40,1131,1315
11:45,1087,1241
11:50,677,754
11:55,569,600
12:00,606,630
12:05,650,643
12:10,732,755
12:15,572,624
12:20,477,498
12:25,526,512
12:30,621,605
12:35,598,608
12:40,566,578
12:45,499,520
12:50,507,508
12:55,549,539
13:00,609,594
13:05,658,627
13:10,954,820
13:15,1105,935
13:20,1434,1120
13:25,1191,944
13:30,1108,881
13:35,953,758
13:40,990,742
13:45,681,547
13:50,666,560
13:55,676,595
14:00,742,638
14:05,967,721
14:10,1191,791
14:15,1179,736
14:20,1393,755
14:25,1138,573
14:30,1123,555
14:35,489,381
14:40,445,380
14:45,592,452
14:50,1249,656
14:55,1338,609
15:00,1156,504
15:05,406,330
15:10,612,405
15:15,488,336
15:20,338,268
15:25,285,241
15:30,330,269
15:35,379,290
15:40,521,336
15:45,495,346
15:50,437,291
15:55,549,248
16:00,669,284
16:05,544,292
16:10,516,267
16:15,480,248
16:20,363,234
16:25,349,238
16:30,414,209
16:35,527,210
16:40,394,226
16:45,325,209
16:50,265,177
16:55,220,149
17:00,238,130
17:05,220,144
17:10,181,141
17:15,131,111
17:20,85,71
17:25,80,66
17:30,79,71
17:35,62,60
17:40,35,30
17:45,9,8
17:50,9,9
17:55,10,12
18:00,0,0
18:05,0,0
18:10,0,0
18:15,0,0
18:20,0,0
18:25,0,0
18:30,0,0
18:35,0,0
18:40,0,0
18:45,0,0
18:50,0,0
18:55,0,0
19:00,0,0
19:05,0,0
19:10,0,0
19:15,0,0
19:20,0,0
19:25,0,0
19:30,0,0
19:35,0,0
19:40,0,0
19:45,0,0
19:50,0,0
19:55,0,0
20:00,0,0
20:05,0,0
20:10,0,0
20:15,0,0
20:20,0,0
20:25,0,0
20:30,0,0
20:35,0,0
20:40,0,0
20:45,0,0
20:50,0,0
20:55,0,0
21:00,0,0
21:05,0,0
21:10,0,0
21:15,0,0
21:20,0,0
21:25,0,0
21:30,0,0
21:35,0,0
