4:30,0,0
4:35,0,0
4:40,0,0
4:45,0,0
4:50,0,0
4:55,0,0
5:00,0,0
5:05,0,0
5:10,0,0
5:15,0,0
5:20,0,0
5:25,0,0
5:30,0,0
5:35,0,0
5:40,0,0
5:45,0,0
5:50,0,0
5:55,0,0
6:00,0,0
6:05,0,0
6:10,0,0
6:15,0,0
6:20,0,0
6:25,0,0
6:30,0,0
6:35,0,0
6:40,0,0
6:45,6,17
6:50,3,9
6:55,4,10
7:00,7,16
7:05,7,15
7:10,10,25
7:15,9,21
7:20,18,41
7:25,13,48
7:30,22,212
7:35,22,354
7:40,59,287
7:45,83,437
7:50,70,260
7:55,88,207
8:00,96,253
8:05,125,472
8:10,123,264
8:15,152,314
8:20,152,539
8:25,104,247
8:30,99,189
8:35,148,245
8:40,183,336
8:45,213,437
8:50,250,504
8:55,282,698
9:00,270,1028
9:05,195,758
9:10,254,723
9:15,235,1120
9:20,208,1109
9:25,214,1100
9:30,236,1089
9:35,262,1102
9:40,300,1112
9:45,407,1241
9:50,475,1296
9:55,407,1238
10:00,289,796
10:05,311,865
10:10,503,1318
10:15,341,600
10:20,527,1067
10:25,570,1415
10:30,556,1360
10:35,588,1357
10:40,610,1360
10:45,629,1362
10:50,651,1360
10:55,685,1372
11:00,711,1358
11:05,751,1379
11:10,775,1383
11:15,796,1370
11:20,809,1349
11:25,845,1364
11:30,869,1359
11:35,889,1350
11:40,925,1361
11:45,943,1346
11:50,961,1333
11:55,982,1327
12:00,1013,1333
12:05,1041,1336
12:10,1056,1321
12:15,1080,1314
12:20,1094,1299
12:25,1106,1280
12:30,1129,1271
12:35,1088,1194
12:40,1177,1248
12:45,1127,1153
12:50,685,710
12:55,643,654
13:00,1182,1136
13:05,1104,1068
13:10,963,961
13:15,558,614
13:20,453,504
13:25,906,859
13:30,1146,1031
13:35,775,756
13:40,397,477
13:45,658,648
13:50,1467,1179
13:55,375,395
14:00,210,292
14:05,255,346
14:10,238,307
14:15,216,290
14:20,527,477
14:25,1170,840
14:30,489,424
14:35,824,595
14:40,552,487
14:45,756,575
14:50,256,300
14:55,512,436
15:00,932,636
15:05,1249,738
15:10,1108,650
15:15,701,431
15:20,363,278
15:25,441,286
15:30,239,237
15:35,549,340
15:40,171,198
15:45,166,191
15:50,200,226
15:55,174,192
16:00,157,181
16:05,154,176
16:10,286,190
16:15,429,217
16:20,180,198
16:25,556,193
16:30,524,167
16:35,399,158
16:40,330,154
16:45,241,171
16:50,183,190
16:55,201,204
17:00,188,205
17:05,164,180
17:10,127,144
17:15,90,113
17:20,82,108
17:25,80,116
17:30,85,125
17:35,81,117
17:40,76,106
17:45,77,106
17:50,81,101
17:55,84,98
18:00,59,80
18:05,49,70
18:10,49,70
18:15,56,77
18:20,58,80
18:25,51,71
18:30,52,67
18:35,22,57
18:40,22,33
18:45,12,11
18:50,8,8
18:55,5,5
19:00,8,8
19:05,0,0
19:10,0,0
19:15,0,0
19:20,0,0
19:25,0,0
19:30,0,0
19:35,0,0
19:40,0,0
19:45,0,0
19:50,0,0
19:55,0,0
20:00,0,0
20:05,0,0
20:10,0,0
20:15,0,0
20:20,0,0
20:25,0,0
20:30,0,0
20:35,0,0
20:40,0,0
20:45,0,0
20:50,0,0
20:55,0,0
21:00,0,0
21:05,0,0
21:10,0,0
21:15,0,0
21:20,0,0
21:25,0,0
21:30,0,0
