4:30,0,0
4:35,0,0
4:40,0,0
4:45,0,0
4:50,0,0
4:55,0,0
5:00,0,0
5:05,0,0
5:10,0,0
5:15,0,0
5:20,0,0
5:25,0,0
5:30,0,0
5:35,0,0
5:40,0,0
5:45,0,0
5:50,0,0
5:55,0,0
6:00,0,0
6:05,0,0
6:10,0,0
6:15,0,0
6:20,0,0
6:25,0,0
6:30,0,0
6:35,0,0
6:40,0,0
6:45,0,0
6:50,0,0
6:55,0,0
7:00,0,0
7:05,0,0
7:10,0,0
7:15,0,0
7:20,0,0
7:25,0,0
7:30,0,0
7:35,9,10
7:40,6,7
7:45,10,10
7:50,9,10
7:55,15,16
8:00,12,13
8:05,18,19
8:10,15,15
8:15,55,58
8:20,118,131
8:25,144,173
8:30,158,211
8:35,138,177
8:40,123,153
8:45,112,134
8:50,120,139
8:55,136,167
9:00,168,189
9:05,231,274
9:10,225,288
9:15,173,202
9:20,192,207
9:25,308,366
9:30,288,337
9:35,181,192
9:40,290,293
9:45,307,334
9:50,270,286
9:55,205,214
10:00,232,237
10:05,235,237
10:10,254,258
10:15,232,239
10:20,240,253
10:25,254,268
10:30,205,212
10:35,253,276
10:40,229,234
10:45,219,223
10:50,251,259
10:55,224,234
11:00,275,289
11:05,275,278
11:10,268,264
11:15,308,306
11:20,296,305
11:25,264,266
11:30,253,255
11:35,251,252
11:40,239,244
11:45,234,242
11:50,234,236
11:55,259,264
12:00,236,241
12:05,220,227
12:10,135,132
12:15,143,135
12:20,124,124
12:25,117,117
12:30,104,103
12:35,134,131
12:40,131,134
12:45,104,106
12:50,85,87
12:55,123,120
13:00,149,153
13:05,154,158
13:10,149,147
13:15,190,185
13:20,281,278
13:25,301,311
13:30,280,283
13:35,283,284
13:40,239,248
13:45,240,234
13:50,223,229
13:55,158,160
14:00,156,149
14:05,197,185
14:10,191,187
14:15,182,181
14:20,193,192
14:25,152,156
14:30,221,216
14:35,179,188
14:40,169,169
14:45,152,161
14:50,130,134
14:55,155,153
15:00,168,172
15:05,174,169
15:10,185,186
15:15,173,177
15:20,136,136
15:25,186,174
15:30,196,183
15:35,169,166
15:40,116,122
15:45,118,111
15:50,115,111
15:55,102,95
16:00,73,68
16:05,101,98
16:10,82,79
16:15,65,63
16:20,75,68
16:25,72,66
16:30,65,36
16:35,60,17
16:40,27,19
16:45,12,12
16:50,14,14
16:55,6,6
17:00,8,8
17:05,0,0
17:10,0,0
17:15,0,0
17:20,0,0
17:25,0,0
17:30,0,0
17:35,0,0
17:40,0,0
17:45,0,0
17:50,0,0
17:55,0,0
18:00,0,0
18:05,0,0
18:10,0,0
18:15,0,0
18:20,0,0
18:25,0,0
18:30,0,0
18:35,0,0
18:40,0,0
18:45,0,0
18:50,0,0
18:55,0,0
19:00,0,0
19:05,0,0
19:10,0,0
19:15,0,0
19:20,0,0
19:25,0,0
19:30,0,0
19:35,0,0
19:40,0,0
19:45,0,0
19:50,0,0
19:55,0,0
20:00,0,0
20:05,0,0
20:10,0,0
20:15,0,0
20:20,0,0
20:25,0,0
20:30,0,0
20:35,0,0
20:40,0,0
20:45,0,0
20:50,0,0
20:55,0,0
21:00,0,0
21:05,0,0
21:10,0,0
21:15,0,0
21:20,0,0
21:25,0,0
21:30,0,0
