4:30,0,0
4:35,0,0
4:40,0,0
4:45,0,0
4:50,0,0
4:55,0,0
5:00,0,0
5:05,0,0
5:10,0,0
5:15,0,0
5:20,0,0
5:25,0,0
5:30,0,0
5:35,0,0
5:40,0,0
5:45,0,0
5:50,0,0
5:55,0,0
6:00,0,0
6:05,0,0
6:10,0,0
6:15,0,0
6:20,0,0
6:25,0,0
6:30,0,0
6:35,0,0
6:40,0,0
6:45,12,17
6:50,5,7
6:55,9,14
7:00,12,23
7:05,18,30
7:10,64,123
7:15,77,152
7:20,85,171
7:25,74,177
7:30,72,180
7:35,99,531
7:40,100,605
7:45,98,802
7:50,93,853
7:55,96,895
8:00,98,930
8:05,101,959
8:10,104,1026
8:15,106,1099
8:20,108,1135
8:25,112,1173
8:30,115,1205
8:35,117,1242
8:40,120,1272
8:45,120,1306
8:50,123,1335
8:55,123,1362
9:00,123,1388
9:05,127,1418
9:10,132,1440
9:15,137,1467
9:20,146,1486
9:25,176,1502
9:30,197,1510
9:35,221,1540
9:40,249,1550
9:45,287,1576
9:50,321,1577
9:55,357,1603
10:00,391,1612
10:05,429,1612
10:10,467,1632
10:15,504,1624
10:20,542,1640
10:25,581,1648
10:30,619,1659
10:35,654,1663
10:40,696,1687
10:45,728,1685
10:50,773,1711
10:55,811,1697
11:00,901,1730
11:05,988,1769
11:10,1001,1755
11:15,1037,1773
11:20,1116,1834
11:25,1148,1835
11:30,1242,1917
11:35,646,902
11:40,1174,1665
11:45,1163,1634
11:50,1262,1795
11:55,1317,1771
12:00,969,1261
12:05,529,701
12:10,395,512
12:15,1232,1543
12:20,1559,1877
12:25,1506,1806
12:30,871,1050
12:35,1506,1742
12:40,1618,1822
12:45,817,896
12:50,1198,1279
12:55,1470,1551
13:00,1609,1695
13:05,1699,1694
13:10,1663,1602
13:15,1634,1555
13:20,1658,1579
13:25,1666,1559
13:30,1686,1504
13:35,1667,1456
13:40,1613,1420
13:45,1780,1536
13:50,1789,1491
13:55,1800,1458
14:00,1106,885
14:05,1808,1423
14:10,1633,1240
14:15,1724,1258
14:20,1209,871
14:25,971,709
14:30,1665,1140
14:35,1852,1263
14:40,1907,1311
14:45,1859,1207
14:50,1753,1053
14:55,1747,1004
15:00,1753,996
15:05,1781,992
15:10,1750,924
15:15,1777,908
15:20,1816,918
15:25,1846,920
15:30,1798,852
15:35,1760,782
15:40,1755,746
15:45,1746,736
15:50,1722,732
15:55,1638,634
16:00,1575,538
16:05,1518,499
16:10,1500,489
16:15,1450,481
16:20,1314,421
16:25,394,225
16:30,1054,333
16:35,1287,351
16:40,1267,325
16:45,1219,311
16:50,1095,246
16:55,977,176
17:00,852,129
17:05,761,122
17:10,635,128
17:15,683,134
17:20,459,157
17:25,585,183
17:30,438,161
17:35,170,128
17:40,269,110
17:45,268,102
17:50,259,105
17:55,133,107
18:00,122,102
18:05,111,91
18:10,109,81
18:15,145,78
18:20,162,78
18:25,126,73
18:30,100,70
18:35,90,65
18:40,89,62
18:45,84,59
18:50,74,56
18:55,68,51
19:00,49,23
19:05,17,11
19:10,47,16
19:15,22,10
19:20,17,12
19:25,10,7
19:30,12,7
19:35,6,4
19:40,9,6
19:45,0,0
19:50,0,0
19:55,0,0
20:00,0,0
20:05,0,0
20:10,0,0
20:15,0,0
20:20,0,0
20:25,0,0
20:30,0,0
20:35,0,0
20:40,0,0
20:45,0,0
20:50,0,0
20:55,0,0
21:00,0,0
21:05,0,0
21:10,0,0
21:15,0,0
21:20,0,0
21:25,0,0
21:30,0,0
21:35,0,0
