4:30,0,0
4:35,0,0
4:40,0,0
4:45,0,0
4:50,0,0
4:55,0,0
5:00,0,0
5:05,0,0
5:10,0,0
5:15,0,0
5:20,0,0
5:25,0,0
5:30,0,0
5:35,0,0
5:40,0,0
5:45,0,0
5:50,0,0
5:55,0,0
6:00,0,0
6:05,0,0
6:10,0,0
6:15,0,0
6:20,0,0
6:25,0,0
6:30,0,0
6:35,0,0
6:40,0,0
6:45,0,0
6:50,0,0
6:55,0,0
7:00,0,0
7:05,0,0
7:10,0,0
7:15,0,0
7:20,0,0
7:25,0,0
7:30,0,0
7:35,0,0
7:40,0,0
7:45,0,0
7:50,0,0
7:55,0,0
8:00,0,0
8:05,0,0
8:10,8,18
8:15,4,9
8:20,5,12
8:25,8,21
8:30,8,21
8:35,13,28
8:40,11,31
8:45,50,119
8:50,61,158
8:55,69,182
9:00,78,157
9:05,86,157
9:10,95,190
9:15,101,231
9:20,101,258
9:25,106,222
9:30,115,228
9:35,129,228
9:40,150,225
9:45,159,287
9:50,159,362
9:55,143,269
10:00,150,375
10:05,149,303
10:10,150,252
10:15,155,287
10:20,158,265
10:25,173,281
10:30,178,260
10:35,184,260
10:40,191,287
10:45,189,317
10:50,194,299
10:55,201,313
11:00,201,318
11:05,182,287
11:10,189,335
11:15,198,329
11:20,214,320
11:25,253,391
11:30,285,429
11:35,286,408
11:40,427,625
11:45,408,503
11:50,369,398
11:55,437,481
12:00,391,428
12:05,392,426
12:10,428,450
12:15,424,437
12:20,356,371
12:25,350,360
12:30,305,309
12:35,326,308
12:40,409,362
12:45,403,350
12:50,367,320
12:55,368,309
13:00,438,339
13:05,427,326
13:10,330,266
13:15,359,267
13:20,421,284
13:25,511,308
13:30,560,312
13:35,530,295
13:40,507,280
13:45,379,257
13:50,371,242
13:55,374,225
14:00,346,206
14:05,338,198
14:10,356,192
14:15,318,180
14:20,261,163
14:25,236,156
14:30,237,154
14:35,224,151
14:40,228,149
14:45,199,140
14:50,169,120
14:55,159,104
15:00,156,104
15:05,159,106
15:10,143,101
15:15,123,89
15:20,109,78
15:25,116,70
15:30,115,67
15:35,95,61
15:40,80,53
15:45,66,42
15:50,48,10
15:55,20,10
16:00,10,6
16:05,11,5
16:10,6,4
16:15,15,11
16:20,0,0
16:25,0,0
16:30,0,0
16:35,0,0
16:40,0,0
16:45,0,0
16:50,0,0
16:55,0,0
17:00,0,0
17:05,0,0
17:10,0,0
17:15,0,0
17:20,0,0
17:25,0,0
17:30,0,0
17:35,0,0
17:40,0,0
17:45,0,0
17:50,0,0
17:55,0,0
18:00,0,0
18:05,0,0
18:10,0,0
18:15,0,0
18:20,0,0
18:25,0,0
18:30,0,0
18:35,0,0
18:40,0,0
18:45,0,0
18:50,0,0
18:55,0,0
19:00,0,0
19:05,0,0
19:10,0,0
19:15,0,0
19:20,0,0
19:25,0,0
19:30,0,0
19:35,0,0
19:40,0,0
19:45,0,0
19:50,0,0
19:55,0,0
20:00,0,0
20:05,0,0
20:10,0,0
20:15,0,0
20:20,0,0
20:25,0,0
20:30,0,0
20:35,0,0
20:40,0,0
20:45,0,0
20:50,0,0
20:55,0,0
21:00,0,0
21:05,0,0
21:10,0,0
21:15,0,0
21:20,0,0
21:25,0,0
21:30,0,0
