4:30,0,0
4:35,0,0
4:40,0,0
4:45,0,0
4:50,0,0
4:55,0,0
5:00,0,0
5:05,0,0
5:10,0,0
5:15,0,0
5:20,0,0
5:25,0,0
5:30,0,0
5:35,0,0
5:40,0,0
5:45,0,0
5:50,0,0
5:55,0,0
6:00,0,0
6:05,0,0
6:10,0,0
6:15,0,0
6:20,0,0
6:25,0,0
6:30,0,0
6:35,0,0
6:40,0,0
6:45,0,0
6:50,0,0
6:55,0,0
7:00,11,12
7:05,6,7
7:10,8,6
7:15,6,7
7:20,6,10
7:25,6,6
7:30,10,8
7:35,9,10
7:40,10,11
7:45,10,11
7:50,9,15
7:55,8,8
8:00,9,14
8:05,9,9
8:10,11,17
8:15,11,11
8:20,16,16
8:25,30,24
8:30,142,141
8:35,233,316
8:40,158,225
8:45,124,163
8:50,101,136
8:55,99,128
9:00,134,166
9:05,162,201
9:10,115,162
9:15,87,120
9:20,78,104
9:25,90,118
9:30,123,155
9:35,190,234
9:40,207,273
9:45,158,212
9:50,204,272
9:55,189,262
10:00,229,301
10:05,241,335
10:10,275,365
10:15,299,403
10:20,129,205
10:25,67,102
10:30,73,96
10:35,97,123
10:40,166,213
10:45,240,300
10:50,374,477
10:55,568,789
11:00,589,815
11:05,593,822
11:10,648,914
11:15,530,726
11:20,706,1077
11:25,854,1305
11:30,821,1224
11:35,1141,1670
11:40,899,1265
11:45,717,1037
11:50,896,1261
11:55,964,1293
12:00,860,1113
12:05,997,1227
12:10,494,612
12:15,516,664
12:20,740,860
12:25,1217,1383
12:30,1163,1297
12:35,845,963
12:40,1105,1233
12:45,1053,1161
12:50,1101,1202
12:55,592,728
13:00,442,588
13:05,323,457
13:10,260,359
13:15,240,320
13:20,293,377
13:25,374,459
13:30,365,468
13:35,304,419
13:40,296,400
13:45,329,442
13:50,340,452
13:55,293,394
14:00,214,300
14:05,176,244
14:10,200,258
14:15,263,332
14:20,280,357
14:25,295,379
14:30,242,323
14:35,208,280
14:40,343,410
14:45,351,429
14:50,289,355
14:55,388,437
15:00,332,421
15:05,217,292
15:10,129,185
15:15,81,123
15:20,68,96
15:25,67,92
15:30,140,170
15:35,243,284
15:40,282,342
15:45,217,287
15:50,127,177
15:55,82,108
16:00,93,114
16:05,86,107
16:10,102,129
16:15,176,207
16:20,145,181
16:25,169,206
16:30,301,351
16:35,304,384
16:40,243,325
16:45,150,212
16:50,95,140
16:55,62,89
17:00,95,124
17:05,91,127
17:10,206,244
17:15,162,220
17:20,136,183
17:25,130,166
17:30,77,108
17:35,16,38
17:40,9,11
17:45,33,30
17:50,130,160
17:55,135,177
18:00,135,173
18:05,239,281
18:10,170,227
18:15,227,275
18:20,227,283
18:25,229,284
18:30,152,218
18:35,92,141
18:40,87,120
18:45,24,50
18:50,32,58
18:55,31,108
19:00,17,36
19:05,6,6
19:10,12,9
19:15,8,8
19:20,10,13
19:25,7,7
19:30,8,6
19:35,8,8
19:40,0,0
19:45,0,0
19:50,0,0
19:55,0,0
20:00,0,0
20:05,0,0
20:10,0,0
20:15,0,0
20:20,0,0
20:25,0,0
20:30,0,0
20:35,0,0
20:40,0,0
20:45,0,0
20:50,0,0
20:55,0,0
21:00,0,0
21:05,0,0
21:10,0,0
21:15,0,0
21:20,0,0
21:25,0,0
21:30,0,0
