4:30,0,0
4:35,0,0
4:40,0,0
4:45,0,0
4:50,0,0
4:55,0,0
5:00,0,0
5:05,0,0
5:10,0,0
5:15,0,0
5:20,0,0
5:25,0,0
5:30,0,0
5:35,0,0
5:40,0,0
5:45,0,0
5:50,0,0
5:55,0,0
6:00,0,0
6:05,0,0
6:10,0,0
6:15,0,0
6:20,0,0
6:25,0,0
6:30,0,0
6:35,0,0
6:40,0,0
6:45,0,0
6:50,0,0
6:55,0,0
7:00,0,0
7:05,0,0
7:10,0,0
7:15,0,0
7:20,0,0
7:25,0,0
7:30,0,0
7:35,0,0
7:40,0,0
7:45,0,0
7:50,6,16
7:55,3,7
8:00,4,14
8:05,6,20
8:10,10,52
8:15,13,56
8:20,17,81
8:25,16,159
8:30,21,160
8:35,68,161
8:40,68,166
8:45,73,154
8:50,81,168
8:55,87,183
9:00,99,155
9:05,109,174
9:10,117,194
9:15,131,202
9:20,151,228
9:25,164,271
9:30,177,422
9:35,193,419
9:40,222,663
9:45,219,630
9:50,222,627
9:55,227,641
10:00,228,523
10:05,243,652
10:10,245,645
10:15,280,698
10:20,325,760
10:25,323,787
10:30,327,778
10:35,332,807
10:40,293,675
10:45,350,701
10:50,353,572
10:55,305,428
11:00,331,539
11:05,364,653
11:10,318,525
11:15,317,477
11:20,350,491
11:25,378,500
11:30,402,508
11:35,449,535
11:40,490,552
11:45,508,549
11:50,533,541
11:55,557,540
12:00,589,542
12:05,585,516
12:10,635,536
12:15,630,515
12:20,646,498
12:25,628,463
12:30,556,405
12:35,516,375
12:40,479,355
12:45,601,393
12:50,577,368
12:55,606,362
13:00,630,333
13:05,580,285
13:10,528,245
13:15,432,218
13:20,393,189
13:25,367,167
13:30,395,157
13:35,459,158
13:40,512,169
13:45,434,158
13:50,485,172
13:55,460,182
14:00,463,183
14:05,492,173
14:10,423,143
14:15,337,120
14:20,321,109
14:25,313,120
14:30,349,140
14:35,366,149
14:40,308,160
14:45,276,165
14:50,255,145
14:55,254,133
15:00,194,111
15:05,136,100
15:10,131,83
15:15,97,63
15:20,86,64
15:25,83,64
15:30,78,64
15:35,66,55
15:40,21,13
15:45,9,8
15:50,12,11
15:55,0,0
16:00,0,0
16:05,0,0
16:10,0,0
16:15,0,0
16:20,0,0
16:25,0,0
16:30,0,0
16:35,0,0
16:40,0,0
16:45,0,0
16:50,0,0
16:55,0,0
17:00,0,0
17:05,0,0
17:10,0,0
17:15,0,0
17:20,0,0
17:25,0,0
17:30,0,0
17:35,0,0
17:40,0,0
17:45,0,0
17:50,0,0
17:55,0,0
18:00,0,0
18:05,0,0
18:10,0,0
18:15,0,0
18:20,0,0
18:25,0,0
18:30,0,0
18:35,0,0
18:40,0,0
18:45,0,0
18:50,0,0
18:55,0,0
19:00,0,0
19:05,0,0
19:10,0,0
19:15,0,0
19:20,0,0
19:25,0,0
19:30,0,0
19:35,0,0
19:40,0,0
19:45,0,0
19:50,0,0
19:55,0,0
20:00,0,0
20:05,0,0
20:10,0,0
20:15,0,0
20:20,0,0
20:25,0,0
20:30,0,0
20:35,0,0
20:40,0,0
20:45,0,0
20:50,0,0
20:55,0,0
21:00,0,0
21:05,0,0
21:10,0,0
21:15,0,0
21:20,0,0
21:25,0,0
21:30,0,0
