4:30,0,0
4:35,0,0
4:40,0,0
4:45,0,0
4:50,0,0
4:55,0,0
5:00,0,0
5:05,0,0
5:10,0,0
5:15,0,0
5:20,0,0
5:25,0,0
5:30,0,0
5:35,0,0
5:40,0,0
5:45,0,0
5:50,0,0
5:55,0,0
6:00,0,0
6:05,0,0
6:10,0,0
6:15,0,0
6:20,0,0
6:25,0,0
6:30,0,0
6:35,0,0
6:40,17,19
6:45,4,4
6:50,5,5
6:55,4,5
7:00,10,6
7:05,17,15
7:10,24,24
7:15,32,30
7:20,57,55
7:25,197,205
7:30,246,269
7:35,239,254
7:40,244,253
7:45,219,245
7:50,243,275
7:55,199,222
8:00,181,189
8:05,134,145
8:10,137,140
8:15,115,115
8:20,100,101
8:25,83,88
8:30,83,82
8:35,228,228
8:40,317,371
8:45,345,403
8:50,350,440
8:55,281,308
9:00,246,264
9:05,203,212
9:10,247,249
9:15,334,343
9:20,387,426
9:25,421,488
9:30,278,501
9:35,414,1584
9:40,459,1570
9:45,381,905
9:50,507,972
9:55,597,796
10:00,649,925
10:05,534,702
10:10,428,489
10:15,584,634
10:20,572,735
10:25,626,746
10:30,561,661
10:35,501,530
10:40,454,485
10:45,485,545
10:50,554,688
10:55,690,896
11:00,434,559
11:05,293,353
11:10,402,415
11:15,262,296
11:20,441,440
11:25,630,701
11:30,885,1003
11:35,1290,1564
11:40,1016,1158
11:45,998,1115
11:50,576,623
11:55,519,574
12:00,521,545
12:05,415,437
12:10,457,498
12:15,316,342
12:20,262,272
12:25,350,344
12:30,509,506
12:35,587,553
12:40,757,727
12:45,638,652
12:50,505,513
12:55,457,476
13:00,417,436
13:05,332,349
13:10,396,404
13:15,524,502
13:20,586,555
13:25,507,502
13:30,454,440
13:35,393,384
13:40,574,534
13:45,709,629
13:50,653,599
13:55,778,656
14:00,748,613
14:05,552,453
14:10,783,521
14:15,1562,703
14:20,1619,654
14:25,1357,534
14:30,1596,588
14:35,1261,467
14:40,969,480
14:45,1132,629
14:50,477,452
14:55,328,333
15:00,350,311
15:05,902,476
15:10,1316,476
15:15,638,361
15:20,354,344
15:25,278,284
15:30,329,291
15:35,726,344
15:40,1283,190
15:45,1013,157
15:50,1007,233
15:55,1093,173
16:00,869,151
16:05,617,126
16:10,567,154
16:15,767,118
16:20,653,93
16:25,617,91
16:30,597,86
16:35,277,85
16:40,419,122
16:45,569,143
16:50,373,107
16:55,199,86
17:00,118,94
17:05,153,131
17:10,270,129
17:15,245,113
17:20,220,99
17:25,130,67
17:30,101,52
17:35,94,48
17:40,80,25
17:45,62,12
17:50,41,13
17:55,10,6
18:00,8,7
18:05,5,3
18:10,16,12
18:15,0,0
18:20,0,0
18:25,0,0
18:30,0,0
18:35,0,0
18:40,0,0
18:45,0,0
18:50,0,0
18:55,0,0
19:00,0,0
19:05,0,0
19:10,0,0
19:15,0,0
19:20,0,0
19:25,0,0
19:30,0,0
19:35,0,0
19:40,0,0
19:45,0,0
19:50,0,0
19:55,0,0
20:00,0,0
20:05,0,0
20:10,0,0
20:15,0,0
20:20,0,0
20:25,0,0
20:30,0,0
20:35,0,0
20:40,0,0
20:45,0,0
20:50,0,0
20:55,0,0
21:00,0,0
21:05,0,0
21:10,0,0
21:15,0,0
21:20,0,0
21:25,0,0
21:30,0,0
21:35,0,0
