4:30,0,0
4:35,0,0
4:40,0,0
4:45,0,0
4:50,0,0
4:55,0,0
5:00,0,0
5:05,0,0
5:10,0,0
5:15,0,0
5:20,0,0
5:25,0,0
5:30,0,0
5:35,0,0
5:40,0,0
5:45,0,0
5:50,0,0
5:55,0,0
6:00,0,0
6:05,0,0
6:10,0,0
6:15,0,0
6:20,0,0
6:25,0,0
6:30,0,0
6:35,0,0
6:40,0,0
6:45,0,0
6:50,0,0
6:55,0,0
7:00,4,9
7:05,4,9
7:10,11,21
7:15,8,15
7:20,9,49
7:25,10,66
7:30,47,102
7:35,69,104
7:40,72,90
7:45,77,90
7:50,85,92
7:55,96,107
8:00,110,130
8:05,118,127
8:10,118,124
8:15,129,132
8:20,137,141
8:25,142,146
8:30,156,167
8:35,173,178
8:40,181,189
8:45,189,197
8:50,211,230
8:55,244,281
9:00,249,286
9:05,264,297
9:10,272,300
9:15,291,329
9:20,296,343
9:25,313,401
9:30,286,359
9:35,356,517
9:40,339,532
9:45,413,752
9:50,391,628
9:55,382,609
10:00,507,981
10:05,560,1134
10:10,503,878
10:15,458,670
10:20,526,760
10:25,473,559
10:30,484,606
10:35,530,662
10:40,498,617
10:45,453,571
10:50,412,469
10:55,684,934
11:00,1084,1603
11:05,655,867
11:10,433,521
11:15,622,748
11:20,644,781
11:25,817,1049
11:30,1055,1338
11:35,438,488
11:40,895,1143
11:45,991,1226
11:50,1131,1350
11:55,1153,1273
12:00,941,1065
12:05,435,499
12:10,836,898
12:15,937,961
12:20,1081,1072
12:25,1086,1037
12:30,1104,1003
12:35,1095,966
12:40,1095,929
12:45,856,715
12:50,1132,888
12:55,1157,878
13:00,1159,843
13:05,1173,833
13:10,1192,799
13:15,1201,778
13:20,1213,755
13:25,1241,742
13:30,1233,708
13:35,1216,668
13:40,1221,641
13:45,1250,627
13:50,1305,638
13:55,1093,520
14:00,1064,495
14:05,1025,431
14:10,1211,460
14:15,1246,463
14:20,768,300
14:25,1118,371
14:30,994,343
14:35,869,281
14:40,828,217
14:45,1200,259
14:50,1148,232
14:55,1154,214
15:00,1175,193
15:05,1012,141
15:10,1114,124
15:15,1086,121
15:20,1009,124
15:25,1024,111
15:30,988,100
15:35,976,91
15:40,944,86
15:45,896,85
15:50,835,85
15:55,812,82
16:00,749,80
16:05,662,80
16:10,544,77
16:15,449,77
16:20,387,72
16:25,351,69
16:30,309,69
16:35,270,66
16:40,248,63
16:45,211,58
16:50,168,53
16:55,144,16
17:00,130,14
17:05,115,20
17:10,105,12
17:15,89,15
17:20,71,8
17:25,58,9
17:30,22,4
17:35,13,4
17:40,13,7
17:45,0,0
17:50,0,0
17:55,0,0
18:00,0,0
18:05,0,0
18:10,0,0
18:15,0,0
18:20,0,0
18:25,0,0
18:30,0,0
18:35,0,0
18:40,0,0
18:45,0,0
18:50,0,0
18:55,0,0
19:00,0,0
19:05,0,0
19:10,0,0
19:15,0,0
19:20,0,0
19:25,0,0
19:30,0,0
19:35,0,0
19:40,0,0
19:45,0,0
19:50,0,0
19:55,0,0
20:00,0,0
20:05,0,0
20:10,0,0
20:15,0,0
20:20,0,0
20:25,0,0
20:30,0,0
20:35,0,0
20:40,0,0
20:45,0,0
20:50,0,0
20:55,0,0
21:00,0,0
21:05,0,0
21:10,0,0
21:15,0,0
21:20,0,0
21:25,0,0
21:30,0,0
21:35,0,0
