4:30,0,0
4:35,0,0
4:40,0,0
4:45,0,0
4:50,0,0
4:55,0,0
5:00,0,0
5:05,0,0
5:10,0,0
5:15,0,0
5:20,0,0
5:25,0,0
5:30,0,0
5:35,0,0
5:40,0,0
5:45,0,0
5:50,0,0
5:55,0,0
6:00,0,0
6:05,0,0
6:10,0,0
6:15,11,15
6:20,5,7
6:25,8,10
6:30,8,9
6:35,9,12
6:40,8,11
6:45,13,17
6:50,18,60
6:55,22,74
7:00,68,102
7:05,76,113
7:10,86,127
7:15,99,152
7:20,116,192
7:25,142,251
7:30,151,296
7:35,180,378
7:40,166,286
7:45,175,283
7:50,173,256
7:55,164,226
8:00,176,243
8:05,189,268
8:10,197,273
8:15,197,268
8:20,216,288
8:25,213,297
8:30,238,332
8:35,219,297
8:40,254,349
8:45,259,391
8:50,277,430
8:55,284,403
9:00,290,405
9:05,278,381
9:10,256,346
9:15,274,380
9:20,274,385
9:25,278,412
9:30,292,429
9:35,304,449
9:40,331,506
9:45,349,607
9:50,505,890
9:55,537,1135
10:00,607,1250
10:05,508,909
10:10,302,442
10:15,171,267
10:20,294,470
10:25,522,944
10:30,258,380
10:35,216,335
10:40,271,385
10:45,268,379
10:50,391,586
10:55,218,320
11:00,275,405
11:05,489,728
11:10,422,635
11:15,309,446
11:20,395,567
11:25,1060,1561
11:30,959,1368
11:35,855,1204
11:40,1186,1607
11:45,1288,1728
11:50,1298,1708
11:55,1353,1779
12:00,744,966
12:05,1312,1657
12:10,1514,1877
12:15,1544,1883
12:20,1575,1883
12:25,1556,1821
12:30,1594,1845
12:35,1632,1859
12:40,1656,1831
12:45,1548,1691
12:50,1587,1705
12:55,1654,1774
13:00,1729,1788
13:05,1752,1785
13:10,1767,1769
13:15,1740,1726
13:20,1747,1696
13:25,1597,1546
13:30,1651,1575
13:35,1815,1682
13:40,1799,1639
13:45,1837,1656
13:50,1763,1571
13:55,1763,1543
14:00,1788,1570
14:05,1720,1467
14:10,1616,1413
14:15,1208,1066
14:20,1190,1032
14:25,1561,1282
14:30,1062,918
14:35,730,661
14:40,1784,1351
14:45,1320,1016
14:50,1501,1099
14:55,1125,798
15:00,1635,1114
15:05,1009,728
15:10,1531,958
15:15,1491,935
15:20,1423,850
15:25,1416,816
15:30,1402,784
15:35,1366,746
15:40,1338,718
15:45,1315,679
15:50,1290,649
15:55,1204,621
16:00,1112,586
16:05,1065,552
16:10,983,513
16:15,936,484
16:20,852,448
16:25,751,408
16:30,676,371
16:35,599,341
16:40,481,285
16:45,297,280
16:50,292,259
16:55,161,249
17:00,123,225
17:05,97,203
17:10,103,185
17:15,98,147
17:20,97,129
17:25,91,115
17:30,84,110
17:35,83,107
17:40,84,103
17:45,82,105
17:50,78,100
17:55,73,95
18:00,70,92
18:05,64,88
18:10,62,86
18:15,61,82
18:20,58,79
18:25,54,78
18:30,51,73
18:35,51,73
18:40,53,79
18:45,50,75
18:50,27,66
18:55,19,61
19:00,18,58
19:05,17,55
19:10,19,48
19:15,15,16
19:20,16,13
19:25,11,12
19:30,11,18
19:35,9,11
19:40,12,9
19:45,7,8
19:50,6,8
19:55,4,4
20:00,0,0
20:05,0,0
20:10,0,0
20:15,0,0
20:20,0,0
20:25,0,0
20:30,0,0
20:35,0,0
20:40,0,0
20:45,0,0
20:50,0,0
20:55,0,0
21:00,0,0
21:05,0,0
21:10,0,0
21:15,0,0
21:20,0,0
21:25,0,0
21:30,0,0
