4:30,0,0
4:35,0,0
4:40,0,0
4:45,0,0
4:50,0,0
4:55,0,0
5:00,0,0
5:05,0,0
5:10,0,0
5:15,0,0
5:20,0,0
5:25,0,0
5:30,0,0
5:35,0,0
5:40,0,0
5:45,0,0
5:50,0,0
5:55,0,0
6:00,0,0
6:05,0,0
6:10,0,0
6:15,0,0
6:20,0,0
6:25,0,0
6:30,0,0
6:35,0,0
6:40,0,0
6:45,0,0
6:50,0,0
6:55,0,0
7:00,0,0
7:05,0,0
7:10,0,0
7:15,0,0
7:20,0,0
7:25,0,0
7:30,0,0
7:35,0,0
7:40,0,0
7:45,0,0
7:50,0,0
7:55,0,0
8:00,0,0
8:05,0,0
8:10,0,0
8:15,0,0
8:20,0,0
8:25,0,0
8:30,0,0
8:35,0,0
8:40,17,14
8:45,9,9
8:50,14,12
8:55,13,11
9:00,11,11
9:05,8,10
9:10,4,5
9:15,5,6
9:20,5,4
9:25,11,9
9:30,15,12
9:35,60,59
9:40,87,88
9:45,130,147
9:50,83,102
9:55,65,68
10:00,73,71
10:05,112,110
10:10,197,218
10:15,157,183
10:20,148,152
10:25,186,191
10:30,192,204
10:35,248,264
10:40,222,275
10:45,251,261
10:50,304,351
10:55,208,239
11:00,201,214
11:05,152,170
11:10,162,163
11:15,173,165
11:20,250,242
11:25,273,308
11:30,243,283
11:35,218,252
11:40,186,191
11:45,237,223
11:50,265,256
11:55,279,271
12:00,257,273
12:05,220,226
12:10,199,207
12:15,188,192
12:20,194,192
12:25,228,220
12:30,201,205
12:35,255,258
12:40,274,281
12:45,160,169
12:50,163,164
12:55,127,131
13:00,85,89
13:05,77,80
13:10,77,81
13:15,72,75
13:20,56,59
13:25,59,59
13:30,56,59
13:35,69,73
13:40,86,90
13:45,80,84
13:50,61,64
13:55,23,28
14:00,15,15
14:05,16,15
14:10,18,18
14:15,12,13
14:20,10,14
14:25,12,14
14:30,22,16
14:35,40,15
14:40,9,10
14:45,9,8
14:50,10,10
14:55,7,7
15:00,8,8
15:05,9,8
15:10,10,9
15:15,9,8
15:20,5,5
15:25,11,9
15:30,0,0
15:35,0,0
15:40,0,0
15:45,0,0
15:50,0,0
15:55,0,0
16:00,0,0
16:05,0,0
16:10,0,0
16:15,0,0
16:20,0,0
16:25,0,0
16:30,0,0
16:35,0,0
16:40,0,0
16:45,0,0
16:50,0,0
16:55,0,0
17:00,0,0
17:05,0,0
17:10,0,0
17:15,0,0
17:20,0,0
17:25,0,0
17:30,0,0
17:35,0,0
17:40,0,0
17:45,0,0
17:50,0,0
17:55,0,0
18:00,0,0
18:05,0,0
18:10,0,0
18:15,0,0
18:20,0,0
18:25,0,0
18:30,0,0
18:35,0,0
18:40,0,0
18:45,0,0
18:50,0,0
18:55,0,0
19:00,0,0
19:05,0,0
19:10,0,0
19:15,0,0
19:20,0,0
19:25,0,0
19:30,0,0
19:35,0,0
19:40,0,0
19:45,0,0
19:50,0,0
19:55,0,0
20:00,0,0
20:05,0,0
20:10,0,0
20:15,0,0
20:20,0,0
20:25,0,0
20:30,0,0
20:35,0,0
20:40,0,0
20:45,0,0
20:50,0,0
20:55,0,0
21:00,0,0
21:05,0,0
21:10,0,0
21:15,0,0
21:20,0,0
21:25,0,0
21:30,0,0
