4:30,0,0
4:35,0,0
4:40,0,0
4:45,0,0
4:50,0,0
4:55,0,0
5:00,7,13
5:05,4,7
5:10,9,13
5:15,8,11
5:20,15,18
5:25,12,15
5:30,21,41
5:35,16,64
5:40,44,72
5:45,67,82
5:50,72,92
5:55,78,100
6:00,84,109
6:05,89,117
6:10,95,225
6:15,103,305
6:20,108,354
6:25,112,403
6:30,117,467
6:35,120,600
6:40,125,622
6:45,130,653
6:50,133,682
6:55,139,691
7:00,140,699
7:05,140,719
7:10,146,734
7:15,149,756
7:20,157,787
7:25,162,829
7:30,170,905
7:35,174,932
7:40,181,968
7:45,192,1026
7:50,196,1047
7:55,205,1109
8:00,215,1127
8:05,240,1165
8:10,265,1186
8:15,286,1199
8:20,306,1253
8:25,334,1328
8:30,337,1212
8:35,365,1296
8:40,393,1344
8:45,417,1380
8:50,450,1398
8:55,486,1448
9:00,532,1519
9:05,546,1500
9:10,567,1499
9:15,577,1477
9:20,581,1476
9:25,640,1565
9:30,683,1607
9:35,709,1599
9:40,707,1546
9:45,728,1537
9:50,809,1673
9:55,707,1409
10:00,792,1550
10:05,858,1642
10:10,880,1651
10:15,919,1681
10:20,980,1743
10:25,1020,1770
10:30,1040,1756
10:35,1035,1701
10:40,1075,1726
10:45,1111,1742
10:50,1111,1707
10:55,1097,1666
11:00,1112,1660
11:05,1164,1723
11:10,1238,1788
11:15,1268,1787
11:20,1291,1779
11:25,1306,1762
11:30,1346,1781
11:35,1367,1772
11:40,1384,1761
11:45,1422,1784
11:50,1434,1771
11:55,1461,1770
12:00,1462,1747
12:05,1481,1753
12:10,1162,1352
12:15,1379,1577
12:20,1584,1791
12:25,826,904
12:30,1577,1696
12:35,1641,1734
12:40,1452,1511
12:45,1597,1649
12:50,1694,1733
12:55,1622,1603
13:00,1734,1697
13:05,1672,1629
13:10,1672,1625
13:15,1593,1534
13:20,969,927
13:25,1040,966
13:30,1661,1509
13:35,1675,1511
13:40,1499,1359
13:45,885,794
13:50,932,836
13:55,1175,1010
14:00,1419,1177
14:05,1502,1227
14:10,1584,1278
14:15,1624,1296
14:20,1638,1293
14:25,1748,1362
14:30,1684,1303
14:35,1494,1150
14:40,1445,1101
14:45,1474,1112
14:50,1483,1102
14:55,1494,1091
15:00,1545,1097
15:05,1613,1133
15:10,1580,1109
15:15,1570,1078
15:20,1573,1051
15:25,1476,964
15:30,1543,978
15:35,1475,929
15:40,1436,898
15:45,1440,878
15:50,1450,869
15:55,1382,842
16:00,1240,772
16:05,1196,756
16:10,973,709
16:15,985,692
16:20,801,608
16:25,811,575
16:30,822,627
16:35,826,587
16:40,744,563
16:45,664,521
16:50,556,495
16:55,528,463
17:00,430,423
17:05,356,393
17:10,260,361
17:15,156,338
17:20,118,316
17:25,126,289
17:30,123,268
17:35,116,228
17:40,115,214
17:45,115,193
17:50,111,167
17:55,112,143
18:00,109,129
18:05,101,119
18:10,100,115
18:15,98,112
18:20,96,108
18:25,93,106
18:30,90,102
18:35,89,102
18:40,88,99
18:45,85,99
18:50,83,96
18:55,81,96
19:00,77,95
19:05,77,91
19:10,74,88
19:15,72,85
19:20,70,84
19:25,67,81
19:30,65,77
19:35,62,75
19:40,59,71
19:45,56,69
19:50,53,66
19:55,49,60
20:00,37,58
20:05,24,45
20:10,18,16
20:15,23,21
20:20,15,13
20:25,17,18
20:30,12,11
20:35,13,14
20:40,9,8
20:45,8,7
20:50,7,6
20:55,7,6
21:00,4,4
21:05,13,11
21:10,0,0
21:15,0,0
21:20,0,0
21:25,0,0
21:30,0,0
