4:30,0,0
4:35,0,0
4:40,0,0
4:45,0,0
4:50,0,0
4:55,0,0
5:00,0,0
5:05,0,0
5:10,0,0
5:15,0,0
5:20,0,0
5:25,0,0
5:30,0,0
5:35,0,0
5:40,0,0
5:45,0,0
5:50,0,0
5:55,0,0
6:00,0,0
6:05,0,0
6:10,0,0
6:15,0,0
6:20,0,0
6:25,0,0
6:30,0,0
6:35,0,0
6:40,0,0
6:45,0,0
6:50,0,0
6:55,0,0
7:00,0,0
7:05,0,0
7:10,0,0
7:15,0,0
7:20,0,0
7:25,0,0
7:30,0,0
7:35,0,0
7:40,0,0
7:45,0,0
7:50,0,0
7:55,0,0
8:00,0,0
8:05,15,16
8:10,10,11
8:15,18,32
8:20,15,16
8:25,42,49
8:30,98,119
8:35,82,100
8:40,59,72
8:45,37,55
8:50,21,70
8:55,56,102
9:00,106,131
9:05,126,153
9:10,123,158
9:15,135,169
9:20,115,139
9:25,125,148
9:30,125,153
9:35,78,96
9:40,65,78
9:45,76,94
9:50,114,139
9:55,182,221
10:00,157,198
10:05,121,150
10:10,96,116
10:15,101,119
10:20,76,92
10:25,133,155
10:30,97,119
10:35,144,175
10:40,159,200
10:45,157,189
10:50,272,326
10:55,406,571
11:00,377,543
11:05,451,637
11:10,374,465
11:15,576,736
11:20,676,822
11:25,534,615
11:30,670,756
11:35,625,659
11:40,632,640
11:45,707,678
11:50,543,498
11:55,762,683
12:00,780,666
12:05,592,484
12:10,329,283
12:15,475,403
12:20,860,644
12:25,828,550
12:30,749,474
12:35,840,494
12:40,428,265
12:45,106,106
12:50,189,159
12:55,845,508
13:00,1073,651
13:05,841,444
13:10,369,217
13:15,85,102
13:20,109,123
13:25,204,197
13:30,379,263
13:35,613,286
13:40,429,208
13:45,94,128
13:50,96,126
13:55,70,93
14:00,104,121
14:05,158,182
14:10,178,210
14:15,219,222
14:20,239,267
14:25,160,210
14:30,76,109
14:35,79,93
14:40,140,122
14:45,158,151
14:50,218,207
14:55,286,249
15:00,171,159
15:05,103,96
15:10,113,99
15:15,62,77
15:20,27,54
15:25,30,19
15:30,68,16
15:35,71,12
15:40,76,16
15:45,62,12
15:50,35,17
15:55,20,12
16:00,18,21
16:05,15,14
16:10,17,15
16:15,9,7
16:20,8,7
16:25,13,11
16:30,0,0
16:35,0,0
16:40,0,0
16:45,0,0
16:50,0,0
16:55,0,0
17:00,0,0
17:05,0,0
17:10,0,0
17:15,0,0
17:20,0,0
17:25,0,0
17:30,0,0
17:35,0,0
17:40,0,0
17:45,0,0
17:50,0,0
17:55,0,0
18:00,0,0
18:05,0,0
18:10,0,0
18:15,0,0
18:20,0,0
18:25,0,0
18:30,0,0
18:35,0,0
18:40,0,0
18:45,0,0
18:50,0,0
18:55,0,0
19:00,0,0
19:05,0,0
19:10,0,0
19:15,0,0
19:20,0,0
19:25,0,0
19:30,0,0
19:35,0,0
19:40,0,0
19:45,0,0
19:50,0,0
19:55,0,0
20:00,0,0
20:05,0,0
20:10,0,0
20:15,0,0
20:20,0,0
20:25,0,0
20:30,0,0
20:35,0,0
20:40,0,0
20:45,0,0
20:50,0,0
20:55,0,0
21:00,0,0
21:05,0,0
21:10,0,0
21:15,0,0
21:20,0,0
21:25,0,0
21:30,0,0
