4:30,0,0
4:35,0,0
4:40,0,0
4:45,0,0
4:50,0,0
4:55,0,0
5:00,0,0
5:05,6,8
5:10,4,6
5:15,5,8
5:20,4,6
5:25,7,7
5:30,6,7
5:35,11,14
5:40,9,12
5:45,16,19
5:50,12,15
5:55,18,25
6:00,14,18
6:05,45,55
6:10,81,113
6:15,77,130
6:20,92,172
6:25,90,166
6:30,86,124
6:35,105,145
6:40,138,180
6:45,150,207
6:50,152,221
6:55,185,284
7:00,222,324
7:05,247,324
7:10,241,321
7:15,223,316
7:20,230,346
7:25,240,364
7:30,250,409
7:35,255,441
7:40,290,568
7:45,327,581
7:50,336,546
7:55,370,722
8:00,413,993
8:05,387,960
8:10,355,915
8:15,381,1019
8:20,367,979
8:25,361,975
8:30,375,1019
8:35,371,958
8:40,398,1034
8:45,430,1078
8:50,463,1167
8:55,473,1129
9:00,513,1175
9:05,584,1325
9:10,578,1391
9:15,622,1501
9:20,642,1503
9:25,673,1540
9:30,728,1609
9:35,757,1620
9:40,794,1637
9:45,826,1646
9:50,467,799
9:55,563,971
10:00,790,1380
10:05,731,1204
10:10,675,1084
10:15,760,1252
10:20,1024,1736
10:25,996,1682
10:30,1020,1707
10:35,1035,1699
10:40,1075,1723
10:45,1070,1681
10:50,1051,1625
10:55,1046,1586
11:00,1018,1517
11:05,1011,1490
11:10,1042,1488
11:15,949,1330
11:20,938,1321
11:25,1270,1773
11:30,1035,1411
11:35,591,804
11:40,840,1117
11:45,1333,1683
11:50,1514,1837
11:55,811,967
12:00,757,930
12:05,853,1002
12:10,909,1059
12:15,755,902
12:20,871,1025
12:25,867,983
12:30,883,1005
12:35,955,1089
12:40,1586,1694
12:45,1540,1570
12:50,678,718
12:55,317,356
13:00,234,269
13:05,169,203
13:10,145,169
13:15,109,126
13:20,97,122
13:25,100,136
13:30,164,229
13:35,287,381
13:40,633,703
13:45,852,877
13:50,607,708
13:55,612,708
14:00,659,726
14:05,692,713
14:10,854,814
14:15,2015,1602
14:20,1950,1534
14:25,1812,1414
14:30,1771,1363
14:35,1794,1411
14:40,1781,1414
14:45,1474,1155
14:50,870,716
14:55,1634,1201
15:00,1607,1140
15:05,1534,1081
15:10,1495,1045
15:15,1486,1025
15:20,1486,1011
15:25,1509,1019
15:30,1483,980
15:35,1419,933
15:40,1436,936
15:45,1431,920
15:50,1411,916
15:55,1365,905
16:00,566,478
16:05,246,282
16:10,223,248
16:15,194,219
16:20,188,218
16:25,198,224
16:30,214,233
16:35,224,238
16:40,240,247
16:45,251,250
16:50,244,243
16:55,226,226
17:00,204,212
17:05,181,196
17:10,163,180
17:15,164,169
17:20,154,159
17:25,142,146
17:30,132,136
17:35,125,131
17:40,118,126
17:45,113,119
17:50,106,115
17:55,101,110
18:00,96,105
18:05,86,97
18:10,78,93
18:15,73,86
18:20,65,82
18:25,62,81
18:30,59,78
18:35,56,73
18:40,55,72
18:45,52,70
18:50,52,68
18:55,49,66
19:00,49,66
19:05,45,62
19:10,31,58
19:15,25,56
19:20,31,49
19:25,23,18
19:30,29,17
19:35,21,16
19:40,24,15
19:45,18,14
19:50,24,20
19:55,18,13
20:00,22,19
20:05,16,13
20:10,20,16
20:15,14,11
20:20,18,14
20:25,12,10
20:30,11,11
20:35,10,8
20:40,9,9
20:45,8,6
20:50,7,7
20:55,5,4
21:00,14,10
21:05,0,0
21:10,0,0
21:15,0,0
21:20,0,0
21:25,0,0
21:30,0,0
