4:30,0,0
4:35,0,0
4:40,0,0
4:45,0,0
4:50,0,0
4:55,0,0
5:00,0,0
5:05,0,0
5:10,0,0
5:15,0,0
5:20,0,0
5:25,0,0
5:30,0,0
5:35,0,0
5:40,0,0
5:45,0,0
5:50,0,0
5:55,0,0
6:00,0,0
6:05,0,0
6:10,0,0
6:15,0,0
6:20,0,0
6:25,0,0
6:30,0,0
6:35,0,0
6:40,0,0
6:45,0,0
6:50,0,0
6:55,0,0
7:00,0,0
7:05,0,0
7:10,0,0
7:15,0,0
7:20,0,0
7:25,0,0
7:30,0,0
7:35,0,0
7:40,8,15
7:45,5,7
7:50,6,10
7:55,9,16
8:00,12,16
8:05,20,20
8:10,17,25
8:15,61,106
8:20,68,121
8:25,76,135
8:30,86,151
8:35,99,173
8:40,110,208
8:45,120,224
8:50,131,227
8:55,147,253
9:00,162,275
9:05,170,292
9:10,178,315
9:15,178,317
9:20,184,317
9:25,183,327
9:30,188,377
9:35,192,367
9:40,196,365
9:45,201,355
9:50,195,354
9:55,189,348
10:00,185,348
10:05,177,353
10:10,174,389
10:15,201,493
10:20,245,594
10:25,225,393
10:30,279,421
10:35,275,384
10:40,324,470
10:45,459,800
10:50,470,877
10:55,412,758
11:00,422,758
11:05,407,693
11:10,532,915
11:15,538,942
11:20,576,1027
11:25,642,1116
11:30,637,1071
11:35,531,830
11:40,716,1087
11:45,752,1103
11:50,701,988
11:55,623,829
12:00,535,698
12:05,583,735
12:10,586,746
12:15,352,472
12:20,737,890
12:25,855,1009
12:30,775,891
12:35,785,887
12:40,806,899
12:45,700,785
12:50,435,523
12:55,391,480
13:00,612,691
13:05,584,670
13:10,629,710
13:15,539,658
13:20,467,575
13:25,428,453
13:30,249,278
13:35,195,259
13:40,178,232
13:45,266,346
13:50,543,666
13:55,423,528
14:00,257,311
14:05,258,320
14:10,306,379
14:15,245,321
14:20,236,309
14:25,241,312
14:30,225,287
14:35,239,304
14:40,268,339
14:45,249,320
14:50,226,284
14:55,210,264
15:00,191,237
15:05,165,198
15:10,148,177
15:15,82,97
15:20,76,95
15:25,97,120
15:30,89,115
15:35,114,144
15:40,105,131
15:45,87,106
15:50,95,117
15:55,98,120
16:00,103,118
16:05,83,95
16:10,24,40
16:15,20,23
16:20,27,86
16:25,25,67
16:30,68,85
16:35,86,109
16:40,101,128
16:45,77,99
16:50,69,90
16:55,72,93
17:00,69,88
17:05,65,83
17:10,61,77
17:15,45,65
17:20,16,25
17:25,10,11
17:30,9,13
17:35,7,7
17:40,6,9
17:45,5,5
17:50,0,0
17:55,0,0
18:00,0,0
18:05,0,0
18:10,0,0
18:15,0,0
18:20,0,0
18:25,0,0
18:30,0,0
18:35,0,0
18:40,0,0
18:45,0,0
18:50,0,0
18:55,0,0
19:00,0,0
19:05,0,0
19:10,0,0
19:15,0,0
19:20,0,0
19:25,0,0
19:30,0,0
19:35,0,0
19:40,0,0
19:45,0,0
19:50,0,0
19:55,0,0
20:00,0,0
20:05,0,0
20:10,0,0
20:15,0,0
20:20,0,0
20:25,0,0
20:30,0,0
20:35,0,0
20:40,0,0
20:45,0,0
20:50,0,0
20:55,0,0
21:00,0,0
21:05,0,0
21:10,0,0
21:15,0,0
21:20,0,0
21:25,0,0
21:30,0,0
