4:30,0,0
4:35,0,0
4:40,0,0
4:45,0,0
4:50,0,0
4:55,0,0
5:00,0,0
5:05,0,0
5:10,0,0
5:15,0,0
5:20,0,0
5:25,0,0
5:30,0,0
5:35,0,0
5:40,0,0
5:45,0,0
5:50,0,0
5:55,0,0
6:00,0,0
6:05,0,0
6:10,0,0
6:15,0,0
6:20,0,0
6:25,0,0
6:30,0,0
6:35,0,0
6:40,0,0
6:45,0,0
6:50,0,0
6:55,0,0
7:00,0,0
7:05,0,0
7:10,0,0
7:15,0,0
7:20,0,0
7:25,0,0
7:30,0,0
7:35,0,0
7:40,0,0
7:45,0,0
7:50,0,0
7:55,0,0
8:00,0,0
8:05,0,0
8:10,12,12
8:15,7,6
8:20,11,12
8:25,9,10
8:30,16,16
8:35,14,14
8:40,21,16
8:45,15,15
8:50,23,39
8:55,21,69
9:00,42,73
9:05,64,82
9:10,77,95
9:15,79,104
9:20,80,103
9:25,72,95
9:30,65,82
9:35,57,70
9:40,56,70
9:45,53,70
9:50,62,79
9:55,51,65
10:00,56,70
10:05,83,103
10:10,89,113
10:15,86,105
10:20,60,81
10:25,13,17
10:30,11,11
10:35,20,21
10:40,14,15
10:45,23,51
10:50,23,83
10:55,27,53
11:00,12,13
11:05,21,18
11:10,22,24
11:15,28,30
11:20,32,34
11:25,75,89
11:30,92,121
11:35,33,56
11:40,30,35
11:45,50,60
11:50,54,70
11:55,76,94
12:00,111,146
12:05,146,186
12:10,173,217
12:15,162,208
12:20,157,205
12:25,157,202
12:30,161,213
12:35,164,212
12:40,146,192
12:45,157,202
12:50,162,211
12:55,162,205
13:00,173,221
13:05,202,260
13:10,207,264
13:15,173,218
13:20,156,200
13:25,154,196
13:30,155,195
13:35,170,215
13:40,201,242
13:45,241,295
13:50,248,310
13:55,232,290
14:00,235,288
14:05,256,311
14:10,237,296
14:15,196,252
14:20,182,225
14:25,200,252
14:30,223,272
14:35,217,276
14:40,242,297
14:45,211,282
14:50,247,271
14:55,409,366
15:00,451,393
15:05,369,382
15:10,371,358
15:15,351,323
15:20,295,286
15:25,269,274
15:30,265,282
15:35,293,297
15:40,351,298
15:45,331,275
15:50,274,253
15:55,281,242
16:00,284,234
16:05,255,218
16:10,251,200
16:15,237,202
16:20,228,200
16:25,227,208
16:30,162,156
16:35,129,132
16:40,123,119
16:45,104,103
16:50,106,101
16:55,104,105
17:00,78,84
17:05,70,71
17:10,63,66
17:15,55,57
17:20,59,31
17:25,26,11
17:30,14,8
17:35,18,8
17:40,5,4
17:45,11,9
17:50,0,0
17:55,0,0
18:00,0,0
18:05,0,0
18:10,0,0
18:15,0,0
18:20,0,0
18:25,0,0
18:30,0,0
18:35,0,0
18:40,0,0
18:45,0,0
18:50,0,0
18:55,0,0
19:00,0,0
19:05,0,0
19:10,0,0
19:15,0,0
19:20,0,0
19:25,0,0
19:30,0,0
19:35,0,0
19:40,0,0
19:45,0,0
19:50,0,0
19:55,0,0
20:00,0,0
20:05,0,0
20:10,0,0
20:15,0,0
20:20,0,0
20:25,0,0
20:30,0,0
20:35,0,0
20:40,0,0
20:45,0,0
20:50,0,0
20:55,0,0
21:00,0,0
21:05,0,0
21:10,0,0
21:15,0,0
21:20,0,0
21:25,0,0
21:30,0,0
