4:30,0,0
4:35,0,0
4:40,0,0
4:45,0,0
4:50,0,0
4:55,0,0
5:00,0,0
5:05,0,0
5:10,0,0
5:15,0,0
5:20,0,0
5:25,0,0
5:30,0,0
5:35,0,0
5:40,0,0
5:45,0,0
5:50,0,0
5:55,0,0
6:00,0,0
6:05,0,0
6:10,0,0
6:15,0,0
6:20,0,0
6:25,0,0
6:30,0,0
6:35,0,0
6:40,0,0
6:45,0,0
6:50,0,0
6:55,0,0
7:00,0,0
7:05,0,0
7:10,0,0
7:15,0,0
7:20,0,0
7:25,0,0
7:30,0,0
7:35,0,0
7:40,0,0
7:45,0,0
7:50,0,0
7:55,0,0
8:00,0,0
8:05,0,0
8:10,0,0
8:15,0,0
8:20,0,0
8:25,0,0
8:30,9,11
8:35,6,6
8:40,9,8
8:45,9,9
8:50,10,11
8:55,13,13
9:00,31,31
9:05,43,25
9:10,37,36
9:15,66,69
9:20,71,70
9:25,71,74
9:30,63,63
9:35,71,72
9:40,91,92
9:45,82,86
9:50,105,109
9:55,116,118
10:00,102,106
10:05,105,109
10:10,113,114
10:15,139,143
10:20,136,140
10:25,162,165
10:30,164,174
10:35,144,153
10:40,166,176
10:45,183,196
10:50,195,208
10:55,177,184
11:00,177,188
11:05,183,190
11:10,186,193
11:15,223,224
11:20,218,220
11:25,232,232
11:30,226,225
11:35,254,260
11:40,234,245
11:45,240,243
11:50,222,227
11:55,278,275
12:00,291,312
12:05,219,239
12:10,187,192
12:15,212,214
12:20,243,244
12:25,209,219
12:30,264,264
12:35,240,240
12:40,261,252
12:45,238,238
12:50,229,227
12:55,235,228
13:00,253,229
13:05,253,239
13:10,310,275
13:15,261,235
13:20,230,215
13:25,249,211
13:30,239,213
13:35,216,191
13:40,222,180
13:45,238,186
13:50,253,203
13:55,278,194
14:00,184,165
14:05,167,154
14:10,146,122
14:15,107,89
14:20,125,92
14:25,108,79
14:30,117,71
14:35,117,71
14:40,153,74
14:45,176,76
14:50,151,65
14:55,141,60
15:00,133,54
15:05,127,48
15:10,113,22
15:15,78,11
15:20,66,14
15:25,36,9
15:30,15,9
15:35,10,6
15:40,8,4
15:45,12,7
15:50,0,0
15:55,0,0
16:00,0,0
16:05,0,0
16:10,0,0
16:15,0,0
16:20,0,0
16:25,0,0
16:30,0,0
16:35,0,0
16:40,0,0
16:45,0,0
16:50,0,0
16:55,0,0
17:00,0,0
17:05,0,0
17:10,0,0
17:15,0,0
17:20,0,0
17:25,0,0
17:30,0,0
17:35,0,0
17:40,0,0
17:45,0,0
17:50,0,0
17:55,0,0
18:00,0,0
18:05,0,0
18:10,0,0
18:15,0,0
18:20,0,0
18:25,0,0
18:30,0,0
18:35,0,0
18:40,0,0
18:45,0,0
18:50,0,0
18:55,0,0
19:00,0,0
19:05,0,0
19:10,0,0
19:15,0,0
19:20,0,0
19:25,0,0
19:30,0,0
19:35,0,0
19:40,0,0
19:45,0,0
19:50,0,0
19:55,0,0
20:00,0,0
20:05,0,0
20:10,0,0
20:15,0,0
20:20,0,0
20:25,0,0
20:30,0,0
20:35,0,0
20:40,0,0
20:45,0,0
20:50,0,0
20:55,0,0
21:00,0,0
21:05,0,0
21:10,0,0
21:15,0,0
21:20,0,0
21:25,0,0
21:30,0,0
