4:30,0,0
4:35,0,0
4:40,0,0
4:45,0,0
4:50,0,0
4:55,0,0
5:00,0,0
5:05,0,0
5:10,0,0
5:15,0,0
5:20,0,0
5:25,0,0
5:30,0,0
5:35,0,0
5:40,0,0
5:45,0,0
5:50,0,0
5:55,0,0
6:00,0,0
6:05,0,0
6:10,0,0
6:15,0,0
6:20,0,0
6:25,0,0
6:30,0,0
6:35,0,0
6:40,0,0
6:45,0,0
6:50,0,0
6:55,14,16
7:00,5,5
7:05,6,7
7:10,5,6
7:15,8,8
7:20,7,8
7:25,14,15
7:30,9,11
7:35,13,15
7:40,21,66
7:45,22,85
7:50,31,123
7:55,44,198
8:00,169,297
8:05,263,463
8:10,198,348
8:15,174,271
8:20,239,388
8:25,341,566
8:30,266,431
8:35,210,387
8:40,170,359
8:45,258,643
8:50,318,842
8:55,354,570
9:00,424,705
9:05,344,735
9:10,427,1341
9:15,417,1443
9:20,372,1279
9:25,282,398
9:30,266,348
9:35,270,377
9:40,311,465
9:45,449,771
9:50,332,524
9:55,357,596
10:00,389,730
10:05,395,723
10:10,240,356
10:15,237,358
10:20,508,860
10:25,976,1830
10:30,456,571
10:35,278,380
10:40,492,719
10:45,379,526
10:50,238,336
10:55,158,213
11:00,161,223
11:05,209,284
11:10,237,290
11:15,189,241
11:20,190,266
11:25,419,579
11:30,713,951
11:35,454,619
11:40,967,1290
11:45,1195,1597
11:50,754,1021
11:55,1279,1652
12:00,711,878
12:05,557,697
12:10,801,973
12:15,584,732
12:20,887,1090
12:25,1674,1923
12:30,1106,1274
12:35,505,622
12:40,581,669
12:45,267,383
12:50,367,498
12:55,523,637
13:00,290,376
13:05,433,505
13:10,268,348
13:15,262,399
13:20,785,845
13:25,461,545
13:30,1728,1511
13:35,1634,1435
13:40,505,561
13:45,451,482
13:50,290,377
13:55,388,495
14:00,924,871
14:05,902,847
14:10,556,597
14:15,372,409
14:20,340,419
14:25,483,513
14:30,365,409
14:35,410,403
14:40,246,291
14:45,312,364
14:50,1255,792
14:55,1417,841
15:00,1397,814
15:05,1354,822
15:10,940,623
15:15,1189,667
15:20,1265,694
15:25,1194,617
15:30,1284,631
15:35,1203,578
15:40,1084,509
15:45,1061,496
15:50,1040,488
15:55,987,460
16:00,897,428
16:05,848,397
16:10,776,367
16:15,648,344
16:20,621,314
16:25,573,285
16:30,492,254
16:35,429,225
16:40,374,201
16:45,247,189
16:50,202,173
16:55,139,155
17:00,87,145
17:05,131,154
17:10,127,146
17:15,122,139
17:20,107,125
17:25,112,133
17:30,113,133
17:35,108,126
17:40,98,116
17:45,96,114
17:50,83,104
17:55,80,101
18:00,74,99
18:05,72,96
18:10,72,99
18:15,70,94
18:20,67,91
18:25,64,88
18:30,60,83
18:35,57,83
18:40,58,83
18:45,53,75
18:50,24,69
18:55,26,61
19:00,20,38
19:05,17,16
19:10,13,13
19:15,10,10
19:20,10,10
19:25,6,6
19:30,6,6
19:35,0,0
19:40,0,0
19:45,0,0
19:50,0,0
19:55,0,0
20:00,0,0
20:05,0,0
20:10,0,0
20:15,0,0
20:20,0,0
20:25,0,0
20:30,0,0
20:35,0,0
20:40,0,0
20:45,0,0
20:50,0,0
20:55,0,0
21:00,0,0
21:05,0,0
21:10,0,0
21:15,0,0
21:20,0,0
21:25,0,0
21:30,0,0
