4:30,0,0
4:35,0,0
4:40,0,0
4:45,0,0
4:50,0,0
4:55,0,0
5:00,0,0
5:05,0,0
5:10,0,0
5:15,8,14
5:20,4,5
5:25,6,9
5:30,4,8
5:35,9,16
5:40,10,18
5:45,17,37
5:50,15,79
5:55,29,91
6:00,67,105
6:05,72,143
6:10,83,160
6:15,88,199
6:20,96,240
6:25,102,285
6:30,110,431
6:35,113,474
6:40,114,511
6:45,116,538
6:50,122,572
6:55,127,611
7:00,132,534
7:05,137,588
7:10,146,678
7:15,149,719
7:20,162,704
7:25,170,737
7:30,177,710
7:35,183,717
7:40,199,820
7:45,208,785
7:50,206,931
7:55,206,1024
8:00,210,1049
8:05,214,989
8:10,231,1006
8:15,271,1038
8:20,333,1206
8:25,377,1200
8:30,317,711
8:35,277,467
8:40,308,535
8:45,344,641
8:50,312,540
8:55,342,628
9:00,356,648
9:05,428,917
9:10,343,666
9:15,485,908
9:20,825,1677
9:25,757,1362
9:30,841,1498
9:35,714,1157
9:40,556,817
9:45,468,646
9:50,489,636
9:55,368,486
10:00,345,453
10:05,372,472
10:10,405,498
10:15,445,539
10:20,515,632
10:25,526,634
10:30,439,559
10:35,381,522
10:40,385,505
10:45,618,783
10:50,644,784
10:55,559,677
11:00,632,786
11:05,650,825
11:10,682,878
11:15,643,834
11:20,680,876
11:25,723,927
11:30,859,1106
11:35,666,879
11:40,655,861
11:45,531,705
11:50,471,648
11:55,491,652
12:00,545,702
12:05,424,566
12:10,325,449
12:15,268,377
12:20,287,385
12:25,329,435
12:30,361,470
12:35,396,514
12:40,363,480
12:45,283,385
12:50,239,330
12:55,277,374
13:00,208,299
13:05,195,274
13:10,146,209
13:15,118,167
13:20,121,165
13:25,158,211
13:30,182,239
13:35,226,280
13:40,337,413
13:45,412,492
13:50,491,594
13:55,273,331
14:00,155,195
14:05,110,150
14:10,108,144
14:15,142,175
14:20,180,225
14:25,234,285
14:30,351,396
14:35,379,427
14:40,415,456
14:45,658,697
14:50,745,795
14:55,610,686
15:00,763,808
15:05,705,802
15:10,547,681
15:15,418,537
15:20,454,560
15:25,517,622
15:30,530,637
15:35,500,613
15:40,510,616
15:45,458,558
15:50,381,475
15:55,403,506
16:00,377,481
16:05,263,352
16:10,265,342
16:15,299,366
16:20,366,445
16:25,434,524
16:30,400,488
16:35,388,448
16:40,400,470
16:45,397,466
16:50,435,517
16:55,468,693
17:00,438,707
17:05,373,490
17:10,391,495
17:15,342,435
17:20,279,346
17:25,257,318
17:30,242,322
17:35,299,420
17:40,263,337
17:45,259,322
17:50,216,293
17:55,240,318
18:00,222,291
18:05,191,241
18:10,211,262
18:15,165,210
18:20,94,126
18:25,85,116
18:30,107,142
18:35,128,177
18:40,129,172
18:45,150,190
18:50,145,190
18:55,109,144
19:00,109,140
19:05,132,163
19:10,142,182
19:15,128,170
19:20,100,145
19:25,73,109
19:30,62,83
19:35,57,76
19:40,57,76
19:45,52,71
19:50,27,57
19:55,15,31
20:00,14,18
20:05,12,13
20:10,9,7
20:15,10,13
20:20,0,0
20:25,15,17
20:30,6,7
20:35,6,8
20:40,7,9
20:45,7,7
20:50,6,5
20:55,8,8
21:00,0,0
21:05,0,0
21:10,0,0
21:15,0,0
21:20,0,0
21:25,0,0
21:30,0,0
