4:30,0,0
4:35,0,0
4:40,0,0
4:45,0,0
4:50,0,0
4:55,0,0
5:00,0,0
5:05,0,0
5:10,0,0
5:15,0,0
5:20,0,0
5:25,0,0
5:30,0,0
5:35,0,0
5:40,0,0
5:45,0,0
5:50,0,0
5:55,0,0
6:00,0,0
6:05,0,0
6:10,0,0
6:15,0,0
6:20,6,17
6:25,3,9
6:30,10,62
6:35,11,218
6:40,30,241
6:45,23,281
6:50,19,320
6:55,21,360
7:00,23,389
7:05,25,412
7:10,44,442
7:15,90,503
7:20,92,543
7:25,95,561
7:30,100,583
7:35,121,696
7:40,134,780
7:45,158,838
7:50,159,797
7:55,125,344
8:00,127,297
8:05,140,351
8:10,168,470
8:15,182,449
8:20,226,670
8:25,237,562
8:30,238,667
8:35,263,1177
8:40,278,1379
8:45,301,1464
8:50,278,1191
8:55,251,997
9:00,273,1062
9:05,321,1430
9:10,337,1504
9:15,340,1414
9:20,284,1002
9:25,369,1374
9:30,389,1274
9:35,504,1551
9:40,498,1373
9:45,305,567
9:50,340,727
9:55,434,1007
10:00,576,1481
10:05,622,1525
10:10,565,1230
10:15,451,960
10:20,598,1288
10:25,487,926
10:30,690,1368
10:35,741,1423
10:40,756,1444
10:45,545,969
10:50,909,1648
10:55,956,1648
11:00,915,1471
11:05,663,995
11:10,422,616
11:15,519,840
11:20,1181,1822
11:25,1336,1899
11:30,787,1115
11:35,384,520
11:40,467,612
11:45,733,965
11:50,524,642
11:55,472,589
12:00,596,769
12:05,502,648
12:10,590,787
12:15,539,706
12:20,899,1062
12:25,617,775
12:30,543,689
12:35,827,994
12:40,406,571
12:45,331,486
12:50,441,580
12:55,853,947
13:00,1315,1384
13:05,633,746
13:10,280,393
13:15,496,550
13:20,1792,1681
13:25,1297,1279
13:30,535,649
13:35,767,786
13:40,1764,1556
13:45,767,754
13:50,1183,1030
13:55,1671,1423
14:00,1009,965
14:05,739,747
14:10,469,529
14:15,231,335
14:20,247,372
14:25,333,438
14:30,662,632
14:35,1653,1244
14:40,1574,1170
14:45,1570,1157
14:50,1338,993
14:55,1401,1002
15:00,1443,995
15:05,1398,940
15:10,1269,872
15:15,498,446
15:20,892,632
15:25,1315,844
15:30,1350,810
15:35,1238,741
15:40,1191,722
15:45,1121,701
15:50,961,624
15:55,936,589
16:00,901,639
16:05,693,586
16:10,832,520
16:15,732,498
16:20,709,470
16:25,737,463
16:30,498,396
16:35,438,353
16:40,410,348
16:45,311,351
16:50,283,347
16:55,234,299
17:00,156,209
17:05,129,178
17:10,120,156
17:15,124,157
17:20,116,158
17:25,104,146
17:30,95,127
17:35,85,118
17:40,83,110
17:45,87,118
17:50,100,123
17:55,79,108
18:00,66,97
18:05,67,94
18:10,64,91
18:15,60,86
18:20,56,81
18:25,54,78
18:30,53,76
18:35,51,73
18:40,27,65
18:45,20,62
18:50,19,58
18:55,17,39
19:00,18,15
19:05,16,14
19:10,14,15
19:15,12,15
19:20,10,10
19:25,8,8
19:30,7,7
19:35,5,6
19:40,8,8
19:45,0,0
19:50,0,0
19:55,0,0
20:00,0,0
20:05,0,0
20:10,0,0
20:15,0,0
20:20,0,0
20:25,0,0
20:30,0,0
20:35,0,0
20:40,0,0
20:45,0,0
20:50,0,0
20:55,0,0
21:00,0,0
21:05,0,0
21:10,0,0
21:15,0,0
21:20,0,0
21:25,0,0
21:30,0,0
