4:30,0,0
4:35,0,0
4:40,0,0
4:45,0,0
4:50,0,0
4:55,0,0
5:00,0,0
5:05,0,0
5:10,0,0
5:15,5,10
5:20,4,8
5:25,9,15
5:30,8,13
5:35,14,17
5:40,12,21
5:45,41,70
5:50,57,94
5:55,65,167
6:00,71,173
6:05,79,194
6:10,81,238
6:15,87,308
6:20,93,412
6:25,99,475
6:30,104,514
6:35,108,543
6:40,113,553
6:45,115,613
6:50,119,629
6:55,124,684
7:00,128,662
7:05,130,677
7:10,130,755
7:15,134,808
7:20,138,869
7:25,141,901
7:30,147,944
7:35,150,1031
7:40,152,1078
7:45,155,1106
7:50,159,1136
7:55,163,1162
8:00,167,1186
8:05,168,1194
8:10,192,1254
8:15,211,1323
8:20,228,1366
8:25,249,1375
8:30,278,1385
8:35,305,1409
8:40,334,1431
8:45,363,1490
8:50,397,1536
8:55,428,1586
9:00,461,1631
9:05,493,1661
9:10,523,1678
9:15,558,1705
9:20,591,1717
9:25,624,1736
9:30,658,1742
9:35,691,1751
9:40,721,1753
9:45,755,1772
9:50,797,1799
9:55,848,1829
10:00,951,1910
10:05,975,1906
10:10,960,1865
10:15,1072,1986
10:20,492,754
10:25,982,1583
10:30,684,968
10:35,565,692
10:40,515,656
10:45,574,722
10:50,448,520
10:55,450,572
11:00,566,655
11:05,544,637
11:10,699,846
11:15,670,846
11:20,721,860
11:25,403,445
11:30,557,634
11:35,599,639
11:40,594,681
11:45,730,816
11:50,567,626
11:55,659,758
12:00,1194,1368
12:05,898,1028
12:10,813,911
12:15,631,701
12:20,392,463
12:25,413,480
12:30,551,628
12:35,671,740
12:40,756,821
12:45,876,952
12:50,917,998
12:55,1053,1136
13:00,1264,1299
13:05,1161,1206
13:10,943,1017
13:15,854,947
13:20,895,943
13:25,798,859
13:30,860,920
13:35,844,903
13:40,811,812
13:45,557,596
13:50,432,489
13:55,416,473
14:00,481,539
14:05,415,472
14:10,354,420
14:15,352,426
14:20,427,516
14:25,505,602
14:30,575,647
14:35,628,691
14:40,588,639
14:45,527,567
14:50,466,517
14:55,432,488
15:00,477,527
15:05,475,531
15:10,529,596
15:15,553,617
15:20,515,590
15:25,542,603
15:30,589,632
15:35,507,550
15:40,471,521
15:45,458,509
15:50,406,468
15:55,385,448
16:00,410,462
16:05,455,500
16:10,536,574
16:15,625,637
16:20,626,642
16:25,619,634
16:30,559,571
16:35,534,563
16:40,478,517
16:45,494,511
16:50,456,474
16:55,483,495
17:00,391,410
17:05,265,272
17:10,199,214
17:15,186,209
17:20,195,230
17:25,236,271
17:30,211,230
17:35,192,210
17:40,200,214
17:45,234,246
17:50,218,227
17:55,177,183
18:00,154,160
18:05,165,179
18:10,181,199
18:15,162,176
18:20,128,139
18:25,130,141
18:30,106,117
18:35,97,108
18:40,80,90
18:45,88,100
18:50,112,126
18:55,124,136
19:00,106,117
19:05,88,100
19:10,96,106
19:15,96,109
19:20,94,101
19:25,85,90
19:30,60,65
19:35,50,54
19:40,58,63
19:45,54,55
19:50,31,47
19:55,16,17
20:00,30,17
20:05,16,14
20:10,23,19
20:15,14,11
20:20,17,14
20:25,10,8
20:30,9,9
20:35,6,4
20:40,7,6
20:45,0,0
20:50,0,0
20:55,0,0
21:00,0,0
21:05,0,0
21:10,0,0
21:15,0,0
21:20,0,0
21:25,0,0
21:30,0,0
