4:30,0,0
4:35,0,0
4:40,0,0
4:45,0,0
4:50,0,0
4:55,0,0
5:00,0,0
5:05,0,0
5:10,0,0
5:15,0,0
5:20,10,12
5:25,6,7
5:30,11,8
5:35,9,11
5:40,11,21
5:45,14,18
5:50,42,53
5:55,62,76
6:00,65,78
6:05,68,84
6:10,74,90
6:15,80,98
6:20,93,114
6:25,98,117
6:30,103,123
6:35,101,120
6:40,104,123
6:45,117,142
6:50,143,173
6:55,145,170
7:00,150,178
7:05,176,212
7:10,193,237
7:15,210,260
7:20,222,279
7:25,244,315
7:30,243,298
7:35,270,343
7:40,286,363
7:45,294,367
7:50,282,342
7:55,306,393
8:00,371,546
8:05,371,551
8:10,406,648
8:15,406,598
8:20,401,545
8:25,391,508
8:30,406,573
8:35,410,593
8:40,516,914
8:45,514,886
8:50,509,887
8:55,480,740
9:00,547,1124
9:05,598,1218
9:10,441,700
9:15,640,1398
9:20,530,1322
9:25,649,1622
9:30,780,1979
9:35,743,1808
9:40,839,1960
9:45,666,1465
9:50,882,1858
9:55,877,1911
10:00,922,1936
10:05,929,1936
10:10,981,1974
10:15,984,1882
10:20,1101,1994
10:25,1073,1930
10:30,1059,1896
10:35,1012,1755
10:40,1147,1926
10:45,1154,1899
10:50,1196,1919
10:55,1232,1930
11:00,1251,1915
11:05,1283,1939
11:10,1315,1927
11:15,1311,1898
11:20,1349,1911
11:25,1348,1880
11:30,1408,1915
11:35,1435,1925
11:40,1442,1896
11:45,1485,1902
11:50,1502,1897
11:55,1507,1870
12:00,1531,1858
12:05,1558,1854
12:10,1579,1844
12:15,1599,1834
12:20,1618,1817
12:25,1645,1814
12:30,1666,1806
12:35,1682,1785
12:40,1692,1767
12:45,1706,1759
12:50,1716,1737
12:55,1739,1735
13:00,1750,1705
13:05,1767,1684
13:10,1774,1673
13:15,1780,1653
13:20,1785,1634
13:25,1801,1619
13:30,1813,1599
13:35,1827,1581
13:40,1831,1563
13:45,1834,1541
13:50,1844,1523
13:55,1855,1504
14:00,1878,1492
14:05,1857,1443
14:10,1872,1433
14:15,1867,1400
14:20,1862,1366
14:25,1868,1343
14:30,1873,1323
14:35,1858,1284
14:40,1863,1261
14:45,1848,1236
14:50,1810,1214
14:55,1791,1186
15:00,1792,1155
15:05,1780,1130
15:10,1730,1094
15:15,1700,1060
15:20,1679,1030
15:25,1670,996
15:30,1652,962
15:35,1582,926
15:40,1574,895
15:45,1543,864
15:50,1556,828
15:55,1496,800
16:00,1390,767
16:05,1286,731
16:10,1150,702
16:15,923,672
16:20,1036,633
16:25,980,596
16:30,883,561
16:35,835,531
16:40,762,496
16:45,576,466
16:50,467,432
16:55,455,395
17:00,237,371
17:05,161,345
17:10,156,315
17:15,115,291
17:20,142,267
17:25,134,242
17:30,130,214
17:35,128,196
17:40,126,171
17:45,122,143
17:50,119,134
17:55,118,126
18:00,114,120
18:05,113,116
18:10,103,113
18:15,105,112
18:20,99,108
18:25,93,105
18:30,94,103
18:35,94,102
18:40,90,101
18:45,87,99
18:50,87,98
18:55,84,95
19:00,82,93
19:05,80,90
19:10,75,88
19:15,77,84
19:20,75,82
19:25,72,80
19:30,67,79
19:35,66,76
19:40,64,75
19:45,61,69
19:50,56,66
19:55,53,59
20:00,50,56
20:05,33,47
20:10,16,15
20:15,16,17
20:20,11,10
20:25,10,13
20:30,9,7
20:35,7,6
20:40,6,5
20:45,7,6
20:50,14,12
20:55,0,0
21:00,0,0
21:05,0,0
21:10,0,0
21:15,0,0
21:20,0,0
21:25,0,0
21:30,0,0
