4:30,0,0
4:35,0,0
4:40,0,0
4:45,0,0
4:50,0,0
4:55,0,0
5:00,0,0
5:05,0,0
5:10,0,0
5:15,0,0
5:20,0,0
5:25,0,0
5:30,0,0
5:35,0,0
5:40,0,0
5:45,0,0
5:50,0,0
5:55,0,0
6:00,0,0
6:05,0,0
6:10,0,0
6:15,0,0
6:20,0,0
6:25,0,0
6:30,0,0
6:35,0,0
6:40,0,0
6:45,0,0
6:50,0,0
6:55,5,9
7:00,5,9
7:05,14,28
7:10,12,27
7:15,64,242
7:20,79,376
7:25,59,230
7:30,58,229
7:35,60,192
7:40,67,221
7:45,83,232
7:50,103,252
7:55,121,236
8:00,169,332
8:05,270,734
8:10,232,544
8:15,227,533
8:20,199,535
8:25,175,593
8:30,161,397
8:35,151,386
8:40,144,355
8:45,136,290
8:50,149,359
8:55,161,482
9:00,128,333
9:05,184,412
9:10,238,432
9:15,254,445
9:20,268,433
9:25,267,407
9:30,297,430
9:35,286,420
9:40,287,399
9:45,282,393
9:50,306,438
9:55,281,413
10:00,357,518
10:05,388,550
10:10,391,580
10:15,390,591
10:20,429,650
10:25,489,755
10:30,558,859
10:35,617,928
10:40,609,908
10:45,646,955
10:50,714,1047
10:55,750,1056
11:00,677,895
11:05,606,808
11:10,796,1133
11:15,907,1305
11:20,915,1326
11:25,1179,1734
11:30,1144,1669
11:35,521,752
11:40,443,668
11:45,790,1077
11:50,719,882
11:55,460,606
12:00,391,533
12:05,486,655
12:10,603,763
12:15,470,600
12:20,497,622
12:25,537,669
12:30,527,656
12:35,877,1035
12:40,795,943
12:45,982,1096
12:50,589,732
12:55,586,700
13:00,417,516
13:05,293,383
13:10,234,328
13:15,233,311
13:20,211,291
13:25,245,339
13:30,321,402
13:35,390,469
13:40,602,627
13:45,430,489
13:50,531,563
13:55,315,443
14:00,364,493
14:05,462,551
14:10,869,790
14:15,507,572
14:20,764,723
14:25,847,714
14:30,489,495
14:35,263,368
14:40,267,376
14:45,298,412
14:50,316,434
14:55,305,416
15:00,307,406
15:05,298,395
15:10,292,387
15:15,267,349
15:20,244,307
15:25,197,256
15:30,163,217
15:35,153,203
15:40,144,188
15:45,151,194
15:50,138,175
15:55,117,152
16:00,124,156
16:05,110,141
16:10,66,86
16:15,88,95
16:20,166,167
16:25,223,255
16:30,233,292
16:35,215,277
16:40,234,288
16:45,253,294
16:50,245,277
16:55,288,299
17:00,274,281
17:05,225,241
17:10,180,202
17:15,145,159
17:20,119,135
17:25,118,138
17:30,127,153
17:35,124,157
17:40,152,186
17:45,148,178
17:50,106,138
17:55,94,123
18:00,72,101
18:05,63,94
18:10,61,88
18:15,59,83
18:20,59,81
18:25,56,76
18:30,28,50
18:35,14,16
18:40,8,8
18:45,8,8
18:50,8,7
18:55,10,10
19:00,8,8
19:05,7,8
19:10,9,10
19:15,0,0
19:20,0,0
19:25,0,0
19:30,0,0
19:35,0,0
19:40,0,0
19:45,0,0
19:50,0,0
19:55,0,0
20:00,0,0
20:05,0,0
20:10,0,0
20:15,0,0
20:20,0,0
20:25,0,0
20:30,0,0
20:35,0,0
20:40,0,0
20:45,0,0
20:50,0,0
20:55,0,0
21:00,0,0
21:05,0,0
21:10,0,0
21:15,0,0
21:20,0,0
21:25,0,0
21:30,0,0
