4:30,0,0
4:35,0,0
4:40,0,0
4:45,0,0
4:50,0,0
4:55,0,0
5:00,0,0
5:05,0,0
5:10,0,0
5:15,0,0
5:20,0,0
5:25,10,16
5:30,4,7
5:35,6,9
5:40,5,6
5:45,5,6
5:50,10,13
5:55,0,0
6:00,0,0
6:05,21,26
6:10,17,28
6:15,138,229
6:20,185,286
6:25,87,162
6:30,96,165
6:35,106,203
6:40,86,171
6:45,88,151
6:50,235,711
6:55,225,538
7:00,170,251
7:05,212,497
7:10,236,487
7:15,84,137
7:20,113,146
7:25,176,245
7:30,176,231
7:35,185,245
7:40,142,188
7:45,101,130
7:50,137,186
7:55,196,285
8:00,243,480
8:05,297,826
8:10,268,759
8:15,479,1221
8:20,503,1079
8:25,335,519
8:30,368,703
8:35,255,335
8:40,314,437
8:45,277,386
8:50,327,449
8:55,327,449
9:00,363,936
9:05,527,1191
9:10,600,1033
9:15,657,1528
9:20,612,1245
9:25,574,1082
9:30,550,1180
9:35,599,1354
9:40,615,1248
9:45,946,1972
9:50,683,1370
9:55,500,987
10:00,296,515
10:05,351,637
10:10,537,1003
10:15,470,841
10:20,953,1721
10:25,983,1877
10:30,999,1852
10:35,1142,1910
10:40,864,1309
10:45,972,1517
10:50,1362,2053
10:55,1319,1884
11:00,832,1161
11:05,1043,1390
11:10,390,569
11:15,1395,2071
11:20,1351,1971
11:25,1330,1813
11:30,378,520
11:35,441,634
11:40,831,1098
11:45,265,331
11:50,1130,1482
11:55,390,533
12:00,1153,1429
12:05,1577,1984
12:10,1616,1943
12:15,1619,1905
12:20,1714,1938
12:25,1515,1702
12:30,1441,1624
12:35,597,724
12:40,688,777
12:45,852,983
12:50,362,439
12:55,1816,1874
13:00,1865,1857
13:05,1640,1626
13:10,1728,1696
13:15,1212,1155
13:20,1023,989
13:25,1595,1503
13:30,1348,1259
13:35,472,554
13:40,1997,1777
13:45,1929,1693
13:50,1383,1224
13:55,1607,1361
14:00,1700,1478
14:05,1945,1666
14:10,1854,1538
14:15,1484,1237
14:20,1734,1418
14:25,1675,1358
14:30,853,791
14:35,980,847
14:40,732,657
14:45,1010,884
14:50,372,454
14:55,797,758
15:00,493,556
15:05,1176,988
15:10,1385,1073
15:15,1375,1053
15:20,1565,1084
15:25,1724,1133
15:30,669,565
15:35,107,168
15:40,356,405
15:45,379,475
15:50,891,788
15:55,1249,1004
16:00,1328,903
16:05,1152,821
16:10,1144,783
16:15,1039,730
16:20,855,713
16:25,535,576
16:30,415,755
16:35,616,717
16:40,475,514
16:45,427,638
16:50,299,407
16:55,349,466
17:00,251,355
17:05,209,415
17:10,205,369
17:15,295,482
17:20,272,366
17:25,277,350
17:30,228,322
17:35,185,315
17:40,231,315
17:45,214,288
17:50,130,182
17:55,158,186
18:00,188,223
18:05,149,182
18:10,150,191
18:15,135,163
18:20,199,244
18:25,103,154
18:30,95,125
18:35,86,124
18:40,105,144
18:45,95,135
18:50,91,124
18:55,93,132
19:00,120,159
19:05,87,114
19:10,62,90
19:15,52,79
19:20,86,114
19:25,101,130
19:30,81,99
19:35,97,126
19:40,79,109
19:45,75,104
19:50,77,102
19:55,57,81
20:00,80,103
20:05,71,95
20:10,58,82
20:15,45,65
20:20,19,48
20:25,18,31
20:30,12,14
20:35,10,10
20:40,7,9
20:45,5,6
20:50,10,12
20:55,0,0
21:00,0,0
21:05,0,0
21:10,0,0
21:15,0,0
21:20,0,0
21:25,0,0
21:30,0,0
