4:30,0,0
4:35,0,0
4:40,0,0
4:45,0,0
4:50,0,0
4:55,0,0
5:00,0,0
5:05,0,0
5:10,0,0
5:15,0,0
5:20,0,0
5:25,0,0
5:30,0,0
5:35,0,0
5:40,0,0
5:45,0,0
5:50,0,0
5:55,0,0
6:00,0,0
6:05,0,0
6:10,0,0
6:15,0,0
6:20,0,0
6:25,0,0
6:30,0,0
6:35,0,0
6:40,0,0
6:45,0,0
6:50,0,0
6:55,0,0
7:00,0,0
7:05,0,0
7:10,0,0
7:15,0,0
7:20,0,0
7:25,0,0
7:30,0,0
7:35,0,0
7:40,0,0
7:45,0,0
7:50,0,0
7:55,0,0
8:00,0,0
8:05,0,0
8:10,0,0
8:15,0,0
8:20,0,0
8:25,10,14
8:30,4,9
8:35,10,32
8:40,11,129
8:45,15,197
8:50,18,229
8:55,38,269
9:00,74,289
9:05,90,319
9:10,66,266
9:15,77,403
9:20,83,438
9:25,94,472
9:30,92,485
9:35,104,454
9:40,101,451
9:45,96,529
9:50,96,533
9:55,102,572
10:00,105,590
10:05,121,604
10:10,131,588
10:15,184,712
10:20,157,606
10:25,132,637
10:30,148,661
10:35,188,703
10:40,210,664
10:45,190,566
10:50,204,617
10:55,193,693
11:00,189,543
11:05,206,630
11:10,238,660
11:15,244,642
11:20,252,584
11:25,290,601
11:30,310,548
11:35,356,592
11:40,357,559
11:45,390,581
11:50,386,514
11:55,396,500
12:00,324,371
12:05,293,322
12:10,293,312
12:15,376,390
12:20,293,292
12:25,405,383
12:30,498,454
12:35,352,334
12:40,287,268
12:45,252,235
12:50,246,225
12:55,402,291
13:00,413,271
13:05,480,289
13:10,524,324
13:15,384,261
13:20,454,293
13:25,476,318
13:30,442,292
13:35,424,271
13:40,483,285
13:45,637,261
13:50,552,224
13:55,627,188
14:00,662,197
14:05,542,155
14:10,580,144
14:15,557,167
14:20,304,135
14:25,151,118
14:30,161,130
14:35,148,132
14:40,138,124
14:45,125,117
14:50,116,116
14:55,98,92
15:00,87,86
15:05,89,83
15:10,118,102
15:15,82,67
15:20,117,75
15:25,133,80
15:30,102,56
15:35,120,18
15:40,88,17
15:45,15,6
15:50,11,10
15:55,7,4
16:00,13,7
16:05,0,0
16:10,0,0
16:15,0,0
16:20,0,0
16:25,0,0
16:30,0,0
16:35,0,0
16:40,0,0
16:45,0,0
16:50,0,0
16:55,0,0
17:00,0,0
17:05,0,0
17:10,0,0
17:15,0,0
17:20,0,0
17:25,0,0
17:30,0,0
17:35,0,0
17:40,0,0
17:45,0,0
17:50,0,0
17:55,0,0
18:00,0,0
18:05,0,0
18:10,0,0
18:15,0,0
18:20,0,0
18:25,0,0
18:30,0,0
18:35,0,0
18:40,0,0
18:45,0,0
18:50,0,0
18:55,0,0
19:00,0,0
19:05,0,0
19:10,0,0
19:15,0,0
19:20,0,0
19:25,0,0
19:30,0,0
19:35,0,0
19:40,0,0
19:45,0,0
19:50,0,0
19:55,0,0
20:00,0,0
20:05,0,0
20:10,0,0
20:15,0,0
20:20,0,0
20:25,0,0
20:30,0,0
20:35,0,0
20:40,0,0
20:45,0,0
20:50,0,0
20:55,0,0
21:00,0,0
21:05,0,0
21:10,0,0
21:15,0,0
21:20,0,0
21:25,0,0
21:30,0,0
