4:30,0,0
4:35,0,0
4:40,0,0
4:45,0,0
4:50,0,0
4:55,0,0
5:00,0,0
5:05,0,0
5:10,0,0
5:15,0,0
5:20,0,0
5:25,0,0
5:30,0,0
5:35,0,0
5:40,0,0
5:45,7,15
5:50,3,6
5:55,6,11
6:00,6,13
6:05,15,70
6:10,13,134
6:15,22,159
6:20,20,187
6:25,26,242
6:30,70,310
6:35,80,400
6:40,85,428
6:45,89,467
6:50,94,491
6:55,101,529
7:00,104,588
7:05,109,609
7:10,111,639
7:15,115,687
7:20,117,705
7:25,121,755
7:30,127,812
7:35,130,880
7:40,132,941
7:45,135,945
7:50,138,1006
7:55,138,964
8:00,143,1048
8:05,146,1101
8:10,149,1151
8:15,152,1196
8:20,155,1232
8:25,165,1259
8:30,169,1314
8:35,180,1336
8:40,212,1380
8:45,233,1405
8:50,248,1436
8:55,277,1526
9:00,297,1487
9:05,324,1506
9:10,331,1401
9:15,402,1606
9:20,431,1602
9:25,437,1519
9:30,497,1623
9:35,541,1648
9:40,572,1605
9:45,577,1512
9:50,595,1492
9:55,684,1703
10:00,650,1539
10:05,761,1754
10:10,784,1755
10:15,808,1742
10:20,841,1743
10:25,892,1769
10:30,959,1828
10:35,886,1632
10:40,937,1673
10:45,1082,1846
10:50,985,1533
10:55,945,1420
11:00,1009,1541
11:05,1303,1960
11:10,1080,1548
11:15,732,1057
11:20,929,1308
11:25,1409,1965
11:30,1400,1900
11:35,1243,1657
11:40,1059,1392
11:45,883,1141
11:50,830,1053
11:55,1483,1875
12:00,1458,1817
12:05,1485,1810
12:10,988,1185
12:15,1214,1397
12:20,1259,1473
12:25,1698,1892
12:30,1370,1498
12:35,893,983
12:40,1285,1346
12:45,845,968
12:50,606,702
12:55,1078,1174
13:00,1057,1143
13:05,692,803
13:10,758,834
13:15,677,813
13:20,771,901
13:25,385,469
13:30,459,515
13:35,1458,1353
13:40,642,694
13:45,398,442
13:50,283,333
13:55,955,892
14:00,1542,1348
14:05,1245,1156
14:10,799,882
14:15,449,574
14:20,405,503
14:25,499,623
14:30,404,527
14:35,443,563
14:40,1236,1000
14:45,1239,918
14:50,1301,940
14:55,1550,1060
15:00,1658,1125
15:05,1604,1109
15:10,1542,1044
15:15,1489,982
15:20,1513,993
15:25,1460,1031
15:30,1011,735
15:35,300,378
15:40,337,459
15:45,579,760
15:50,387,567
15:55,1275,1011
16:00,501,520
16:05,357,406
16:10,206,235
16:15,112,138
16:20,115,161
16:25,368,488
16:30,251,570
16:35,167,259
16:40,193,477
16:45,163,445
16:50,182,274
16:55,188,212
17:00,167,210
17:05,167,217
17:10,211,297
17:15,248,329
17:20,215,294
17:25,225,292
17:30,208,275
17:35,249,320
17:40,217,281
17:45,210,279
17:50,278,359
17:55,284,352
18:00,258,324
18:05,212,265
18:10,140,176
18:15,120,155
18:20,110,149
18:25,89,131
18:30,77,118
18:35,85,133
18:40,111,152
18:45,82,117
18:50,93,133
18:55,137,176
19:00,164,208
19:05,125,169
19:10,89,126
19:15,71,102
19:20,71,104
19:25,70,99
19:30,67,89
19:35,52,67
19:40,14,20
19:45,14,11
19:50,38,38
19:55,62,75
20:00,18,24
20:05,6,5
20:10,0,0
20:15,17,17
20:20,6,5
20:25,10,10
20:30,0,0
20:35,0,0
20:40,0,0
20:45,0,0
20:50,0,0
20:55,0,0
21:00,0,0
21:05,0,0
21:10,0,0
21:15,0,0
21:20,0,0
21:25,0,0
21:30,0,0
