4:30,0,0
4:35,0,0
4:40,0,0
4:45,0,0
4:50,0,0
4:55,0,0
5:00,0,0
5:05,0,0
5:10,0,0
5:15,0,0
5:20,0,0
5:25,0,0
5:30,0,0
5:35,0,0
5:40,5,13
5:45,4,9
5:50,8,19
5:55,7,17
6:00,14,80
6:05,10,130
6:10,19,182
6:15,16,285
6:20,47,300
6:25,62,292
6:30,65,264
6:35,76,383
6:40,91,509
6:45,94,560
6:50,98,597
6:55,104,646
7:00,104,614
7:05,113,607
7:10,131,568
7:15,159,651
7:20,150,695
7:25,135,772
7:30,129,862
7:35,140,986
7:40,140,1002
7:45,143,987
7:50,146,1018
7:55,148,1075
8:00,156,1154
8:05,173,1174
8:10,184,1140
8:15,226,889
8:20,290,456
8:25,273,336
8:30,260,306
8:35,261,295
8:40,312,345
8:45,367,466
8:50,529,1206
8:55,390,670
9:00,425,576
9:05,502,835
9:10,554,1302
9:15,449,1085
9:20,495,826
9:25,489,888
9:30,520,898
9:35,642,1543
9:40,600,1304
9:45,502,758
9:50,613,837
9:55,741,1387
10:00,700,1380
10:05,602,942
10:10,810,1380
10:15,736,1149
10:20,641,872
10:25,607,828
10:30,650,922
10:35,871,1343
10:40,742,1126
10:45,637,875
10:50,882,1285
10:55,706,968
11:00,1011,1493
11:05,947,1407
11:10,1058,1572
11:15,1334,1945
11:20,1155,1664
11:25,958,1344
11:30,1284,1790
11:35,1491,2039
11:40,1540,2025
11:45,1488,1946
11:50,1165,1507
11:55,1070,1383
12:00,1517,1872
12:05,1149,1383
12:10,1414,1679
12:15,1580,1828
12:20,1634,1895
12:25,1302,1468
12:30,1599,1766
12:35,1565,1702
12:40,1551,1653
12:45,1589,1664
12:50,1535,1587
12:55,1599,1624
13:00,1590,1580
13:05,1650,1613
13:10,1656,1590
13:15,1602,1513
13:20,1604,1492
13:25,1685,1535
13:30,1734,1550
13:35,1686,1474
13:40,1601,1375
13:45,1621,1365
13:50,1699,1406
13:55,1778,1447
14:00,1731,1381
14:05,1754,1367
14:10,1772,1356
14:15,1794,1341
14:20,1791,1314
14:25,1775,1276
14:30,1786,1259
14:35,1811,1251
14:40,1838,1237
14:45,1823,1198
14:50,1836,1175
14:55,1819,1134
15:00,1822,1116
15:05,1780,1073
15:10,1752,1033
15:15,1797,1023
15:20,1663,939
15:25,1592,901
15:30,1673,916
15:35,1534,858
15:40,1584,843
15:45,1579,817
15:50,1508,754
15:55,1509,741
16:00,1464,705
16:05,1393,662
16:10,1334,625
16:15,1232,586
16:20,1109,554
16:25,1004,517
16:30,857,457
16:35,835,409
16:40,768,392
16:45,718,363
16:50,574,326
16:55,489,305
17:00,375,287
17:05,287,262
17:10,228,234
17:15,186,216
17:20,177,185
17:25,219,172
17:30,239,173
17:35,239,167
17:40,231,160
17:45,230,160
17:50,230,165
17:55,240,171
18:00,236,172
18:05,214,168
18:10,197,156
18:15,172,147
18:20,162,136
18:25,157,130
18:30,145,124
18:35,137,119
18:40,134,115
18:45,131,110
18:50,127,109
18:55,127,108
19:00,133,112
19:05,144,119
19:10,138,118
19:15,138,118
19:20,146,121
19:25,141,118
19:30,128,113
19:35,120,105
19:40,109,96
19:45,94,82
19:50,76,67
19:55,66,57
20:00,50,37
20:05,14,10
20:10,9,6
20:15,8,4
20:20,13,9
20:25,0,0
20:30,0,0
20:35,0,0
20:40,0,0
20:45,0,0
20:50,0,0
20:55,0,0
21:00,0,0
21:05,0,0
21:10,0,0
21:15,0,0
21:20,0,0
21:25,0,0
21:30,0,0
