4:30,0,0
4:35,0,0
4:40,0,0
4:45,0,0
4:50,0,0
4:55,0,0
5:00,0,0
5:05,0,0
5:10,0,0
5:15,0,0
5:20,0,0
5:25,0,0
5:30,0,0
5:35,0,0
5:40,0,0
5:45,0,0
5:50,0,0
5:55,0,0
6:00,0,0
6:05,0,0
6:10,0,0
6:15,0,0
6:20,0,0
6:25,0,0
6:30,0,0
6:35,0,0
6:40,0,0
6:45,0,0
6:50,0,0
6:55,0,0
7:00,0,0
7:05,0,0
7:10,0,0
7:15,0,0
7:20,0,0
7:25,0,0
7:30,0,0
7:35,0,0
7:40,9,17
7:45,3,7
7:50,6,19
7:55,11,43
8:00,18,108
8:05,13,109
8:10,36,114
8:15,77,146
8:20,88,199
8:25,85,166
8:30,85,151
8:35,100,252
8:40,109,479
8:45,108,634
8:50,137,692
8:55,187,415
9:00,130,193
9:05,113,160
9:10,176,236
9:15,178,241
9:20,213,330
9:25,232,343
9:30,267,423
9:35,242,442
9:40,199,329
9:45,236,390
9:50,296,428
9:55,256,345
10:00,329,495
10:05,375,750
10:10,380,827
10:15,345,663
10:20,339,559
10:25,326,431
10:30,411,573
10:35,421,606
10:40,412,527
10:45,369,440
10:50,400,480
10:55,344,438
11:00,366,422
11:05,342,424
11:10,368,458
11:15,447,637
11:20,505,846
11:25,521,867
11:30,564,908
11:35,586,901
11:40,608,896
11:45,629,883
11:50,655,875
11:55,677,860
12:00,700,842
12:05,718,825
12:10,733,803
12:15,747,778
12:20,769,767
12:25,785,744
12:30,799,725
12:35,816,706
12:40,819,675
12:45,834,656
12:50,852,639
12:55,861,612
13:00,873,588
13:05,875,558
13:10,867,530
13:15,890,514
13:20,906,491
13:25,920,465
13:30,930,443
13:35,932,413
13:40,932,387
13:45,934,360
13:50,929,333
13:55,935,308
14:00,937,285
14:05,921,254
14:10,920,226
14:15,922,193
14:20,928,166
14:25,918,141
14:30,892,115
14:35,885,104
14:40,869,102
14:45,849,98
14:50,794,95
14:55,742,92
15:00,669,91
15:05,611,86
15:10,546,87
15:15,505,85
15:20,435,85
15:25,389,78
15:30,372,80
15:35,347,77
15:40,321,74
15:45,314,69
15:50,295,66
15:55,279,60
16:00,269,57
16:05,267,54
16:10,258,49
16:15,221,26
16:20,129,13
16:25,92,17
16:30,81,11
16:35,67,9
16:40,60,8
16:45,43,9
16:50,9,4
16:55,13,8
17:00,0,0
17:05,0,0
17:10,0,0
17:15,0,0
17:20,0,0
17:25,0,0
17:30,0,0
17:35,0,0
17:40,0,0
17:45,0,0
17:50,0,0
17:55,0,0
18:00,0,0
18:05,0,0
18:10,0,0
18:15,0,0
18:20,0,0
18:25,0,0
18:30,0,0
18:35,0,0
18:40,0,0
18:45,0,0
18:50,0,0
18:55,0,0
19:00,0,0
19:05,0,0
19:10,0,0
19:15,0,0
19:20,0,0
19:25,0,0
19:30,0,0
19:35,0,0
19:40,0,0
19:45,0,0
19:50,0,0
19:55,0,0
20:00,0,0
20:05,0,0
20:10,0,0
20:15,0,0
20:20,0,0
20:25,0,0
20:30,0,0
20:35,0,0
20:40,0,0
20:45,0,0
20:50,0,0
20:55,0,0
21:00,0,0
21:05,0,0
21:10,0,0
21:15,0,0
21:20,0,0
21:25,0,0
21:30,0,0
