4:30,0,0
4:35,0,0
4:40,0,0
4:45,0,0
4:50,0,0
4:55,0,0
5:00,0,0
5:05,0,0
5:10,0,0
5:15,0,0
5:20,0,0
5:25,0,0
5:30,0,0
5:35,0,0
5:40,0,0
5:45,0,0
5:50,0,0
5:55,0,0
6:00,0,0
6:05,0,0
6:10,0,0
6:15,0,0
6:20,0,0
6:25,0,0
6:30,0,0
6:35,0,0
6:40,0,0
6:45,0,0
6:50,0,0
6:55,0,0
7:00,0,0
7:05,0,0
7:10,0,0
7:15,0,0
7:20,0,0
7:25,0,0
7:30,0,0
7:35,0,0
7:40,0,0
7:45,0,0
7:50,0,0
7:55,0,0
8:00,0,0
8:05,0,0
8:10,0,0
8:15,10,11
8:20,6,7
8:25,12,13
8:30,9,11
8:35,11,17
8:40,14,16
8:45,16,44
8:50,18,66
8:55,52,78
9:00,77,87
9:05,80,90
9:10,85,93
9:15,91,98
9:20,96,101
9:25,101,106
9:30,113,115
9:35,124,123
9:40,164,182
9:45,145,159
9:50,150,162
9:55,161,173
10:00,164,176
10:05,172,181
10:10,183,190
10:15,191,201
10:20,213,226
10:25,240,274
10:30,286,358
10:35,261,314
10:40,266,308
10:45,302,350
10:50,322,386
10:55,331,405
11:00,354,445
11:05,361,459
11:10,376,490
11:15,383,496
11:20,422,544
11:25,436,552
11:30,406,481
11:35,493,609
11:40,564,715
11:45,459,520
11:50,415,457
11:55,396,431
12:00,392,409
12:05,405,419
12:10,388,399
12:15,346,350
12:20,332,339
12:25,333,337
12:30,357,354
12:35,342,346
12:40,343,348
12:45,352,354
12:50,349,354
12:55,363,360
13:00,360,354
13:05,339,332
13:10,349,343
13:15,344,338
13:20,328,327
13:25,320,316
13:30,312,305
13:35,279,274
13:40,246,252
13:45,282,272
13:50,283,275
13:55,232,233
14:00,224,223
14:05,203,203
14:10,173,175
14:15,184,182
14:20,195,193
14:25,187,184
14:30,187,181
14:35,185,176
14:40,180,171
14:45,191,176
14:50,174,168
14:55,181,162
15:00,169,157
15:05,152,149
15:10,142,135
15:15,133,127
15:20,119,116
15:25,97,99
15:30,90,89
15:35,79,77
15:40,68,69
15:45,58,59
15:50,55,56
15:55,29,30
16:00,11,11
16:05,8,9
16:10,7,9
16:15,8,7
16:20,7,6
16:25,4,4
16:30,0,0
16:35,0,0
16:40,0,0
16:45,0,0
16:50,0,0
16:55,0,0
17:00,0,0
17:05,0,0
17:10,0,0
17:15,0,0
17:20,0,0
17:25,0,0
17:30,0,0
17:35,0,0
17:40,0,0
17:45,0,0
17:50,0,0
17:55,0,0
18:00,0,0
18:05,0,0
18:10,0,0
18:15,0,0
18:20,0,0
18:25,0,0
18:30,0,0
18:35,0,0
18:40,0,0
18:45,0,0
18:50,0,0
18:55,0,0
19:00,0,0
19:05,0,0
19:10,0,0
19:15,0,0
19:20,0,0
19:25,0,0
19:30,0,0
19:35,0,0
19:40,0,0
19:45,0,0
19:50,0,0
19:55,0,0
20:00,0,0
20:05,0,0
20:10,0,0
20:15,0,0
20:20,0,0
20:25,0,0
20:30,0,0
20:35,0,0
20:40,0,0
20:45,0,0
20:50,0,0
20:55,0,0
21:00,0,0
21:05,0,0
21:10,0,0
21:15,0,0
21:20,0,0
21:25,0,0
21:30,0,0
