4:35,0,0
4:40,0,0
4:45,0,0
4:50,0,0
4:55,0,0
5:00,0,0
5:05,0,0
5:10,0,0
5:15,0,0
5:20,0,0
5:25,0,0
5:30,0,0
5:35,0,0
5:40,0,0
5:45,0,0
5:50,0,0
5:55,0,0
6:00,0,0
6:05,0,0
6:10,0,0
6:15,0,0
6:20,0,0
6:25,0,0
6:30,0,0
6:35,0,0
6:40,0,0
6:45,0,0
6:50,0,0
6:55,0,0
7:00,13,15
7:05,7,9
7:10,8,9
7:15,9,12
7:20,16,23
7:25,67,93
7:30,75,97
7:35,78,94
7:40,94,136
7:45,100,273
7:50,116,210
7:55,151,243
8:00,132,191
8:05,143,203
8:10,160,325
8:15,232,948
8:20,223,368
8:25,143,224
8:30,179,239
8:35,217,321
8:40,347,1227
8:45,289,1284
8:50,170,1234
8:55,154,1124
9:00,142,417
9:05,208,347
9:10,289,411
9:15,421,1378
9:20,282,1474
9:25,192,1463
9:30,185,1319
9:35,241,817
9:40,381,1563
9:45,313,1472
9:50,262,571
9:55,312,412
10:00,376,417
10:05,396,422
10:10,414,448
10:15,431,485
10:20,443,535
10:25,442,475
10:30,428,508
10:35,464,523
10:40,292,287
10:45,282,309
10:50,411,461
10:55,338,329
11:00,372,402
11:05,314,325
11:10,430,487
11:15,417,499
11:20,1065,1796
11:25,1019,1569
11:30,964,1534
11:35,599,922
11:40,342,421
11:45,574,706
11:50,544,661
11:55,1239,1748
12:00,1093,1559
12:05,657,863
12:10,651,828
12:15,1275,1670
12:20,1169,1493
12:25,1423,1811
12:30,1244,1503
12:35,1155,1396
12:40,1441,1662
12:45,1515,1712
12:50,1480,1631
12:55,1465,1592
13:00,1474,1561
13:05,1491,1541
13:10,1515,1524
13:15,1530,1501
13:20,1546,1485
13:25,1552,1455
13:30,1576,1443
13:35,1585,1414
13:40,1603,1397
13:45,1613,1367
13:50,1626,1346
13:55,1633,1313
14:00,1645,1291
14:05,1649,1260
14:10,1666,1238
14:15,1666,1204
14:20,1677,1180
14:25,1681,1147
14:30,1689,1115
14:35,1689,1077
14:40,1695,1050
14:45,1694,1013
14:50,1700,983
14:55,1696,947
15:00,1693,912
15:05,1686,872
15:10,1681,836
15:15,1677,798
15:20,1675,764
15:25,1661,725
15:30,1660,688
15:35,1646,648
15:40,1642,610
15:45,1637,574
15:50,1628,538
15:55,1617,500
16:00,1612,464
16:05,1598,425
16:10,1509,382
16:15,1432,350
16:20,1354,316
16:25,1315,280
16:30,1266,248
16:35,1202,217
16:40,1151,193
16:45,1133,168
16:50,1072,137
16:55,1057,95
17:00,989,92
17:05,918,88
17:10,820,84
17:15,715,80
17:20,661,77
17:25,556,77
17:30,556,74
17:35,520,75
17:40,487,72
17:45,461,72
17:50,425,72
17:55,396,72
18:00,351,69
18:05,315,69
18:10,255,66
18:15,251,63
18:20,202,63
18:25,136,60
18:30,108,60
18:35,83,60
18:40,76,57
18:45,70,52
18:50,64,49
18:55,60,28
19:00,53,12
19:05,23,16
19:10,13,9
19:15,18,11
19:20,9,6
19:25,12,5
19:30,6,4
19:35,11,7
19:40,0,0
19:45,0,0
19:50,0,0
19:55,0,0
20:00,0,0
20:05,0,0
20:10,0,0
20:15,0,0
20:20,0,0
20:25,0,0
20:30,0,0
20:35,0,0
20:40,0,0
20:45,0,0
20:50,0,0
20:55,0,0
21:00,0,0
21:05,0,0
21:10,0,0
21:15,0,0
21:20,0,0
21:25,0,0
21:30,0,0
21:35,0,0
