4:30,0,0
4:35,0,0
4:40,0,0
4:45,0,0
4:50,0,0
4:55,0,0
5:00,0,0
5:05,0,0
5:10,0,0
5:15,0,0
5:20,0,0
5:25,0,0
5:30,0,0
5:35,0,0
5:40,0,0
5:45,0,0
5:50,0,0
5:55,0,0
6:00,0,0
6:05,0,0
6:10,0,0
6:15,0,0
6:20,0,0
6:25,0,0
6:30,0,0
6:35,0,0
6:40,0,0
6:45,0,0
6:50,0,0
6:55,0,0
7:00,0,0
7:05,0,0
7:10,0,0
7:15,0,0
7:20,0,0
7:25,0,0
7:30,0,0
7:35,0,0
7:40,0,0
7:45,0,0
7:50,0,0
7:55,0,0
8:00,0,0
8:05,0,0
8:10,5,16
8:15,3,10
8:20,8,22
8:25,6,17
8:30,14,62
8:35,10,128
8:40,31,170
8:45,24,158
8:50,19,97
8:55,19,170
9:00,40,182
9:05,90,189
9:10,95,189
9:15,111,188
9:20,104,185
9:25,109,183
9:30,120,188
9:35,131,194
9:40,139,193
9:45,147,208
9:50,158,207
9:55,168,235
10:00,168,249
10:05,152,232
10:10,174,243
10:15,179,257
10:20,147,190
10:25,181,418
10:30,217,525
10:35,210,526
10:40,189,498
10:45,202,439
10:50,204,476
10:55,244,460
11:00,269,476
11:05,284,416
11:10,338,543
11:15,311,462
11:20,255,341
11:25,301,396
11:30,327,447
11:35,399,522
11:40,374,488
11:45,404,481
11:50,420,465
11:55,415,429
12:00,435,421
12:05,418,382
12:10,447,385
12:15,426,339
12:20,420,316
12:25,470,319
12:30,411,266
12:35,448,259
12:40,400,221
12:45,461,231
12:50,390,212
12:55,429,231
13:00,449,214
13:05,415,170
13:10,363,173
13:15,392,137
13:20,233,124
13:25,204,134
13:30,209,137
13:35,245,154
13:40,357,164
13:45,259,153
13:50,196,158
13:55,177,128
14:00,184,131
14:05,195,125
14:10,145,111
14:15,152,117
14:20,200,120
14:25,151,109
14:30,140,111
14:35,128,108
14:40,132,103
14:45,123,95
14:50,126,70
14:55,89,67
15:00,78,59
15:05,67,59
15:10,33,24
15:15,62,12
15:20,18,12
15:25,8,9
15:30,8,7
15:35,6,6
15:40,10,10
15:45,0,0
15:50,0,0
15:55,0,0
16:00,0,0
16:05,0,0
16:10,0,0
16:15,0,0
16:20,0,0
16:25,0,0
16:30,0,0
16:35,0,0
16:40,0,0
16:45,0,0
16:50,0,0
16:55,0,0
17:00,0,0
17:05,0,0
17:10,0,0
17:15,0,0
17:20,0,0
17:25,0,0
17:30,0,0
17:35,0,0
17:40,0,0
17:45,0,0
17:50,0,0
17:55,0,0
18:00,0,0
18:05,0,0
18:10,0,0
18:15,0,0
18:20,0,0
18:25,0,0
18:30,0,0
18:35,0,0
18:40,0,0
18:45,0,0
18:50,0,0
18:55,0,0
19:00,0,0
19:05,0,0
19:10,0,0
19:15,0,0
19:20,0,0
19:25,0,0
19:30,0,0
19:35,0,0
19:40,0,0
19:45,0,0
19:50,0,0
19:55,0,0
20:00,0,0
20:05,0,0
20:10,0,0
20:15,0,0
20:20,0,0
20:25,0,0
20:30,0,0
20:35,0,0
20:40,0,0
20:45,0,0
20:50,0,0
20:55,0,0
21:00,0,0
21:05,0,0
21:10,0,0
21:15,0,0
21:20,0,0
21:25,0,0
21:30,0,0
