4:30,0,0
4:35,0,0
4:40,0,0
4:45,0,0
4:50,0,0
4:55,0,0
5:00,0,0
5:05,0,0
5:10,0,0
5:15,0,0
5:20,0,0
5:25,0,0
5:30,0,0
5:35,10,16
5:40,3,6
5:45,6,6
5:50,5,6
5:55,6,11
6:00,7,15
6:05,8,17
6:10,10,61
6:15,12,70
6:20,15,76
6:25,11,80
6:30,18,87
6:35,13,100
6:40,21,157
6:45,21,291
6:50,95,609
6:55,117,643
7:00,119,702
7:05,122,740
7:10,130,769
7:15,138,783
7:20,138,821
7:25,144,873
7:30,146,912
7:35,154,948
7:40,165,1010
7:45,184,1015
7:50,172,893
7:55,195,930
8:00,225,1034
8:05,178,778
8:10,221,578
8:15,201,1381
8:20,196,1366
8:25,211,1410
8:30,229,1415
8:35,243,1450
8:40,268,1472
8:45,299,1547
8:50,331,1568
8:55,359,1584
9:00,388,1586
9:05,411,1616
9:10,444,1636
9:15,493,1644
9:20,525,1667
9:25,559,1671
9:30,596,1703
9:35,642,1708
9:40,677,1751
9:45,704,1732
9:50,743,1763
9:55,768,1738
10:00,761,1676
10:05,814,1673
10:10,652,1339
10:15,920,1822
10:20,837,1580
10:25,922,1722
10:30,852,1483
10:35,848,1470
10:40,1199,1990
10:45,1115,1797
10:50,1245,1935
10:55,1264,1940
11:00,1116,1694
11:05,1314,1854
11:10,770,1044
11:15,1407,1947
11:20,1374,1813
11:25,969,1215
11:30,1361,1741
11:35,969,1206
11:40,1711,2084
11:45,1530,1843
11:50,1507,1767
11:55,464,532
12:00,583,656
12:05,1511,1701
12:10,1186,1332
12:15,481,575
12:20,1340,1497
12:25,1816,1918
12:30,1864,1963
12:35,1849,1964
12:40,1904,1979
12:45,1855,1890
12:50,1730,1742
12:55,1175,1145
13:00,719,741
13:05,1218,1196
13:10,679,708
13:15,2069,1811
13:20,1699,1546
13:25,2060,1847
13:30,1106,1041
13:35,1485,1266
13:40,533,565
13:45,800,708
13:50,1590,1316
13:55,665,650
14:00,460,490
14:05,441,463
14:10,632,622
14:15,842,830
14:20,811,832
14:25,760,802
14:30,770,800
14:35,858,870
14:40,1237,1078
14:45,1301,1092
14:50,631,622
14:55,711,560
15:00,1482,1024
15:05,1546,1077
15:10,902,684
15:15,609,521
15:20,908,739
15:25,908,767
15:30,1115,876
15:35,501,528
15:40,948,676
15:45,647,509
15:50,985,666
15:55,1165,751
16:00,1501,892
16:05,1234,738
16:10,1029,659
16:15,1212,700
16:20,1083,606
16:25,961,554
16:30,759,509
16:35,600,411
16:40,489,341
16:45,214,212
16:50,262,232
16:55,300,275
17:00,357,390
17:05,491,563
17:10,530,580
17:15,411,492
17:20,224,309
17:25,160,221
17:30,180,212
17:35,165,188
17:40,140,160
17:45,111,129
17:50,75,94
17:55,47,67
18:00,12,30
18:05,11,14
18:10,10,15
18:15,7,9
18:20,6,11
18:25,5,6
18:30,9,10
18:35,6,7
18:40,7,9
18:45,5,5
18:50,5,5
18:55,6,4
19:00,10,13
19:05,10,11
19:10,9,12
19:15,8,9
19:20,11,16
19:25,15,14
19:30,50,46
19:35,91,86
19:40,96,97
19:45,100,100
19:50,117,114
19:55,110,113
20:00,66,77
20:05,20,33
20:10,11,12
20:15,5,5
20:20,6,6
20:25,11,11
20:30,0,0
20:35,0,0
20:40,0,0
20:45,0,0
20:50,0,0
20:55,0,0
21:00,0,0
21:05,0,0
21:10,0,0
21:15,0,0
21:20,0,0
21:25,0,0
21:30,0,0
