4:30,0,0
4:35,0,0
4:40,0,0
4:45,0,0
4:50,0,0
4:55,0,0
5:00,0,0
5:05,0,0
5:10,0,0
5:15,0,0
5:20,0,0
5:25,0,0
5:30,0,0
5:35,0,0
5:40,0,0
5:45,0,0
5:50,0,0
5:55,0,0
6:00,0,0
6:05,0,0
6:10,0,0
6:15,0,0
6:20,0,0
6:25,9,17
6:30,4,8
6:35,7,26
6:40,8,59
6:45,9,65
6:50,11,96
6:55,26,136
7:00,69,161
7:05,83,186
7:10,83,195
7:15,107,215
7:20,121,209
7:25,137,219
7:30,142,210
7:35,153,213
7:40,163,229
7:45,190,270
7:50,204,317
7:55,215,447
8:00,234,394
8:05,237,348
8:10,245,337
8:15,256,332
8:20,277,350
8:25,283,347
8:30,282,325
8:35,291,328
8:40,309,352
8:45,298,330
8:50,366,438
8:55,415,570
9:00,372,524
9:05,407,544
9:10,436,640
9:15,414,492
9:20,426,524
9:25,459,672
9:30,508,860
9:35,498,739
9:40,503,738
9:45,613,1223
9:50,548,1137
9:55,481,896
10:00,584,985
10:05,610,980
10:10,680,1072
10:15,752,1209
10:20,752,1122
10:25,736,1071
10:30,691,972
10:35,503,632
10:40,610,780
10:45,833,1104
10:50,558,563
10:55,409,396
11:00,532,526
11:05,570,613
11:10,506,511
11:15,583,594
11:20,555,560
11:25,548,545
11:30,505,497
11:35,494,527
11:40,434,435
11:45,514,488
11:50,553,535
11:55,553,572
12:00,481,530
12:05,529,528
12:10,664,673
12:15,577,582
12:20,622,620
12:25,654,639
12:30,787,767
12:35,684,694
12:40,550,587
12:45,447,489
12:50,428,442
12:55,565,533
13:00,635,615
13:05,587,558
13:10,725,670
13:15,671,640
13:20,681,632
13:25,636,630
13:30,615,599
13:35,687,595
13:40,968,770
13:45,823,692
13:50,1115,811
13:55,807,633
14:00,500,463
14:05,340,334
14:10,288,292
14:15,300,283
14:20,377,322
14:25,964,517
14:30,699,474
14:35,433,425
14:40,321,357
14:45,261,282
14:50,292,260
14:55,318,288
15:00,274,287
15:05,275,269
15:10,353,313
15:15,375,344
15:20,329,328
15:25,251,254
15:30,315,231
15:35,308,286
15:40,233,257
15:45,169,187
15:50,121,138
15:55,104,111
16:00,110,103
16:05,174,128
16:10,173,155
16:15,186,157
16:20,213,184
16:25,197,185
16:30,520,208
16:35,349,202
16:40,217,156
16:45,155,115
16:50,119,102
16:55,90,88
17:00,73,72
17:05,61,63
17:10,41,47
17:15,13,11
17:20,6,6
17:25,9,8
17:30,5,5
17:35,6,7
17:40,11,11
17:45,0,0
17:50,0,0
17:55,0,0
18:00,0,0
18:05,0,0
18:10,0,0
18:15,0,0
18:20,0,0
18:25,0,0
18:30,0,0
18:35,0,0
18:40,0,0
18:45,0,0
18:50,0,0
18:55,0,0
19:00,0,0
19:05,0,0
19:10,0,0
19:15,0,0
19:20,0,0
19:25,0,0
19:30,0,0
19:35,0,0
19:40,0,0
19:45,0,0
19:50,0,0
19:55,0,0
20:00,0,0
20:05,0,0
20:10,0,0
20:15,0,0
20:20,0,0
20:25,0,0
20:30,0,0
20:35,0,0
20:40,0,0
20:45,0,0
20:50,0,0
20:55,0,0
21:00,0,0
21:05,0,0
21:10,0,0
21:15,0,0
21:20,0,0
21:25,0,0
21:30,0,0
21:35,0,0
