4:30,0,0
4:35,0,0
4:40,0,0
4:45,0,0
4:50,0,0
4:55,0,0
5:00,0,0
5:05,0,0
5:10,0,0
5:15,0,0
5:20,0,0
5:25,0,0
5:30,0,0
5:35,0,0
5:40,0,0
5:45,0,0
5:50,0,0
5:55,0,0
6:00,0,0
6:05,0,0
6:10,0,0
6:15,0,0
6:20,0,0
6:25,0,0
6:30,0,0
6:35,0,0
6:40,0,0
6:45,0,0
6:50,0,0
6:55,0,0
7:00,0,0
7:05,0,0
7:10,0,0
7:15,0,0
7:20,0,0
7:25,0,0
7:30,0,0
7:35,9,11
7:40,0,0
7:45,0,0
7:50,0,0
7:55,0,0
8:00,0,0
8:05,10,14
8:10,21,25
8:15,5,7
8:20,8,6
8:25,15,15
8:30,29,30
8:35,76,91
8:40,75,93
8:45,47,68
8:50,21,68
8:55,60,77
9:00,95,116
9:05,103,132
9:10,110,135
9:15,99,121
9:20,118,146
9:25,113,143
9:30,131,163
9:35,122,154
9:40,179,221
9:45,215,269
9:50,211,274
9:55,133,176
10:00,118,151
10:05,170,204
10:10,242,308
10:15,271,354
10:20,218,287
10:25,236,296
10:30,267,336
10:35,317,401
10:40,257,330
10:45,245,311
10:50,163,216
10:55,230,278
11:00,270,342
11:05,260,332
11:10,203,257
11:15,209,253
11:20,251,303
11:25,288,345
11:30,297,362
11:35,288,360
11:40,262,321
11:45,261,320
11:50,236,290
11:55,188,232
12:00,179,216
12:05,218,262
12:10,245,300
12:15,274,332
12:20,283,348
12:25,268,326
12:30,270,329
12:35,273,329
12:40,267,326
12:45,241,300
12:50,235,283
12:55,281,333
13:00,270,325
13:05,246,292
13:10,234,283
13:15,222,267
13:20,200,245
13:25,215,265
13:30,192,240
13:35,188,231
13:40,151,187
13:45,171,208
13:50,127,158
13:55,93,114
14:00,107,128
14:05,111,139
14:10,43,65
14:15,36,73
14:20,40,110
14:25,82,103
14:30,75,93
14:35,88,106
14:40,77,96
14:45,72,87
14:50,59,71
14:55,67,79
15:00,22,31
15:05,10,11
15:10,0,0
15:15,17,19
15:20,5,5
15:25,9,9
15:30,0,0
15:35,16,16
15:40,7,7
15:45,8,7
15:50,7,7
15:55,0,0
16:00,0,0
16:05,0,0
16:10,0,0
16:15,0,0
16:20,0,0
16:25,0,0
16:30,0,0
16:35,0,0
16:40,0,0
16:45,0,0
16:50,0,0
16:55,0,0
17:00,0,0
17:05,0,0
17:10,0,0
17:15,0,0
17:20,0,0
17:25,0,0
17:30,0,0
17:35,0,0
17:40,0,0
17:45,0,0
17:50,0,0
17:55,0,0
18:00,0,0
18:05,0,0
18:10,0,0
18:15,0,0
18:20,0,0
18:25,0,0
18:30,0,0
18:35,0,0
18:40,0,0
18:45,0,0
18:50,0,0
18:55,0,0
19:00,0,0
19:05,0,0
19:10,0,0
19:15,0,0
19:20,0,0
19:25,0,0
19:30,0,0
19:35,0,0
19:40,0,0
19:45,0,0
19:50,0,0
19:55,0,0
20:00,0,0
20:05,0,0
20:10,0,0
20:15,0,0
20:20,0,0
20:25,0,0
20:30,0,0
20:35,0,0
20:40,0,0
20:45,0,0
20:50,0,0
20:55,0,0
21:00,0,0
21:05,0,0
21:10,0,0
21:15,0,0
21:20,0,0
21:25,0,0
21:30,0,0
