4:30,0,0
4:35,0,0
4:40,0,0
4:45,0,0
4:50,0,0
4:55,0,0
5:00,0,0
5:05,0,0
5:10,0,0
5:15,0,0
5:20,0,0
5:25,0,0
5:30,0,0
5:35,0,0
5:40,0,0
5:45,0,0
5:50,0,0
5:55,0,0
6:00,0,0
6:05,0,0
6:10,0,0
6:15,0,0
6:20,0,0
6:25,0,0
6:30,0,0
6:35,0,0
6:40,0,0
6:45,0,0
6:50,0,0
6:55,0,0
7:00,0,0
7:05,0,0
7:10,0,0
7:15,0,0
7:20,0,0
7:25,0,0
7:30,0,0
7:35,0,0
7:40,0,0
7:45,15,17
7:50,8,10
7:55,10,35
8:00,8,11
8:05,8,8
8:10,7,9
8:15,18,44
8:20,14,98
8:25,38,83
8:30,92,129
8:35,90,126
8:40,54,75
8:45,72,91
8:50,97,126
8:55,89,117
9:00,33,73
9:05,28,81
9:10,137,188
9:15,106,157
9:20,101,142
9:25,72,102
9:30,75,94
9:35,117,145
9:40,126,155
9:45,233,300
9:50,128,184
9:55,114,152
10:00,110,147
10:05,66,95
10:10,133,179
10:15,96,126
10:20,147,188
10:25,158,208
10:30,106,139
10:35,40,72
10:40,20,73
10:45,22,77
10:50,66,118
10:55,133,175
11:00,127,168
11:05,85,112
11:10,95,128
11:15,160,205
11:20,138,182
11:25,116,153
11:30,135,177
11:35,111,144
11:40,132,168
11:45,174,225
11:50,168,224
11:55,195,257
12:00,195,250
12:05,347,445
12:10,381,474
12:15,510,626
12:20,516,646
12:25,568,692
12:30,220,300
12:35,362,479
12:40,519,600
12:45,553,659
12:50,263,367
12:55,193,265
13:00,254,329
13:05,135,196
13:10,236,307
13:15,371,445
13:20,507,555
13:25,675,671
13:30,485,501
13:35,443,490
13:40,552,582
13:45,702,660
13:50,621,548
13:55,357,400
14:00,331,407
14:05,471,516
14:10,228,305
14:15,295,362
14:20,293,380
14:25,235,303
14:30,501,487
14:35,279,344
14:40,592,401
14:45,928,535
14:50,1011,473
14:55,335,244
15:00,347,338
15:05,273,323
15:10,273,323
15:15,338,381
15:20,209,269
15:25,234,295
15:30,231,286
15:35,234,291
15:40,245,290
15:45,258,286
15:50,331,308
15:55,378,323
16:00,472,251
16:05,290,157
16:10,221,112
16:15,125,109
16:20,185,131
16:25,133,137
16:30,129,116
16:35,133,109
16:40,131,115
16:45,119,117
16:50,100,101
16:55,115,123
17:00,109,118
17:05,85,91
17:10,32,46
17:15,20,12
17:20,26,14
17:25,60,12
17:30,79,16
17:35,17,13
17:40,17,11
17:45,17,13
17:50,10,10
17:55,9,11
18:00,0,0
18:05,0,0
18:10,0,0
18:15,0,0
18:20,0,0
18:25,0,0
18:30,0,0
18:35,0,0
18:40,0,0
18:45,0,0
18:50,0,0
18:55,0,0
19:00,0,0
19:05,0,0
19:10,0,0
19:15,0,0
19:20,0,0
19:25,0,0
19:30,0,0
19:35,0,0
19:40,0,0
19:45,0,0
19:50,0,0
19:55,0,0
20:00,0,0
20:05,0,0
20:10,0,0
20:15,0,0
20:20,0,0
20:25,0,0
20:30,0,0
20:35,0,0
20:40,0,0
20:45,0,0
20:50,0,0
20:55,0,0
21:00,0,0
21:05,0,0
21:10,0,0
21:15,0,0
21:20,0,0
21:25,0,0
21:30,0,0
