4:30,0,0
4:35,0,0
4:40,0,0
4:45,0,0
4:50,0,0
4:55,0,0
5:00,5,9
5:05,4,8
5:10,9,14
5:15,8,12
5:20,13,24
5:25,11,19
5:30,14,60
5:35,16,80
5:40,53,100
5:45,72,113
5:50,74,118
5:55,79,126
6:00,85,133
6:05,91,142
6:10,99,234
6:15,107,250
6:20,112,296
6:25,115,402
6:30,121,488
6:35,124,521
6:40,130,547
6:45,133,583
6:50,138,573
6:55,140,501
7:00,145,595
7:05,151,680
7:10,153,692
7:15,157,743
7:20,160,757
7:25,162,815
7:30,168,846
7:35,170,880
7:40,177,907
7:45,182,951
7:50,189,1020
7:55,192,1032
8:00,205,1071
8:05,224,1108
8:10,249,1131
8:15,265,1134
8:20,289,1179
8:25,303,1210
8:30,331,1255
8:35,365,1354
8:40,375,1378
8:45,403,1386
8:50,433,1399
8:55,465,1433
9:00,482,1432
9:05,518,1463
9:10,542,1466
9:15,575,1531
9:20,603,1586
9:25,628,1587
9:30,659,1608
9:35,688,1614
9:40,718,1634
9:45,745,1644
9:50,776,1658
9:55,802,1659
10:00,829,1667
10:05,856,1673
10:10,889,1689
10:15,918,1694
10:20,945,1709
10:25,974,1716
10:30,1002,1726
10:35,1023,1726
10:40,1038,1715
10:45,1071,1731
10:50,1088,1716
10:55,1128,1744
11:00,1150,1741
11:05,1177,1740
11:10,1199,1739
11:15,1206,1712
11:20,1239,1734
11:25,1269,1740
11:30,1286,1729
11:35,1307,1729
11:40,1329,1725
11:45,1345,1718
11:50,1356,1703
11:55,1384,1708
12:00,1405,1701
12:05,1425,1702
12:10,1431,1676
12:15,1444,1666
12:20,1474,1670
12:25,1496,1671
12:30,1513,1656
12:35,1505,1629
12:40,1492,1589
12:45,1536,1608
12:50,1556,1602
12:55,1572,1593
13:00,1578,1577
13:05,1601,1580
13:10,1612,1563
13:15,1619,1542
13:20,1625,1524
13:25,1633,1503
13:30,1644,1491
13:35,1651,1468
13:40,1663,1460
13:45,1660,1430
13:50,1670,1417
13:55,1676,1394
14:00,1686,1380
14:05,1679,1345
14:10,1652,1302
14:15,1684,1294
14:20,1710,1297
14:25,1707,1269
14:30,1705,1249
14:35,1699,1219
14:40,1668,1191
14:45,1633,1164
14:50,1628,1146
14:55,1614,1120
15:00,1547,1051
15:05,1508,1011
15:10,1505,1002
15:15,1489,980
15:20,1495,966
15:25,1513,953
15:30,1519,935
15:35,1490,902
15:40,1372,830
15:45,1405,831
15:50,1405,817
15:55,1364,779
16:00,1282,758
16:05,1249,729
16:10,1124,699
16:15,1061,668
16:20,972,641
16:25,919,615
16:30,857,581
16:35,758,553
16:40,706,522
16:45,537,498
16:50,592,468
16:55,497,439
17:00,430,404
17:05,355,375
17:10,266,347
17:15,206,326
17:20,117,302
17:25,102,269
17:30,147,251
17:35,150,239
17:40,144,212
17:45,139,194
17:50,136,173
17:55,130,151
18:00,123,139
18:05,118,132
18:10,116,126
18:15,114,121
18:20,110,117
18:25,108,117
18:30,106,114
18:35,103,112
18:40,98,110
18:45,98,110
18:50,99,107
18:55,93,105
19:00,90,105
19:05,89,102
19:10,87,100
19:15,84,95
19:20,82,95
19:25,80,91
19:30,77,90
19:35,74,83
19:40,72,82
19:45,69,78
19:50,67,74
19:55,62,72
20:00,59,69
20:05,55,64
20:10,50,58
20:15,40,53
20:20,18,26
20:25,16,21
20:30,13,12
20:35,12,15
20:40,9,8
20:45,10,9
20:50,5,5
20:55,10,10
21:00,0,0
21:05,0,0
21:10,0,0
21:15,0,0
21:20,0,0
21:25,0,0
21:30,0,0
