4:30,0,0
4:35,0,0
4:40,0,0
4:45,0,0
4:50,0,0
4:55,0,0
5:00,0,0
5:05,0,0
5:10,0,0
5:15,12,17
5:20,5,5
5:25,8,6
5:30,10,8
5:35,9,12
5:40,11,15
5:45,14,13
5:50,25,17
5:55,20,21
6:00,22,73
6:05,25,87
6:10,91,103
6:15,110,119
6:20,118,133
6:25,135,166
6:30,154,210
6:35,178,255
6:40,190,334
6:45,197,307
6:50,215,312
6:55,237,392
7:00,245,418
7:05,276,510
7:10,286,514
7:15,307,505
7:20,320,551
7:25,320,437
7:30,327,462
7:35,341,503
7:40,322,544
7:45,285,579
7:50,226,606
7:55,190,675
8:00,217,1078
8:05,230,1288
8:10,244,1291
8:15,243,1167
8:20,272,1258
8:25,287,1323
8:30,324,1344
8:35,350,1379
8:40,376,1439
8:45,403,1454
8:50,429,1473
8:55,453,1466
9:00,483,1496
9:05,514,1530
9:10,546,1550
9:15,577,1625
9:20,605,1643
9:25,635,1653
9:30,670,1670
9:35,697,1674
9:40,730,1690
9:45,764,1709
9:50,794,1716
9:55,827,1729
10:00,861,1745
10:05,899,1760
10:10,930,1757
10:15,959,1754
10:20,1004,1786
10:25,1036,1800
10:30,1082,1831
10:35,1137,1847
10:40,1167,1816
10:45,1268,1922
10:50,1328,1963
10:55,1429,1983
11:00,1643,2133
11:05,974,1138
11:10,576,665
11:15,406,446
11:20,457,407
11:25,593,513
11:30,1301,1530
11:35,749,856
11:40,1265,1559
11:45,1775,2130
11:50,1281,1403
11:55,544,534
12:00,491,443
12:05,541,485
12:10,685,672
12:15,812,834
12:20,1728,1742
12:25,962,975
12:30,690,707
12:35,648,630
12:40,787,734
12:45,954,891
12:50,1112,1065
12:55,701,658
13:00,619,538
13:05,666,584
13:10,714,674
13:15,388,365
13:20,394,322
13:25,497,397
13:30,582,495
13:35,641,569
13:40,726,665
13:45,881,835
13:50,559,581
13:55,485,480
14:00,485,443
14:05,522,431
14:10,620,468
14:15,765,559
14:20,971,707
14:25,1554,1151
14:30,1362,1092
14:35,930,786
14:40,968,821
14:45,1006,869
14:50,801,772
14:55,650,670
15:00,577,584
15:05,546,517
15:10,563,488
15:15,685,535
15:20,1008,728
15:25,1038,838
15:30,662,652
15:35,523,541
15:40,429,442
15:45,398,373
15:50,466,379
15:55,548,443
16:00,613,491
16:05,675,542
16:10,666,546
16:15,684,534
16:20,749,533
16:25,1673,814
16:30,1266,673
16:35,1636,746
16:40,1144,625
16:45,698,472
16:50,776,458
16:55,735,471
17:00,1309,604
17:05,1435,604
17:10,959,475
17:15,583,387
17:20,485,353
17:25,445,345
17:30,439,356
17:35,440,368
17:40,396,352
17:45,354,318
17:50,327,286
17:55,435,264
18:00,500,284
18:05,506,321
18:10,486,321
18:15,416,289
18:20,485,275
18:25,400,274
18:30,325,277
18:35,240,207
18:40,228,184
18:45,218,170
18:50,289,182
18:55,310,199
19:00,278,207
19:05,223,187
19:10,175,152
19:15,173,133
19:20,208,138
19:25,256,153
19:30,255,153
19:35,203,118
19:40,170,95
19:45,164,89
19:50,168,92
19:55,157,84
20:00,165,87
20:05,176,96
20:10,137,79
20:15,116,68
20:20,88,63
20:25,74,57
20:30,64,44
20:35,59,18
20:40,56,11
20:45,39,12
20:50,57,10
20:55,38,9
21:00,11,7
21:05,9,5
21:10,12,8
21:15,0,0
21:20,0,0
21:25,0,0
21:30,0,0
