4:30,0,0
4:35,0,0
4:40,0,0
4:45,0,0
4:50,0,0
4:55,0,0
5:00,0,0
5:05,0,0
5:10,0,0
5:15,0,0
5:20,0,0
5:25,0,0
5:30,0,0
5:35,0,0
5:40,0,0
5:45,0,0
5:50,0,0
5:55,0,0
6:00,0,0
6:05,0,0
6:10,0,0
6:15,2,6
6:20,4,8
6:25,4,9
6:30,11,22
6:35,10,33
6:40,14,95
6:45,16,215
6:50,58,155
6:55,75,154
7:00,85,171
7:05,97,207
7:10,110,243
7:15,124,236
7:20,134,251
7:25,135,237
7:30,131,223
7:35,140,248
7:40,159,254
7:45,173,261
7:50,170,278
7:55,170,347
8:00,183,598
8:05,181,603
8:10,189,796
8:15,178,757
8:20,173,668
8:25,159,552
8:30,140,730
8:35,117,588
8:40,123,783
8:45,129,1122
8:50,133,1218
8:55,149,1318
9:00,190,1414
9:05,235,1475
9:10,258,1368
9:15,319,1200
9:20,423,1336
9:25,451,1078
9:30,474,847
9:35,500,930
9:40,493,877
9:45,449,923
9:50,356,791
9:55,331,951
10:00,403,1350
10:05,448,1486
10:10,517,1614
10:15,573,1651
10:20,616,1645
10:25,668,1625
10:30,756,1663
10:35,868,1701
10:40,785,1480
10:45,816,1512
10:50,786,1399
10:55,1080,1822
11:00,809,1206
11:05,628,806
11:10,784,966
11:15,951,1130
11:20,979,1167
11:25,727,797
11:30,713,798
11:35,593,664
11:40,609,644
11:45,708,700
11:50,1043,1139
11:55,932,997
12:00,867,906
12:05,793,788
12:10,1024,1073
12:15,965,1025
12:20,749,759
12:25,677,657
12:30,676,666
12:35,651,677
12:40,526,511
12:45,514,473
12:50,487,459
12:55,534,488
13:00,613,568
13:05,570,501
13:10,786,642
13:15,771,742
13:20,484,484
13:25,690,640
13:30,579,551
13:35,757,657
13:40,1138,930
13:45,949,869
13:50,912,814
13:55,1026,925
14:00,773,715
14:05,642,566
14:10,602,513
14:15,751,656
14:20,779,714
14:25,662,626
14:30,529,490
14:35,566,511
14:40,512,461
14:45,570,497
14:50,581,517
14:55,628,550
15:00,584,526
15:05,525,502
15:10,371,362
15:15,351,306
15:20,407,347
15:25,529,404
15:30,846,620
15:35,829,686
15:40,680,560
15:45,472,421
15:50,400,375
15:55,356,313
16:00,365,325
16:05,293,269
16:10,259,238
16:15,260,232
16:20,266,231
16:25,256,242
16:30,182,173
16:35,158,150
16:40,145,131
16:45,137,131
16:50,153,131
16:55,336,280
17:00,297,266
17:05,288,259
17:10,184,164
17:15,212,189
17:20,176,158
17:25,159,149
17:30,98,91
17:35,106,98
17:40,95,88
17:45,80,69
17:50,80,70
17:55,67,58
18:00,56,46
18:05,24,15
18:10,42,16
18:15,16,15
18:20,25,12
18:25,11,10
18:30,11,14
18:35,10,9
18:40,11,14
18:45,12,10
18:50,33,19
18:55,12,10
19:00,9,9
19:05,6,5
19:10,8,7
19:15,12,10
19:20,14,14
19:25,0,0
19:30,0,0
19:35,0,0
19:40,0,0
19:45,0,0
19:50,0,0
19:55,0,0
20:00,0,0
20:05,0,0
20:10,0,0
20:15,0,0
20:20,0,0
20:25,0,0
20:30,0,0
20:35,0,0
20:40,0,0
20:45,0,0
20:50,0,0
20:55,0,0
21:00,0,0
21:05,0,0
21:10,0,0
21:15,0,0
21:20,0,0
21:25,0,0
21:30,0,0
