4:30,0,0
4:35,0,0
4:40,0,0
4:45,0,0
4:50,0,0
4:55,0,0
5:00,0,0
5:05,0,0
5:10,0,0
5:15,0,0
5:20,0,0
5:25,0,0
5:30,0,0
5:35,0,0
5:40,0,0
5:45,0,0
5:50,0,0
5:55,0,0
6:00,0,0
6:05,0,0
6:10,0,0
6:15,0,0
6:20,0,0
6:25,0,0
6:30,0,0
6:35,0,0
6:40,0,0
6:45,0,0
6:50,0,0
6:55,0,0
7:00,0,0
7:05,0,0
7:10,0,0
7:15,0,0
7:20,0,0
7:25,0,0
7:30,0,0
7:35,0,0
7:40,0,0
7:45,0,0
7:50,0,0
7:55,0,0
8:00,0,0
8:05,9,15
8:10,8,10
8:15,13,16
8:20,6,7
8:25,7,12
8:30,11,13
8:35,20,17
8:40,18,20
8:45,49,50
8:50,63,62
8:55,79,73
9:00,94,86
9:05,104,102
9:10,81,89
9:15,89,97
9:20,102,113
9:25,138,172
9:30,141,161
9:35,146,221
9:40,128,156
9:45,109,115
9:50,117,129
9:55,123,146
10:00,159,357
10:05,198,478
10:10,178,244
10:15,261,453
10:20,307,555
10:25,302,450
10:30,318,488
10:35,307,327
10:40,384,410
10:45,346,367
10:50,367,398
10:55,354,377
11:00,327,358
11:05,399,459
11:10,428,503
11:15,312,357
11:20,225,249
11:25,282,292
11:30,325,326
11:35,336,315
11:40,349,326
11:45,427,411
11:50,446,433
11:55,429,419
12:00,374,372
12:05,316,333
12:10,250,268
12:15,263,285
12:20,274,288
12:25,283,291
12:30,320,313
12:35,304,308
12:40,285,274
12:45,332,290
12:50,400,350
12:55,363,312
13:00,414,303
13:05,279,252
13:10,257,229
13:15,248,209
13:20,243,226
13:25,224,215
13:30,264,231
13:35,373,252
13:40,395,225
13:45,401,194
13:50,281,181
13:55,294,200
14:00,343,181
14:05,254,155
14:10,333,160
14:15,228,136
14:20,199,131
14:25,239,157
14:30,276,190
14:35,172,145
14:40,151,121
14:45,125,104
14:50,87,82
14:55,83,67
15:00,102,72
15:05,102,72
15:10,84,65
15:15,58,42
15:20,46,14
15:25,20,15
15:30,13,11
15:35,9,8
15:40,8,6
15:45,8,5
15:50,9,7
15:55,0,0
16:00,0,0
16:05,0,0
16:10,0,0
16:15,0,0
16:20,0,0
16:25,0,0
16:30,0,0
16:35,0,0
16:40,0,0
16:45,0,0
16:50,0,0
16:55,0,0
17:00,0,0
17:05,0,0
17:10,0,0
17:15,0,0
17:20,0,0
17:25,0,0
17:30,0,0
17:35,0,0
17:40,0,0
17:45,0,0
17:50,0,0
17:55,0,0
18:00,0,0
18:05,0,0
18:10,0,0
18:15,0,0
18:20,0,0
18:25,0,0
18:30,0,0
18:35,0,0
18:40,0,0
18:45,0,0
18:50,0,0
18:55,0,0
19:00,0,0
19:05,0,0
19:10,0,0
19:15,0,0
19:20,0,0
19:25,0,0
19:30,0,0
19:35,0,0
19:40,0,0
19:45,0,0
19:50,0,0
19:55,0,0
20:00,0,0
20:05,0,0
20:10,0,0
20:15,0,0
20:20,0,0
20:25,0,0
20:30,0,0
20:35,0,0
20:40,0,0
20:45,0,0
20:50,0,0
20:55,0,0
21:00,0,0
21:05,0,0
21:10,0,0
21:15,0,0
21:20,0,0
21:25,0,0
21:30,0,0
21:35,0,0
