4:30,0,0
4:35,0,0
4:40,0,0
4:45,0,0
4:50,0,0
4:55,0,0
5:00,0,0
5:05,0,0
5:10,0,0
5:15,0,0
5:20,0,0
5:25,0,0
5:30,0,0
5:35,0,0
5:40,0,0
5:45,0,0
5:50,0,0
5:55,0,0
6:00,0,0
6:05,0,0
6:10,0,0
6:15,0,0
6:20,0,0
6:25,0,0
6:30,0,0
6:35,0,0
6:40,0,0
6:45,0,0
6:50,0,0
6:55,0,0
7:00,0,0
7:05,0,0
7:10,0,0
7:15,0,0
7:20,0,0
7:25,0,0
7:30,0,0
7:35,0,0
7:40,0,0
7:45,0,0
7:50,0,0
7:55,0,0
8:00,0,0
8:05,0,0
8:10,0,0
8:15,0,0
8:20,0,0
8:25,0,0
8:30,0,0
8:35,0,0
8:40,0,0
8:45,0,0
8:50,0,0
8:55,0,0
9:00,16,14
9:05,6,5
9:10,6,8
9:15,7,8
9:20,8,11
9:25,9,10
9:30,12,12
9:35,13,13
9:40,17,16
9:45,63,62
9:50,65,62
9:55,63,59
10:00,68,67
10:05,70,73
10:10,76,78
10:15,81,84
10:20,81,78
10:25,81,73
10:30,62,59
10:35,57,56
10:40,68,70
10:45,78,78
10:50,81,84
10:55,86,86
11:00,95,92
11:05,97,89
11:10,102,94
11:15,123,116
11:20,148,139
11:25,126,125
11:30,121,119
11:35,123,125
11:40,124,122
11:45,115,111
11:50,112,111
11:55,118,114
12:00,112,108
12:05,115,110
12:10,156,144
12:15,139,133
12:20,126,116
12:25,115,110
12:30,112,105
12:35,107,102
12:40,102,97
12:45,107,99
12:50,100,96
12:55,97,94
13:00,94,88
13:05,104,97
13:10,131,125
13:15,104,99
13:20,91,89
13:25,88,84
13:30,88,86
13:35,78,75
13:40,78,75
13:45,75,72
13:50,77,72
13:55,75,72
14:00,78,74
14:05,70,67
14:10,60,56
14:15,57,53
14:20,49,48
14:25,20,14
14:30,18,16
14:35,11,11
14:40,10,10
14:45,9,9
14:50,12,11
14:55,8,7
15:00,9,8
15:05,6,5
15:10,6,5
15:15,7,6
15:20,0,0
15:25,0,0
15:30,0,0
15:35,0,0
15:40,0,0
15:45,0,0
15:50,0,0
15:55,0,0
16:00,0,0
16:05,0,0
16:10,0,0
16:15,0,0
16:20,0,0
16:25,0,0
16:30,0,0
16:35,0,0
16:40,0,0
16:45,0,0
16:50,0,0
16:55,0,0
17:00,0,0
17:05,0,0
17:10,0,0
17:15,0,0
17:20,0,0
17:25,0,0
17:30,0,0
17:35,0,0
17:40,0,0
17:45,0,0
17:50,0,0
17:55,0,0
18:00,0,0
18:05,0,0
18:10,0,0
18:15,0,0
18:20,0,0
18:25,0,0
18:30,0,0
18:35,0,0
18:40,0,0
18:45,0,0
18:50,0,0
18:55,0,0
19:00,0,0
19:05,0,0
19:10,0,0
19:15,0,0
19:20,0,0
19:25,0,0
19:30,0,0
19:35,0,0
19:40,0,0
19:45,0,0
19:50,0,0
19:55,0,0
20:00,0,0
20:05,0,0
20:10,0,0
20:15,0,0
20:20,0,0
20:25,0,0
20:30,0,0
20:35,0,0
20:40,0,0
20:45,0,0
20:50,0,0
20:55,0,0
21:00,0,0
21:05,0,0
21:10,0,0
21:15,0,0
21:20,0,0
21:25,0,0
21:30,0,0
21:35,0,0
