4:30,0,0
4:35,0,0
4:40,0,0
4:45,0,0
4:50,0,0
4:55,0,0
5:00,0,0
5:05,0,0
5:10,0,0
5:15,0,0
5:20,0,0
5:25,0,0
5:30,0,0
5:35,0,0
5:40,0,0
5:45,0,0
5:50,0,0
5:55,0,0
6:00,0,0
6:05,0,0
6:10,0,0
6:15,0,0
6:20,0,0
6:25,0,0
6:30,0,0
6:35,0,0
6:40,0,0
6:45,0,0
6:50,0,0
6:55,0,0
7:00,0,0
7:05,0,0
7:10,0,0
7:15,0,0
7:20,0,0
7:25,0,0
7:30,0,0
7:35,0,0
7:40,0,0
7:45,0,0
7:50,0,0
7:55,0,0
8:00,0,0
8:05,0,0
8:10,0,0
8:15,0,0
8:20,9,9
8:25,6,6
8:30,11,10
8:35,6,6
8:40,10,14
8:45,13,13
8:50,10,14
8:55,13,13
9:00,22,21
9:05,15,15
9:10,48,46
9:15,55,56
9:20,22,21
9:25,19,18
9:30,37,35
9:35,65,61
9:40,88,79
9:45,99,95
9:50,93,86
9:55,107,97
10:00,112,111
10:05,115,106
10:10,136,125
10:15,149,141
10:20,181,171
10:25,165,160
10:30,231,211
10:35,275,265
10:40,307,300
10:45,381,414
10:50,372,416
10:55,373,389
11:00,422,501
11:05,392,479
11:10,389,437
11:15,345,351
11:20,305,316
11:25,270,273
11:30,238,225
11:35,271,278
11:40,306,296
11:45,438,421
11:50,489,490
11:55,453,448
12:00,396,398
12:05,264,249
12:10,299,266
12:15,283,277
12:20,275,253
12:25,361,337
12:30,351,331
12:35,318,295
12:40,372,330
12:45,422,394
12:50,327,301
12:55,290,256
13:00,210,190
13:05,216,196
13:10,243,227
13:15,168,158
13:20,190,173
13:25,257,228
13:30,216,208
13:35,176,156
13:40,246,230
13:45,166,162
13:50,168,148
13:55,169,154
14:00,222,205
14:05,142,131
14:10,185,164
14:15,190,167
14:20,142,126
14:25,161,143
14:30,153,137
14:35,148,129
14:40,110,107
14:45,95,85
14:50,92,85
14:55,77,72
15:00,66,63
15:05,74,72
15:10,77,72
15:15,100,94
15:20,135,118
15:25,162,133
15:30,188,138
15:35,161,135
15:40,110,103
15:45,90,83
15:50,61,58
15:55,12,12
16:00,8,8
16:05,6,5
16:10,10,10
16:15,21,20
16:20,14,12
16:25,15,14
16:30,8,7
16:35,7,4
16:40,12,12
16:45,0,0
16:50,0,0
16:55,0,0
17:00,0,0
17:05,0,0
17:10,0,0
17:15,0,0
17:20,0,0
17:25,0,0
17:30,0,0
17:35,0,0
17:40,0,0
17:45,0,0
17:50,0,0
17:55,0,0
18:00,0,0
18:05,0,0
18:10,0,0
18:15,0,0
18:20,0,0
18:25,0,0
18:30,0,0
18:35,0,0
18:40,0,0
18:45,0,0
18:50,0,0
18:55,0,0
19:00,0,0
19:05,0,0
19:10,0,0
19:15,0,0
19:20,0,0
19:25,0,0
19:30,0,0
19:35,0,0
19:40,0,0
19:45,0,0
19:50,0,0
19:55,0,0
20:00,0,0
20:05,0,0
20:10,0,0
20:15,0,0
20:20,0,0
20:25,0,0
20:30,0,0
20:35,0,0
20:40,0,0
20:45,0,0
20:50,0,0
20:55,0,0
21:00,0,0
21:05,0,0
21:10,0,0
21:15,0,0
21:20,0,0
21:25,0,0
21:30,0,0
