4:30,0,0
4:35,0,0
4:40,0,0
4:45,0,0
4:50,0,0
4:55,0,0
5:00,0,0
5:05,0,0
5:10,0,0
5:15,0,0
5:20,0,0
5:25,0,0
5:30,0,0
5:35,0,0
5:40,0,0
5:45,0,0
5:50,0,0
5:55,0,0
6:00,0,0
6:05,0,0
6:10,0,0
6:15,13,15
6:20,6,7
6:25,13,19
6:30,12,20
6:35,31,53
6:40,62,118
6:45,67,144
6:50,73,175
6:55,74,229
7:00,78,254
7:05,80,275
7:10,83,298
7:15,91,331
7:20,99,331
7:25,112,345
7:30,126,409
7:35,131,437
7:40,124,480
7:45,134,492
7:50,137,534
7:55,142,577
8:00,148,662
8:05,156,762
8:10,163,863
8:15,163,901
8:20,164,929
8:25,188,1000
8:30,194,1061
8:35,200,1082
8:40,218,1119
8:45,254,1171
8:50,259,1218
8:55,286,1276
9:00,347,1213
9:05,404,1203
9:10,428,1071
9:15,440,994
9:20,462,1029
9:25,517,1073
9:30,488,931
9:35,519,906
9:40,505,909
9:45,533,1020
9:50,518,1067
9:55,572,1206
10:00,567,1196
10:05,603,1261
10:10,649,1204
10:15,581,978
10:20,437,511
10:25,531,647
10:30,413,467
10:35,459,441
10:40,551,604
10:45,431,479
10:50,351,388
10:55,517,622
11:00,917,1340
11:05,1034,1451
11:10,680,734
11:15,481,526
11:20,483,449
11:25,579,563
11:30,1053,1272
11:35,858,1041
11:40,619,687
11:45,1240,1506
11:50,994,1209
11:55,612,727
12:00,567,664
12:05,950,1154
12:10,941,1111
12:15,1212,1408
12:20,1180,1364
12:25,1419,1591
12:30,1520,1687
12:35,1480,1628
12:40,1408,1508
12:45,1642,1675
12:50,1605,1639
12:55,1411,1400
13:00,1439,1421
13:05,1531,1479
13:10,1366,1286
13:15,1173,1091
13:20,1249,1144
13:25,1514,1386
13:30,1488,1313
13:35,1383,1187
13:40,1078,932
13:45,1311,1113
13:50,1573,1283
13:55,1555,1230
14:00,1558,1197
14:05,1345,1028
14:10,1605,1195
14:15,1601,1149
14:20,1564,1095
14:25,1491,1030
14:30,1492,1008
14:35,1512,1004
14:40,1497,978
14:45,1491,955
14:50,1506,937
14:55,1491,910
15:00,1469,881
15:05,1437,847
15:10,1431,820
15:15,1404,788
15:20,1405,767
15:25,1439,761
15:30,1399,723
15:35,1392,699
15:40,1359,670
15:45,1311,635
15:50,1331,626
15:55,1298,599
16:00,1187,548
16:05,1182,540
16:10,1179,521
16:15,1195,506
16:20,1185,487
16:25,1166,464
16:30,1149,416
16:35,1179,429
16:40,1150,399
16:45,1148,377
16:50,1098,352
16:55,1017,327
17:00,984,312
17:05,963,299
17:10,907,279
17:15,869,264
17:20,818,247
17:25,773,239
17:30,717,226
17:35,526,208
17:40,541,196
17:45,661,201
17:50,611,207
17:55,528,201
18:00,485,188
18:05,455,180
18:10,388,175
18:15,331,166
18:20,290,158
18:25,261,146
18:30,243,138
18:35,238,133
18:40,233,128
18:45,227,125
18:50,216,120
18:55,204,114
19:00,188,108
19:05,167,98
19:10,136,85
19:15,100,64
19:20,77,46
19:25,76,15
19:30,74,20
19:35,72,13
19:40,66,17
19:45,59,11
19:50,44,13
19:55,12,7
20:00,14,6
20:05,6,3
20:10,16,9
20:15,0,0
20:20,0,0
20:25,0,0
20:30,0,0
20:35,0,0
20:40,0,0
20:45,0,0
20:50,0,0
20:55,0,0
21:00,0,0
21:05,0,0
21:10,0,0
21:15,0,0
21:20,0,0
21:25,0,0
21:30,0,0
