4:30,0,0
4:35,0,0
4:40,0,0
4:45,0,0
4:50,0,0
4:55,0,0
5:00,0,0
5:05,0,0
5:10,0,0
5:15,0,0
5:20,0,0
5:25,0,0
5:30,0,0
5:35,0,0
5:40,0,0
5:45,0,0
5:50,0,0
5:55,0,0
6:00,0,0
6:05,0,0
6:10,0,0
6:15,0,0
6:20,0,0
6:25,0,0
6:30,0,0
6:35,0,0
6:40,0,0
6:45,0,0
6:50,0,0
6:55,0,0
7:00,0,0
7:05,0,0
7:10,0,0
7:15,0,0
7:20,0,0
7:25,0,0
7:30,0,0
7:35,0,0
7:40,0,0
7:45,0,0
7:50,0,0
7:55,0,0
8:00,0,0
8:05,0,0
8:10,14,13
8:15,6,5
8:20,9,8
8:25,12,12
8:30,30,16
8:35,70,20
8:40,79,37
8:45,99,95
8:50,112,113
8:55,123,127
9:00,139,159
9:05,147,182
9:10,164,194
9:15,171,190
9:20,171,187
9:25,174,181
9:30,158,161
9:35,149,148
9:40,168,161
9:45,179,178
9:50,209,202
9:55,300,293
10:00,310,321
10:05,295,290
10:10,281,263
10:15,194,174
10:20,159,138
10:25,121,112
10:30,105,93
10:35,124,115
10:40,138,128
10:45,124,116
10:50,130,119
10:55,135,121
11:00,152,147
11:05,187,178
11:10,184,150
11:15,203,195
11:20,324,291
11:25,240,220
11:30,210,207
11:35,208,197
11:40,162,152
11:45,175,169
11:50,181,167
11:55,235,236
12:00,342,321
12:05,283,252
12:10,212,193
12:15,188,189
12:20,240,218
12:25,232,217
12:30,288,270
12:35,310,276
12:40,277,255
12:45,252,231
12:50,195,178
12:55,210,194
13:00,209,200
13:05,191,175
13:10,180,166
13:15,194,180
13:20,191,181
13:25,210,192
13:30,180,160
13:35,161,152
13:40,178,163
13:45,156,132
13:50,129,115
13:55,129,130
14:00,148,151
14:05,135,133
14:10,138,124
14:15,145,130
14:20,118,107
14:25,102,93
14:30,105,98
14:35,116,113
14:40,124,116
14:45,118,109
14:50,127,121
14:55,170,161
15:00,172,155
15:05,165,138
15:10,113,99
15:15,115,106
15:20,129,109
15:25,135,111
15:30,110,95
15:35,94,83
15:40,76,73
15:45,60,59
15:50,55,54
15:55,30,47
16:00,13,14
16:05,15,16
16:10,9,10
16:15,8,12
16:20,7,7
16:25,8,5
16:30,5,5
16:35,7,6
16:40,10,8
16:45,0,0
16:50,0,0
16:55,0,0
17:00,0,0
17:05,0,0
17:10,0,0
17:15,0,0
17:20,0,0
17:25,0,0
17:30,0,0
17:35,0,0
17:40,0,0
17:45,0,0
17:50,0,0
17:55,0,0
18:00,0,0
18:05,0,0
18:10,0,0
18:15,0,0
18:20,0,0
18:25,0,0
18:30,0,0
18:35,0,0
18:40,0,0
18:45,0,0
18:50,0,0
18:55,0,0
19:00,0,0
19:05,0,0
19:10,0,0
19:15,0,0
19:20,0,0
19:25,0,0
19:30,0,0
19:35,0,0
19:40,0,0
19:45,0,0
19:50,0,0
19:55,0,0
20:00,0,0
20:05,0,0
20:10,0,0
20:15,0,0
20:20,0,0
20:25,0,0
20:30,0,0
20:35,0,0
20:40,0,0
20:45,0,0
20:50,0,0
20:55,0,0
21:00,0,0
21:05,0,0
21:10,0,0
21:15,0,0
21:20,0,0
21:25,0,0
21:30,0,0
