4:30,0,0
4:35,0,0
4:40,0,0
4:45,0,0
4:50,0,0
4:55,0,0
5:00,0,0
5:05,0,0
5:10,0,0
5:15,0,0
5:20,0,0
5:25,0,0
5:30,0,0
5:35,0,0
5:40,0,0
5:45,0,0
5:50,0,0
5:55,0,0
6:00,0,0
6:05,0,0
6:10,0,0
6:15,0,0
6:20,0,0
6:25,0,0
6:30,0,0
6:35,0,0
6:40,0,0
6:45,0,0
6:50,0,0
6:55,0,0
7:00,0,0
7:05,0,0
7:10,0,0
7:15,0,0
7:20,0,0
7:25,0,0
7:30,0,0
7:35,0,0
7:40,0,0
7:45,0,0
7:50,0,0
7:55,0,0
8:00,0,0
8:05,0,0
8:10,0,0
8:15,0,0
8:20,0,0
8:25,0,0
8:30,0,0
8:35,0,0
8:40,0,0
8:45,0,0
8:50,0,0
8:55,0,0
9:00,0,0
9:05,0,0
9:10,0,0
9:15,0,0
9:20,0,0
9:25,8,10
9:30,9,11
9:35,0,0
9:40,10,10
9:45,5,5
9:50,8,8
9:55,6,6
10:00,11,8
10:05,8,8
10:10,47,17
10:15,29,15
10:20,40,17
10:25,19,19
10:30,20,22
10:35,13,14
10:40,30,28
10:45,44,46
10:50,30,73
10:55,22,82
11:00,26,52
11:05,18,21
11:10,31,30
11:15,33,32
11:20,38,39
11:25,52,52
11:30,32,53
11:35,63,63
11:40,57,58
11:45,21,26
11:50,17,17
11:55,81,83
12:00,101,105
12:05,60,63
12:10,57,58
12:15,71,72
12:20,75,77
12:25,73,75
12:30,71,74
12:35,106,108
12:40,103,105
12:45,100,105
12:50,98,100
12:55,109,110
13:00,79,80
13:05,90,91
13:10,117,116
13:15,147,144
13:20,95,97
13:25,185,188
13:30,153,158
13:35,150,141
13:40,256,226
13:45,96,102
13:50,109,105
13:55,142,141
14:00,117,113
14:05,134,127
14:10,112,108
14:15,106,104
14:20,89,80
14:25,87,88
14:30,42,46
14:35,12,12
14:40,5,6
14:45,9,9
14:50,8,8
14:55,12,12
15:00,6,7
15:05,8,6
15:10,8,7
15:15,12,18
15:20,11,9
15:25,18,8
15:30,12,8
15:35,14,10
15:40,7,5
15:45,6,4
15:50,12,12
15:55,0,0
16:00,0,0
16:05,0,0
16:10,0,0
16:15,0,0
16:20,0,0
16:25,0,0
16:30,0,0
16:35,0,0
16:40,0,0
16:45,0,0
16:50,0,0
16:55,0,0
17:00,0,0
17:05,0,0
17:10,0,0
17:15,0,0
17:20,0,0
17:25,0,0
17:30,0,0
17:35,0,0
17:40,0,0
17:45,0,0
17:50,0,0
17:55,0,0
18:00,0,0
18:05,0,0
18:10,0,0
18:15,0,0
18:20,0,0
18:25,0,0
18:30,0,0
18:35,0,0
18:40,0,0
18:45,0,0
18:50,0,0
18:55,0,0
19:00,0,0
19:05,0,0
19:10,0,0
19:15,0,0
19:20,0,0
19:25,0,0
19:30,0,0
19:35,0,0
19:40,0,0
19:45,0,0
19:50,0,0
19:55,0,0
20:00,0,0
20:05,0,0
20:10,0,0
20:15,0,0
20:20,0,0
20:25,0,0
20:30,0,0
20:35,0,0
20:40,0,0
20:45,0,0
20:50,0,0
20:55,0,0
21:00,0,0
21:05,0,0
21:10,0,0
21:15,0,0
21:20,0,0
21:25,0,0
21:30,0,0
