4:30,0,0
4:35,0,0
4:40,0,0
4:45,0,0
4:50,0,0
4:55,0,0
5:00,0,0
5:05,0,0
5:10,0,0
5:15,0,0
5:20,0,0
5:25,0,0
5:30,0,0
5:35,14,16
5:40,5,6
5:45,6,5
5:50,7,6
5:55,9,10
6:00,13,14
6:05,22,16
6:10,19,20
6:15,37,39
6:20,78,73
6:25,67,59
6:30,57,48
6:35,53,49
6:40,20,18
6:45,23,22
6:50,93,94
6:55,115,114
7:00,123,119
7:05,134,125
7:10,136,122
7:15,123,108
7:20,111,96
7:25,117,105
7:30,125,113
7:35,133,122
7:40,136,122
7:45,136,120
7:50,141,125
7:55,144,122
8:00,141,119
8:05,138,119
8:10,130,114
8:15,125,115
8:20,143,135
8:25,152,138
8:30,157,138
8:35,152,130
8:40,141,121
8:45,127,116
8:50,122,115
8:55,122,116
9:00,108,101
9:05,98,89
9:10,87,77
9:15,77,67
9:20,67,58
9:25,59,50
9:30,49,29
9:35,23,17
9:40,18,21
9:45,85,113
9:50,150,194
9:55,264,320
10:00,482,539
10:05,653,632
10:10,581,553
10:15,593,569
10:20,595,477
10:25,425,334
10:30,367,293
10:35,280,211
10:40,208,159
10:45,172,134
10:50,135,108
10:55,122,110
11:00,157,157
11:05,184,174
11:10,233,210
11:15,262,221
11:20,226,193
11:25,213,204
11:30,238,222
11:35,251,235
11:40,280,261
11:45,242,234
11:50,267,281
11:55,369,366
12:00,388,357
12:05,343,321
12:10,374,364
12:15,395,371
12:20,372,346
12:25,332,290
12:30,288,270
12:35,449,442
12:40,637,621
12:45,726,669
12:50,695,588
12:55,489,390
13:00,407,344
13:05,389,321
13:10,249,213
13:15,201,181
13:20,196,186
13:25,188,165
13:30,132,129
13:35,181,185
13:40,218,215
13:45,261,244
13:50,230,196
13:55,253,219
14:00,230,211
14:05,282,254
14:10,244,206
14:15,284,216
14:20,194,166
14:25,260,236
14:30,176,161
14:35,147,141
14:40,246,230
14:45,268,248
14:50,316,284
14:55,352,330
15:00,383,356
15:05,272,244
15:10,121,85
15:15,150,113
15:20,220,195
15:25,358,322
15:30,461,387
15:35,487,400
15:40,549,494
15:45,757,674
15:50,912,649
15:55,585,486
16:00,523,485
16:05,565,507
16:10,528,448
16:15,433,391
16:20,441,413
16:25,391,355
16:30,373,321
16:35,336,288
16:40,314,271
16:45,280,238
16:50,243,214
16:55,227,217
17:00,268,273
17:05,333,331
17:10,411,378
17:15,412,356
17:20,380,343
17:25,371,343
17:30,394,350
17:35,434,364
17:40,532,353
17:45,540,373
17:50,959,413
17:55,377,264
18:00,175,152
18:05,219,242
18:10,247,257
18:15,200,221
18:20,198,219
18:25,241,239
18:30,273,231
18:35,241,183
18:40,185,134
18:45,144,110
18:50,112,90
18:55,74,52
19:00,31,18
19:05,11,11
19:10,11,8
19:15,0,0
19:20,0,0
19:25,0,0
19:30,12,10
19:35,5,4
19:40,8,8
19:45,5,5
19:50,12,10
19:55,0,0
20:00,0,0
20:05,0,0
20:10,0,0
20:15,0,0
20:20,0,0
20:25,0,0
20:30,0,0
20:35,0,0
20:40,0,0
20:45,0,0
20:50,0,0
20:55,0,0
21:00,0,0
21:05,0,0
21:10,0,0
21:15,0,0
21:20,0,0
21:25,0,0
21:30,0,0
