4:30,0,0
4:35,0,0
4:40,0,0
4:45,0,0
4:50,0,0
4:55,0,0
5:00,0,0
5:05,0,0
5:10,0,0
5:15,0,0
5:20,0,0
5:25,0,0
5:30,0,0
5:35,5,10
5:40,4,7
5:45,8,9
5:50,6,11
5:55,11,45
6:00,10,148
6:05,17,240
6:10,13,263
6:15,23,299
6:20,16,324
6:25,17,353
6:30,18,381
6:35,48,404
6:40,68,447
6:45,72,481
6:50,77,504
6:55,79,543
7:00,80,580
7:05,85,605
7:10,87,601
7:15,89,610
7:20,93,691
7:25,95,699
7:30,99,764
7:35,101,797
7:40,99,787
7:45,105,906
7:50,109,965
7:55,111,991
8:00,114,1021
8:05,115,1041
8:10,120,1063
8:15,125,1098
8:20,131,1155
8:25,135,1238
8:30,159,1255
8:35,173,1281
8:40,191,1302
8:45,214,1328
8:50,213,1349
8:55,266,1369
9:00,293,1424
9:05,321,1465
9:10,344,1479
9:15,380,1507
9:20,409,1512
9:25,441,1538
9:30,469,1544
9:35,502,1566
9:40,534,1576
9:45,567,1599
9:50,599,1595
9:55,631,1616
10:00,663,1624
10:05,658,1634
10:10,700,1634
10:15,759,1646
10:20,788,1657
10:25,819,1659
10:30,850,1658
10:35,881,1668
10:40,910,1679
10:45,943,1687
10:50,969,1684
10:55,995,1683
11:00,1023,1683
11:05,1056,1689
11:10,1081,1686
11:15,1109,1683
11:20,1137,1680
11:25,1159,1674
11:30,1187,1677
11:35,1211,1663
11:40,1238,1657
11:45,1245,1641
11:50,1287,1667
11:55,1332,1684
12:00,1361,1695
12:05,1371,1684
12:10,1199,1451
12:15,1468,1721
12:20,1184,1342
12:25,1535,1721
12:30,1555,1710
12:35,1560,1675
12:40,1552,1648
12:45,1582,1656
12:50,966,951
12:55,1482,1503
13:00,928,902
13:05,322,293
13:10,565,523
13:15,1827,1737
13:20,1762,1646
13:25,1752,1608
13:30,1734,1564
13:35,1741,1547
13:40,1764,1542
13:45,1644,1390
13:50,1760,1494
13:55,1762,1484
14:00,1565,1279
14:05,1836,1501
14:10,1772,1417
14:15,993,765
14:20,674,536
14:25,459,368
14:30,1324,972
14:35,1029,749
14:40,427,349
14:45,414,368
14:50,421,340
14:55,440,342
15:00,400,309
15:05,424,305
15:10,445,301
15:15,368,263
15:20,311,224
15:25,356,265
15:30,365,257
15:35,808,445
15:40,1599,805
15:45,406,273
15:50,566,317
15:55,397,250
16:00,337,214
16:05,343,208
16:10,392,222
16:15,443,236
16:20,933,388
16:25,1589,581
16:30,908,386
16:35,423,263
16:40,517,284
16:45,626,295
16:50,1338,446
16:55,404,260
17:00,384,255
17:05,446,277
17:10,486,305
17:15,1147,362
17:20,1069,308
17:25,451,227
17:30,599,236
17:35,877,247
17:40,1145,249
17:45,1026,222
17:50,1151,212
17:55,1114,200
18:00,1038,180
18:05,1014,161
18:10,985,149
18:15,698,140
18:20,617,135
18:25,646,135
18:30,520,140
18:35,411,130
18:40,365,120
18:45,219,113
18:50,183,106
18:55,132,105
19:00,175,108
19:05,186,105
19:10,163,101
19:15,141,91
19:20,128,85
19:25,116,77
19:30,107,72
19:35,98,64
19:40,89,59
19:45,75,51
19:50,72,32
19:55,69,13
20:00,63,19
20:05,59,11
20:10,59,15
20:15,55,10
20:20,49,14
20:25,18,9
20:30,17,10
20:35,10,6
20:40,11,4
20:45,6,3
20:50,0,0
20:55,0,0
21:00,0,0
21:05,0,0
21:10,0,0
21:15,0,0
21:20,0,0
21:25,0,0
21:30,0,0
