4:30,0,0
4:35,0,0
4:40,0,0
4:45,0,0
4:50,0,0
4:55,0,0
5:00,0,0
5:05,0,0
5:10,0,0
5:15,0,0
5:20,0,0
5:25,0,0
5:30,0,0
5:35,0,0
5:40,0,0
5:45,0,0
5:50,0,0
5:55,0,0
6:00,0,0
6:05,13,10
6:10,9,7
6:15,11,10
6:20,14,15
6:25,46,55
6:30,67,89
6:35,77,101
6:40,86,103
6:45,88,110
6:50,96,118
6:55,110,133
7:00,127,154
7:05,143,165
7:10,162,185
7:15,186,210
7:20,197,221
7:25,197,218
7:30,197,218
7:35,213,232
7:40,243,268
7:45,268,306
7:50,283,344
7:55,289,343
8:00,305,393
8:05,329,418
8:10,323,424
8:15,298,392
8:20,274,425
8:25,268,575
8:30,296,815
8:35,340,1122
8:40,345,1231
8:45,339,1095
8:50,334,967
8:55,320,852
9:00,329,906
9:05,367,1005
9:10,436,1178
9:15,487,1242
9:20,472,1078
9:25,494,1021
9:30,545,1008
9:35,564,910
9:40,599,904
9:45,649,960
9:50,588,829
9:55,594,817
10:00,526,729
10:05,552,771
10:10,575,811
10:15,728,1046
10:20,667,843
10:25,557,617
10:30,479,470
10:35,526,515
10:40,952,1309
10:45,516,505
10:50,496,396
10:55,538,471
11:00,938,1106
11:05,1278,1615
11:10,808,975
11:15,572,593
11:20,493,477
11:25,720,682
11:30,1192,1280
11:35,1038,1093
11:40,870,887
11:45,924,939
11:50,909,954
11:55,771,818
12:00,1025,1079
12:05,1248,1289
12:10,1513,1525
12:15,1542,1508
12:20,1560,1468
12:25,1612,1474
12:30,1498,1336
12:35,1462,1267
12:40,1581,1339
12:45,1328,1138
12:50,1361,1121
12:55,1585,1223
13:00,1631,1262
13:05,1063,826
13:10,765,600
13:15,575,454
13:20,1736,1181
13:25,762,545
13:30,1591,1025
13:35,1611,991
13:40,1459,917
13:45,374,296
13:50,302,249
13:55,792,472
14:00,600,390
14:05,1288,648
14:10,1646,795
14:15,1765,831
14:20,1625,744
14:25,516,322
14:30,326,265
14:35,1305,560
14:40,1782,683
14:45,1701,632
14:50,1260,465
14:55,268,210
15:00,1353,416
15:05,1566,412
15:10,1388,339
15:15,871,232
15:20,608,195
15:25,1609,290
15:30,1604,286
15:35,694,248
15:40,317,209
15:45,282,185
15:50,698,215
15:55,1497,221
16:00,1446,195
16:05,1469,235
16:10,1388,213
16:15,595,215
16:20,410,185
16:25,323,173
16:30,1020,177
16:35,1273,221
16:40,1098,228
16:45,1084,221
16:50,798,196
16:55,903,167
17:00,762,145
17:05,895,116
17:10,840,100
17:15,762,88
17:20,601,69
17:25,565,53
17:30,473,21
17:35,397,12
17:40,275,11
17:45,132,15
17:50,72,10
17:55,55,13
18:00,35,7
18:05,22,8
18:10,11,4
18:15,13,3
18:20,8,2
18:25,17,5
18:30,0,0
18:35,0,0
18:40,0,0
18:45,0,0
18:50,0,0
18:55,0,0
19:00,0,0
19:05,0,0
19:10,0,0
19:15,0,0
19:20,0,0
19:25,0,0
19:30,0,0
19:35,0,0
19:40,0,0
19:45,0,0
19:50,0,0
19:55,0,0
20:00,0,0
20:05,0,0
20:10,0,0
20:15,0,0
20:20,0,0
20:25,0,0
20:30,0,0
20:35,0,0
20:40,0,0
20:45,0,0
20:50,0,0
20:55,0,0
21:00,0,0
21:05,0,0
21:10,0,0
21:15,0,0
21:20,0,0
21:25,0,0
21:30,0,0
