4:30,0,0
4:35,0,0
4:40,0,0
4:45,0,0
4:50,0,0
4:55,0,0
5:00,0,0
5:05,0,0
5:10,0,0
5:15,0,0
5:20,0,0
5:25,0,0
5:30,0,0
5:35,0,0
5:40,0,0
5:45,0,0
5:50,0,0
5:55,0,0
6:00,0,0
6:05,0,0
6:10,0,0
6:15,0,0
6:20,0,0
6:25,0,0
6:30,0,0
6:35,0,0
6:40,0,0
6:45,0,0
6:50,0,0
6:55,0,0
7:00,0,0
7:05,0,0
7:10,0,0
7:15,0,0
7:20,0,0
7:25,0,0
7:30,0,0
7:35,0,0
7:40,0,0
7:45,0,0
7:50,0,0
7:55,0,0
8:00,8,6
8:05,5,4
8:10,9,8
8:15,7,7
8:20,8,11
8:25,9,9
8:30,10,11
8:35,11,11
8:40,19,18
8:45,18,15
8:50,69,63
8:55,92,86
9:00,99,94
9:05,112,106
9:10,110,108
9:15,99,97
9:20,102,100
9:25,110,109
9:30,109,105
9:35,107,106
9:40,107,103
9:45,102,100
9:50,101,97
9:55,120,113
10:00,137,133
10:05,136,133
10:10,150,138
10:15,163,150
10:20,174,160
10:25,177,169
10:30,174,164
10:35,196,189
10:40,235,229
10:45,252,252
10:50,258,274
10:55,231,236
11:00,248,239
11:05,262,253
11:10,250,234
11:15,268,242
11:20,305,281
11:25,296,286
11:30,299,281
11:35,345,330
11:40,476,483
11:45,506,531
11:50,394,402
11:55,367,364
12:00,360,348
12:05,365,348
12:10,486,437
12:15,696,600
12:20,645,522
12:25,691,502
12:30,673,453
12:35,698,440
12:40,754,442
12:45,842,497
12:50,828,472
12:55,797,415
13:00,784,384
13:05,734,329
13:10,702,307
13:15,739,276
13:20,702,245
13:25,772,246
13:30,786,226
13:35,793,205
13:40,761,170
13:45,721,127
13:50,708,116
13:55,696,112
14:00,670,105
14:05,652,98
14:10,657,94
14:15,642,92
14:20,634,94
14:25,614,89
14:30,614,87
14:35,603,84
14:40,564,81
14:45,515,79
14:50,318,76
14:55,426,71
15:00,354,70
15:05,200,68
15:10,159,71
15:15,131,73
15:20,117,65
15:25,96,54
15:30,88,53
15:35,89,51
15:40,60,25
15:45,22,8
15:50,15,7
15:55,10,6
16:00,7,5
16:05,11,9
16:10,0,0
16:15,0,0
16:20,0,0
16:25,0,0
16:30,0,0
16:35,0,0
16:40,0,0
16:45,0,0
16:50,0,0
16:55,0,0
17:00,0,0
17:05,0,0
17:10,0,0
17:15,0,0
17:20,0,0
17:25,0,0
17:30,0,0
17:35,0,0
17:40,0,0
17:45,0,0
17:50,0,0
17:55,0,0
18:00,0,0
18:05,0,0
18:10,0,0
18:15,0,0
18:20,0,0
18:25,0,0
18:30,0,0
18:35,0,0
18:40,0,0
18:45,0,0
18:50,0,0
18:55,0,0
19:00,0,0
19:05,0,0
19:10,0,0
19:15,0,0
19:20,0,0
19:25,0,0
19:30,0,0
19:35,0,0
19:40,0,0
19:45,0,0
19:50,0,0
19:55,0,0
20:00,0,0
20:05,0,0
20:10,0,0
20:15,0,0
20:20,0,0
20:25,0,0
20:30,0,0
20:35,0,0
20:40,0,0
20:45,0,0
20:50,0,0
20:55,0,0
21:00,0,0
21:05,0,0
21:10,0,0
21:15,0,0
21:20,0,0
21:25,0,0
21:30,0,0
21:35,0,0
