4:30,0,0
4:35,0,0
4:40,0,0
4:45,0,0
4:50,0,0
4:55,0,0
5:00,0,0
5:05,0,0
5:10,0,0
5:15,0,0
5:20,0,0
5:25,0,0
5:30,0,0
5:35,0,0
5:40,0,0
5:45,0,0
5:50,0,0
5:55,0,0
6:00,0,0
6:05,0,0
6:10,0,0
6:15,0,0
6:20,0,0
6:25,0,0
6:30,0,0
6:35,0,0
6:40,0,0
6:45,0,0
6:50,0,0
6:55,0,0
7:00,0,0
7:05,0,0
7:10,0,0
7:15,0,0
7:20,11,13
7:25,5,6
7:30,11,12
7:35,9,10
7:40,10,17
7:45,13,13
7:50,34,35
7:55,55,31
8:00,77,42
8:05,104,100
8:10,125,134
8:15,117,120
8:20,120,107
8:25,134,120
8:30,136,122
8:35,131,123
8:40,153,150
8:45,142,147
8:50,144,152
8:55,164,165
9:00,174,165
9:05,211,194
9:10,232,213
9:15,298,275
9:20,289,275
9:25,301,289
9:30,347,330
9:35,319,291
9:40,353,331
9:45,330,335
9:50,325,315
9:55,354,346
10:00,355,327
10:05,418,392
10:10,404,388
10:15,409,387
10:20,334,328
10:25,331,316
10:30,307,328
10:35,313,382
10:40,380,388
10:45,290,272
10:50,300,338
10:55,257,281
11:00,225,240
11:05,388,390
11:10,332,307
11:15,268,248
11:20,268,234
11:25,327,322
11:30,330,326
11:35,285,269
11:40,241,209
11:45,238,205
11:50,206,186
11:55,206,201
12:00,222,212
12:05,255,247
12:10,227,201
12:15,279,236
12:20,298,250
12:25,360,300
12:30,359,326
12:35,249,253
12:40,208,202
12:45,206,195
12:50,263,247
12:55,380,351
13:00,390,360
13:05,350,349
13:10,242,270
13:15,238,212
13:20,359,294
13:25,402,303
13:30,281,246
13:35,525,422
13:40,899,593
13:45,579,453
13:50,350,295
13:55,580,384
14:00,534,365
14:05,571,357
14:10,659,371
14:15,520,336
14:20,279,247
14:25,396,283
14:30,587,324
14:35,508,320
14:40,301,248
14:45,430,241
14:50,756,274
14:55,403,270
15:00,409,253
15:05,376,259
15:10,479,246
15:15,545,211
15:20,331,210
15:25,306,175
15:30,526,181
15:35,247,117
15:40,159,96
15:45,216,103
15:50,192,101
15:55,170,90
16:00,119,80
16:05,125,75
16:10,245,72
16:15,230,73
16:20,211,70
16:25,208,74
16:30,158,68
16:35,139,65
16:40,217,68
16:45,399,69
16:50,489,67
16:55,512,61
17:00,447,69
17:05,272,59
17:10,138,50
17:15,96,13
17:20,78,10
17:25,32,5
17:30,11,3
17:35,17,5
17:40,0,0
17:45,0,0
17:50,0,0
17:55,0,0
18:00,0,0
18:05,0,0
18:10,0,0
18:15,0,0
18:20,0,0
18:25,0,0
18:30,0,0
18:35,0,0
18:40,0,0
18:45,0,0
18:50,0,0
18:55,0,0
19:00,0,0
19:05,0,0
19:10,0,0
19:15,0,0
19:20,0,0
19:25,0,0
19:30,0,0
19:35,0,0
19:40,0,0
19:45,0,0
19:50,0,0
19:55,0,0
20:00,0,0
20:05,0,0
20:10,0,0
20:15,0,0
20:20,0,0
20:25,0,0
20:30,0,0
20:35,0,0
20:40,0,0
20:45,0,0
20:50,0,0
20:55,0,0
21:00,0,0
21:05,0,0
21:10,0,0
21:15,0,0
21:20,0,0
21:25,0,0
21:30,0,0
