4:30,0,0
4:35,0,0
4:40,0,0
4:45,0,0
4:50,0,0
4:55,0,0
5:00,0,0
5:05,0,0
5:10,0,0
5:15,0,0
5:20,0,0
5:25,0,0
5:30,0,0
5:35,0,0
5:40,0,0
5:45,0,0
5:50,0,0
5:55,0,0
6:00,0,0
6:05,0,0
6:10,0,0
6:15,0,0
6:20,0,0
6:25,0,0
6:30,0,0
6:35,0,0
6:40,0,0
6:45,0,0
6:50,0,0
6:55,0,0
7:00,0,0
7:05,0,0
7:10,0,0
7:15,0,0
7:20,0,0
7:25,0,0
7:30,0,0
7:35,0,0
7:40,0,0
7:45,0,0
7:50,0,0
7:55,0,0
8:00,0,0
8:05,0,0
8:10,25,20
8:15,11,10
8:20,35,35
8:25,84,106
8:30,95,130
8:35,110,220
8:40,108,184
8:45,116,291
8:50,140,650
8:55,161,635
9:00,180,541
9:05,179,380
9:10,165,215
9:15,176,208
9:20,176,219
9:25,155,322
9:30,149,893
9:35,106,650
9:40,111,587
9:45,128,657
9:50,155,664
9:55,161,848
10:00,152,633
10:05,145,331
10:10,181,374
10:15,223,365
10:20,240,305
10:25,246,287
10:30,228,248
10:35,257,260
10:40,281,282
10:45,280,280
10:50,318,317
10:55,362,362
11:00,370,366
11:05,381,391
11:10,416,452
11:15,381,437
11:20,444,548
11:25,497,700
11:30,516,786
11:35,553,839
11:40,614,883
11:45,713,1004
11:50,568,756
11:55,604,760
12:00,585,719
12:05,604,723
12:10,592,666
12:15,739,858
12:20,652,746
12:25,514,542
12:30,521,524
12:35,541,543
12:40,476,477
12:45,589,602
12:50,621,639
12:55,638,644
13:00,720,719
13:05,727,702
13:10,741,682
13:15,675,616
13:20,585,531
13:25,721,628
13:30,810,700
13:35,732,621
13:40,773,620
13:45,726,592
13:50,573,485
13:55,509,430
14:00,451,386
14:05,463,394
14:10,543,442
14:15,671,526
14:20,765,582
14:25,938,618
14:30,1086,618
14:35,899,481
14:40,939,453
14:45,1088,498
14:50,1120,476
14:55,1136,424
15:00,1032,347
15:05,961,304
15:10,949,281
15:15,458,221
15:20,961,256
15:25,854,231
15:30,765,196
15:35,695,197
15:40,683,206
15:45,654,210
15:50,704,214
15:55,844,216
16:00,877,222
16:05,644,225
16:10,396,211
16:15,443,206
16:20,476,212
16:25,680,209
16:30,923,203
16:35,902,193
16:40,704,206
16:45,692,169
16:50,776,143
16:55,731,135
17:00,620,129
17:05,505,111
17:10,305,97
17:15,156,90
17:20,220,82
17:25,249,85
17:30,312,91
17:35,361,96
17:40,308,96
17:45,160,88
17:50,101,69
17:55,64,36
18:00,18,13
18:05,6,5
18:10,12,9
18:15,0,0
18:20,0,0
18:25,0,0
18:30,0,0
18:35,0,0
18:40,0,0
18:45,0,0
18:50,0,0
18:55,0,0
19:00,0,0
19:05,0,0
19:10,0,0
19:15,0,0
19:20,0,0
19:25,0,0
19:30,0,0
19:35,0,0
19:40,0,0
19:45,0,0
19:50,0,0
19:55,0,0
20:00,0,0
20:05,0,0
20:10,0,0
20:15,0,0
20:20,0,0
20:25,0,0
20:30,0,0
20:35,0,0
20:40,0,0
20:45,0,0
20:50,0,0
20:55,0,0
21:00,0,0
21:05,0,0
21:10,0,0
21:15,0,0
21:20,0,0
21:25,0,0
21:30,0,0
21:35,0,0
