4:30,0,0
4:35,0,0
4:40,0,0
4:45,0,0
4:50,0,0
4:55,0,0
5:00,0,0
5:05,0,0
5:10,0,0
5:15,0,0
5:20,0,0
5:25,0,0
5:30,0,0
5:35,0,0
5:40,0,0
5:45,0,0
5:50,0,0
5:55,0,0
6:00,0,0
6:05,0,0
6:10,0,0
6:15,0,0
6:20,0,0
6:25,0,0
6:30,0,0
6:35,0,0
6:40,0,0
6:45,0,0
6:50,0,0
6:55,0,0
7:00,0,0
7:05,0,0
7:10,0,0
7:15,0,0
7:20,0,0
7:25,0,0
7:30,0,0
7:35,0,0
7:40,0,0
7:45,0,0
7:50,0,0
7:55,4,4
8:00,7,6
8:05,5,5
8:10,8,7
8:15,6,6
8:20,13,13
8:25,11,11
8:30,23,20
8:35,19,18
8:40,67,67
8:45,81,85
8:50,107,114
8:55,99,111
9:00,91,95
9:05,99,98
9:10,112,109
9:15,107,106
9:20,107,106
9:25,123,114
9:30,185,179
9:35,209,213
9:40,233,253
9:45,252,321
9:50,262,346
9:55,256,284
10:00,245,234
10:05,361,325
10:10,373,353
10:15,364,340
10:20,309,284
10:25,290,276
10:30,284,288
10:35,301,383
10:40,298,383
10:45,357,375
10:50,400,425
10:55,354,358
11:00,338,339
11:05,380,401
11:10,401,476
11:15,367,443
11:20,332,386
11:25,283,313
11:30,314,310
11:35,316,296
11:40,298,282
11:45,290,255
11:50,397,353
11:55,606,675
12:00,729,906
12:05,722,843
12:10,696,801
12:15,453,514
12:20,349,380
12:25,351,369
12:30,378,408
12:35,421,440
12:40,463,462
12:45,473,464
12:50,940,999
12:55,526,521
13:00,713,703
13:05,474,427
13:10,534,505
13:15,586,567
13:20,536,520
13:25,693,634
13:30,580,551
13:35,697,578
13:40,420,342
13:45,638,501
13:50,640,561
13:55,491,491
14:00,324,357
14:05,211,218
14:10,254,233
14:15,306,274
14:20,412,341
14:25,447,416
14:30,245,266
14:35,228,229
14:40,326,295
14:45,279,290
14:50,236,253
14:55,192,187
15:00,293,273
15:05,248,274
15:10,254,256
15:15,161,181
15:20,193,198
15:25,68,93
15:30,23,44
15:35,25,79
15:40,83,121
15:45,359,327
15:50,244,249
15:55,188,180
16:00,218,193
16:05,288,227
16:10,840,235
16:15,336,130
16:20,218,143
16:25,180,93
16:30,368,131
16:35,455,139
16:40,729,129
16:45,329,132
16:50,214,121
16:55,172,97
17:00,238,124
17:05,200,136
17:10,151,89
17:15,121,58
17:20,195,63
17:25,327,63
17:30,397,60
17:35,264,20
17:40,66,9
17:45,181,8
17:50,115,8
17:55,110,11
18:00,84,4
18:05,15,3
18:10,12,6
18:15,0,0
18:20,0,0
18:25,0,0
18:30,0,0
18:35,0,0
18:40,0,0
18:45,0,0
18:50,0,0
18:55,0,0
19:00,0,0
19:05,0,0
19:10,0,0
19:15,0,0
19:20,0,0
19:25,0,0
19:30,0,0
19:35,0,0
19:40,0,0
19:45,0,0
19:50,0,0
19:55,0,0
20:00,0,0
20:05,0,0
20:10,0,0
20:15,0,0
20:20,0,0
20:25,0,0
20:30,0,0
20:35,0,0
20:40,0,0
20:45,0,0
20:50,0,0
20:55,0,0
21:00,0,0
21:05,0,0
21:10,0,0
21:15,0,0
21:20,0,0
21:25,0,0
21:30,0,0
