4:30,0,0
4:35,0,0
4:40,0,0
4:45,0,0
4:50,0,0
4:55,0,0
5:00,0,0
5:05,0,0
5:10,0,0
5:15,0,0
5:20,0,0
5:25,0,0
5:30,0,0
5:35,0,0
5:40,0,0
5:45,0,0
5:50,0,0
5:55,0,0
6:00,0,0
6:05,0,0
6:10,0,0
6:15,7,14
6:20,4,8
6:25,9,34
6:30,7,82
6:35,12,171
6:40,10,263
6:45,18,326
6:50,17,174
6:55,52,136
7:00,95,161
7:05,114,193
7:10,89,141
7:15,65,235
7:20,74,631
7:25,81,703
7:30,85,735
7:35,86,791
7:40,104,857
7:45,146,968
7:50,251,1018
7:55,258,488
8:00,235,279
8:05,237,254
8:10,267,297
8:15,330,374
8:20,324,370
8:25,321,359
8:30,339,343
8:35,268,266
8:40,268,286
8:45,261,266
8:50,244,267
8:55,246,219
9:00,285,286
9:05,301,317
9:10,225,224
9:15,309,306
9:20,347,326
9:25,404,432
9:30,384,418
9:35,403,403
9:40,464,618
9:45,492,554
9:50,498,637
9:55,489,576
10:00,545,696
10:05,605,742
10:10,420,453
10:15,354,347
10:20,519,605
10:25,758,1129
10:30,667,829
10:35,769,988
10:40,695,811
10:45,634,678
10:50,617,650
10:55,1223,1941
11:00,822,1077
11:05,1077,1569
11:10,857,1153
11:15,463,526
11:20,390,382
11:25,533,562
11:30,389,379
11:35,346,309
11:40,470,457
11:45,344,391
11:50,255,225
11:55,587,519
12:00,877,930
12:05,630,647
12:10,1595,1801
12:15,952,952
12:20,379,377
12:25,475,523
12:30,534,544
12:35,589,586
12:40,1195,1251
12:45,1266,1260
12:50,1263,1291
12:55,1520,1524
13:00,1742,1654
13:05,633,634
13:10,614,665
13:15,545,578
13:20,1581,1459
13:25,1586,1402
13:30,1466,1299
13:35,1311,1106
13:40,1557,1226
13:45,682,570
13:50,216,237
13:55,249,251
14:00,352,280
14:05,534,403
14:10,808,626
14:15,1397,1099
14:20,880,712
14:25,1507,1080
14:30,1864,1201
14:35,1906,1175
14:40,1918,1210
14:45,2119,1332
14:50,1791,1130
14:55,397,322
15:00,398,275
15:05,460,330
15:10,559,445
15:15,358,360
15:20,328,334
15:25,335,349
15:30,274,290
15:35,327,312
15:40,397,351
15:45,365,335
15:50,443,339
15:55,801,398
16:00,621,274
16:05,809,286
16:10,1050,343
16:15,1183,461
16:20,1357,504
16:25,1481,493
16:30,1275,390
16:35,1693,417
16:40,1901,480
16:45,1020,378
16:50,591,299
16:55,1594,300
17:00,1733,245
17:05,1680,206
17:10,958,154
17:15,174,106
17:20,164,97
17:25,891,99
17:30,1477,141
17:35,531,161
17:40,1425,157
17:45,946,152
17:50,459,145
17:55,597,91
18:00,830,70
18:05,1027,72
18:10,899,91
18:15,308,158
18:20,341,179
18:25,256,147
18:30,146,95
18:35,97,72
18:40,100,73
18:45,292,84
18:50,215,77
18:55,106,73
19:00,107,66
19:05,112,70
19:10,101,87
19:15,72,59
19:20,42,14
19:25,12,8
19:30,11,6
19:35,6,4
19:40,8,5
19:45,11,8
19:50,0,0
19:55,0,0
20:00,0,0
20:05,0,0
20:10,0,0
20:15,0,0
20:20,0,0
20:25,0,0
20:30,0,0
20:35,0,0
20:40,0,0
20:45,0,0
20:50,0,0
20:55,0,0
21:00,0,0
21:05,0,0
21:10,0,0
21:15,0,0
21:20,0,0
21:25,0,0
21:30,0,0
