4:30,0,0
4:35,0,0
4:40,0,0
4:45,0,0
4:50,0,0
4:55,0,0
5:00,8,15
5:05,4,6
5:10,4,12
5:15,6,9
5:20,11,16
5:25,8,15
5:30,14,88
5:35,11,191
5:40,19,226
5:45,14,251
5:50,25,287
5:55,56,312
6:00,61,338
6:05,64,326
6:10,66,368
6:15,68,456
6:20,72,497
6:25,74,518
6:30,76,535
6:35,79,582
6:40,82,625
6:45,82,631
6:50,86,638
6:55,89,669
7:00,89,688
7:05,92,755
7:10,94,759
7:15,95,720
7:20,96,764
7:25,97,849
7:30,102,878
7:35,105,886
7:40,110,926
7:45,114,965
7:50,122,1023
7:55,127,1097
8:00,131,1138
8:05,149,1157
8:10,172,1182
8:15,190,1198
8:20,213,1221
8:25,239,1240
8:30,265,1314
8:35,290,1333
8:40,321,1401
8:45,349,1432
8:50,376,1438
8:55,404,1467
9:00,434,1482
9:05,464,1497
9:10,497,1517
9:15,527,1530
9:20,557,1565
9:25,587,1617
9:30,620,1630
9:35,653,1647
9:40,686,1656
9:45,718,1669
9:50,746,1677
9:55,783,1692
10:00,814,1700
10:05,850,1710
10:10,881,1715
10:15,915,1731
10:20,958,1760
10:25,986,1767
10:30,1017,1780
10:35,1046,1778
10:40,1070,1778
10:45,1103,1786
10:50,1125,1771
10:55,1164,1770
11:00,982,1471
11:05,1158,1716
11:10,1247,1800
11:15,1242,1763
11:20,1276,1764
11:25,1303,1759
11:30,1313,1742
11:35,1335,1741
11:40,1355,1735
11:45,1389,1753
11:50,1414,1747
11:55,1371,1676
12:00,925,1077
12:05,1416,1663
12:10,1392,1581
12:15,1429,1618
12:20,1615,1783
12:25,1614,1744
12:30,1472,1554
12:35,1222,1285
12:40,378,397
12:45,1165,1203
12:50,1782,1817
12:55,1297,1348
13:00,1668,1641
13:05,1772,1714
13:10,1813,1716
13:15,1810,1692
13:20,1881,1738
13:25,1865,1709
13:30,924,819
13:35,1839,1614
13:40,711,645
13:45,1014,852
13:50,2068,1733
13:55,1691,1413
14:00,959,820
14:05,1309,1078
14:10,1088,899
14:15,932,751
14:20,1944,1477
14:25,1268,1021
14:30,907,802
14:35,776,714
14:40,717,668
14:45,684,631
14:50,728,661
14:55,726,670
15:00,674,636
15:05,631,604
15:10,652,612
15:15,667,626
15:20,622,588
15:25,603,572
15:30,593,566
15:35,567,539
15:40,540,515
15:45,526,498
15:50,486,451
15:55,477,441
16:00,462,433
16:05,427,406
16:10,397,375
16:15,421,383
16:20,494,439
16:25,572,492
16:30,570,491
16:35,524,470
16:40,522,464
16:45,524,466
16:50,504,448
16:55,469,425
17:00,421,388
17:05,397,373
17:10,386,360
17:15,379,355
17:20,377,357
17:25,370,348
17:30,373,348
17:35,406,353
17:40,439,350
17:45,451,348
17:50,469,358
17:55,439,349
18:00,404,335
18:05,337,296
18:10,344,295
18:15,372,309
18:20,388,310
18:25,380,291
18:30,393,263
18:35,396,255
18:40,399,255
18:45,346,230
18:50,307,226
18:55,276,213
19:00,242,185
19:05,215,164
19:10,211,154
19:15,225,146
19:20,216,129
19:25,204,118
19:30,205,111
19:35,206,114
19:40,183,107
19:45,137,85
19:50,123,72
19:55,117,66
20:00,107,60
20:05,99,51
20:10,89,17
20:15,88,23
20:20,86,49
20:25,82,48
20:30,76,17
20:35,72,15
20:40,61,14
20:45,54,9
20:50,37,11
20:55,12,6
21:00,14,4
21:05,8,3
21:10,14,7
21:15,0,0
21:20,0,0
21:25,0,0
21:30,0,0
