4:30,0,0
4:35,0,0
4:40,0,0
4:45,0,0
4:50,0,0
4:55,0,0
5:00,0,0
5:05,0,0
5:10,0,0
5:15,0,0
5:20,0,0
5:25,0,0
5:30,0,0
5:35,0,0
5:40,0,0
5:45,0,0
5:50,0,0
5:55,0,0
6:00,0,0
6:05,0,0
6:10,0,0
6:15,0,0
6:20,0,0
6:25,0,0
6:30,0,0
6:35,0,0
6:40,0,0
6:45,0,0
6:50,0,0
6:55,0,0
7:00,0,0
7:05,0,0
7:10,0,0
7:15,0,0
7:20,0,0
7:25,0,0
7:30,0,0
7:35,0,0
7:40,0,0
7:45,0,0
7:50,0,0
7:55,0,0
8:00,6,9
8:05,5,6
8:10,14,14
8:15,12,15
8:20,12,14
8:25,27,26
8:30,26,26
8:35,26,27
8:40,58,53
8:45,56,52
8:50,67,60
8:55,93,98
9:00,111,119
9:05,130,133
9:10,130,173
9:15,129,278
9:20,152,436
9:25,157,323
9:30,167,226
9:35,162,171
9:40,139,151
9:45,155,173
9:50,174,208
9:55,254,375
10:00,314,1047
10:05,196,964
10:10,207,930
10:15,286,802
10:20,300,397
10:25,281,331
10:30,270,281
10:35,283,300
10:40,312,374
10:45,457,1050
10:50,362,737
10:55,356,820
11:00,346,1042
11:05,390,1048
11:10,483,1102
11:15,512,1073
11:20,580,999
11:25,742,1157
11:30,672,950
11:35,472,548
11:40,435,492
11:45,389,396
11:50,374,359
11:55,402,421
12:00,436,440
12:05,412,403
12:10,383,372
12:15,292,293
12:20,284,297
12:25,342,362
12:30,362,385
12:35,349,353
12:40,372,383
12:45,375,408
12:50,392,419
12:55,450,454
13:00,506,483
13:05,494,471
13:10,444,453
13:15,436,430
13:20,449,410
13:25,557,506
13:30,501,446
13:35,539,489
13:40,387,367
13:45,337,321
13:50,276,266
13:55,277,281
14:00,293,281
14:05,305,297
14:10,344,320
14:15,285,293
14:20,277,286
14:25,328,320
14:30,380,405
14:35,320,347
14:40,267,284
14:45,210,221
14:50,253,255
14:55,561,357
15:00,497,281
15:05,864,212
15:10,1044,175
15:15,960,146
15:20,914,132
15:25,920,141
15:30,865,155
15:35,918,220
15:40,868,166
15:45,731,148
15:50,842,96
15:55,823,92
16:00,427,131
16:05,135,94
16:10,227,88
16:15,189,115
16:20,198,129
16:25,116,86
16:30,95,76
16:35,106,73
16:40,487,68
16:45,620,65
16:50,522,62
16:55,367,60
17:00,180,57
17:05,121,54
17:10,112,50
17:15,111,26
17:20,122,12
17:25,78,15
17:30,60,8
17:35,51,10
17:40,13,5
17:45,11,5
17:50,12,5
17:55,0,0
18:00,0,0
18:05,0,0
18:10,0,0
18:15,0,0
18:20,0,0
18:25,0,0
18:30,0,0
18:35,0,0
18:40,0,0
18:45,0,0
18:50,0,0
18:55,0,0
19:00,0,0
19:05,0,0
19:10,0,0
19:15,0,0
19:20,0,0
19:25,0,0
19:30,0,0
19:35,0,0
19:40,0,0
19:45,0,0
19:50,0,0
19:55,0,0
20:00,0,0
20:05,0,0
20:10,0,0
20:15,0,0
20:20,0,0
20:25,0,0
20:30,0,0
20:35,0,0
20:40,0,0
20:45,0,0
20:50,0,0
20:55,0,0
21:00,0,0
21:05,0,0
21:10,0,0
21:15,0,0
21:20,0,0
21:25,0,0
21:30,0,0
21:35,0,0
