4:30,0,0
4:35,0,0
4:40,0,0
4:45,0,0
4:50,0,0
4:55,0,0
5:00,0,0
5:05,0,0
5:10,0,0
5:15,0,0
5:20,0,0
5:25,0,0
5:30,0,0
5:35,0,0
5:40,0,0
5:45,0,0
5:50,0,0
5:55,0,0
6:00,0,0
6:05,0,0
6:10,0,0
6:15,0,0
6:20,0,0
6:25,0,0
6:30,0,0
6:35,0,0
6:40,8,16
6:45,4,8
6:50,5,8
6:55,4,11
7:00,6,11
7:05,7,14
7:10,8,12
7:15,10,22
7:20,14,21
7:25,54,94
7:30,67,112
7:35,77,116
7:40,88,138
7:45,100,333
7:50,129,689
7:55,169,701
8:00,207,884
8:05,222,782
8:10,243,644
8:15,251,612
8:20,266,896
8:25,271,632
8:30,282,477
8:35,289,487
8:40,303,507
8:45,310,499
8:50,321,523
8:55,318,478
9:00,326,484
9:05,342,538
9:10,362,694
9:15,366,684
9:20,382,743
9:25,376,763
9:30,385,851
9:35,411,927
9:40,429,825
9:45,425,706
9:50,502,739
9:55,578,910
10:00,555,827
10:05,517,682
10:10,503,598
10:15,550,651
10:20,567,633
10:25,599,686
10:30,642,787
10:35,595,676
10:40,567,599
10:45,618,666
10:50,683,781
10:55,699,809
11:00,666,713
11:05,664,691
11:10,735,827
11:15,660,719
11:20,578,580
11:25,612,604
11:30,634,656
11:35,646,647
11:40,745,757
11:45,910,989
11:50,782,819
11:55,753,765
12:00,868,943
12:05,723,759
12:10,616,590
12:15,579,561
12:20,458,445
12:25,505,453
12:30,562,534
12:35,554,547
12:40,513,511
12:45,529,504
12:50,617,579
12:55,687,621
13:00,840,779
13:05,931,882
13:10,896,858
13:15,880,829
13:20,956,877
13:25,1144,1020
13:30,1035,932
13:35,960,847
13:40,929,824
13:45,822,713
13:50,799,697
13:55,842,738
14:00,747,668
14:05,740,651
14:10,672,618
14:15,692,625
14:20,712,644
14:25,636,569
14:30,677,581
14:35,683,589
14:40,678,558
14:45,875,665
14:50,898,684
14:55,835,637
15:00,1093,769
15:05,1212,789
15:10,846,595
15:15,715,524
15:20,952,653
15:25,1032,695
15:30,925,592
15:35,845,564
15:40,775,517
15:45,744,488
15:50,608,447
15:55,742,522
16:00,979,572
16:05,828,499
16:10,963,530
16:15,764,450
16:20,791,481
16:25,477,402
16:30,579,410
16:35,582,427
16:40,534,394
16:45,691,379
16:50,767,402
16:55,732,407
17:00,525,369
17:05,756,365
17:10,703,318
17:15,398,267
17:20,377,233
17:25,397,237
17:30,414,238
17:35,474,242
17:40,572,262
17:45,679,275
17:50,500,268
17:55,341,253
18:00,249,213
18:05,234,158
18:10,216,139
18:15,153,117
18:20,159,106
18:25,176,119
18:30,232,137
18:35,304,157
18:40,312,165
18:45,249,145
18:50,175,110
18:55,120,77
19:00,100,61
19:05,105,66
19:10,74,33
19:15,65,19
19:20,42,11
19:25,37,16
19:30,14,10
19:35,17,13
19:40,13,11
19:45,0,0
19:50,0,0
19:55,0,0
20:00,0,0
20:05,0,0
20:10,0,0
20:15,0,0
20:20,0,0
20:25,0,0
20:30,0,0
20:35,0,0
20:40,0,0
20:45,0,0
20:50,0,0
20:55,0,0
21:00,0,0
21:05,0,0
21:10,0,0
21:15,0,0
21:20,0,0
21:25,0,0
21:30,0,0
