4:30,0,0
4:35,0,0
4:40,0,0
4:45,0,0
4:50,0,0
4:55,0,0
5:00,0,0
5:05,0,0
5:10,0,0
5:15,0,0
5:20,0,0
5:25,0,0
5:30,0,0
5:35,0,0
5:40,0,0
5:45,0,0
5:50,0,0
5:55,0,0
6:00,0,0
6:05,0,0
6:10,0,0
6:15,0,0
6:20,0,0
6:25,0,0
6:30,0,0
6:35,0,0
6:40,0,0
6:45,12,14
6:50,10,13
6:55,11,11
7:00,6,5
7:05,10,9
7:10,9,9
7:15,14,15
7:20,8,8
7:25,12,16
7:30,19,18
7:35,45,44
7:40,71,71
7:45,84,85
7:50,64,67
7:55,56,59
8:00,69,70
8:05,84,86
8:10,82,85
8:15,89,91
8:20,116,112
8:25,115,110
8:30,92,99
8:35,92,93
8:40,113,104
8:45,203,191
8:50,142,152
8:55,134,126
9:00,253,243
9:05,286,286
9:10,282,277
9:15,191,203
9:20,165,171
9:25,173,187
9:30,163,165
9:35,115,98
9:40,131,112
9:45,176,161
9:50,198,183
9:55,179,169
10:00,176,172
10:05,192,191
10:10,213,220
10:15,331,322
10:20,369,354
10:25,304,291
10:30,325,319
10:35,330,322
10:40,346,329
10:45,351,323
10:50,318,309
10:55,405,402
11:00,369,374
11:05,281,289
11:10,233,240
11:15,236,232
11:20,218,214
11:25,212,208
11:30,228,227
11:35,223,213
11:40,270,254
11:45,289,273
11:55,261,257
12:00,260,260
12:05,310,305
12:10,275,288
12:15,210,207
12:20,237,228
12:25,226,227
12:30,197,197
12:35,199,197
12:40,169,165
12:45,207,195
12:50,283,273
12:55,315,307
13:00,283,300
13:05,199,213
13:10,134,133
13:15,120,112
13:20,132,128
13:25,135,141
13:30,134,138
13:35,141,117
13:40,105,101
13:45,76,71
13:50,118,101
13:55,118,113
14:00,115,96
14:05,148,133
14:10,180,171
14:15,185,179
14:20,201,187
14:25,254,231
14:30,252,241
14:35,154,151
14:40,253,238
14:45,244,229
14:50,338,299
14:55,371,369
15:00,333,328
15:05,481,412
15:10,641,574
15:15,517,524
15:20,381,380
15:25,314,328
15:30,188,214
15:35,214,188
15:40,242,230
15:45,300,274
15:50,306,296
15:55,330,312
16:00,335,322
16:05,332,322
16:10,316,301
16:15,356,344
16:20,329,327
16:25,283,287
16:30,191,193
16:35,136,132
16:40,207,192
16:45,223,190
16:50,486,421
16:55,653,549
17:00,795,500
17:05,1021,488
17:10,597,457
17:15,345,273
17:20,1263,268
17:25,922,228
17:30,458,202
17:35,1033,195
17:40,914,134
17:45,806,100
17:50,763,92
17:55,700,87
18:00,629,84
18:05,578,82
18:10,374,100
18:15,67,64
18:20,16,27
18:25,8,17
18:30,48,38
18:35,30,34
18:40,46,61
18:45,7,18
18:50,7,9
18:55,5,4
19:00,5,4
19:05,9,4
19:10,66,19
19:15,139,26
19:20,274,144
19:25,234,220
19:30,86,105
19:35,23,31
19:40,16,7
19:45,8,5
19:50,10,4
19:55,8,4
20:00,0,0
20:05,0,0
20:10,0,0
20:15,0,0
20:20,0,0
20:25,0,0
20:30,0,0
20:35,0,0
20:40,0,0
20:45,0,0
20:50,0,0
20:55,0,0
21:00,0,0
21:05,0,0
21:10,0,0
21:15,0,0
21:20,0,0
21:25,0,0
21:30,0,0
