4:30,0,0
4:35,0,0
4:40,0,0
4:45,0,0
4:50,0,0
4:55,0,0
5:00,0,0
5:05,0,0
5:10,0,0
5:15,0,0
5:20,0,0
5:25,0,0
5:30,0,0
5:35,0,0
5:40,0,0
5:45,0,0
5:50,0,0
5:55,0,0
6:00,0,0
6:05,0,0
6:10,0,0
6:15,0,0
6:20,0,0
6:25,0,0
6:30,0,0
6:35,0,0
6:40,0,0
6:45,16,16
6:50,7,7
6:55,12,13
7:00,13,14
7:05,19,15
7:10,23,17
7:15,25,26
7:20,83,88
7:25,90,95
7:30,101,106
7:35,125,136
7:40,130,143
7:45,122,136
7:50,114,119
7:55,117,119
8:00,125,124
8:05,141,144
8:10,133,132
8:15,149,141
8:20,191,174
8:25,221,219
8:30,178,179
8:35,167,163
8:40,202,202
8:45,254,265
8:50,282,288
8:55,231,239
9:00,231,223
9:05,261,257
9:10,296,292
9:15,298,296
9:20,271,275
9:25,255,262
9:30,239,234
9:35,212,209
9:40,156,151
9:45,164,160
9:50,196,189
9:55,188,181
10:00,229,221
10:05,245,235
10:10,244,229
10:15,352,335
10:20,286,283
10:25,211,202
10:30,263,234
10:35,273,259
10:40,233,223
10:45,217,202
10:50,206,190
10:55,206,201
11:00,193,181
11:05,193,184
11:10,150,140
11:15,137,129
11:20,183,163
11:25,278,243
11:30,487,447
11:35,451,444
11:40,525,518
11:45,474,467
11:50,323,336
11:55,215,220
12:00,186,177
12:05,131,122
12:10,155,148
12:15,153,145
12:20,126,112
12:25,153,137
12:30,118,101
12:35,191,163
12:40,218,207
12:45,225,215
12:50,236,221
12:55,257,231
13:00,292,276
13:05,246,228
13:10,268,254
13:15,276,243
13:20,278,233
13:25,322,265
13:30,339,284
13:35,410,351
13:40,483,412
13:45,386,340
13:50,356,309
13:55,255,235
14:00,253,230
14:05,285,253
14:10,294,264
14:15,296,270
14:20,307,283
14:25,324,303
14:30,242,243
14:35,211,211
14:40,189,189
14:45,217,198
14:50,251,239
14:55,265,270
15:00,233,233
15:05,268,262
15:10,278,266
15:15,216,216
15:20,182,177
15:25,185,181
15:30,147,145
15:35,153,150
15:40,155,150
15:45,155,154
15:50,161,154
15:55,142,132
16:00,175,151
16:05,183,161
16:10,172,146
16:15,186,154
16:20,164,143
16:25,154,127
16:30,164,133
16:35,159,130
16:40,143,119
16:45,127,102
16:50,122,97
16:55,117,92
17:00,103,84
17:05,88,67
17:10,75,59
17:15,59,41
17:20,16,9
17:25,10,6
17:30,5,4
17:35,6,5
17:40,0,0
17:45,0,0
17:50,0,0
17:55,0,0
18:00,0,0
18:05,0,0
18:10,0,0
18:15,0,0
18:20,0,0
18:25,0,0
18:30,0,0
18:35,0,0
18:40,0,0
18:45,0,0
18:50,0,0
18:55,0,0
19:00,0,0
19:05,0,0
19:10,0,0
19:15,0,0
19:20,0,0
19:25,0,0
19:30,0,0
19:35,0,0
19:40,0,0
19:45,0,0
19:50,0,0
19:55,0,0
20:00,0,0
20:05,0,0
20:10,0,0
20:15,0,0
20:20,0,0
20:25,0,0
20:30,0,0
20:35,0,0
20:40,0,0
20:45,0,0
20:50,0,0
20:55,0,0
21:00,0,0
21:05,0,0
21:10,0,0
21:15,0,0
21:20,0,0
21:25,0,0
21:30,0,0
