4:30,0,0
4:35,0,0
4:40,0,0
4:45,0,0
4:50,0,0
4:55,0,0
5:00,0,0
5:05,0,0
5:10,0,0
5:15,0,0
5:20,0,0
5:25,0,0
5:30,0,0
5:35,0,0
5:40,0,0
5:45,0,0
5:50,0,0
5:55,0,0
6:00,0,0
6:05,0,0
6:10,0,0
6:15,0,0
6:20,0,0
6:25,0,0
6:30,0,0
6:35,0,0
6:40,0,0
6:45,0,0
6:50,0,0
6:55,0,0
7:00,0,0
7:05,0,0
7:10,0,0
7:15,0,0
7:20,0,0
7:25,0,0
7:30,0,0
7:35,0,0
7:40,0,0
7:45,0,0
7:50,0,0
7:55,0,0
8:00,8,15
8:05,4,7
8:10,5,9
8:15,7,13
8:20,7,17
8:25,12,62
8:30,12,68
8:35,59,86
8:40,73,100
8:45,84,119
8:50,94,140
8:55,108,137
9:00,122,166
9:05,141,206
9:10,160,250
9:15,174,298
9:20,182,307
9:25,179,370
9:30,159,220
9:35,148,196
9:40,140,180
9:45,137,157
9:50,148,165
9:55,162,193
10:00,176,211
10:05,190,328
10:10,201,507
10:15,202,521
10:20,194,461
10:25,189,412
10:30,197,568
10:35,202,640
10:40,205,654
10:45,225,671
10:50,258,656
10:55,306,697
11:00,367,776
11:05,422,847
11:10,446,860
11:15,417,747
11:20,418,729
11:25,423,710
11:30,425,670
11:35,429,634
11:40,428,588
11:45,444,578
11:50,451,564
11:55,451,537
12:00,446,503
12:05,496,538
12:10,530,544
12:15,518,505
12:20,569,534
12:25,577,525
12:30,556,488
12:35,537,457
12:40,583,472
12:45,632,492
12:50,642,483
12:55,615,447
13:00,619,432
13:05,655,429
13:10,715,433
13:15,698,402
13:20,525,312
13:25,729,364
13:30,753,352
13:35,804,351
13:40,809,330
13:45,624,268
13:50,437,221
13:55,420,213
14:00,632,235
14:05,711,238
14:10,749,233
14:15,693,219
14:20,740,208
14:25,710,192
14:30,717,183
14:35,671,170
14:40,676,162
14:45,621,156
14:50,507,149
14:55,501,139
15:00,480,136
15:05,464,133
15:10,505,131
15:15,488,128
15:20,409,123
15:25,338,115
15:30,264,107
15:35,329,96
15:40,288,90
15:45,239,82
15:50,257,73
15:55,261,68
16:00,207,59
16:05,148,51
16:10,122,24
16:15,85,17
16:20,62,9
16:25,33,6
16:30,9,3
16:35,9,3
16:40,0,0
16:45,0,0
16:50,0,0
16:55,0,0
17:00,0,0
17:05,0,0
17:10,0,0
17:15,0,0
17:20,0,0
17:25,0,0
17:30,0,0
17:35,0,0
17:40,0,0
17:45,0,0
17:50,0,0
17:55,0,0
18:00,0,0
18:05,0,0
18:10,0,0
18:15,0,0
18:20,0,0
18:25,0,0
18:30,0,0
18:35,0,0
18:40,0,0
18:45,0,0
18:50,0,0
18:55,0,0
19:00,0,0
19:05,0,0
19:10,0,0
19:15,0,0
19:20,0,0
19:25,0,0
19:30,0,0
19:35,0,0
19:40,0,0
19:45,0,0
19:50,0,0
19:55,0,0
20:00,0,0
20:05,0,0
20:10,0,0
20:15,0,0
20:20,0,0
20:25,0,0
20:30,0,0
20:35,0,0
20:40,0,0
20:45,0,0
20:50,0,0
20:55,0,0
21:00,0,0
21:05,0,0
21:10,0,0
21:15,0,0
21:20,0,0
21:25,0,0
21:30,0,0
