4:30,0,0
4:35,0,0
4:40,0,0
4:45,0,0
4:50,0,0
4:55,0,0
5:00,0,0
5:05,0,0
5:10,0,0
5:15,0,0
5:20,0,0
5:25,0,0
5:30,0,0
5:35,0,0
5:40,0,0
5:45,0,0
5:50,0,0
5:55,0,0
6:00,0,0
6:05,0,0
6:10,0,0
6:15,0,0
6:20,0,0
6:25,0,0
6:30,0,0
6:35,0,0
6:40,0,0
6:45,0,0
6:50,0,0
6:55,7,18
7:00,3,7
7:05,5,10
7:10,4,7
7:15,5,8
7:20,5,9
7:25,7,10
7:30,9,12
7:35,9,11
7:40,15,21
7:45,14,17
7:50,18,68
7:55,21,82
8:00,79,95
8:05,90,103
8:10,101,109
8:15,109,121
8:20,114,120
8:25,120,125
8:30,120,126
8:35,125,131
8:40,135,139
8:45,141,145
8:50,138,142
8:55,133,137
9:00,130,134
9:05,126,128
9:10,129,128
9:15,135,129
9:20,143,137
9:25,156,145
9:30,164,157
9:35,161,156
9:40,164,157
9:45,181,170
9:50,193,179
9:55,196,185
10:00,226,205
10:05,272,245
10:10,315,292
10:15,336,323
10:20,346,346
10:25,350,347
10:30,367,359
10:35,403,400
10:40,439,437
10:45,439,431
10:50,435,419
10:55,429,405
11:00,426,406
11:05,406,398
11:10,382,380
11:15,349,355
11:20,328,325
11:25,355,341
11:30,382,356
11:35,443,406
11:40,552,534
11:45,726,853
11:50,936,1198
11:55,820,1011
12:00,750,874
12:05,797,901
12:10,792,909
12:15,1057,1283
12:20,1185,1442
12:25,1174,1388
12:30,1056,1192
12:35,666,700
12:40,448,430
12:45,539,500
12:50,565,467
12:55,608,536
13:00,486,467
13:05,587,612
13:10,533,521
13:15,640,615
13:20,669,686
13:25,568,573
13:30,598,559
13:35,578,522
13:40,564,504
13:45,572,496
13:50,609,515
13:55,634,545
14:00,575,509
14:05,520,463
14:10,531,462
14:15,545,490
14:20,578,531
14:25,640,590
14:30,634,587
14:35,1366,900
14:40,1329,799
14:45,385,307
14:50,501,355
14:55,558,412
15:00,427,353
15:05,462,375
15:10,501,398
15:15,469,369
15:20,472,350
15:25,498,386
15:30,353,290
15:35,312,251
15:40,354,285
15:45,341,302
15:50,286,270
15:55,313,263
16:00,355,305
16:05,296,269
16:10,299,249
16:15,335,268
16:20,328,281
16:25,244,224
16:30,234,211
16:35,218,205
16:40,147,145
16:45,166,151
16:50,203,187
16:55,157,153
17:00,127,120
17:05,116,97
17:10,140,112
17:15,153,132
17:20,134,117
17:25,124,104
17:30,103,82
17:35,121,106
17:40,103,99
17:45,90,77
17:50,85,72
17:55,46,43
18:00,6,7
18:05,7,7
18:10,11,13
18:15,0,0
18:20,0,0
18:25,0,0
18:30,0,0
18:35,0,0
18:40,0,0
18:45,0,0
18:50,0,0
18:55,0,0
19:00,0,0
19:05,0,0
19:10,0,0
19:15,0,0
19:20,0,0
19:25,0,0
19:30,0,0
19:35,0,0
19:40,0,0
19:45,0,0
19:50,0,0
19:55,0,0
20:00,0,0
20:05,0,0
20:10,0,0
20:15,0,0
20:20,0,0
20:25,0,0
20:30,0,0
20:35,0,0
20:40,0,0
20:45,0,0
20:50,0,0
20:55,0,0
21:00,0,0
21:05,0,0
21:10,0,0
21:15,0,0
21:20,0,0
21:25,0,0
21:30,0,0
