4:30,0,0
4:35,0,0
4:40,0,0
4:45,0,0
4:50,0,0
4:55,0,0
5:00,0,0
5:05,0,0
5:10,0,0
5:15,0,0
5:20,0,0
5:25,0,0
5:30,0,0
5:35,0,0
5:40,0,0
5:45,0,0
5:50,0,0
5:55,0,0
6:00,0,0
6:05,0,0
6:10,0,0
6:15,0,0
6:20,0,0
6:25,0,0
6:30,0,0
6:35,0,0
6:40,0,0
6:45,0,0
6:50,0,0
6:55,0,0
7:00,0,0
7:05,0,0
7:10,0,0
7:15,0,0
7:20,0,0
7:25,0,0
7:30,0,0
7:35,0,0
7:40,0,0
7:45,0,0
7:50,0,0
7:55,0,0
8:00,0,0
8:05,0,0
8:10,0,0
8:15,18,18
8:20,6,6
8:25,7,8
8:30,7,7
8:35,13,12
8:40,14,16
8:45,14,13
8:50,17,18
8:55,16,16
9:00,67,65
9:05,67,66
9:10,67,66
9:15,85,77
9:20,106,109
9:25,114,123
9:30,122,128
9:35,127,136
9:40,135,138
9:45,143,150
9:50,137,139
9:55,146,144
10:00,140,144
10:05,146,147
10:10,146,142
10:15,132,128
10:20,121,120
10:25,124,117
10:30,135,125
10:35,148,134
10:40,167,149
10:45,191,174
10:50,201,187
10:55,198,198
11:00,180,179
11:05,167,160
11:10,182,171
11:15,198,185
11:20,214,209
11:25,198,190
11:30,192,184
11:35,198,187
11:40,208,208
11:45,181,184
11:50,182,182
11:55,184,187
12:00,166,162
12:05,179,173
12:10,187,181
12:15,166,162
12:20,163,160
12:25,163,168
12:30,171,170
12:35,179,187
12:40,160,162
12:45,154,154
12:50,157,151
12:55,155,148
13:00,131,130
13:05,134,124
13:10,142,132
13:15,155,143
13:20,166,157
13:25,163,157
13:30,157,154
13:35,176,161
13:40,171,159
13:45,152,143
13:50,141,132
13:55,120,108
14:00,136,115
14:05,149,126
14:10,136,113
14:15,171,137
14:20,160,126
14:25,133,115
14:30,110,96
14:35,118,91
14:40,165,83
14:45,258,79
14:50,255,68
14:55,242,66
15:00,126,60
15:05,116,77
15:10,92,68
15:15,72,57
15:20,49,32
15:25,11,10
15:30,7,10
15:35,5,4
15:40,18,13
15:45,6,4
15:50,12,11
15:55,0,0
16:00,0,0
16:05,0,0
16:10,0,0
16:15,0,0
16:20,0,0
16:25,0,0
16:30,0,0
16:35,0,0
16:40,0,0
16:45,0,0
16:50,0,0
16:55,0,0
17:00,0,0
17:05,0,0
17:10,0,0
17:15,0,0
17:20,0,0
17:25,0,0
17:30,0,0
17:35,0,0
17:40,0,0
17:45,0,0
17:50,0,0
17:55,0,0
18:00,0,0
18:05,0,0
18:10,0,0
18:15,0,0
18:20,0,0
18:25,0,0
18:30,0,0
18:35,0,0
18:40,0,0
18:45,0,0
18:50,0,0
18:55,0,0
19:00,0,0
19:05,0,0
19:10,0,0
19:15,0,0
19:20,0,0
19:25,0,0
19:30,0,0
19:35,0,0
19:40,0,0
19:45,0,0
19:50,0,0
19:55,0,0
20:00,0,0
20:05,0,0
20:10,0,0
20:15,0,0
20:20,0,0
20:25,0,0
20:30,0,0
20:35,0,0
20:40,0,0
20:45,0,0
20:50,0,0
20:55,0,0
21:00,0,0
21:05,0,0
21:10,0,0
21:15,0,0
21:20,0,0
21:25,0,0
21:30,0,0
21:35,0,0
