4:30,0,0
4:35,0,0
4:40,0,0
4:45,0,0
4:50,0,0
4:55,0,0
5:00,0,0
5:05,0,0
5:10,0,0
5:15,0,0
5:20,0,0
5:25,0,0
5:30,0,0
5:35,0,0
5:40,0,0
5:45,0,0
5:50,0,0
5:55,0,0
6:00,0,0
6:05,0,0
6:10,0,0
6:15,0,0
6:20,0,0
6:25,8,8
6:30,5,4
6:35,7,6
6:40,4,4
6:45,7,5
6:50,6,5
6:55,10,7
7:00,11,10
7:05,11,15
7:10,16,15
7:15,16,36
7:20,14,18
7:25,41,38
7:30,82,74
7:35,95,87
7:40,95,92
7:45,102,100
7:50,105,103
7:55,105,97
8:00,126,117
8:05,177,169
8:10,184,190
8:15,226,226
8:20,251,245
8:25,250,239
8:30,298,277
8:35,327,300
8:40,348,323
8:45,358,352
8:50,344,333
8:55,309,283
9:00,307,272
9:05,328,303
9:10,344,332
9:15,370,370
9:20,367,370
9:25,399,414
9:30,459,475
9:35,476,486
9:40,498,479
9:45,530,515
9:50,573,594
9:55,585,643
10:00,520,558
10:05,413,436
10:10,408,393
10:15,562,568
10:20,635,687
10:25,713,810
10:30,693,727
10:35,726,761
10:40,706,763
10:45,742,773
10:50,630,675
10:55,781,831
11:00,780,791
11:05,596,677
11:10,570,618
11:15,708,700
11:20,712,666
11:25,649,609
11:30,602,598
11:35,697,638
11:40,727,622
11:45,750,710
11:50,658,660
11:55,382,381
12:00,379,347
12:05,672,582
12:10,673,573
12:15,486,412
12:20,361,351
12:25,582,508
12:30,756,677
12:35,851,805
12:40,942,922
12:45,922,860
12:50,775,699
12:55,943,886
13:00,1146,1110
13:05,857,846
13:10,922,908
13:15,1284,1233
13:20,1309,1262
13:25,1031,977
13:30,1047,966
13:35,847,803
13:40,1057,940
13:45,1056,909
13:50,918,837
13:55,745,712
14:00,726,671
14:05,981,853
14:10,848,801
14:15,657,631
14:20,614,572
14:25,797,686
14:30,801,725
14:35,859,796
14:40,786,751
14:45,757,713
14:50,869,808
14:55,808,752
15:00,744,679
15:05,806,727
15:10,811,741
15:15,606,580
15:20,688,587
15:25,1066,816
15:30,943,790
15:35,838,713
15:40,919,745
15:45,1270,892
15:50,1198,870
15:55,764,666
16:00,987,789
16:05,894,759
16:10,819,700
16:15,771,661
16:20,696,607
16:25,725,609
16:30,756,610
16:35,765,568
16:40,1012,688
16:45,1029,700
16:50,1668,845
16:55,1178,662
17:00,724,463
17:05,612,394
17:10,618,370
17:15,620,355
17:20,799,366
17:25,947,367
17:30,780,320
17:35,755,306
17:40,731,303
17:45,602,291
17:50,1110,311
17:55,821,288
18:00,475,283
18:05,439,294
18:10,442,302
18:15,402,292
18:20,319,243
18:25,236,198
18:30,170,161
18:35,96,102
18:40,54,56
18:45,23,25
18:50,9,9
18:55,11,10
19:00,8,7
19:05,29,15
19:10,101,23
19:15,146,66
19:20,153,140
19:25,171,150
19:30,206,173
19:35,220,181
19:40,231,178
19:45,246,176
19:50,238,165
19:55,207,142
20:00,170,118
20:05,147,102
20:10,129,92
20:15,112,86
20:20,96,78
20:25,92,75
20:30,97,76
20:35,93,70
20:40,85,62
20:45,77,57
20:50,60,39
20:55,16,10
21:00,8,6
21:05,5,4
21:10,15,11
21:15,0,0
21:20,0,0
21:25,0,0
21:30,0,0
