4:30,0,0
4:35,0,0
4:40,0,0
4:45,0,0
4:50,0,0
4:55,0,0
5:00,0,0
5:05,0,0
5:10,0,0
5:15,0,0
5:20,0,0
5:25,0,0
5:30,0,0
5:35,0,0
5:40,0,0
5:45,0,0
5:50,0,0
5:55,0,0
6:00,0,0
6:05,0,0
6:10,0,0
6:15,0,0
6:20,0,0
6:25,13,11
6:30,5,4
6:35,6,6
6:40,5,4
6:45,8,11
6:50,11,11
6:55,24,18
7:00,14,12
7:05,12,16
7:10,12,13
7:15,29,16
7:20,32,13
7:25,11,13
7:30,9,9
7:35,11,9
7:40,10,10
7:45,10,10
7:50,10,9
7:55,9,9
8:00,9,12
8:05,9,8
8:10,9,13
8:15,11,11
8:20,20,17
8:25,13,12
8:30,18,17
8:35,12,12
8:40,23,18
8:45,13,12
8:50,17,42
8:55,20,62
9:00,67,81
9:05,113,105
9:10,120,108
9:15,121,111
9:20,148,139
9:25,189,176
9:30,241,223
9:35,254,237
9:40,265,246
9:45,246,226
9:50,242,228
9:55,240,218
10:00,221,200
10:05,194,184
10:10,218,204
10:15,237,218
10:20,248,229
10:25,276,255
10:30,281,256
10:35,259,238
10:40,303,274
10:45,317,283
10:50,283,257
10:55,262,239
11:00,270,251
11:05,265,248
11:10,253,243
11:15,259,245
11:20,262,246
11:25,345,322
11:30,369,345
11:35,404,365
11:40,432,388
11:45,431,380
11:50,453,397
11:55,472,420
12:00,387,346
12:05,447,396
12:10,455,404
12:15,413,356
12:20,400,356
12:25,445,386
12:30,486,430
12:35,482,435
12:40,447,411
12:45,417,380
12:50,440,405
12:55,494,445
13:00,527,471
13:05,543,487
13:10,559,523
13:15,591,547
13:20,541,485
13:25,498,443
13:30,457,407
13:35,432,388
13:40,411,372
13:45,400,359
13:50,384,347
13:55,381,357
14:00,396,366
14:05,392,357
14:10,373,339
14:15,371,340
14:20,371,339
14:25,360,326
14:30,344,317
14:35,339,312
14:40,339,313
14:45,341,310
14:50,330,302
14:55,325,300
15:00,325,302
15:05,328,308
15:10,333,319
15:15,352,342
15:20,384,369
15:25,363,352
15:30,381,356
15:35,420,398
15:40,433,409
15:45,423,393
15:50,406,373
15:55,378,335
16:00,347,310
16:05,338,297
16:10,318,303
16:15,315,306
16:20,309,317
16:25,282,280
16:30,328,314
16:35,433,406
16:40,428,401
16:45,466,402
16:50,477,405
16:55,383,346
17:00,348,316
17:05,214,216
17:10,218,185
17:15,254,221
17:20,284,255
17:25,299,268
17:30,310,271
17:35,312,268
17:40,318,266
17:45,321,254
17:50,315,239
17:55,299,228
18:00,280,222
18:05,273,225
18:10,273,230
18:15,278,241
18:20,313,267
18:25,350,285
18:30,368,283
18:35,378,272
18:40,375,250
18:45,357,230
18:50,326,202
18:55,287,183
19:00,243,162
19:05,216,143
19:10,189,126
19:15,156,105
19:20,113,88
19:25,87,69
19:30,74,64
19:35,77,61
19:40,46,46
19:45,6,6
19:50,6,6
19:55,9,9
20:00,0,0
20:05,0,0
20:10,0,0
20:15,0,0
20:20,0,0
20:25,0,0
20:30,0,0
20:35,0,0
20:40,0,0
20:45,0,0
20:50,0,0
20:55,0,0
21:00,0,0
21:05,0,0
21:10,0,0
21:15,0,0
21:20,0,0
21:25,0,0
21:30,0,0
