4:30,0,0
4:35,0,0
4:40,0,0
4:45,0,0
4:50,0,0
4:55,0,0
5:00,0,0
5:05,0,0
5:10,0,0
5:15,0,0
5:20,0,0
5:25,5,12
5:30,4,7
5:35,7,9
5:40,6,11
5:45,12,21
5:50,11,64
5:55,21,185
6:00,15,252
6:05,49,280
6:10,83,288
6:15,96,234
6:20,98,232
6:25,101,211
6:30,108,187
6:35,115,199
6:40,118,177
6:45,152,221
6:50,143,181
6:55,151,167
7:00,169,180
7:05,190,226
7:10,174,226
7:15,163,194
7:20,222,245
7:25,215,230
7:30,210,228
7:35,225,284
7:40,241,364
7:45,341,446
7:50,302,351
7:55,314,332
8:00,300,333
8:05,245,253
8:10,214,221
8:15,229,214
8:20,274,276
8:25,195,208
8:30,175,163
8:35,181,172
8:40,186,172
8:45,206,188
8:50,225,205
8:55,198,185
9:00,233,207
9:05,296,272
9:10,343,317
9:15,475,495
9:20,527,656
9:25,544,683
9:30,597,820
9:35,687,907
9:40,694,865
9:45,651,863
9:50,574,691
9:55,449,440
10:00,406,394
10:05,303,311
10:10,283,281
10:15,271,274
10:20,272,262
10:25,304,299
10:30,421,399
10:35,465,474
10:40,416,419
10:45,540,529
10:50,511,498
10:55,559,531
11:00,517,522
11:05,553,547
11:10,489,489
11:15,503,493
11:20,444,425
11:25,428,428
11:30,468,456
11:35,486,476
11:40,532,542
11:45,515,493
11:50,572,546
11:55,451,420
12:00,360,334
12:05,365,352
12:10,341,341
12:15,411,402
12:20,416,386
12:25,500,469
12:30,656,614
12:35,619,609
12:40,603,543
12:45,549,497
12:50,415,383
12:55,397,385
13:00,679,649
13:05,794,744
13:10,742,684
13:15,629,621
13:20,490,499
13:25,497,493
13:30,543,510
13:35,559,553
13:40,469,483
13:45,456,463
13:50,472,499
13:55,630,615
14:00,587,608
14:05,726,651
14:10,1054,929
14:15,766,636
14:20,1266,1030
14:25,1306,1011
14:30,960,783
14:35,1074,851
14:40,615,558
14:45,1261,944
14:50,1772,1198
14:55,990,718
15:00,1337,941
15:05,631,501
15:10,1492,991
15:15,2000,1173
15:20,1775,984
15:25,1630,960
15:30,1912,1068
15:35,1862,998
15:40,1269,730
15:45,1609,845
15:50,1277,638
15:55,1807,850
16:00,1796,793
16:05,1776,747
16:10,1498,604
16:15,1552,619
16:20,1509,560
16:25,1509,531
16:30,1497,513
16:35,1729,552
16:40,1487,461
16:45,1691,492
16:50,1687,454
16:55,1670,420
17:00,1651,381
17:05,1627,344
17:10,1584,318
17:15,1539,288
17:20,1502,263
17:25,1451,229
17:30,1385,209
17:35,1316,181
17:40,1251,166
17:45,1223,151
17:50,1194,119
17:55,1134,102
18:00,1107,93
18:05,1059,91
18:10,984,84
18:15,903,83
18:20,754,82
18:25,704,77
18:30,647,78
18:35,522,77
18:40,447,75
18:45,395,75
18:50,326,73
18:55,300,70
19:00,178,72
19:05,96,74
19:10,93,70
19:15,82,69
19:20,112,70
19:25,117,65
19:30,115,63
19:35,117,65
19:40,118,66
19:45,111,63
19:50,105,61
19:55,109,62
20:00,82,54
20:05,73,27
20:10,71,20
20:15,77,13
20:20,72,19
20:25,56,11
20:30,23,13
20:35,13,8
20:40,11,9
20:45,8,5
20:50,9,4
20:55,5,3
21:00,15,9
21:05,0,0
21:10,0,0
21:15,0,0
21:20,0,0
21:25,0,0
21:30,0,0
