4:30,0,0
4:35,0,0
4:40,0,0
4:45,0,0
4:50,0,0
4:55,0,0
5:00,0,0
5:05,0,0
5:10,0,0
5:15,0,0
5:20,0,0
5:25,0,0
5:30,0,0
5:35,0,0
5:40,0,0
5:45,0,0
5:50,0,0
5:55,0,0
6:00,0,0
6:05,0,0
6:10,0,0
6:15,0,0
6:20,0,0
6:25,0,0
6:30,0,0
6:35,0,0
6:40,0,0
6:45,0,0
6:50,5,13
6:55,5,34
7:00,8,176
7:05,9,263
7:10,15,319
7:15,13,365
7:20,46,434
7:25,56,500
7:30,62,536
7:35,67,581
7:40,70,625
7:45,75,680
7:50,78,748
7:55,81,793
8:00,86,836
8:05,89,873
8:10,92,911
8:15,94,949
8:20,97,983
8:25,100,1019
8:30,99,1050
8:35,98,1082
8:40,105,1110
8:45,108,1142
8:50,110,1169
8:55,110,1198
9:00,113,1223
9:05,116,1248
9:10,121,1265
9:15,124,1294
9:20,132,1302
9:25,139,1323
9:30,160,1353
9:35,186,1372
9:40,211,1378
9:45,245,1389
9:50,287,1406
9:55,330,1426
10:00,380,1453
10:05,434,1480
10:10,509,1536
10:15,582,1558
10:20,635,1541
10:25,703,1659
10:30,627,1417
10:35,473,967
10:40,451,956
10:45,534,1141
10:50,756,1604
10:55,794,1566
11:00,845,1639
11:05,571,1088
11:10,751,1421
11:15,858,1543
11:20,815,1414
11:25,811,1368
11:30,882,1457
11:35,914,1463
11:40,962,1488
11:45,1003,1501
11:50,1044,1508
11:55,1062,1485
12:00,1093,1477
12:05,1125,1467
12:10,1141,1431
12:15,974,1181
12:20,1263,1452
12:25,1118,1235
12:30,1226,1347
12:35,1189,1288
12:40,1324,1428
12:45,1294,1368
12:50,1314,1362
12:55,1353,1363
13:00,1367,1339
13:05,1400,1332
13:10,1448,1334
13:15,1460,1296
13:20,1204,1049
13:25,1442,1288
13:30,839,758
13:35,1520,1275
13:40,1461,1180
13:45,1413,1103
13:50,1420,1072
13:55,1433,1052
14:00,1487,1063
14:05,1235,875
14:10,1361,926
14:15,1520,1002
14:20,1521,971
14:25,1522,946
14:30,1519,907
14:35,1527,880
14:40,1409,772
14:45,1562,827
14:50,1546,796
14:55,1558,771
15:00,1607,769
15:05,1592,739
15:10,1606,732
15:15,1599,707
15:20,1565,660
15:25,1519,601
15:30,1495,555
15:35,1481,515
15:40,1456,477
15:45,1506,466
15:50,1520,449
15:55,1161,353
16:00,339,198
16:05,266,196
16:10,300,227
16:15,307,210
16:20,822,207
16:25,805,180
16:30,1350,191
16:35,822,153
16:40,1062,138
16:45,1282,125
16:50,1229,105
16:55,1199,93
17:00,1178,87
17:05,1150,84
17:10,1062,87
17:15,1034,101
17:20,638,138
17:25,832,149
17:30,777,135
17:35,664,139
17:40,685,131
17:45,623,105
17:50,475,100
17:55,449,86
18:00,204,70
18:05,183,68
18:10,113,54
18:15,296,53
18:20,134,46
18:25,24,15
18:30,55,12
18:35,53,11
18:40,51,15
18:45,35,9
18:50,12,10
18:55,9,5
19:00,12,4
19:05,6,3
19:10,10,5
19:15,0,0
19:20,0,0
19:25,0,0
19:30,0,0
19:35,0,0
19:40,0,0
19:45,0,0
19:50,0,0
19:55,0,0
20:00,0,0
20:05,0,0
20:10,0,0
20:15,0,0
20:20,0,0
20:25,0,0
20:30,0,0
20:35,0,0
20:40,0,0
20:45,0,0
20:50,0,0
20:55,0,0
21:00,0,0
21:05,0,0
21:10,0,0
21:15,0,0
21:20,0,0
21:25,0,0
21:30,0,0
