4:30,0,0
4:35,0,0
4:40,0,0
4:45,0,0
4:50,0,0
4:55,0,0
5:00,0,0
5:05,0,0
5:10,0,0
5:15,0,0
5:20,0,0
5:25,0,0
5:30,0,0
5:35,0,0
5:40,0,0
5:45,0,0
5:50,0,0
5:55,0,0
6:00,0,0
6:05,0,0
6:10,0,0
6:15,0,0
6:20,0,0
6:25,0,0
6:30,0,0
6:35,5,10
6:40,4,10
6:45,6,18
6:50,7,13
6:55,14,51
7:00,13,79
7:05,48,104
7:10,60,130
7:15,68,205
7:20,73,229
7:25,86,254
7:30,83,309
7:35,84,340
7:40,91,219
7:45,94,270
7:50,107,373
7:55,145,489
8:00,172,894
8:05,129,887
8:10,115,949
8:15,118,1009
8:20,118,1029
8:25,122,1060
8:30,123,1131
8:35,126,1191
8:40,126,1229
8:45,123,1261
8:50,126,1258
8:55,133,1317
9:00,149,1342
9:05,159,1368
9:10,167,1137
9:15,193,1349
9:20,243,1401
9:25,265,1151
9:30,333,1458
9:35,379,1454
9:40,362,1455
9:45,346,1463
9:50,310,1069
9:55,379,1388
10:00,453,1598
10:05,477,1520
10:10,537,1357
10:15,478,1010
10:20,660,1315
10:25,661,1158
10:30,914,1807
10:35,846,1546
10:40,953,1732
10:45,795,1354
10:50,1044,1873
10:55,802,1236
11:00,729,1123
11:05,940,1379
11:10,1026,1501
11:15,900,1173
11:20,890,1276
11:25,791,998
11:30,1350,1881
11:35,987,1277
11:40,957,1157
11:45,1033,1273
11:50,756,888
11:55,573,610
12:00,824,925
12:05,1035,1152
12:10,992,1106
12:15,1116,1216
12:20,759,795
12:25,832,905
12:30,1108,1189
12:35,677,699
12:40,1118,1144
12:45,1517,1489
12:50,1223,1217
12:55,969,933
13:00,1040,985
13:05,1407,1283
13:10,1418,1286
13:15,1558,1344
13:20,1438,1271
13:25,763,682
13:30,1233,1064
13:35,1655,1383
13:40,1902,1526
13:45,1700,1318
13:50,1865,1419
13:55,1905,1408
14:00,1760,1247
14:05,1337,976
14:10,1644,1150
14:15,1681,1114
14:20,1216,812
14:25,1485,985
14:30,1048,707
14:35,744,538
14:40,1066,765
14:45,1057,712
14:50,1419,883
14:55,668,512
15:00,965,656
15:05,1280,784
15:10,1469,800
15:15,1080,589
15:20,1438,756
15:25,1307,702
15:30,1304,702
15:35,972,568
15:40,1382,653
15:45,1742,739
15:50,1264,578
15:55,869,445
16:00,1064,452
16:05,734,382
16:10,636,418
16:15,1227,641
16:20,1021,560
16:25,882,412
16:30,1179,448
16:35,839,399
16:40,547,336
16:45,468,325
16:50,915,423
16:55,939,349
17:00,521,254
17:05,603,312
17:10,523,332
17:15,460,316
17:20,523,299
17:25,559,259
17:30,684,231
17:35,445,205
17:40,591,206
17:45,615,184
17:50,444,138
17:55,428,109
18:00,293,124
18:05,279,146
18:10,263,142
18:15,498,117
18:20,387,146
18:25,437,131
18:30,266,115
18:35,208,104
18:40,156,88
18:45,136,74
18:50,148,75
18:55,138,55
19:00,156,58
19:05,147,58
19:10,121,53
19:15,103,43
19:20,82,11
19:25,61,13
19:30,28,6
19:35,10,6
19:40,7,4
19:45,9,3
19:50,13,7
19:55,0,0
20:00,0,0
20:05,0,0
20:10,0,0
20:15,0,0
20:20,0,0
20:25,0,0
20:30,0,0
20:35,0,0
20:40,0,0
20:45,0,0
20:50,0,0
20:55,0,0
21:00,0,0
21:05,0,0
21:10,0,0
21:15,0,0
21:20,0,0
21:25,0,0
21:30,0,0
