4:30,0,0
4:35,0,0
4:40,0,0
4:45,0,0
4:50,0,0
4:55,0,0
5:00,0,0
5:05,0,0
5:10,0,0
5:15,0,0
5:20,0,0
5:25,0,0
5:30,0,0
5:35,0,0
5:40,0,0
5:45,0,0
5:50,0,0
5:55,0,0
6:00,0,0
6:05,0,0
6:10,0,0
6:15,0,0
6:20,0,0
6:25,0,0
6:30,0,0
6:35,0,0
6:40,0,0
6:45,0,0
6:50,0,0
6:55,0,0
7:00,0,0
7:05,0,0
7:10,0,0
7:15,0,0
7:20,0,0
7:25,0,0
7:30,0,0
7:35,0,0
7:40,0,0
7:45,0,0
7:50,0,0
7:55,0,0
8:00,0,0
8:05,0,0
8:10,0,0
8:15,0,0
8:20,0,0
8:25,0,0
8:30,0,0
8:35,0,0
8:40,15,17
8:45,5,6
8:50,7,7
8:55,6,6
9:00,8,7
9:05,4,4
9:10,6,6
9:15,7,7
9:20,8,11
9:25,12,16
9:30,21,20
9:35,81,82
9:40,94,96
9:45,99,101
9:50,107,105
9:55,110,107
10:00,99,96
10:05,96,89
10:10,88,80
10:15,77,70
10:20,46,43
10:25,11,15
10:30,13,12
10:35,27,61
10:40,25,78
10:45,18,52
10:50,18,18
10:55,30,18
11:00,14,13
11:05,10,15
11:10,10,9
11:15,19,17
11:20,18,16
11:25,60,54
11:30,88,85
11:35,99,88
11:40,101,96
11:45,64,63
11:50,59,55
11:55,18,22
12:00,11,12
12:05,16,15
12:10,15,15
12:15,11,13
12:20,13,15
12:25,21,19
12:30,64,64
12:35,70,66
12:40,77,74
12:45,88,82
12:50,109,104
12:55,114,107
13:00,112,107
13:05,77,75
13:10,69,69
13:15,67,66
13:20,57,55
13:25,57,53
13:30,30,29
13:35,11,11
13:40,17,16
13:45,12,12
13:50,8,11
13:55,5,4
14:00,6,6
14:05,5,4
14:10,7,6
14:15,14,12
14:20,0,0
14:25,0,0
14:30,0,0
14:35,0,0
14:40,0,0
14:45,0,0
14:50,0,0
14:55,0,0
15:00,0,0
15:05,0,0
15:10,10,10
15:15,9,9
15:20,12,10
15:25,12,10
15:30,12,12
15:35,10,10
15:40,0,0
15:45,0,0
15:50,0,0
15:55,0,0
16:00,0,0
16:05,0,0
16:10,0,0
16:15,0,0
16:20,0,0
16:25,0,0
16:30,0,0
16:35,0,0
16:40,0,0
16:45,0,0
16:50,0,0
16:55,0,0
17:00,0,0
17:05,0,0
17:10,0,0
17:15,0,0
17:20,0,0
17:25,0,0
17:30,0,0
17:35,0,0
17:40,0,0
17:45,0,0
17:50,0,0
17:55,0,0
18:00,0,0
18:05,0,0
18:10,0,0
18:15,0,0
18:20,0,0
18:25,0,0
18:30,0,0
18:35,0,0
18:40,0,0
18:45,0,0
18:50,0,0
18:55,0,0
19:00,0,0
19:05,0,0
19:10,0,0
19:15,0,0
19:20,0,0
19:25,0,0
19:30,0,0
19:35,0,0
19:40,0,0
19:45,0,0
19:50,0,0
19:55,0,0
20:00,0,0
20:05,0,0
20:10,0,0
20:15,0,0
20:20,0,0
20:25,0,0
20:30,0,0
20:35,0,0
20:40,0,0
20:45,0,0
20:50,0,0
20:55,0,0
21:00,0,0
21:05,0,0
21:10,0,0
21:15,0,0
21:20,0,0
21:25,0,0
21:30,0,0
21:35,0,0
