4:30,0,0
4:35,0,0
4:40,0,0
4:45,0,0
4:50,0,0
4:55,0,0
5:00,0,0
5:05,0,0
5:10,0,0
5:15,0,0
5:20,0,0
5:25,0,0
5:30,0,0
5:35,0,0
5:40,0,0
5:45,0,0
5:50,0,0
5:55,0,0
6:00,0,0
6:05,0,0
6:10,0,0
6:15,0,0
6:20,0,0
6:25,0,0
6:30,0,0
6:35,0,0
6:40,0,0
6:45,0,0
6:50,8,11
6:55,5,7
7:00,12,19
7:05,14,20
7:10,58,80
7:15,90,102
7:20,92,99
7:25,92,96
7:30,84,85
7:35,69,80
7:40,76,103
7:45,100,151
7:50,137,211
7:55,190,264
8:00,262,336
8:05,347,453
8:10,392,454
8:15,392,396
8:20,348,440
8:25,295,513
8:30,256,311
8:35,336,777
8:40,411,522
8:45,353,334
8:50,412,436
8:55,375,353
9:00,302,354
9:05,523,1017
9:10,355,436
9:15,293,318
9:20,315,334
9:25,365,634
9:30,422,993
9:35,348,731
9:40,330,654
9:45,383,919
9:50,374,786
9:55,294,459
10:00,318,405
10:05,366,537
10:10,421,735
10:15,409,632
10:20,365,519
10:25,363,440
10:30,342,457
10:35,401,481
10:40,479,530
10:45,539,588
10:50,621,696
10:55,618,652
11:00,543,565
11:05,544,587
11:10,759,1022
11:15,767,1108
11:20,778,1030
11:25,745,1019
11:30,587,776
11:35,777,1117
11:40,904,1311
11:45,859,1205
11:50,475,532
11:55,393,383
12:00,481,465
12:05,560,572
12:10,535,571
12:15,623,658
12:20,644,669
12:25,619,648
12:30,577,596
12:35,560,573
12:40,549,554
12:45,633,638
12:50,508,499
12:55,509,479
13:00,1101,1065
13:05,1494,1517
13:10,1247,1259
13:15,1064,1055
13:20,423,458
13:25,396,410
13:30,409,406
13:35,418,398
13:40,533,476
13:45,572,504
13:50,470,423
13:55,463,417
14:00,490,448
14:05,481,454
14:10,425,407
14:15,369,364
14:20,320,321
14:25,292,293
14:30,293,285
14:35,361,323
14:40,447,373
14:45,542,431
14:50,637,502
14:55,739,578
15:00,763,614
15:05,779,617
15:10,905,675
15:15,728,606
15:20,636,553
15:25,676,557
15:30,652,539
15:35,653,522
15:40,669,481
15:45,986,547
15:50,1202,583
15:55,1035,501
16:00,1411,546
16:05,1693,532
16:10,1341,382
16:15,595,253
16:20,914,298
16:25,461,292
16:30,1235,349
16:35,1396,409
16:40,1535,384
16:45,1456,326
16:50,1206,307
16:55,784,315
17:00,277,343
17:05,235,332
17:10,183,272
17:15,151,192
17:20,177,119
17:25,142,122
17:30,233,101
17:35,98,80
17:40,108,83
17:45,108,91
17:50,106,84
17:55,94,73
18:00,65,54
18:05,26,13
18:10,11,8
18:15,13,9
18:20,52,16
18:25,71,16
18:30,68,16
18:35,36,12
18:40,15,13
18:45,8,7
18:50,10,6
18:55,6,7
19:00,6,10
19:05,7,7
19:10,7,11
19:15,5,5
19:20,7,7
19:25,0,0
19:30,0,0
19:35,0,0
19:40,0,0
19:45,0,0
19:50,0,0
19:55,0,0
20:00,0,0
20:05,0,0
20:10,0,0
20:15,0,0
20:20,0,0
20:25,0,0
20:30,0,0
20:35,0,0
20:40,0,0
20:45,0,0
20:50,0,0
20:55,0,0
21:00,0,0
21:05,0,0
21:10,0,0
21:15,0,0
21:20,0,0
21:25,0,0
21:30,0,0
