4:30,0,0
4:35,0,0
4:40,0,0
4:45,0,0
4:50,0,0
4:55,0,0
5:00,0,0
5:05,0,0
5:10,0,0
5:15,0,0
5:20,0,0
5:25,0,0
5:30,0,0
5:35,0,0
5:40,0,0
5:45,0,0
5:50,0,0
5:55,0,0
6:00,0,0
6:05,0,0
6:10,0,0
6:15,0,0
6:20,0,0
6:25,0,0
6:30,0,0
6:35,0,0
6:40,0,0
6:45,0,0
6:50,0,0
6:55,0,0
7:00,0,0
7:05,0,0
7:10,0,0
7:15,0,0
7:20,0,0
7:25,0,0
7:30,0,0
7:35,0,0
7:40,0,0
7:45,0,0
7:50,0,0
7:55,0,0
8:00,10,9
8:05,6,6
8:10,20,16
8:15,23,23
8:20,92,114
8:25,114,127
8:30,82,86
8:35,75,73
8:40,111,105
8:45,77,73
8:50,35,32
8:55,18,16
9:00,31,28
9:05,45,46
9:10,101,101
9:15,196,197
9:20,153,156
9:25,105,96
9:30,97,91
9:35,92,83
9:40,198,191
9:45,187,180
9:50,150,131
9:55,203,191
10:00,179,171
10:05,147,136
10:10,149,136
10:15,182,172
10:20,187,182
10:25,168,163
10:30,285,269
10:35,370,397
10:40,203,218
10:45,204,195
10:50,239,241
10:55,319,369
11:00,314,300
11:05,453,456
11:10,739,1012
11:15,815,1203
11:20,601,818
11:25,495,601
11:30,528,645
11:35,559,667
11:40,364,433
11:45,261,304
11:50,493,557
11:55,579,734
12:00,564,632
12:05,386,427
12:10,527,542
12:15,908,1005
12:20,577,611
12:25,862,980
12:30,990,1128
12:35,1093,1196
12:40,629,678
12:45,657,699
12:50,562,606
12:55,574,583
13:00,538,506
13:05,618,587
13:10,648,615
13:15,553,540
13:20,635,583
13:25,855,757
13:30,938,837
13:35,591,548
13:40,502,528
13:45,354,386
13:50,328,323
13:55,316,306
14:00,276,254
14:05,179,165
14:10,80,77
14:15,55,53
14:20,66,61
14:25,214,140
14:30,640,456
14:35,606,483
14:40,1076,690
14:45,767,554
14:50,595,517
14:55,529,488
15:00,614,505
15:05,533,481
15:10,484,448
15:15,514,443
15:20,472,417
15:25,440,376
15:30,406,359
15:35,356,353
15:40,306,313
15:45,334,312
15:50,284,277
15:55,287,287
16:00,295,285
16:05,325,317
16:10,312,305
16:15,352,316
16:20,400,320
16:25,670,311
16:30,516,273
16:35,426,267
16:40,411,260
16:45,339,235
16:50,347,233
16:55,285,215
17:00,293,218
17:05,286,215
17:10,251,196
17:15,271,190
17:20,265,188
17:25,226,169
17:30,208,143
17:35,193,146
17:40,173,133
17:45,193,146
17:50,176,143
17:55,126,105
18:00,122,103
18:05,70,74
18:10,55,59
18:15,16,22
18:20,6,6
18:25,9,4
18:30,8,4
18:35,7,4
18:40,10,6
18:45,0,0
18:50,0,0
18:55,0,0
19:00,0,0
19:05,0,0
19:10,0,0
19:15,0,0
19:20,0,0
19:25,0,0
19:30,0,0
19:35,0,0
19:40,0,0
19:45,0,0
19:50,0,0
19:55,0,0
20:00,0,0
20:05,0,0
20:10,0,0
20:15,0,0
20:20,0,0
20:25,0,0
20:30,0,0
20:35,0,0
20:40,0,0
20:45,0,0
20:50,0,0
20:55,0,0
21:00,0,0
21:05,0,0
21:10,0,0
21:15,0,0
21:20,0,0
21:25,0,0
21:30,0,0
