4:30,0,0
4:35,0,0
4:40,0,0
4:45,0,0
4:50,0,0
4:55,0,0
5:00,0,0
5:05,0,0
5:10,0,0
5:15,0,0
5:20,0,0
5:25,0,0
5:30,0,0
5:35,0,0
5:40,0,0
5:45,0,0
5:50,0,0
5:55,0,0
6:00,0,0
6:05,0,0
6:10,0,0
6:15,11,11
6:20,7,7
6:25,12,13
6:30,8,7
6:35,7,6
6:40,10,10
6:45,21,13
6:50,15,14
6:55,12,16
7:00,10,10
7:05,9,9
7:10,11,10
7:15,22,13
7:20,13,12
7:25,27,18
7:30,13,11
7:35,28,19
7:40,16,12
7:45,28,19
7:50,27,13
7:55,29,26
8:00,59,53
8:05,72,66
8:10,88,77
8:15,80,72
8:20,101,88
8:25,103,96
8:30,93,82
8:35,122,114
8:40,127,123
8:45,140,129
8:50,132,118
8:55,135,115
9:00,140,125
9:05,162,143
9:10,164,145
9:15,145,121
9:20,118,106
9:25,134,131
9:30,153,147
9:35,169,156
9:40,153,144
9:45,164,150
9:50,150,128
9:55,169,147
10:00,182,161
10:05,155,142
10:10,216,190
10:15,203,180
10:20,181,168
10:25,152,149
10:30,184,174
10:35,168,158
10:40,192,187
10:45,162,155
10:50,176,162
10:55,184,165
11:00,152,138
11:05,123,113
11:10,126,113
11:15,157,134
11:20,189,180
11:25,218,221
11:30,181,181
11:35,133,124
11:40,112,105
11:45,160,154
11:50,239,219
11:55,242,224
12:00,366,345
12:05,669,603
12:10,570,491
12:15,442,364
12:20,434,368
12:25,512,438
12:30,395,365
12:35,307,292
12:40,319,285
12:45,248,213
12:50,257,222
12:55,305,252
13:00,313,263
13:05,297,246
13:10,279,230
13:15,271,239
13:20,331,303
13:25,371,322
13:30,365,313
13:35,367,296
13:40,278,222
13:45,256,216
13:50,317,256
13:55,321,268
14:00,329,275
14:05,291,260
14:10,340,299
14:15,328,279
14:20,283,240
14:25,261,229
14:30,316,265
14:35,321,260
14:40,223,179
14:45,189,158
14:50,197,171
14:55,211,188
15:00,222,185
15:05,265,252
15:10,316,301
15:15,352,318
15:20,348,323
15:25,386,340
15:30,377,336
15:35,339,306
15:40,296,275
15:45,294,262
15:50,294,240
15:55,248,202
16:00,278,232
16:05,246,210
16:10,144,130
16:15,107,99
16:20,163,155
16:25,228,224
16:30,222,226
16:35,244,232
16:40,214,201
16:45,169,171
16:50,152,155
16:55,150,150
17:00,132,128
17:05,129,125
17:10,155,150
17:15,164,155
17:20,150,139
17:25,153,147
17:30,124,125
17:35,90,97
17:40,92,101
17:45,87,92
17:50,92,90
17:55,103,98
18:00,79,71
18:05,69,68
18:10,52,57
18:15,21,32
18:20,13,15
18:25,45,16
18:30,61,16
18:35,26,16
18:40,8,8
18:45,9,11
18:50,7,4
18:55,12,9
19:00,0,0
19:05,0,0
19:10,0,0
19:15,10,9
19:20,0,0
19:25,0,0
19:30,0,0
19:35,0,0
19:40,0,0
19:45,21,19
19:50,8,8
19:55,10,6
20:00,6,5
20:05,12,10
20:10,0,0
20:15,0,0
20:20,0,0
20:25,0,0
20:30,0,0
20:35,0,0
20:40,0,0
20:45,0,0
20:50,0,0
20:55,0,0
21:00,0,0
21:05,0,0
21:10,0,0
21:15,0,0
21:20,0,0
21:25,0,0
21:30,0,0
