4:30,0,0
4:35,0,0
4:40,0,0
4:45,0,0
4:50,0,0
4:55,0,0
5:00,0,0
5:05,0,0
5:10,0,0
5:15,0,0
5:20,0,0
5:25,0,0
5:30,0,0
5:35,0,0
5:40,0,0
5:45,0,0
5:50,0,0
5:55,0,0
6:00,0,0
6:05,10,17
6:10,4,7
6:15,9,18
6:20,9,20
6:25,11,26
6:30,11,78
6:35,12,51
6:40,10,10
6:45,11,12
6:50,21,16
6:55,22,36
7:00,90,604
7:05,81,430
7:10,101,689
7:15,143,829
7:20,118,690
7:25,96,641
7:30,101,735
7:35,96,865
7:40,106,882
7:45,110,1030
7:50,139,1079
7:55,288,526
8:00,245,278
8:05,209,228
8:10,274,327
8:15,260,301
8:20,273,294
8:25,235,227
8:30,170,158
8:35,156,137
8:40,208,190
8:45,244,216
8:50,276,277
8:55,296,295
9:00,336,355
9:05,412,528
9:10,438,581
9:15,397,454
9:20,441,517
9:25,514,919
9:30,559,916
9:35,532,726
9:40,550,923
9:45,582,1042
9:50,664,1091
9:55,606,873
10:00,545,770
10:05,616,1011
10:10,772,1187
10:15,600,721
10:20,632,807
10:25,810,1144
10:30,1153,1790
10:35,800,1126
10:40,863,1170
10:45,760,867
10:50,778,941
10:55,622,789
11:00,891,1192
11:05,953,1144
11:10,963,1211
11:15,984,1218
11:20,816,979
11:25,943,1129
11:30,896,1040
11:35,1111,1240
11:40,1092,1159
11:45,570,523
11:50,1002,1002
11:55,602,603
12:00,1529,1580
12:05,1356,1337
12:10,820,724
12:15,844,790
12:20,928,847
12:25,1226,1097
12:30,1337,1162
12:35,1623,1402
12:40,1505,1259
12:45,873,719
12:50,1547,1181
12:55,1379,1050
13:00,983,761
13:05,1389,1027
13:10,1070,769
13:15,1472,1052
13:20,929,669
13:25,1911,1278
13:30,1705,1070
13:35,1739,1026
13:40,1871,1143
13:45,877,563
13:50,1136,657
13:55,1290,667
14:00,1664,790
14:05,1732,848
14:10,1612,803
14:15,1617,708
14:20,1598,651
14:25,1212,485
14:30,1666,621
14:35,1525,594
14:40,819,424
14:45,823,413
14:50,1723,592
14:55,1685,556
15:00,1559,412
15:05,1410,372
15:10,1576,463
15:15,1558,381
15:20,1564,346
15:25,1585,370
15:30,1565,344
15:35,1536,308
15:40,1543,288
15:45,1385,282
15:50,1491,280
15:55,565,197
16:00,1015,185
16:05,1392,221
16:10,1107,209
16:15,1164,135
16:20,692,116
16:25,1220,129
16:30,1194,121
16:35,1125,111
16:40,1068,94
16:45,1062,95
16:50,1033,120
16:55,959,96
17:00,917,88
17:05,885,78
17:10,852,75
17:15,823,84
17:20,745,87
17:25,670,60
17:30,493,41
17:35,458,16
17:40,329,12
17:45,105,12
17:50,68,10
17:55,24,6
18:00,13,5
18:05,9,4
18:10,9,3
18:15,12,6
18:20,14,8
18:25,0,0
18:30,0,0
18:35,0,0
18:40,0,0
18:45,0,0
18:50,0,0
18:55,0,0
19:00,0,0
19:05,0,0
19:10,0,0
19:15,0,0
19:20,0,0
19:25,0,0
19:30,0,0
19:35,0,0
19:40,0,0
19:45,0,0
19:50,0,0
19:55,0,0
20:00,0,0
20:05,0,0
20:10,0,0
20:15,0,0
20:20,0,0
20:25,0,0
20:30,0,0
20:35,0,0
20:40,0,0
20:45,0,0
20:50,0,0
20:55,0,0
21:00,0,0
21:05,0,0
21:10,0,0
21:15,0,0
21:20,0,0
21:25,0,0
21:30,0,0
