4:30,0,0
4:35,0,0
4:40,0,0
4:45,0,0
4:50,0,0
4:55,0,0
5:00,0,0
5:05,0,0
5:10,0,0
5:15,0,0
5:20,0,0
5:25,0,0
5:30,0,0
5:35,0,0
5:40,0,0
5:45,0,0
5:50,0,0
5:55,0,0
6:00,0,0
6:05,0,0
6:10,0,0
6:15,0,0
6:20,0,0
6:25,0,0
6:30,0,0
6:35,0,0
6:40,0,0
6:45,0,0
6:50,7,16
6:55,4,13
7:00,7,99
7:05,7,176
7:10,14,264
7:15,12,401
7:20,30,449
7:25,27,487
7:30,33,566
7:35,59,630
7:40,63,674
7:45,66,713
7:50,69,738
7:55,74,804
8:00,77,878
8:05,80,921
8:10,82,954
8:15,85,991
8:20,88,971
8:25,91,1058
8:30,93,1091
8:35,101,1056
8:40,152,1104
8:45,264,525
8:50,221,644
8:55,160,1077
9:00,151,992
9:05,187,1022
9:10,152,1382
9:15,143,1390
9:20,156,1414
9:25,150,1382
9:30,171,1355
9:35,212,1425
9:40,270,1499
9:45,241,911
9:50,322,1227
9:55,358,1475
10:00,386,1415
10:05,348,1172
10:10,340,881
10:15,437,1204
10:20,669,1679
10:25,576,1357
10:30,285,411
10:35,225,246
10:40,265,374
10:45,551,846
10:50,846,1268
10:55,920,1431
11:00,851,1446
11:05,435,478
11:10,359,445
11:15,379,528
11:20,786,1266
11:25,1164,1808
11:30,755,1026
11:35,966,1431
11:40,757,1075
11:45,1098,1552
11:50,490,520
11:55,1315,1733
12:00,1278,1648
12:05,1396,1684
12:10,1505,1726
12:15,1272,1479
12:20,419,508
12:25,241,321
12:30,228,298
12:35,244,315
12:40,203,237
12:45,212,188
12:50,250,186
12:55,482,399
13:00,945,891
13:05,660,610
13:10,676,592
13:15,673,566
13:20,575,505
13:25,286,266
13:30,268,202
13:35,428,273
13:40,663,439
13:45,900,633
13:50,1000,785
13:55,793,664
14:00,726,605
14:05,653,540
14:10,736,596
14:15,1131,914
14:20,1606,1201
14:25,1094,784
14:30,740,522
14:35,919,622
14:40,822,594
14:45,785,563
14:50,635,439
14:55,793,551
15:00,1090,726
15:05,1395,830
15:10,2146,1188
15:15,1429,745
15:20,1938,895
15:25,1127,559
15:30,1552,651
15:35,1419,548
15:40,1587,579
15:45,1228,465
15:50,1420,546
15:55,1387,569
16:00,1074,515
16:05,1653,581
16:10,1137,459
16:15,1447,423
16:20,1068,309
16:25,1426,359
16:30,240,177
16:35,394,221
16:40,513,348
16:45,554,309
16:50,1544,344
16:55,1038,205
17:00,447,179
17:05,1130,194
17:10,1492,227
17:15,1358,137
17:20,1227,85
17:25,880,79
17:30,300,122
17:35,812,146
17:40,508,170
17:45,695,95
17:50,1020,81
17:55,1041,94
18:00,858,75
18:05,686,75
18:10,745,68
18:15,802,81
18:20,626,54
18:25,507,50
18:30,423,34
18:35,426,12
18:40,334,17
18:45,135,11
18:50,109,18
18:55,96,10
19:00,69,8
19:05,30,6
19:10,18,6
19:15,12,3
19:20,10,2
19:25,10,3
19:30,0,0
19:35,0,0
19:40,0,0
19:45,0,0
19:50,0,0
19:55,0,0
20:00,0,0
20:05,0,0
20:10,0,0
20:15,0,0
20:20,0,0
20:25,0,0
20:30,0,0
20:35,0,0
20:40,0,0
20:45,0,0
20:50,0,0
20:55,0,0
21:00,0,0
21:05,0,0
21:10,0,0
21:15,0,0
21:20,0,0
21:25,0,0
21:30,0,0
