4:30,0,0
4:35,0,0
4:40,0,0
4:45,0,0
4:50,0,0
4:55,0,0
5:00,0,0
5:05,0,0
5:10,0,0
5:15,0,0
5:20,0,0
5:25,0,0
5:30,0,0
5:35,0,0
5:40,0,0
5:45,0,0
5:50,0,0
5:55,0,0
6:00,0,0
6:05,0,0
6:10,0,0
6:15,0,0
6:20,0,0
6:25,0,0
6:30,0,0
6:35,0,0
6:40,0,0
6:45,0,0
6:50,0,0
6:55,0,0
7:00,0,0
7:05,0,0
7:10,0,0
7:15,0,0
7:20,0,0
7:25,0,0
7:30,0,0
7:35,0,0
7:40,10,11
7:45,7,8
7:50,8,14
7:55,12,15
8:00,52,66
8:05,76,104
8:10,84,123
8:15,106,153
8:20,114,209
8:25,106,251
8:30,119,210
8:35,146,243
8:40,176,215
8:45,170,185
8:50,99,120
8:55,91,92
9:00,112,113
9:05,78,89
9:10,83,73
9:15,173,137
9:20,236,211
9:25,272,271
9:30,274,321
9:35,249,297
9:40,172,179
9:45,131,148
9:50,123,112
9:55,283,248
10:00,478,593
10:05,383,445
10:10,436,686
10:15,406,759
10:20,289,411
10:25,210,196
10:30,178,162
10:35,202,184
10:40,197,182
10:45,211,202
10:50,203,194
10:55,189,177
11:00,212,204
11:05,308,294
11:10,523,618
11:15,624,820
11:20,595,685
11:25,422,529
11:30,552,751
11:35,300,374
11:40,773,987
11:45,736,833
11:50,567,643
11:55,651,746
12:00,791,869
12:05,655,664
12:10,797,800
12:15,933,894
12:20,749,678
12:25,638,548
12:30,322,298
12:35,138,142
12:40,108,100
12:45,219,152
12:50,314,254
12:55,394,326
13:00,498,379
13:05,514,384
13:10,497,363
13:15,499,340
13:20,504,347
13:25,904,553
13:30,897,547
13:35,809,497
13:40,675,440
13:45,596,400
13:50,641,445
13:55,633,429
14:00,871,476
14:05,420,287
14:10,457,258
14:15,633,301
14:20,966,424
14:25,876,341
14:30,697,223
14:35,901,239
14:40,722,188
14:45,288,218
14:50,307,237
14:55,768,283
15:00,618,330
15:05,499,261
15:10,358,130
15:15,319,189
15:20,197,127
15:25,180,113
15:30,156,97
15:35,172,99
15:40,165,97
15:45,162,95
15:50,190,97
15:55,380,117
16:00,440,133
16:05,391,131
16:10,433,128
16:15,385,128
16:20,272,125
16:25,253,118
16:30,209,107
16:35,161,96
16:40,134,79
16:45,145,73
16:50,118,68
16:55,84,44
17:00,53,9
17:05,18,10
17:10,11,5
17:15,13,4
17:20,17,6
17:25,0,0
17:30,0,0
17:35,0,0
17:40,0,0
17:45,0,0
17:50,0,0
17:55,0,0
18:00,0,0
18:05,0,0
18:10,0,0
18:15,0,0
18:20,0,0
18:25,0,0
18:30,0,0
18:35,0,0
18:40,0,0
18:45,0,0
18:50,0,0
18:55,0,0
19:00,0,0
19:05,0,0
19:10,0,0
19:15,0,0
19:20,0,0
19:25,0,0
19:30,0,0
19:35,0,0
19:40,0,0
19:45,0,0
19:50,0,0
19:55,0,0
20:00,0,0
20:05,0,0
20:10,0,0
20:15,0,0
20:20,0,0
20:25,0,0
20:30,0,0
20:35,0,0
20:40,0,0
20:45,0,0
20:50,0,0
20:55,0,0
21:00,0,0
21:05,0,0
21:10,0,0
21:15,0,0
21:20,0,0
21:25,0,0
21:30,0,0
