4:30,0,0
4:35,0,0
4:40,0,0
4:45,0,0
4:50,0,0
4:55,0,0
5:00,0,0
5:05,0,0
5:10,0,0
5:15,0,0
5:20,0,0
5:25,0,0
5:30,0,0
5:35,8,15
5:40,3,6
5:45,4,7
5:50,5,10
5:55,6,13
6:00,10,39
6:05,11,89
6:10,18,202
6:15,13,292
6:20,50,331
6:25,56,345
6:30,61,415
6:35,61,380
6:40,66,331
6:45,75,500
6:50,80,588
6:55,84,613
7:00,86,645
7:05,91,682
7:10,93,684
7:15,95,747
7:20,98,816
7:25,105,881
7:30,107,909
7:35,110,972
7:40,109,961
7:45,104,878
7:50,112,959
7:55,114,1046
8:00,117,1104
8:05,121,1177
8:10,123,1176
8:15,129,1155
8:20,139,1237
8:25,150,1353
8:30,158,1343
8:35,187,1231
8:40,205,1356
8:45,231,1465
8:50,246,1413
8:55,289,1522
9:00,318,1553
9:05,351,1562
9:10,385,1582
9:15,416,1579
9:20,453,1605
9:25,487,1610
9:30,524,1638
9:35,565,1649
9:40,612,1682
9:45,660,1701
9:50,674,1621
9:55,676,1527
10:00,750,1640
10:05,754,1584
10:10,761,1559
10:15,771,1535
10:20,717,1385
10:25,875,1670
10:30,915,1687
10:35,958,1693
10:40,1048,1777
10:45,980,1625
10:50,954,1574
10:55,1133,1844
11:00,1136,1811
11:05,1124,1755
11:10,1190,1806
11:15,1213,1796
11:20,1242,1795
11:25,1271,1791
11:30,1300,1777
11:35,1339,1787
11:40,1384,1808
11:45,1392,1778
11:50,1321,1651
11:55,1249,1522
12:00,1266,1510
12:05,1233,1436
12:10,1130,1270
12:15,1127,1220
12:20,1240,1331
12:25,1228,1275
12:30,550,530
12:35,870,862
12:40,1862,1904
12:45,1593,1630
12:50,1708,1705
12:55,1642,1586
13:00,1775,1690
13:05,857,778
13:10,538,511
13:15,497,490
13:20,449,474
13:25,440,449
13:30,453,455
13:35,743,726
13:40,1360,1235
13:45,925,867
13:50,701,668
13:55,584,559
14:00,426,406
14:05,292,281
14:10,229,219
14:15,205,202
14:20,218,216
14:25,224,218
14:30,253,239
14:35,312,288
14:40,359,328
14:45,454,439
14:50,583,554
14:55,498,460
15:00,467,426
15:05,410,352
15:10,510,431
15:15,487,447
15:20,454,445
15:25,388,391
15:30,312,313
15:35,335,311
15:40,322,282
15:45,320,255
15:50,378,297
15:55,409,329
16:00,471,375
16:05,445,389
16:10,372,348
16:15,351,328
16:20,330,298
16:25,341,298
16:30,352,321
16:35,419,396
16:40,425,410
16:45,392,376
16:50,361,338
16:55,310,305
17:00,312,301
17:05,291,287
17:10,283,274
17:15,326,304
17:20,283,263
17:25,217,190
17:30,189,174
17:35,116,112
17:40,98,87
17:45,140,127
17:50,159,159
17:55,172,178
18:00,187,194
18:05,225,222
18:10,208,211
18:15,213,216
18:20,248,238
18:25,237,236
18:30,189,186
18:35,150,151
18:40,150,140
18:45,153,132
18:50,137,119
18:55,109,92
19:00,78,57
19:05,73,52
19:10,78,57
19:15,76,57
19:20,66,51
19:25,38,15
19:30,17,14
19:35,10,8
19:40,10,7
19:45,9,6
19:50,11,5
19:55,9,5
20:00,10,5
20:05,9,5
20:10,9,5
20:15,7,3
20:20,16,10
20:25,0,0
20:30,0,0
20:35,0,0
20:40,0,0
20:45,0,0
20:50,0,0
20:55,0,0
21:00,0,0
21:05,0,0
21:10,0,0
21:15,0,0
21:20,0,0
21:25,0,0
21:30,0,0
