4:30,0,0
4:35,0,0
4:40,0,0
4:45,0,0
4:50,0,0
4:55,0,0
5:00,0,0
5:05,0,0
5:10,0,0
5:15,0,0
5:20,0,0
5:25,0,0
5:30,0,0
5:35,0,0
5:40,0,0
5:45,0,0
5:50,0,0
5:55,0,0
6:00,0,0
6:05,0,0
6:10,0,0
6:15,0,0
6:20,0,0
6:25,0,0
6:30,0,0
6:35,0,0
6:40,0,0
6:45,0,0
6:50,0,0
6:55,0,0
7:00,0,0
7:05,0,0
7:10,0,0
7:15,0,0
7:20,0,0
7:25,0,0
7:30,11,10
7:35,6,6
7:40,11,7
7:45,9,9
7:50,17,16
7:55,15,14
8:00,43,18
8:05,29,20
8:10,52,51
8:15,93,93
8:20,106,109
8:25,116,118
8:30,127,134
8:35,135,140
8:40,148,155
8:45,151,158
8:50,167,172
8:55,185,202
9:00,195,217
9:05,215,249
9:10,235,307
9:15,248,312
9:20,273,364
9:25,272,350
9:30,272,335
9:35,278,359
9:40,270,385
9:45,291,392
9:50,302,390
9:55,314,388
10:00,311,350
10:05,313,340
10:10,303,328
10:15,306,317
10:20,319,331
10:25,292,295
10:30,271,263
10:35,284,279
10:40,282,280
10:45,287,274
10:50,295,291
10:55,303,293
11:00,308,304
11:05,273,270
11:10,287,277
11:15,311,304
11:20,319,316
11:25,337,329
11:30,315,304
11:35,316,301
11:40,316,301
11:45,297,279
11:50,294,280
11:55,326,303
12:00,353,343
12:05,346,328
12:10,373,350
12:15,384,363
12:20,384,360
12:25,338,330
12:30,290,281
12:35,272,261
12:40,259,249
12:45,239,228
12:50,231,223
12:55,252,237
13:00,263,253
13:05,253,240
13:10,226,215
13:15,213,198
13:20,197,184
13:25,192,182
13:30,181,172
13:35,185,175
13:40,163,158
13:45,136,131
13:50,116,107
13:55,116,110
14:00,103,100
14:05,108,98
14:10,97,90
14:15,87,82
14:20,87,82
14:25,92,85
14:30,87,82
14:35,87,83
14:40,85,79
14:45,82,74
14:50,80,74
14:55,74,69
15:00,77,71
15:05,77,72
15:10,74,69
15:15,69,64
15:20,59,53
15:25,45,36
15:30,11,10
15:35,8,7
15:40,7,6
15:45,8,6
15:50,5,4
15:55,14,12
16:00,0,0
16:05,0,0
16:10,0,0
16:15,0,0
16:20,0,0
16:25,0,0
16:30,0,0
16:35,0,0
16:40,0,0
16:45,0,0
16:50,0,0
16:55,0,0
17:00,0,0
17:05,0,0
17:10,0,0
17:15,0,0
17:20,0,0
17:25,0,0
17:30,0,0
17:35,0,0
17:40,0,0
17:45,0,0
17:50,0,0
17:55,0,0
18:00,0,0
18:05,0,0
18:10,0,0
18:15,0,0
18:20,0,0
18:25,0,0
18:30,0,0
18:35,0,0
18:40,0,0
18:45,0,0
18:50,0,0
18:55,0,0
19:00,0,0
19:05,0,0
19:10,0,0
19:15,0,0
19:20,0,0
19:25,0,0
19:30,0,0
19:35,0,0
19:40,0,0
19:45,0,0
19:50,0,0
19:55,0,0
20:00,0,0
20:05,0,0
20:10,0,0
20:15,0,0
20:20,0,0
20:25,0,0
20:30,0,0
20:35,0,0
20:40,0,0
20:45,0,0
20:50,0,0
20:55,0,0
21:00,0,0
21:05,0,0
21:10,0,0
21:15,0,0
21:20,0,0
21:25,0,0
21:30,0,0
21:35,0,0
