4:30,0,0
4:35,0,0
4:40,0,0
4:45,0,0
4:50,0,0
4:55,0,0
5:00,0,0
5:05,0,0
5:10,0,0
5:15,0,0
5:20,0,0
5:25,0,0
5:30,0,0
5:35,0,0
5:40,0,0
5:45,0,0
5:50,0,0
5:55,0,0
6:00,0,0
6:05,0,0
6:10,0,0
6:15,0,0
6:20,0,0
6:25,0,0
6:30,0,0
6:35,0,0
6:40,0,0
6:45,0,0
6:50,0,0
6:55,0,0
7:00,0,0
7:05,0,0
7:10,0,0
7:15,0,0
7:20,0,0
7:25,0,0
7:30,0,0
7:35,0,0
7:40,9,9
7:45,6,6
7:50,15,14
7:55,14,16
8:00,44,54
8:05,32,53
8:10,45,43
8:15,68,65
8:20,75,86
8:25,67,73
8:30,102,117
8:35,110,170
8:40,120,253
8:45,134,249
8:50,217,447
8:55,178,489
9:00,213,541
9:05,283,373
9:10,198,235
9:15,238,220
9:20,254,241
9:25,124,122
9:30,20,21
9:35,20,18
9:40,50,42
9:45,238,306
9:50,266,432
9:55,250,268
10:00,268,238
10:05,230,228
10:10,323,315
10:15,306,300
10:20,282,249
10:25,262,237
10:30,235,220
10:35,439,412
10:40,374,366
10:45,327,319
10:50,248,232
10:55,254,225
11:00,349,311
11:05,384,342
11:10,496,457
11:15,475,476
11:20,304,286
11:25,414,404
11:30,300,292
11:35,408,400
11:40,317,290
11:45,336,282
11:50,382,347
11:55,392,310
12:00,430,377
12:05,430,361
12:10,526,519
12:15,164,221
12:20,168,136
12:25,139,128
12:30,99,89
12:35,211,199
12:40,216,221
12:45,164,154
12:50,121,102
12:55,277,212
13:00,332,269
13:05,268,228
13:10,328,302
13:15,232,236
13:20,121,120
13:25,102,98
13:30,77,69
13:35,86,79
13:40,72,68
13:45,65,56
13:50,81,65
13:55,87,79
14:00,89,85
14:05,87,79
14:10,94,84
14:15,102,92
14:20,94,89
14:25,84,79
14:30,129,115
14:35,140,127
14:40,105,104
14:45,26,28
14:50,33,30
14:55,108,101
15:00,81,76
15:05,90,80
15:10,87,80
15:15,76,66
15:20,106,96
15:25,85,82
15:30,19,22
15:35,8,7
15:40,14,13
15:45,17,13
15:50,7,7
15:55,7,6
16:00,6,6
16:05,0,0
16:10,17,15
16:15,5,4
16:20,8,5
16:25,0,0
16:30,0,0
16:35,0,0
16:40,0,0
16:45,0,0
16:50,0,0
16:55,0,0
17:00,0,0
17:05,0,0
17:10,0,0
17:15,0,0
17:20,0,0
17:25,0,0
17:30,0,0
17:35,0,0
17:40,0,0
17:45,0,0
17:50,0,0
17:55,0,0
18:00,0,0
18:05,0,0
18:10,0,0
18:15,0,0
18:20,0,0
18:25,0,0
18:30,0,0
18:35,0,0
18:40,0,0
18:45,0,0
18:50,0,0
18:55,0,0
19:00,0,0
19:05,0,0
19:10,0,0
19:15,0,0
19:20,0,0
19:25,0,0
19:30,0,0
19:35,0,0
19:40,0,0
19:45,0,0
19:50,0,0
19:55,0,0
20:00,0,0
20:05,0,0
20:10,0,0
20:15,0,0
20:20,0,0
20:25,0,0
20:30,0,0
20:35,0,0
20:40,0,0
20:45,0,0
20:50,0,0
20:55,0,0
21:00,0,0
21:05,0,0
21:10,0,0
21:15,0,0
21:20,0,0
21:25,0,0
21:30,0,0
