4:30,0,0
4:35,0,0
4:40,0,0
4:45,0,0
4:50,0,0
4:55,0,0
5:00,0,0
5:05,0,0
5:10,0,0
5:15,0,0
5:20,0,0
5:25,11,11
5:30,6,5
5:35,7,6
5:40,10,9
5:45,17,16
5:50,11,10
5:55,10,14
6:00,11,10
6:05,12,12
6:10,8,8
6:15,17,15
6:20,12,12
6:25,35,16
6:30,36,17
6:35,36,37
6:40,65,59
6:45,79,72
6:50,86,78
6:55,118,105
7:00,148,136
7:05,186,180
7:10,156,149
7:15,134,124
7:20,158,147
7:25,196,192
7:30,194,201
7:35,202,217
7:40,129,168
7:45,72,80
7:50,80,86
7:55,70,59
8:00,104,80
8:05,153,133
8:10,218,158
8:15,297,273
8:20,357,381
8:25,179,191
8:30,106,112
8:35,126,116
8:40,188,160
8:45,240,189
8:50,333,294
8:55,278,246
9:00,310,239
9:05,270,224
9:10,129,135
9:15,235,195
9:20,416,423
9:25,727,1254
9:30,228,256
9:35,237,164
9:40,391,319
9:45,424,420
9:50,355,460
9:55,354,301
10:00,432,376
10:05,449,354
10:10,750,724
10:15,721,788
10:20,697,748
10:25,719,859
10:30,742,898
10:35,495,519
10:40,271,219
10:45,555,677
10:50,1343,2158
10:55,1284,1727
11:00,886,1031
11:05,1012,1095
11:10,689,719
11:15,793,887
11:20,854,890
11:25,680,633
11:30,597,544
11:35,1034,1112
11:40,1707,2018
11:45,1658,2017
11:50,1770,2069
11:55,1472,1778
12:00,1073,1155
12:05,595,569
12:10,351,340
12:15,367,301
12:20,664,606
12:25,966,998
12:30,1833,1944
12:35,1452,1418
12:40,1491,1523
12:45,506,571
12:50,643,625
12:55,958,921
13:00,1482,1460
13:05,1434,1391
13:10,866,823
13:15,923,873
13:20,403,388
13:25,284,251
13:30,297,341
13:35,770,675
13:40,2034,1641
13:45,2088,1706
13:50,2064,1653
13:55,1043,891
14:00,622,565
14:05,2165,1673
14:10,834,719
14:15,226,200
14:20,493,417
14:25,829,758
14:30,878,727
14:35,1580,1137
14:40,1614,1214
14:45,381,370
14:50,507,478
14:55,813,655
15:00,1816,1214
15:05,2215,1349
15:10,2208,1289
15:15,993,648
15:20,488,417
15:25,784,616
15:30,883,681
15:35,677,547
15:40,2170,1301
15:45,1454,917
15:50,839,621
15:55,546,537
16:00,399,377
16:05,262,286
16:10,200,227
16:15,193,200
16:20,288,262
16:25,397,388
16:30,302,277
16:35,545,475
16:40,574,529
16:45,621,496
16:50,1522,707
16:55,2158,787
17:00,1960,670
17:05,1059,496
17:10,338,334
17:15,174,211
17:20,95,127
17:25,146,147
17:30,310,233
17:35,1411,379
17:40,1058,313
17:45,188,225
17:50,103,109
17:55,131,114
18:00,173,159
18:05,198,195
18:10,310,231
18:15,388,276
18:20,363,287
18:25,328,271
18:30,374,268
18:35,493,300
18:40,554,297
18:45,342,210
18:50,324,178
18:55,399,205
19:00,640,189
19:05,636,157
19:10,313,162
19:15,277,168
19:20,157,107
19:25,110,108
19:30,167,159
19:35,145,121
19:40,147,78
19:45,181,84
19:50,151,73
19:55,119,63
20:00,90,54
20:05,79,43
20:10,75,15
20:15,83,18
20:20,80,16
20:25,89,50
20:30,113,65
20:35,86,61
20:40,43,17
20:45,20,11
20:50,10,5
20:55,14,4
21:00,6,3
21:05,14,9
21:10,0,0
21:15,0,0
21:20,0,0
21:25,0,0
21:30,0,0
