4:30,0,0
4:35,0,0
4:40,0,0
4:45,0,0
4:50,0,0
4:55,0,0
5:00,0,0
5:05,0,0
5:10,7,14
5:15,4,6
5:20,6,12
5:25,6,10
5:30,7,21
5:35,9,54
5:40,15,138
5:45,11,212
5:50,28,251
5:55,50,280
6:00,53,300
6:05,58,347
6:10,61,377
6:15,63,426
6:20,66,481
6:25,69,503
6:30,74,521
6:35,74,565
6:40,76,584
6:45,79,625
6:50,82,622
6:55,84,688
7:00,90,694
7:05,89,731
7:10,90,762
7:15,95,767
7:20,95,799
7:25,95,855
7:30,100,869
7:35,100,749
7:40,105,841
7:45,109,961
7:50,117,1025
7:55,122,1080
8:00,129,1140
8:05,139,1169
8:10,146,1198
8:15,184,1186
8:20,228,1281
8:25,249,1225
8:30,305,1199
8:35,362,1032
8:40,438,1124
8:45,490,1328
8:50,349,832
8:55,413,915
9:00,433,928
9:05,369,649
9:10,525,1276
9:15,572,1416
9:20,642,1513
9:25,718,1604
9:30,598,1000
9:35,792,1405
9:40,643,1047
9:45,570,859
9:50,837,1512
9:55,555,738
10:00,980,1722
10:05,830,1339
10:10,834,1357
10:15,1139,1922
10:20,947,1486
10:25,941,1372
10:30,805,1008
10:35,866,980
10:40,893,1082
10:45,723,837
10:50,817,980
10:55,960,1207
11:00,756,830
11:05,760,837
11:10,884,1016
11:15,724,722
11:20,862,895
11:25,861,941
11:30,713,747
11:35,755,778
11:40,910,969
11:45,853,879
11:50,1138,1263
11:55,1287,1471
12:00,1465,1663
12:05,1103,1157
12:10,1251,1354
12:15,849,937
12:20,1098,1244
12:25,730,848
12:30,540,641
12:35,401,506
12:40,259,349
12:45,192,249
12:50,183,209
12:55,277,283
13:00,291,297
13:05,228,251
13:10,307,304
13:15,355,361
13:20,384,391
13:25,404,396
13:30,485,479
13:35,479,481
13:40,451,456
13:45,474,459
13:50,536,508
13:55,664,629
14:00,593,594
14:05,545,531
14:10,513,489
14:15,438,437
14:20,458,455
14:25,510,466
14:30,639,548
14:35,439,409
14:40,274,303
14:45,213,271
14:50,215,293
14:55,271,355
15:00,372,455
15:05,519,568
15:10,710,675
15:15,876,781
15:20,805,687
15:25,835,683
15:30,785,640
15:35,538,437
15:40,497,401
15:45,397,334
15:50,375,328
15:55,401,360
16:00,313,306
16:05,200,201
16:10,90,90
16:15,94,94
16:20,130,144
16:25,193,214
16:30,262,284
16:35,383,390
16:40,462,455
16:45,531,515
16:50,542,504
16:55,593,516
17:00,495,443
17:05,431,364
17:10,466,386
17:15,517,410
17:20,540,444
17:25,501,423
17:30,403,377
17:35,282,265
17:40,338,271
17:45,464,382
17:50,428,382
17:55,335,311
18:00,315,288
18:05,303,289
18:10,256,249
18:15,203,202
18:20,209,195
18:25,225,207
18:30,220,198
18:35,237,206
18:40,253,234
18:45,214,214
18:50,179,174
18:55,169,157
19:00,161,146
19:05,149,135
19:10,125,121
19:15,102,102
19:20,87,89
19:25,68,73
19:30,61,65
19:35,58,60
19:40,45,47
19:45,11,17
19:50,11,11
19:55,9,12
20:00,9,8
20:05,11,11
20:10,6,6
20:15,5,5
20:20,12,12
20:25,0,0
20:30,0,0
20:35,0,0
20:40,0,0
20:45,0,0
20:50,0,0
20:55,0,0
21:00,0,0
21:05,0,0
21:10,0,0
21:15,0,0
21:20,0,0
21:25,0,0
21:30,0,0
