4:30,0,0
4:35,0,0
4:40,0,0
4:45,0,0
4:50,0,0
4:55,0,0
5:00,0,0
5:05,0,0
5:10,0,0
5:15,0,0
5:20,0,0
5:25,0,0
5:30,0,0
5:35,0,0
5:40,0,0
5:45,0,0
5:50,0,0
5:55,0,0
6:00,0,0
6:05,0,0
6:10,0,0
6:15,0,0
6:20,0,0
6:25,0,0
6:30,0,0
6:35,0,0
6:40,0,0
6:45,0,0
6:50,0,0
6:55,0,0
7:00,0,0
7:05,0,0
7:10,0,0
7:15,0,0
7:20,0,0
7:25,0,0
7:30,0,0
7:35,0,0
7:40,0,0
7:45,0,0
7:50,0,0
7:55,0,0
8:00,0,0
8:05,14,12
8:10,5,4
8:15,6,4
8:20,0,0
8:25,14,14
8:30,5,4
8:35,8,5
8:40,6,5
8:45,6,6
8:50,5,5
8:55,6,7
9:00,12,14
9:05,14,12
9:10,39,14
9:15,14,13
9:20,27,13
9:25,9,8
9:30,11,7
9:35,11,10
9:40,55,16
9:45,47,13
9:50,21,18
9:55,14,12
10:00,8,9
10:05,7,8
10:10,12,15
10:15,11,10
10:20,41,14
10:25,24,15
10:30,55,22
10:35,89,24
10:40,87,52
10:45,90,85
10:50,112,107
10:55,114,107
11:00,82,76
11:05,51,47
11:10,17,16
11:15,10,10
11:20,10,13
11:25,9,9
11:30,8,10
11:35,11,13
11:40,15,19
11:45,15,21
11:50,16,14
11:55,20,18
12:00,13,12
12:05,16,16
12:10,11,11
12:15,11,15
12:20,9,8
12:25,9,9
12:30,12,13
12:35,60,54
12:40,60,57
12:45,36,31
12:50,11,11
12:55,13,19
13:00,18,16
13:05,34,16
13:10,17,16
13:15,61,59
13:20,131,124
13:25,111,107
13:30,87,79
13:35,81,79
13:40,98,93
13:45,92,88
13:50,92,88
13:55,82,79
14:00,65,63
14:05,27,25
14:10,12,13
14:15,9,9
14:20,8,7
14:25,11,9
14:30,13,13
14:35,23,21
14:40,57,45
14:45,24,13
14:50,39,22
14:55,21,19
15:00,27,25
15:05,23,21
15:10,22,21
15:15,17,16
15:20,52,45
15:25,16,11
15:30,14,12
15:35,10,10
15:40,9,13
15:45,8,8
15:50,11,15
15:55,9,9
16:00,8,8
16:05,6,6
16:10,9,8
16:15,7,6
16:20,11,15
16:25,14,12
16:30,14,12
16:35,8,7
16:40,0,0
16:45,0,0
16:50,0,0
16:55,0,0
17:00,0,0
17:05,0,0
17:10,0,0
17:15,0,0
17:20,0,0
17:25,0,0
17:30,0,0
17:35,0,0
17:40,0,0
17:45,0,0
17:50,0,0
17:55,0,0
18:00,0,0
18:05,0,0
18:10,0,0
18:15,0,0
18:20,0,0
18:25,0,0
18:30,0,0
18:35,0,0
18:40,0,0
18:45,0,0
18:50,0,0
18:55,0,0
19:00,0,0
19:05,0,0
19:10,0,0
19:15,0,0
19:20,0,0
19:25,0,0
19:30,0,0
19:35,0,0
19:40,0,0
19:45,0,0
19:50,0,0
19:55,0,0
20:00,0,0
20:05,0,0
20:10,0,0
20:15,0,0
20:20,0,0
20:25,0,0
20:30,0,0
20:35,0,0
20:40,0,0
20:45,0,0
20:50,0,0
20:55,0,0
21:00,0,0
21:05,0,0
21:10,0,0
21:15,0,0
21:20,0,0
21:25,0,0
21:30,0,0
