4:30,0,0
4:35,0,0
4:40,0,0
4:45,0,0
4:50,0,0
4:55,0,0
5:00,0,0
5:05,0,0
5:10,0,0
5:15,0,0
5:20,0,0
5:25,0,0
5:30,0,0
5:35,0,0
5:40,0,0
5:45,0,0
5:50,0,0
5:55,0,0
6:00,0,0
6:05,0,0
6:10,0,0
6:15,0,0
6:20,0,0
6:25,0,0
6:30,0,0
6:35,0,0
6:40,0,0
6:45,0,0
6:50,0,0
6:55,0,0
7:00,0,0
7:05,0,0
7:10,0,0
7:15,0,0
7:20,0,0
7:25,0,0
7:30,0,0
7:35,0,0
7:40,0,0
7:45,0,0
7:50,0,0
7:55,0,0
8:00,0,0
8:05,0,0
8:10,0,0
8:15,0,0
8:20,0,0
8:25,0,0
8:30,0,0
8:35,0,0
8:40,17,15
8:45,6,5
8:50,10,5
8:55,7,6
9:00,7,6
9:05,8,8
9:10,14,13
9:15,12,11
9:20,16,15
9:25,14,14
9:30,17,15
9:35,46,17
9:40,17,14
9:45,17,19
9:50,16,15
9:55,25,13
10:00,14,12
10:05,18,12
10:10,15,14
10:15,54,48
10:20,68,63
10:25,68,63
10:30,74,68
10:35,74,68
10:40,76,74
10:45,79,76
10:50,84,79
10:55,97,92
11:00,95,90
11:05,98,96
11:10,98,90
11:15,98,90
11:20,114,104
11:25,116,107
11:30,125,127
11:35,138,138
11:40,163,157
11:45,149,143
11:50,146,140
11:55,151,137
12:00,132,123
12:05,151,137
12:10,170,151
12:15,173,154
12:20,206,191
12:25,219,204
12:30,227,210
12:35,232,221
12:40,188,188
12:45,178,168
12:50,161,142
12:55,135,123
13:00,137,123
13:05,151,140
13:10,124,114
13:15,100,93
13:20,94,89
13:25,105,95
13:30,102,94
13:35,110,107
13:40,135,129
13:45,121,112
13:50,113,100
13:55,100,87
14:00,94,85
14:05,95,93
14:10,103,104
14:15,90,87
14:20,84,79
14:25,105,101
14:30,103,95
14:35,95,93
14:40,78,76
14:45,73,73
14:50,71,70
14:55,68,68
15:00,73,73
15:05,73,73
15:10,65,65
15:15,71,71
15:20,68,71
15:25,87,93
15:30,98,107
15:35,117,101
15:40,317,102
15:45,515,78
15:50,419,51
15:55,413,53
16:00,377,50
16:05,311,55
16:10,101,38
16:15,76,17
16:20,63,9
16:25,45,12
16:30,11,5
16:35,14,7
16:40,8,5
16:45,0,0
16:50,0,0
16:55,0,0
17:00,0,0
17:05,0,0
17:10,0,0
17:15,0,0
17:20,0,0
17:25,0,0
17:30,0,0
17:35,0,0
17:40,0,0
17:45,0,0
17:50,0,0
17:55,0,0
18:00,0,0
18:05,0,0
18:10,0,0
18:15,0,0
18:20,0,0
18:25,0,0
18:30,0,0
18:35,0,0
18:40,0,0
18:45,0,0
18:50,0,0
18:55,0,0
19:00,0,0
19:05,0,0
19:10,0,0
19:15,0,0
19:20,0,0
19:25,0,0
19:30,0,0
19:35,0,0
19:40,0,0
19:45,0,0
19:50,0,0
19:55,0,0
20:00,0,0
20:05,0,0
20:10,0,0
20:15,0,0
20:20,0,0
20:25,0,0
20:30,0,0
20:35,0,0
20:40,0,0
20:45,0,0
20:50,0,0
20:55,0,0
21:00,0,0
21:05,0,0
21:10,0,0
21:15,0,0
21:20,0,0
21:25,0,0
21:30,0,0
