4:30,0,0
4:35,0,0
4:40,0,0
4:45,0,0
4:50,0,0
4:55,0,0
5:00,0,0
5:05,0,0
5:10,0,0
5:15,0,0
5:20,0,0
5:25,0,0
5:30,0,0
5:35,0,0
5:40,0,0
5:45,0,0
5:50,0,0
5:55,0,0
6:00,0,0
6:05,0,0
6:10,0,0
6:15,0,0
6:20,0,0
6:25,0,0
6:30,0,0
6:35,0,0
6:40,0,0
6:45,0,0
6:50,0,0
6:55,0,0
7:00,0,0
7:05,0,0
7:10,0,0
7:15,0,0
7:20,0,0
7:25,0,0
7:30,15,15
7:35,9,12
7:40,12,19
7:45,16,18
7:50,43,47
7:55,64,65
8:00,62,59
8:05,69,65
8:10,72,65
8:15,80,73
8:20,103,92
8:25,114,108
8:30,108,99
8:35,111,105
8:40,119,110
8:45,106,99
8:50,119,107
8:55,129,116
9:00,113,105
9:05,119,105
9:10,119,110
9:15,106,94
9:20,124,111
9:25,109,100
9:30,122,106
9:35,133,117
9:40,127,114
9:45,140,131
9:50,127,111
9:55,172,152
10:00,154,139
10:05,172,158
10:10,223,200
10:15,247,225
10:20,222,213
10:25,166,157
10:30,177,169
10:35,193,174
10:40,225,202
10:45,295,281
10:50,335,326
10:55,296,294
11:00,324,303
11:05,392,384
11:10,381,396
11:15,313,313
11:20,361,350
11:25,367,374
11:30,366,384
11:35,304,311
11:40,401,389
11:45,319,342
11:50,251,260
11:55,254,238
12:00,363,351
12:05,393,383
12:10,340,337
12:15,297,297
12:20,221,231
12:25,157,163
12:30,173,154
12:35,225,208
12:40,270,238
12:45,453,425
12:50,443,388
12:55,420,389
13:00,443,402
13:05,320,316
13:10,213,200
13:15,254,244
13:20,226,215
13:25,205,196
13:30,218,215
13:35,221,205
13:40,283,264
13:45,194,188
13:50,153,146
13:55,145,136
14:00,193,172
14:05,260,234
14:10,265,247
14:15,188,177
14:20,136,130
14:25,143,127
14:30,158,147
14:35,156,147
14:40,121,113
14:45,95,92
14:50,82,75
14:55,151,141
15:00,191,175
15:05,143,136
15:10,183,164
15:15,175,161
15:20,121,114
15:25,26,23
15:30,12,11
15:35,21,19
15:40,11,11
15:45,19,17
15:50,13,13
15:55,22,18
16:00,10,10
16:05,10,15
16:10,11,10
16:15,40,14
16:20,80,23
16:25,102,68
16:30,83,76
16:35,41,37
16:40,8,8
16:45,10,8
16:50,6,5
16:55,8,8
17:00,11,9
17:05,12,10
17:10,0,0
17:15,0,0
17:20,0,0
17:25,0,0
17:30,0,0
17:35,0,0
17:40,0,0
17:45,0,0
17:50,0,0
17:55,0,0
18:00,0,0
18:05,0,0
18:10,0,0
18:15,0,0
18:20,0,0
18:25,0,0
18:30,0,0
18:35,0,0
18:40,0,0
18:45,0,0
18:50,0,0
18:55,0,0
19:00,0,0
19:05,0,0
19:10,0,0
19:15,0,0
19:20,0,0
19:25,0,0
19:30,0,0
19:35,0,0
19:40,0,0
19:45,0,0
19:50,0,0
19:55,0,0
20:00,0,0
20:05,0,0
20:10,0,0
20:15,0,0
20:20,0,0
20:25,0,0
20:30,0,0
20:35,0,0
20:40,0,0
20:45,0,0
20:50,0,0
20:55,0,0
21:00,0,0
21:05,0,0
21:10,0,0
21:15,0,0
21:20,0,0
21:25,0,0
21:30,0,0
