4:30,0,0
4:35,0,0
4:40,0,0
4:45,0,0
4:50,0,0
4:55,0,0
5:00,0,0
5:05,0,0
5:10,0,0
5:15,0,0
5:20,0,0
5:25,0,0
5:30,0,0
5:35,0,0
5:40,0,0
5:45,0,0
5:50,0,0
5:55,0,0
6:00,0,0
6:05,0,0
6:10,0,0
6:15,0,0
6:20,0,0
6:25,0,0
6:30,0,0
6:35,0,0
6:40,0,0
6:45,0,0
6:50,0,0
6:55,0,0
7:00,0,0
7:05,0,0
7:10,0,0
7:15,0,0
7:20,0,0
7:25,0,0
7:30,0,0
7:35,0,0
7:40,0,0
7:45,0,0
7:50,10,19
7:55,4,10
8:00,8,18
8:05,6,17
8:10,11,71
8:15,9,240
8:20,14,207
8:25,11,244
8:30,24,366
8:35,56,392
8:40,61,446
8:45,64,464
8:50,67,504
8:55,74,516
9:00,77,458
9:05,77,355
9:10,75,247
9:15,85,311
9:20,105,525
9:25,138,544
9:30,132,372
9:35,118,226
9:40,124,219
9:45,140,233
9:50,160,262
9:55,176,319
10:00,198,324
10:05,225,357
10:10,245,460
10:15,257,478
10:20,264,477
10:25,269,444
10:30,267,358
10:35,283,405
10:40,297,430
10:45,322,483
10:50,339,516
10:55,344,525
11:00,339,501
11:05,325,431
11:10,362,483
11:15,437,613
11:20,460,622
11:25,544,758
11:30,577,780
11:35,553,717
11:40,505,621
11:45,461,541
11:50,456,512
11:55,446,477
12:00,446,459
12:05,463,471
12:10,447,446
12:15,423,413
12:20,417,400
12:25,394,373
12:30,383,358
12:35,380,358
12:40,361,341
12:45,340,322
12:50,329,308
12:55,321,301
13:00,319,295
13:05,316,295
13:10,299,281
13:15,289,268
13:20,294,267
13:25,303,276
13:30,302,276
13:35,298,271
13:40,294,267
13:45,275,251
13:50,266,242
13:55,262,240
14:00,232,220
14:05,219,204
14:10,206,187
14:15,209,187
14:20,198,182
14:25,193,174
14:30,187,177
14:35,158,149
14:40,142,133
14:45,137,128
14:50,129,122
14:55,115,108
15:00,102,95
15:05,86,81
15:10,81,75
15:15,81,75
15:20,81,73
15:25,81,73
15:30,81,73
15:35,68,65
15:40,57,51
15:45,46,27
15:50,15,12
15:55,40,28
16:00,14,10
16:05,12,11
16:10,6,6
16:15,8,7
16:20,0,0
16:25,0,0
16:30,0,0
16:35,0,0
16:40,0,0
16:45,0,0
16:50,0,0
16:55,0,0
17:00,0,0
17:05,0,0
17:10,0,0
17:15,0,0
17:20,0,0
17:25,0,0
17:30,0,0
17:35,0,0
17:40,0,0
17:45,0,0
17:50,0,0
17:55,0,0
18:00,0,0
18:05,0,0
18:10,0,0
18:15,0,0
18:20,0,0
18:25,0,0
18:30,0,0
18:35,0,0
18:40,0,0
18:45,0,0
18:50,0,0
18:55,0,0
19:00,0,0
19:05,0,0
19:10,0,0
19:15,0,0
19:20,0,0
19:25,0,0
19:30,0,0
19:35,0,0
19:40,0,0
19:45,0,0
19:50,0,0
19:55,0,0
20:00,0,0
20:05,0,0
20:10,0,0
20:15,0,0
20:20,0,0
20:25,0,0
20:30,0,0
20:35,0,0
20:40,0,0
20:45,0,0
20:50,0,0
20:55,0,0
21:00,0,0
21:05,0,0
21:10,0,0
21:15,0,0
21:20,0,0
21:25,0,0
21:30,0,0
