4:30,0,0
4:35,0,0
4:40,0,0
4:45,0,0
4:50,0,0
4:55,0,0
5:00,0,0
5:05,0,0
5:10,0,0
5:15,0,0
5:20,0,0
5:25,0,0
5:30,0,0
5:35,0,0
5:40,0,0
5:45,0,0
5:50,0,0
5:55,0,0
6:00,0,0
6:05,0,0
6:10,0,0
6:15,0,0
6:20,0,0
6:25,0,0
6:30,0,0
6:35,0,0
6:40,0,0
6:45,0,0
6:50,0,0
6:55,0,0
7:00,0,0
7:05,0,0
7:10,0,0
7:15,0,0
7:20,0,0
7:25,0,0
7:30,0,0
7:35,0,0
7:40,0,0
7:45,0,0
7:50,0,0
7:55,0,0
8:00,0,0
8:05,0,0
8:10,14,16
8:15,6,6
8:20,6,7
8:25,9,10
8:30,17,19
8:35,11,13
8:40,17,18
8:45,8,9
8:50,13,9
8:55,17,16
9:00,11,10
9:05,10,8
9:10,26,26
9:15,59,59
9:20,62,62
9:25,81,84
9:30,103,120
9:35,98,145
9:40,90,143
9:45,100,168
9:50,97,137
9:55,131,139
10:00,156,164
10:05,210,237
10:10,212,226
10:15,198,208
10:20,231,228
10:25,255,264
10:30,209,225
10:35,198,213
10:40,270,313
10:45,311,414
10:50,310,346
10:55,339,382
11:00,320,374
11:05,371,469
11:10,435,572
11:15,347,414
11:20,405,443
11:25,370,469
11:30,282,336
11:35,266,311
11:40,290,353
11:45,331,423
11:50,276,336
11:55,282,339
12:00,354,393
12:05,373,421
12:10,350,375
12:15,377,389
12:20,400,412
12:25,301,321
12:30,282,274
12:35,351,328
12:40,460,400
12:45,492,422
12:50,425,365
12:55,407,301
13:00,618,416
13:05,465,350
13:10,486,384
13:15,506,344
13:20,402,284
13:25,411,292
13:30,357,256
13:35,399,306
13:40,420,328
13:45,359,295
13:50,316,263
13:55,309,224
14:00,256,216
14:05,224,209
14:10,216,169
14:15,276,208
14:20,277,227
14:25,252,200
14:30,287,201
14:35,321,209
14:40,272,174
14:45,261,161
14:50,195,122
14:55,131,89
15:00,143,95
15:05,194,131
15:10,142,120
15:15,156,114
15:20,150,131
15:25,107,86
15:30,93,84
15:35,75,73
15:40,65,62
15:45,62,56
15:50,57,54
15:55,41,22
16:00,9,8
16:05,6,7
16:10,7,4
16:15,13,7
16:20,6,4
16:25,9,6
16:30,0,0
16:35,0,0
16:40,0,0
16:45,0,0
16:50,0,0
16:55,0,0
17:00,0,0
17:05,0,0
17:10,0,0
17:15,0,0
17:20,0,0
17:25,0,0
17:30,0,0
17:35,0,0
17:40,0,0
17:45,0,0
17:50,0,0
17:55,0,0
18:00,0,0
18:05,0,0
18:10,0,0
18:15,0,0
18:20,0,0
18:25,0,0
18:30,0,0
18:35,0,0
18:40,0,0
18:45,0,0
18:50,0,0
18:55,0,0
19:00,0,0
19:05,0,0
19:10,0,0
19:15,0,0
19:20,0,0
19:25,0,0
19:30,0,0
19:35,0,0
19:40,0,0
19:45,0,0
19:50,0,0
19:55,0,0
20:00,0,0
20:05,0,0
20:10,0,0
20:15,0,0
20:20,0,0
20:25,0,0
20:30,0,0
20:35,0,0
20:40,0,0
20:45,0,0
20:50,0,0
20:55,0,0
21:00,0,0
21:05,0,0
21:10,0,0
21:15,0,0
21:20,0,0
21:25,0,0
21:30,0,0
