4:30,0,0
4:35,0,0
4:40,0,0
4:45,0,0
4:50,0,0
4:55,0,0
5:00,0,0
5:05,0,0
5:10,0,0
5:15,0,0
5:20,0,0
5:25,0,0
5:30,0,0
5:35,0,0
5:40,0,0
5:45,0,0
5:50,0,0
5:55,0,0
6:00,0,0
6:05,0,0
6:10,0,0
6:15,0,0
6:20,0,0
6:25,0,0
6:30,0,0
6:35,0,0
6:40,0,0
6:45,0,0
6:50,0,0
6:55,0,0
7:00,0,0
7:05,0,0
7:10,0,0
7:15,0,0
7:20,0,0
7:25,0,0
7:30,0,0
7:35,0,0
7:40,0,0
7:45,13,13
7:50,6,5
7:55,5,5
8:00,5,5
8:05,6,4
8:10,11,10
8:15,8,8
8:20,10,6
8:25,8,8
8:30,16,16
8:35,20,20
8:40,62,56
8:45,46,25
8:50,29,16
8:55,28,29
9:00,104,102
9:05,137,146
9:10,244,389
9:15,272,377
9:20,260,429
9:25,269,371
9:30,260,375
9:35,282,341
9:40,298,323
9:45,282,300
9:50,251,248
9:55,265,285
10:00,234,259
10:05,343,440
10:10,350,398
10:15,340,393
10:20,386,412
10:25,350,352
10:30,316,301
10:35,286,294
10:40,339,375
10:45,400,416
10:50,340,367
10:55,374,461
11:00,321,326
11:05,299,311
11:10,369,400
11:15,410,401
11:20,424,407
11:25,368,356
11:30,445,416
11:35,530,520
11:40,504,497
11:45,479,444
11:50,383,379
11:55,466,455
12:00,446,457
12:05,635,622
12:10,598,560
12:15,435,393
12:20,414,417
12:25,628,573
12:30,516,463
12:35,678,608
12:40,573,512
12:45,582,508
12:50,797,673
12:55,686,571
13:00,702,590
13:05,881,692
13:10,636,501
13:15,456,386
13:20,433,400
13:25,437,397
13:30,428,398
13:35,442,392
13:40,398,378
13:45,381,364
13:50,487,389
13:55,424,338
14:00,344,293
14:05,409,336
14:10,405,301
14:15,514,312
14:20,645,354
14:25,523,300
14:30,709,274
14:35,689,199
14:40,805,198
14:45,800,192
14:50,798,206
14:55,745,210
15:00,454,242
15:05,422,198
15:10,335,207
15:15,544,190
15:20,443,156
15:25,277,151
15:30,276,169
15:35,340,189
15:40,409,176
15:45,371,159
15:50,234,140
15:55,203,121
16:00,230,115
16:05,236,109
16:10,184,98
16:15,132,81
16:20,94,67
16:25,84,53
16:30,80,37
16:35,62,15
16:40,27,8
16:45,17,10
16:50,9,6
16:55,7,6
17:00,16,12
17:05,0,0
17:10,0,0
17:15,0,0
17:20,0,0
17:25,0,0
17:30,0,0
17:35,0,0
17:40,0,0
17:45,0,0
17:50,0,0
17:55,0,0
18:00,0,0
18:05,0,0
18:10,0,0
18:15,0,0
18:20,0,0
18:25,0,0
18:30,0,0
18:35,0,0
18:40,0,0
18:45,0,0
18:50,0,0
18:55,0,0
19:00,0,0
19:05,0,0
19:10,0,0
19:15,0,0
19:20,0,0
19:25,0,0
19:30,0,0
19:35,0,0
19:40,0,0
19:45,0,0
19:50,0,0
19:55,0,0
20:00,0,0
20:05,0,0
20:10,0,0
20:15,0,0
20:20,0,0
20:25,0,0
20:30,0,0
20:35,0,0
20:40,0,0
20:45,0,0
20:50,0,0
20:55,0,0
21:00,0,0
21:05,0,0
21:10,0,0
21:15,0,0
21:20,0,0
21:25,0,0
21:30,0,0
