4:30,0,0
4:35,0,0
4:40,0,0
4:45,0,0
4:50,0,0
4:55,0,0
5:00,0,0
5:05,0,0
5:10,0,0
5:15,0,0
5:20,0,0
5:25,0,0
5:30,0,0
5:35,0,0
5:40,0,0
5:45,0,0
5:50,0,0
5:55,0,0
6:00,0,0
6:05,0,0
6:10,0,0
6:15,0,0
6:20,0,0
6:25,0,0
6:30,0,0
6:35,0,0
6:40,0,0
6:45,0,0
6:50,0,0
6:55,0,0
7:00,0,0
7:05,0,0
7:10,0,0
7:15,0,0
7:20,0,0
7:25,0,0
7:30,0,0
7:35,0,0
7:40,0,0
7:45,0,0
7:50,0,0
7:55,0,0
8:00,0,0
8:05,0,0
8:10,12,12
8:15,6,5
8:20,8,6
8:25,6,6
8:30,12,9
8:35,8,8
8:40,15,13
8:45,13,13
8:50,36,34
8:55,33,25
9:00,12,16
9:05,15,15
9:10,43,41
9:15,79,69
9:20,79,74
9:25,96,89
9:30,95,88
9:35,104,98
9:40,117,111
9:45,128,117
9:50,131,120
9:55,128,120
10:00,128,117
10:05,125,114
10:10,128,120
10:15,142,132
10:20,144,137
10:25,158,146
10:30,152,140
10:35,152,144
10:40,155,151
10:45,166,158
10:50,169,160
10:55,163,154
11:00,168,157
11:05,163,157
11:10,168,155
11:15,163,154
11:20,158,149
11:25,147,137
11:30,161,155
11:35,171,157
11:40,194,183
11:45,182,163
11:50,166,155
11:55,180,171
12:00,168,154
12:05,171,157
12:10,179,168
12:15,185,171
12:20,191,177
12:25,185,171
12:30,174,157
12:35,163,151
12:40,163,151
12:45,157,145
12:50,157,146
12:55,157,143
13:00,155,146
13:05,163,149
13:10,160,148
13:15,147,137
13:20,149,142
13:25,144,132
13:30,117,107
13:35,109,106
13:40,125,119
13:45,122,115
13:50,119,111
13:55,125,114
14:00,120,109
14:05,130,123
14:10,152,143
14:15,157,145
14:20,136,126
14:25,127,115
14:30,119,111
14:35,103,94
14:40,93,86
14:45,87,80
14:50,79,71
14:55,79,72
15:00,76,68
15:05,71,67
15:10,76,74
15:15,79,72
15:20,74,69
15:25,71,66
15:30,66,58
15:35,63,58
15:40,58,55
15:45,58,51
15:50,52,43
15:55,31,17
16:00,11,11
16:05,15,15
16:10,9,9
16:15,8,10
16:20,6,6
16:25,8,4
16:30,12,12
16:35,0,0
16:40,0,0
16:45,0,0
16:50,0,0
16:55,0,0
17:00,0,0
17:05,0,0
17:10,0,0
17:15,0,0
17:20,0,0
17:25,0,0
17:30,0,0
17:35,0,0
17:40,0,0
17:45,0,0
17:50,0,0
17:55,0,0
18:00,0,0
18:05,0,0
18:10,0,0
18:15,0,0
18:20,0,0
18:25,0,0
18:30,0,0
18:35,0,0
18:40,0,0
18:45,0,0
18:50,0,0
18:55,0,0
19:00,0,0
19:05,0,0
19:10,0,0
19:15,0,0
19:20,0,0
19:25,0,0
19:30,0,0
19:35,0,0
19:40,0,0
19:45,0,0
19:50,0,0
19:55,0,0
20:00,0,0
20:05,0,0
20:10,0,0
20:15,0,0
20:20,0,0
20:25,0,0
20:30,0,0
20:35,0,0
20:40,0,0
20:45,0,0
20:50,0,0
20:55,0,0
21:00,0,0
21:05,0,0
21:10,0,0
21:15,0,0
21:20,0,0
21:25,0,0
21:30,0,0
