4:30,0,0
4:35,0,0
4:40,0,0
4:45,0,0
4:50,0,0
4:55,0,0
5:00,0,0
5:05,0,0
5:10,0,0
5:15,0,0
5:20,0,0
5:25,0,0
5:30,0,0
5:35,0,0
5:40,0,0
5:45,0,0
5:50,0,0
5:55,0,0
6:00,0,0
6:05,0,0
6:10,0,0
6:15,0,0
6:20,0,0
6:25,0,0
6:30,0,0
6:35,0,0
6:40,0,0
6:45,0,0
6:50,0,0
6:55,0,0
7:00,0,0
7:05,0,0
7:10,0,0
7:15,0,0
7:20,0,0
7:25,0,0
7:30,0,0
7:35,0,0
7:40,0,0
7:45,0,0
7:50,0,0
7:55,0,0
8:00,0,0
8:05,13,13
8:10,6,5
8:15,11,10
8:20,9,10
8:25,30,15
8:30,22,19
8:35,42,47
8:40,84,93
8:45,86,90
8:50,102,110
8:55,108,118
9:00,119,123
9:05,129,146
9:10,159,182
9:15,174,204
9:20,177,196
9:25,161,167
9:30,159,160
9:35,151,154
9:40,151,154
9:45,156,163
9:50,177,179
9:55,172,180
10:00,188,191
10:05,199,199
10:10,201,198
10:15,226,232
10:20,250,257
10:25,269,288
10:30,285,290
10:35,329,371
10:40,341,378
10:45,352,395
10:50,336,380
10:55,319,361
11:00,338,368
11:05,341,377
11:10,363,408
11:15,359,402
11:20,324,368
11:25,302,343
11:30,243,247
11:35,268,270
11:40,265,261
11:45,267,259
11:50,300,281
11:55,302,295
12:00,254,251
12:05,214,214
12:10,189,188
12:15,211,189
12:20,230,209
12:25,233,218
12:30,227,209
12:35,273,250
12:40,289,271
12:45,251,245
12:50,233,225
12:55,243,236
13:00,213,205
13:05,200,189
13:10,249,232
13:15,243,231
13:20,222,209
13:25,325,267
13:30,431,309
13:35,821,440
13:40,432,347
13:45,328,306
13:50,310,276
13:55,283,262
14:00,245,234
14:05,242,222
14:10,250,228
14:15,229,217
14:20,197,180
14:25,267,201
14:30,349,281
14:35,231,214
14:40,207,171
14:45,308,232
14:50,251,214
14:55,292,215
15:00,317,227
15:05,479,188
15:10,324,97
15:15,235,158
15:20,160,136
15:25,142,108
15:30,152,117
15:35,158,111
15:40,96,86
15:45,101,84
15:50,80,66
15:55,69,17
16:00,26,15
16:05,10,8
16:10,11,9
16:15,6,5
16:20,8,7
16:25,13,11
16:30,0,0
16:35,0,0
16:40,0,0
16:45,0,0
16:50,0,0
16:55,0,0
17:00,0,0
17:05,0,0
17:10,0,0
17:15,0,0
17:20,0,0
17:25,0,0
17:30,0,0
17:35,0,0
17:40,0,0
17:45,0,0
17:50,0,0
17:55,0,0
18:00,0,0
18:05,0,0
18:10,0,0
18:15,0,0
18:20,0,0
18:25,0,0
18:30,0,0
18:35,0,0
18:40,0,0
18:45,0,0
18:50,0,0
18:55,0,0
19:00,0,0
19:05,0,0
19:10,0,0
19:15,0,0
19:20,0,0
19:25,0,0
19:30,0,0
19:35,0,0
19:40,0,0
19:45,0,0
19:50,0,0
19:55,0,0
20:00,0,0
20:05,0,0
20:10,0,0
20:15,0,0
20:20,0,0
20:25,0,0
20:30,0,0
20:35,0,0
20:40,0,0
20:45,0,0
20:50,0,0
20:55,0,0
21:00,0,0
21:05,0,0
21:10,0,0
21:15,0,0
21:20,0,0
21:25,0,0
21:30,0,0
