4:30,0,0
4:35,0,0
4:40,0,0
4:45,0,0
4:50,0,0
4:55,0,0
5:00,0,0
5:05,0,0
5:10,0,0
5:15,0,0
5:20,0,0
5:25,0,0
5:30,0,0
5:35,0,0
5:40,0,0
5:45,0,0
5:50,0,0
5:55,0,0
6:00,0,0
6:05,0,0
6:10,0,0
6:15,0,0
6:20,0,0
6:25,0,0
6:30,0,0
6:35,0,0
6:40,0,0
6:45,0,0
6:50,0,0
6:55,0,0
7:00,0,0
7:05,0,0
7:10,0,0
7:15,0,0
7:20,0,0
7:25,0,0
7:30,0,0
7:35,0,0
7:40,0,0
7:45,0,0
7:50,0,0
7:55,0,0
8:00,0,0
8:05,16,18
8:10,8,11
8:15,32,57
8:20,58,134
8:25,61,187
8:30,72,365
8:35,75,311
8:40,77,306
8:45,72,124
8:50,74,82
8:55,71,79
9:00,38,52
9:05,21,16
9:10,73,20
9:15,82,31
9:20,79,77
9:25,84,77
9:30,95,88
9:35,100,91
9:40,119,104
9:45,144,137
9:50,135,131
9:55,169,151
10:00,199,186
10:05,191,185
10:10,185,189
10:15,171,178
10:20,141,145
10:25,113,111
10:30,133,116
10:35,166,143
10:40,168,156
10:45,127,122
10:50,110,102
10:55,102,96
11:00,89,82
11:05,92,82
11:10,87,74
11:15,106,82
11:20,174,148
11:25,183,171
11:30,136,134
11:35,106,100
11:40,119,111
11:45,117,108
11:50,113,105
11:55,100,97
12:00,79,76
12:05,71,63
12:10,92,85
12:15,109,99
12:20,92,85
12:25,79,74
12:30,97,88
12:35,130,115
12:40,212,183
12:45,377,340
12:50,241,228
12:55,200,199
13:00,206,236
13:05,167,191
13:10,110,104
13:15,165,143
13:20,179,167
13:25,129,112
13:30,81,76
13:35,78,77
13:40,63,65
13:45,31,45
13:50,10,11
13:55,13,17
14:00,11,10
14:05,10,13
14:10,8,8
14:15,14,14
14:20,11,11
14:25,21,17
14:30,9,9
14:35,9,12
14:40,9,10
14:45,17,11
14:50,49,31
14:55,137,64
15:00,465,214
15:05,719,207
15:10,561,122
15:15,477,77
15:20,414,60
15:25,119,51
15:30,125,18
15:35,69,11
15:40,58,16
15:45,78,11
15:50,86,18
15:55,69,12
16:00,14,7
16:05,7,5
16:10,10,9
16:15,31,8
16:20,12,4
16:25,10,4
16:30,18,10
16:35,0,0
16:40,0,0
16:45,0,0
16:50,0,0
16:55,0,0
17:00,0,0
17:05,0,0
17:10,0,0
17:15,0,0
17:20,0,0
17:25,0,0
17:30,0,0
17:35,0,0
17:40,0,0
17:45,0,0
17:50,0,0
17:55,0,0
18:00,0,0
18:05,0,0
18:10,0,0
18:15,0,0
18:20,0,0
18:25,0,0
18:30,0,0
18:35,0,0
18:40,0,0
18:45,0,0
18:50,0,0
18:55,0,0
19:00,0,0
19:05,0,0
19:10,0,0
19:15,0,0
19:20,0,0
19:25,0,0
19:30,0,0
19:35,0,0
19:40,0,0
19:45,0,0
19:50,0,0
19:55,0,0
20:00,0,0
20:05,0,0
20:10,0,0
20:15,0,0
20:20,0,0
20:25,0,0
20:30,0,0
20:35,0,0
20:40,0,0
20:45,0,0
20:50,0,0
20:55,0,0
21:00,0,0
21:05,0,0
21:10,0,0
21:15,0,0
21:20,0,0
21:25,0,0
21:30,0,0
